# 1D ASCII output created by CarpetIOASCII
# created on nid00200 by miller1 on Feb 29 2016 at 18:19:15-0600
# parameter filename: "/scratch/sciteam/miller1/simulations/trunc_rho_bssn_dg8_gauge_wave_3D_rho_1_v2/output-0000/gauge_wave.par"
# Build ID: build-dgfe2-h2ologin1.ncsa.illinois.edu-miller1-2016.02.08-01.00.23-31758
# Simulation ID: run-gauge_wave-nid00200-miller1-2016.03.01-00.19.09-921
# Run ID: run-gauge_wave-nid00200-miller1-2016.03.01-00.19.09-921
#
# ADMBASE::SHIFT d (admbase-shift)
#
# iteration 0   time 0
# time level 0
# refinement level 0   multigrid level 0   map 0   component 0
# column format: 1:it	2:tl	3:rl 4:c 5:ml	6:ix 7:iy 8:iz	9:time	10:x 11:y 12:z	13:data
# data columns: 13:betax 14:betay 15:betaz
0	0 0 0 0	0 0 0	0	-0.5277777777777779 -0.5277777777777779 -0.5277777777777779	0 0 0
0	0 0 0 0	1 1 1	0	-0.47222222222222227 -0.47222222222222227 -0.47222222222222227	0 0 0
0	0 0 0 0	2 2 2	0	-0.41666666666666674 -0.41666666666666674 -0.41666666666666674	0 0 0
0	0 0 0 0	3 3 3	0	-0.36111111111111116 -0.36111111111111116 -0.36111111111111116	0 0 0
0	0 0 0 0	4 4 4	0	-0.30555555555555558 -0.30555555555555558 -0.30555555555555558	0 0 0
0	0 0 0 0	5 5 5	0	-0.25000000000000006 -0.25000000000000006 -0.25000000000000006	0 0 0
0	0 0 0 0	6 6 6	0	-0.19444444444444448 -0.19444444444444448 -0.19444444444444448	0 0 0
0	0 0 0 0	7 7 7	0	-0.13888888888888892 -0.13888888888888892 -0.13888888888888892	0 0 0
0	0 0 0 0	8 8 8	0	-0.083333333333333343 -0.083333333333333343 -0.083333333333333343	0 0 0
0	0 0 0 0	9 9 9	0	-0.027777777777777783 -0.027777777777777783 -0.027777777777777783	0 0 0
0	0 0 0 0	10 10 10	0	0.027777777777777783 0.027777777777777783 0.027777777777777783	0 0 0
#
#
#
#
#
#
#
#
#

# iteration 0   time 0
# time level 0
# refinement level 0   multigrid level 0   map 0   component 1
# column format: 1:it	2:tl	3:rl 4:c 5:ml	6:ix 7:iy 8:iz	9:time	10:x 11:y 12:z	13:data
# data columns: 13:betax 14:betay 15:betaz
#
#
#
#
#
#
#
#
#
0	0 0 1 0	9 9 9	0	-0.027777777777777783 -0.027777777777777783 -0.027777777777777783	0 0 0
0	0 0 1 0	10 10 10	0	0.027777777777777783 0.027777777777777783 0.027777777777777783	0 0 0
#
#
#
#
#
#
#
#
#

# iteration 0   time 0
# time level 0
# refinement level 0   multigrid level 0   map 0   component 2
# column format: 1:it	2:tl	3:rl 4:c 5:ml	6:ix 7:iy 8:iz	9:time	10:x 11:y 12:z	13:data
# data columns: 13:betax 14:betay 15:betaz
#
#
#
#
#
#
#
#
#
0	0 0 2 0	9 9 9	0	-0.027777777777777783 -0.027777777777777783 -0.027777777777777783	0 0 0
0	0 0 2 0	10 10 10	0	0.027777777777777783 0.027777777777777783 0.027777777777777783	0 0 0
#
#
#
#
#
#
#
#
#

# iteration 0   time 0
# time level 0
# refinement level 0   multigrid level 0   map 0   component 3
# column format: 1:it	2:tl	3:rl 4:c 5:ml	6:ix 7:iy 8:iz	9:time	10:x 11:y 12:z	13:data
# data columns: 13:betax 14:betay 15:betaz
#
#
#
#
#
#
#
#
#
0	0 0 3 0	9 9 9	0	-0.027777777777777783 -0.027777777777777783 -0.027777777777777783	0 0 0
0	0 0 3 0	10 10 10	0	0.027777777777777783 0.027777777777777783 0.027777777777777783	0 0 0
0	0 0 3 0	11 11 11	0	0.083333333333333343 0.083333333333333343 0.083333333333333343	0 0 0
0	0 0 3 0	12 12 12	0	0.13888888888888892 0.13888888888888892 0.13888888888888892	0 0 0
0	0 0 3 0	13 13 13	0	0.19444444444444448 0.19444444444444448 0.19444444444444448	0 0 0
0	0 0 3 0	14 14 14	0	0.25000000000000006 0.25000000000000006 0.25000000000000006	0 0 0
0	0 0 3 0	15 15 15	0	0.30555555555555558 0.30555555555555558 0.30555555555555558	0 0 0
0	0 0 3 0	16 16 16	0	0.36111111111111116 0.36111111111111116 0.36111111111111116	0 0 0
0	0 0 3 0	17 17 17	0	0.41666666666666674 0.41666666666666674 0.41666666666666674	0 0 0
0	0 0 3 0	18 18 18	0	0.47222222222222227 0.47222222222222227 0.47222222222222227	0 0 0
0	0 0 3 0	19 19 19	0	0.5277777777777779 0.5277777777777779 0.5277777777777779	0 0 0


# iteration 170   time 0.25000000000005557
# time level 0
# refinement level 0   multigrid level 0   map 0   component 0
# column format: 1:it	2:tl	3:rl 4:c 5:ml	6:ix 7:iy 8:iz	9:time	10:x 11:y 12:z	13:data
# data columns: 13:betax 14:betay 15:betaz
170	0 0 0 0	0 0 0	0.25000000000005557	-0.5277777777777779 -0.5277777777777779 -0.5277777777777779	0 0 0
170	0 0 0 0	1 1 1	0.25000000000005557	-0.47222222222222227 -0.47222222222222227 -0.47222222222222227	0 0 0
170	0 0 0 0	2 2 2	0.25000000000005557	-0.41666666666666674 -0.41666666666666674 -0.41666666666666674	0 0 0
170	0 0 0 0	3 3 3	0.25000000000005557	-0.36111111111111116 -0.36111111111111116 -0.36111111111111116	0 0 0
170	0 0 0 0	4 4 4	0.25000000000005557	-0.30555555555555558 -0.30555555555555558 -0.30555555555555558	0 0 0
170	0 0 0 0	5 5 5	0.25000000000005557	-0.25000000000000006 -0.25000000000000006 -0.25000000000000006	0 0 0
170	0 0 0 0	6 6 6	0.25000000000005557	-0.19444444444444448 -0.19444444444444448 -0.19444444444444448	0 0 0
170	0 0 0 0	7 7 7	0.25000000000005557	-0.13888888888888892 -0.13888888888888892 -0.13888888888888892	0 0 0
170	0 0 0 0	8 8 8	0.25000000000005557	-0.083333333333333343 -0.083333333333333343 -0.083333333333333343	0 0 0
170	0 0 0 0	9 9 9	0.25000000000005557	-0.027777777777777783 -0.027777777777777783 -0.027777777777777783	0 0 0
170	0 0 0 0	10 10 10	0.25000000000005557	0.027777777777777783 0.027777777777777783 0.027777777777777783	0 0 0
#
#
#
#
#
#
#
#
#

# iteration 170   time 0.25000000000005557
# time level 0
# refinement level 0   multigrid level 0   map 0   component 1
# column format: 1:it	2:tl	3:rl 4:c 5:ml	6:ix 7:iy 8:iz	9:time	10:x 11:y 12:z	13:data
# data columns: 13:betax 14:betay 15:betaz
#
#
#
#
#
#
#
#
#
170	0 0 1 0	9 9 9	0.25000000000005557	-0.027777777777777783 -0.027777777777777783 -0.027777777777777783	0 0 0
170	0 0 1 0	10 10 10	0.25000000000005557	0.027777777777777783 0.027777777777777783 0.027777777777777783	0 0 0
#
#
#
#
#
#
#
#
#

# iteration 170   time 0.25000000000005557
# time level 0
# refinement level 0   multigrid level 0   map 0   component 2
# column format: 1:it	2:tl	3:rl 4:c 5:ml	6:ix 7:iy 8:iz	9:time	10:x 11:y 12:z	13:data
# data columns: 13:betax 14:betay 15:betaz
#
#
#
#
#
#
#
#
#
170	0 0 2 0	9 9 9	0.25000000000005557	-0.027777777777777783 -0.027777777777777783 -0.027777777777777783	0 0 0
170	0 0 2 0	10 10 10	0.25000000000005557	0.027777777777777783 0.027777777777777783 0.027777777777777783	0 0 0
#
#
#
#
#
#
#
#
#

# iteration 170   time 0.25000000000005557
# time level 0
# refinement level 0   multigrid level 0   map 0   component 3
# column format: 1:it	2:tl	3:rl 4:c 5:ml	6:ix 7:iy 8:iz	9:time	10:x 11:y 12:z	13:data
# data columns: 13:betax 14:betay 15:betaz
#
#
#
#
#
#
#
#
#
170	0 0 3 0	9 9 9	0.25000000000005557	-0.027777777777777783 -0.027777777777777783 -0.027777777777777783	0 0 0
170	0 0 3 0	10 10 10	0.25000000000005557	0.027777777777777783 0.027777777777777783 0.027777777777777783	0 0 0
170	0 0 3 0	11 11 11	0.25000000000005557	0.083333333333333343 0.083333333333333343 0.083333333333333343	0 0 0
170	0 0 3 0	12 12 12	0.25000000000005557	0.13888888888888892 0.13888888888888892 0.13888888888888892	0 0 0
170	0 0 3 0	13 13 13	0.25000000000005557	0.19444444444444448 0.19444444444444448 0.19444444444444448	0 0 0
170	0 0 3 0	14 14 14	0.25000000000005557	0.25000000000000006 0.25000000000000006 0.25000000000000006	0 0 0
170	0 0 3 0	15 15 15	0.25000000000005557	0.30555555555555558 0.30555555555555558 0.30555555555555558	0 0 0
170	0 0 3 0	16 16 16	0.25000000000005557	0.36111111111111116 0.36111111111111116 0.36111111111111116	0 0 0
170	0 0 3 0	17 17 17	0.25000000000005557	0.41666666666666674 0.41666666666666674 0.41666666666666674	0 0 0
170	0 0 3 0	18 18 18	0.25000000000005557	0.47222222222222227 0.47222222222222227 0.47222222222222227	0 0 0
170	0 0 3 0	19 19 19	0.25000000000005557	0.5277777777777779 0.5277777777777779 0.5277777777777779	0 0 0


# iteration 340   time 0.50000000000011113
# time level 0
# refinement level 0   multigrid level 0   map 0   component 0
# column format: 1:it	2:tl	3:rl 4:c 5:ml	6:ix 7:iy 8:iz	9:time	10:x 11:y 12:z	13:data
# data columns: 13:betax 14:betay 15:betaz
340	0 0 0 0	0 0 0	0.50000000000011113	-0.5277777777777779 -0.5277777777777779 -0.5277777777777779	0 0 0
340	0 0 0 0	1 1 1	0.50000000000011113	-0.47222222222222227 -0.47222222222222227 -0.47222222222222227	0 0 0
340	0 0 0 0	2 2 2	0.50000000000011113	-0.41666666666666674 -0.41666666666666674 -0.41666666666666674	0 0 0
340	0 0 0 0	3 3 3	0.50000000000011113	-0.36111111111111116 -0.36111111111111116 -0.36111111111111116	0 0 0
340	0 0 0 0	4 4 4	0.50000000000011113	-0.30555555555555558 -0.30555555555555558 -0.30555555555555558	0 0 0
340	0 0 0 0	5 5 5	0.50000000000011113	-0.25000000000000006 -0.25000000000000006 -0.25000000000000006	0 0 0
340	0 0 0 0	6 6 6	0.50000000000011113	-0.19444444444444448 -0.19444444444444448 -0.19444444444444448	0 0 0
340	0 0 0 0	7 7 7	0.50000000000011113	-0.13888888888888892 -0.13888888888888892 -0.13888888888888892	0 0 0
340	0 0 0 0	8 8 8	0.50000000000011113	-0.083333333333333343 -0.083333333333333343 -0.083333333333333343	0 0 0
340	0 0 0 0	9 9 9	0.50000000000011113	-0.027777777777777783 -0.027777777777777783 -0.027777777777777783	0 0 0
340	0 0 0 0	10 10 10	0.50000000000011113	0.027777777777777783 0.027777777777777783 0.027777777777777783	0 0 0
#
#
#
#
#
#
#
#
#

# iteration 340   time 0.50000000000011113
# time level 0
# refinement level 0   multigrid level 0   map 0   component 1
# column format: 1:it	2:tl	3:rl 4:c 5:ml	6:ix 7:iy 8:iz	9:time	10:x 11:y 12:z	13:data
# data columns: 13:betax 14:betay 15:betaz
#
#
#
#
#
#
#
#
#
340	0 0 1 0	9 9 9	0.50000000000011113	-0.027777777777777783 -0.027777777777777783 -0.027777777777777783	0 0 0
340	0 0 1 0	10 10 10	0.50000000000011113	0.027777777777777783 0.027777777777777783 0.027777777777777783	0 0 0
#
#
#
#
#
#
#
#
#

# iteration 340   time 0.50000000000011113
# time level 0
# refinement level 0   multigrid level 0   map 0   component 2
# column format: 1:it	2:tl	3:rl 4:c 5:ml	6:ix 7:iy 8:iz	9:time	10:x 11:y 12:z	13:data
# data columns: 13:betax 14:betay 15:betaz
#
#
#
#
#
#
#
#
#
340	0 0 2 0	9 9 9	0.50000000000011113	-0.027777777777777783 -0.027777777777777783 -0.027777777777777783	0 0 0
340	0 0 2 0	10 10 10	0.50000000000011113	0.027777777777777783 0.027777777777777783 0.027777777777777783	0 0 0
#
#
#
#
#
#
#
#
#

# iteration 340   time 0.50000000000011113
# time level 0
# refinement level 0   multigrid level 0   map 0   component 3
# column format: 1:it	2:tl	3:rl 4:c 5:ml	6:ix 7:iy 8:iz	9:time	10:x 11:y 12:z	13:data
# data columns: 13:betax 14:betay 15:betaz
#
#
#
#
#
#
#
#
#
340	0 0 3 0	9 9 9	0.50000000000011113	-0.027777777777777783 -0.027777777777777783 -0.027777777777777783	0 0 0
340	0 0 3 0	10 10 10	0.50000000000011113	0.027777777777777783 0.027777777777777783 0.027777777777777783	0 0 0
340	0 0 3 0	11 11 11	0.50000000000011113	0.083333333333333343 0.083333333333333343 0.083333333333333343	0 0 0
340	0 0 3 0	12 12 12	0.50000000000011113	0.13888888888888892 0.13888888888888892 0.13888888888888892	0 0 0
340	0 0 3 0	13 13 13	0.50000000000011113	0.19444444444444448 0.19444444444444448 0.19444444444444448	0 0 0
340	0 0 3 0	14 14 14	0.50000000000011113	0.25000000000000006 0.25000000000000006 0.25000000000000006	0 0 0
340	0 0 3 0	15 15 15	0.50000000000011113	0.30555555555555558 0.30555555555555558 0.30555555555555558	0 0 0
340	0 0 3 0	16 16 16	0.50000000000011113	0.36111111111111116 0.36111111111111116 0.36111111111111116	0 0 0
340	0 0 3 0	17 17 17	0.50000000000011113	0.41666666666666674 0.41666666666666674 0.41666666666666674	0 0 0
340	0 0 3 0	18 18 18	0.50000000000011113	0.47222222222222227 0.47222222222222227 0.47222222222222227	0 0 0
340	0 0 3 0	19 19 19	0.50000000000011113	0.5277777777777779 0.5277777777777779 0.5277777777777779	0 0 0


# iteration 510   time 0.75000000000016664
# time level 0
# refinement level 0   multigrid level 0   map 0   component 0
# column format: 1:it	2:tl	3:rl 4:c 5:ml	6:ix 7:iy 8:iz	9:time	10:x 11:y 12:z	13:data
# data columns: 13:betax 14:betay 15:betaz
510	0 0 0 0	0 0 0	0.75000000000016664	-0.5277777777777779 -0.5277777777777779 -0.5277777777777779	0 0 0
510	0 0 0 0	1 1 1	0.75000000000016664	-0.47222222222222227 -0.47222222222222227 -0.47222222222222227	0 0 0
510	0 0 0 0	2 2 2	0.75000000000016664	-0.41666666666666674 -0.41666666666666674 -0.41666666666666674	0 0 0
510	0 0 0 0	3 3 3	0.75000000000016664	-0.36111111111111116 -0.36111111111111116 -0.36111111111111116	0 0 0
510	0 0 0 0	4 4 4	0.75000000000016664	-0.30555555555555558 -0.30555555555555558 -0.30555555555555558	0 0 0
510	0 0 0 0	5 5 5	0.75000000000016664	-0.25000000000000006 -0.25000000000000006 -0.25000000000000006	0 0 0
510	0 0 0 0	6 6 6	0.75000000000016664	-0.19444444444444448 -0.19444444444444448 -0.19444444444444448	0 0 0
510	0 0 0 0	7 7 7	0.75000000000016664	-0.13888888888888892 -0.13888888888888892 -0.13888888888888892	0 0 0
510	0 0 0 0	8 8 8	0.75000000000016664	-0.083333333333333343 -0.083333333333333343 -0.083333333333333343	0 0 0
510	0 0 0 0	9 9 9	0.75000000000016664	-0.027777777777777783 -0.027777777777777783 -0.027777777777777783	0 0 0
510	0 0 0 0	10 10 10	0.75000000000016664	0.027777777777777783 0.027777777777777783 0.027777777777777783	0 0 0
#
#
#
#
#
#
#
#
#

# iteration 510   time 0.75000000000016664
# time level 0
# refinement level 0   multigrid level 0   map 0   component 1
# column format: 1:it	2:tl	3:rl 4:c 5:ml	6:ix 7:iy 8:iz	9:time	10:x 11:y 12:z	13:data
# data columns: 13:betax 14:betay 15:betaz
#
#
#
#
#
#
#
#
#
510	0 0 1 0	9 9 9	0.75000000000016664	-0.027777777777777783 -0.027777777777777783 -0.027777777777777783	0 0 0
510	0 0 1 0	10 10 10	0.75000000000016664	0.027777777777777783 0.027777777777777783 0.027777777777777783	0 0 0
#
#
#
#
#
#
#
#
#

# iteration 510   time 0.75000000000016664
# time level 0
# refinement level 0   multigrid level 0   map 0   component 2
# column format: 1:it	2:tl	3:rl 4:c 5:ml	6:ix 7:iy 8:iz	9:time	10:x 11:y 12:z	13:data
# data columns: 13:betax 14:betay 15:betaz
#
#
#
#
#
#
#
#
#
510	0 0 2 0	9 9 9	0.75000000000016664	-0.027777777777777783 -0.027777777777777783 -0.027777777777777783	0 0 0
510	0 0 2 0	10 10 10	0.75000000000016664	0.027777777777777783 0.027777777777777783 0.027777777777777783	0 0 0
#
#
#
#
#
#
#
#
#

# iteration 510   time 0.75000000000016664
# time level 0
# refinement level 0   multigrid level 0   map 0   component 3
# column format: 1:it	2:tl	3:rl 4:c 5:ml	6:ix 7:iy 8:iz	9:time	10:x 11:y 12:z	13:data
# data columns: 13:betax 14:betay 15:betaz
#
#
#
#
#
#
#
#
#
510	0 0 3 0	9 9 9	0.75000000000016664	-0.027777777777777783 -0.027777777777777783 -0.027777777777777783	0 0 0
510	0 0 3 0	10 10 10	0.75000000000016664	0.027777777777777783 0.027777777777777783 0.027777777777777783	0 0 0
510	0 0 3 0	11 11 11	0.75000000000016664	0.083333333333333343 0.083333333333333343 0.083333333333333343	0 0 0
510	0 0 3 0	12 12 12	0.75000000000016664	0.13888888888888892 0.13888888888888892 0.13888888888888892	0 0 0
510	0 0 3 0	13 13 13	0.75000000000016664	0.19444444444444448 0.19444444444444448 0.19444444444444448	0 0 0
510	0 0 3 0	14 14 14	0.75000000000016664	0.25000000000000006 0.25000000000000006 0.25000000000000006	0 0 0
510	0 0 3 0	15 15 15	0.75000000000016664	0.30555555555555558 0.30555555555555558 0.30555555555555558	0 0 0
510	0 0 3 0	16 16 16	0.75000000000016664	0.36111111111111116 0.36111111111111116 0.36111111111111116	0 0 0
510	0 0 3 0	17 17 17	0.75000000000016664	0.41666666666666674 0.41666666666666674 0.41666666666666674	0 0 0
510	0 0 3 0	18 18 18	0.75000000000016664	0.47222222222222227 0.47222222222222227 0.47222222222222227	0 0 0
510	0 0 3 0	19 19 19	0.75000000000016664	0.5277777777777779 0.5277777777777779 0.5277777777777779	0 0 0


# iteration 680   time 1.0000000000002223
# time level 0
# refinement level 0   multigrid level 0   map 0   component 0
# column format: 1:it	2:tl	3:rl 4:c 5:ml	6:ix 7:iy 8:iz	9:time	10:x 11:y 12:z	13:data
# data columns: 13:betax 14:betay 15:betaz
680	0 0 0 0	0 0 0	1.0000000000002223	-0.5277777777777779 -0.5277777777777779 -0.5277777777777779	0 0 0
680	0 0 0 0	1 1 1	1.0000000000002223	-0.47222222222222227 -0.47222222222222227 -0.47222222222222227	0 0 0
680	0 0 0 0	2 2 2	1.0000000000002223	-0.41666666666666674 -0.41666666666666674 -0.41666666666666674	0 0 0
680	0 0 0 0	3 3 3	1.0000000000002223	-0.36111111111111116 -0.36111111111111116 -0.36111111111111116	0 0 0
680	0 0 0 0	4 4 4	1.0000000000002223	-0.30555555555555558 -0.30555555555555558 -0.30555555555555558	0 0 0
680	0 0 0 0	5 5 5	1.0000000000002223	-0.25000000000000006 -0.25000000000000006 -0.25000000000000006	0 0 0
680	0 0 0 0	6 6 6	1.0000000000002223	-0.19444444444444448 -0.19444444444444448 -0.19444444444444448	0 0 0
680	0 0 0 0	7 7 7	1.0000000000002223	-0.13888888888888892 -0.13888888888888892 -0.13888888888888892	0 0 0
680	0 0 0 0	8 8 8	1.0000000000002223	-0.083333333333333343 -0.083333333333333343 -0.083333333333333343	0 0 0
680	0 0 0 0	9 9 9	1.0000000000002223	-0.027777777777777783 -0.027777777777777783 -0.027777777777777783	0 0 0
680	0 0 0 0	10 10 10	1.0000000000002223	0.027777777777777783 0.027777777777777783 0.027777777777777783	0 0 0
#
#
#
#
#
#
#
#
#

# iteration 680   time 1.0000000000002223
# time level 0
# refinement level 0   multigrid level 0   map 0   component 1
# column format: 1:it	2:tl	3:rl 4:c 5:ml	6:ix 7:iy 8:iz	9:time	10:x 11:y 12:z	13:data
# data columns: 13:betax 14:betay 15:betaz
#
#
#
#
#
#
#
#
#
680	0 0 1 0	9 9 9	1.0000000000002223	-0.027777777777777783 -0.027777777777777783 -0.027777777777777783	0 0 0
680	0 0 1 0	10 10 10	1.0000000000002223	0.027777777777777783 0.027777777777777783 0.027777777777777783	0 0 0
#
#
#
#
#
#
#
#
#

# iteration 680   time 1.0000000000002223
# time level 0
# refinement level 0   multigrid level 0   map 0   component 2
# column format: 1:it	2:tl	3:rl 4:c 5:ml	6:ix 7:iy 8:iz	9:time	10:x 11:y 12:z	13:data
# data columns: 13:betax 14:betay 15:betaz
#
#
#
#
#
#
#
#
#
680	0 0 2 0	9 9 9	1.0000000000002223	-0.027777777777777783 -0.027777777777777783 -0.027777777777777783	0 0 0
680	0 0 2 0	10 10 10	1.0000000000002223	0.027777777777777783 0.027777777777777783 0.027777777777777783	0 0 0
#
#
#
#
#
#
#
#
#

# iteration 680   time 1.0000000000002223
# time level 0
# refinement level 0   multigrid level 0   map 0   component 3
# column format: 1:it	2:tl	3:rl 4:c 5:ml	6:ix 7:iy 8:iz	9:time	10:x 11:y 12:z	13:data
# data columns: 13:betax 14:betay 15:betaz
#
#
#
#
#
#
#
#
#
680	0 0 3 0	9 9 9	1.0000000000002223	-0.027777777777777783 -0.027777777777777783 -0.027777777777777783	0 0 0
680	0 0 3 0	10 10 10	1.0000000000002223	0.027777777777777783 0.027777777777777783 0.027777777777777783	0 0 0
680	0 0 3 0	11 11 11	1.0000000000002223	0.083333333333333343 0.083333333333333343 0.083333333333333343	0 0 0
680	0 0 3 0	12 12 12	1.0000000000002223	0.13888888888888892 0.13888888888888892 0.13888888888888892	0 0 0
680	0 0 3 0	13 13 13	1.0000000000002223	0.19444444444444448 0.19444444444444448 0.19444444444444448	0 0 0
680	0 0 3 0	14 14 14	1.0000000000002223	0.25000000000000006 0.25000000000000006 0.25000000000000006	0 0 0
680	0 0 3 0	15 15 15	1.0000000000002223	0.30555555555555558 0.30555555555555558 0.30555555555555558	0 0 0
680	0 0 3 0	16 16 16	1.0000000000002223	0.36111111111111116 0.36111111111111116 0.36111111111111116	0 0 0
680	0 0 3 0	17 17 17	1.0000000000002223	0.41666666666666674 0.41666666666666674 0.41666666666666674	0 0 0
680	0 0 3 0	18 18 18	1.0000000000002223	0.47222222222222227 0.47222222222222227 0.47222222222222227	0 0 0
680	0 0 3 0	19 19 19	1.0000000000002223	0.5277777777777779 0.5277777777777779 0.5277777777777779	0 0 0


# iteration 850   time 1.2500000000002778
# time level 0
# refinement level 0   multigrid level 0   map 0   component 0
# column format: 1:it	2:tl	3:rl 4:c 5:ml	6:ix 7:iy 8:iz	9:time	10:x 11:y 12:z	13:data
# data columns: 13:betax 14:betay 15:betaz
850	0 0 0 0	0 0 0	1.2500000000002778	-0.5277777777777779 -0.5277777777777779 -0.5277777777777779	0 0 0
850	0 0 0 0	1 1 1	1.2500000000002778	-0.47222222222222227 -0.47222222222222227 -0.47222222222222227	0 0 0
850	0 0 0 0	2 2 2	1.2500000000002778	-0.41666666666666674 -0.41666666666666674 -0.41666666666666674	0 0 0
850	0 0 0 0	3 3 3	1.2500000000002778	-0.36111111111111116 -0.36111111111111116 -0.36111111111111116	0 0 0
850	0 0 0 0	4 4 4	1.2500000000002778	-0.30555555555555558 -0.30555555555555558 -0.30555555555555558	0 0 0
850	0 0 0 0	5 5 5	1.2500000000002778	-0.25000000000000006 -0.25000000000000006 -0.25000000000000006	0 0 0
850	0 0 0 0	6 6 6	1.2500000000002778	-0.19444444444444448 -0.19444444444444448 -0.19444444444444448	0 0 0
850	0 0 0 0	7 7 7	1.2500000000002778	-0.13888888888888892 -0.13888888888888892 -0.13888888888888892	0 0 0
850	0 0 0 0	8 8 8	1.2500000000002778	-0.083333333333333343 -0.083333333333333343 -0.083333333333333343	0 0 0
850	0 0 0 0	9 9 9	1.2500000000002778	-0.027777777777777783 -0.027777777777777783 -0.027777777777777783	0 0 0
850	0 0 0 0	10 10 10	1.2500000000002778	0.027777777777777783 0.027777777777777783 0.027777777777777783	0 0 0
#
#
#
#
#
#
#
#
#

# iteration 850   time 1.2500000000002778
# time level 0
# refinement level 0   multigrid level 0   map 0   component 1
# column format: 1:it	2:tl	3:rl 4:c 5:ml	6:ix 7:iy 8:iz	9:time	10:x 11:y 12:z	13:data
# data columns: 13:betax 14:betay 15:betaz
#
#
#
#
#
#
#
#
#
850	0 0 1 0	9 9 9	1.2500000000002778	-0.027777777777777783 -0.027777777777777783 -0.027777777777777783	0 0 0
850	0 0 1 0	10 10 10	1.2500000000002778	0.027777777777777783 0.027777777777777783 0.027777777777777783	0 0 0
#
#
#
#
#
#
#
#
#

# iteration 850   time 1.2500000000002778
# time level 0
# refinement level 0   multigrid level 0   map 0   component 2
# column format: 1:it	2:tl	3:rl 4:c 5:ml	6:ix 7:iy 8:iz	9:time	10:x 11:y 12:z	13:data
# data columns: 13:betax 14:betay 15:betaz
#
#
#
#
#
#
#
#
#
850	0 0 2 0	9 9 9	1.2500000000002778	-0.027777777777777783 -0.027777777777777783 -0.027777777777777783	0 0 0
850	0 0 2 0	10 10 10	1.2500000000002778	0.027777777777777783 0.027777777777777783 0.027777777777777783	0 0 0
#
#
#
#
#
#
#
#
#

# iteration 850   time 1.2500000000002778
# time level 0
# refinement level 0   multigrid level 0   map 0   component 3
# column format: 1:it	2:tl	3:rl 4:c 5:ml	6:ix 7:iy 8:iz	9:time	10:x 11:y 12:z	13:data
# data columns: 13:betax 14:betay 15:betaz
#
#
#
#
#
#
#
#
#
850	0 0 3 0	9 9 9	1.2500000000002778	-0.027777777777777783 -0.027777777777777783 -0.027777777777777783	0 0 0
850	0 0 3 0	10 10 10	1.2500000000002778	0.027777777777777783 0.027777777777777783 0.027777777777777783	0 0 0
850	0 0 3 0	11 11 11	1.2500000000002778	0.083333333333333343 0.083333333333333343 0.083333333333333343	0 0 0
850	0 0 3 0	12 12 12	1.2500000000002778	0.13888888888888892 0.13888888888888892 0.13888888888888892	0 0 0
850	0 0 3 0	13 13 13	1.2500000000002778	0.19444444444444448 0.19444444444444448 0.19444444444444448	0 0 0
850	0 0 3 0	14 14 14	1.2500000000002778	0.25000000000000006 0.25000000000000006 0.25000000000000006	0 0 0
850	0 0 3 0	15 15 15	1.2500000000002778	0.30555555555555558 0.30555555555555558 0.30555555555555558	0 0 0
850	0 0 3 0	16 16 16	1.2500000000002778	0.36111111111111116 0.36111111111111116 0.36111111111111116	0 0 0
850	0 0 3 0	17 17 17	1.2500000000002778	0.41666666666666674 0.41666666666666674 0.41666666666666674	0 0 0
850	0 0 3 0	18 18 18	1.2500000000002778	0.47222222222222227 0.47222222222222227 0.47222222222222227	0 0 0
850	0 0 3 0	19 19 19	1.2500000000002778	0.5277777777777779 0.5277777777777779 0.5277777777777779	0 0 0


# iteration 1020   time 1.5000000000003333
# time level 0
# refinement level 0   multigrid level 0   map 0   component 0
# column format: 1:it	2:tl	3:rl 4:c 5:ml	6:ix 7:iy 8:iz	9:time	10:x 11:y 12:z	13:data
# data columns: 13:betax 14:betay 15:betaz
1020	0 0 0 0	0 0 0	1.5000000000003333	-0.5277777777777779 -0.5277777777777779 -0.5277777777777779	0 0 0
1020	0 0 0 0	1 1 1	1.5000000000003333	-0.47222222222222227 -0.47222222222222227 -0.47222222222222227	0 0 0
1020	0 0 0 0	2 2 2	1.5000000000003333	-0.41666666666666674 -0.41666666666666674 -0.41666666666666674	0 0 0
1020	0 0 0 0	3 3 3	1.5000000000003333	-0.36111111111111116 -0.36111111111111116 -0.36111111111111116	0 0 0
1020	0 0 0 0	4 4 4	1.5000000000003333	-0.30555555555555558 -0.30555555555555558 -0.30555555555555558	0 0 0
1020	0 0 0 0	5 5 5	1.5000000000003333	-0.25000000000000006 -0.25000000000000006 -0.25000000000000006	0 0 0
1020	0 0 0 0	6 6 6	1.5000000000003333	-0.19444444444444448 -0.19444444444444448 -0.19444444444444448	0 0 0
1020	0 0 0 0	7 7 7	1.5000000000003333	-0.13888888888888892 -0.13888888888888892 -0.13888888888888892	0 0 0
1020	0 0 0 0	8 8 8	1.5000000000003333	-0.083333333333333343 -0.083333333333333343 -0.083333333333333343	0 0 0
1020	0 0 0 0	9 9 9	1.5000000000003333	-0.027777777777777783 -0.027777777777777783 -0.027777777777777783	0 0 0
1020	0 0 0 0	10 10 10	1.5000000000003333	0.027777777777777783 0.027777777777777783 0.027777777777777783	0 0 0
#
#
#
#
#
#
#
#
#

# iteration 1020   time 1.5000000000003333
# time level 0
# refinement level 0   multigrid level 0   map 0   component 1
# column format: 1:it	2:tl	3:rl 4:c 5:ml	6:ix 7:iy 8:iz	9:time	10:x 11:y 12:z	13:data
# data columns: 13:betax 14:betay 15:betaz
#
#
#
#
#
#
#
#
#
1020	0 0 1 0	9 9 9	1.5000000000003333	-0.027777777777777783 -0.027777777777777783 -0.027777777777777783	0 0 0
1020	0 0 1 0	10 10 10	1.5000000000003333	0.027777777777777783 0.027777777777777783 0.027777777777777783	0 0 0
#
#
#
#
#
#
#
#
#

# iteration 1020   time 1.5000000000003333
# time level 0
# refinement level 0   multigrid level 0   map 0   component 2
# column format: 1:it	2:tl	3:rl 4:c 5:ml	6:ix 7:iy 8:iz	9:time	10:x 11:y 12:z	13:data
# data columns: 13:betax 14:betay 15:betaz
#
#
#
#
#
#
#
#
#
1020	0 0 2 0	9 9 9	1.5000000000003333	-0.027777777777777783 -0.027777777777777783 -0.027777777777777783	0 0 0
1020	0 0 2 0	10 10 10	1.5000000000003333	0.027777777777777783 0.027777777777777783 0.027777777777777783	0 0 0
#
#
#
#
#
#
#
#
#

# iteration 1020   time 1.5000000000003333
# time level 0
# refinement level 0   multigrid level 0   map 0   component 3
# column format: 1:it	2:tl	3:rl 4:c 5:ml	6:ix 7:iy 8:iz	9:time	10:x 11:y 12:z	13:data
# data columns: 13:betax 14:betay 15:betaz
#
#
#
#
#
#
#
#
#
1020	0 0 3 0	9 9 9	1.5000000000003333	-0.027777777777777783 -0.027777777777777783 -0.027777777777777783	0 0 0
1020	0 0 3 0	10 10 10	1.5000000000003333	0.027777777777777783 0.027777777777777783 0.027777777777777783	0 0 0
1020	0 0 3 0	11 11 11	1.5000000000003333	0.083333333333333343 0.083333333333333343 0.083333333333333343	0 0 0
1020	0 0 3 0	12 12 12	1.5000000000003333	0.13888888888888892 0.13888888888888892 0.13888888888888892	0 0 0
1020	0 0 3 0	13 13 13	1.5000000000003333	0.19444444444444448 0.19444444444444448 0.19444444444444448	0 0 0
1020	0 0 3 0	14 14 14	1.5000000000003333	0.25000000000000006 0.25000000000000006 0.25000000000000006	0 0 0
1020	0 0 3 0	15 15 15	1.5000000000003333	0.30555555555555558 0.30555555555555558 0.30555555555555558	0 0 0
1020	0 0 3 0	16 16 16	1.5000000000003333	0.36111111111111116 0.36111111111111116 0.36111111111111116	0 0 0
1020	0 0 3 0	17 17 17	1.5000000000003333	0.41666666666666674 0.41666666666666674 0.41666666666666674	0 0 0
1020	0 0 3 0	18 18 18	1.5000000000003333	0.47222222222222227 0.47222222222222227 0.47222222222222227	0 0 0
1020	0 0 3 0	19 19 19	1.5000000000003333	0.5277777777777779 0.5277777777777779 0.5277777777777779	0 0 0


# iteration 1190   time 1.7500000000003888
# time level 0
# refinement level 0   multigrid level 0   map 0   component 0
# column format: 1:it	2:tl	3:rl 4:c 5:ml	6:ix 7:iy 8:iz	9:time	10:x 11:y 12:z	13:data
# data columns: 13:betax 14:betay 15:betaz
1190	0 0 0 0	0 0 0	1.7500000000003888	-0.5277777777777779 -0.5277777777777779 -0.5277777777777779	0 0 0
1190	0 0 0 0	1 1 1	1.7500000000003888	-0.47222222222222227 -0.47222222222222227 -0.47222222222222227	0 0 0
1190	0 0 0 0	2 2 2	1.7500000000003888	-0.41666666666666674 -0.41666666666666674 -0.41666666666666674	0 0 0
1190	0 0 0 0	3 3 3	1.7500000000003888	-0.36111111111111116 -0.36111111111111116 -0.36111111111111116	0 0 0
1190	0 0 0 0	4 4 4	1.7500000000003888	-0.30555555555555558 -0.30555555555555558 -0.30555555555555558	0 0 0
1190	0 0 0 0	5 5 5	1.7500000000003888	-0.25000000000000006 -0.25000000000000006 -0.25000000000000006	0 0 0
1190	0 0 0 0	6 6 6	1.7500000000003888	-0.19444444444444448 -0.19444444444444448 -0.19444444444444448	0 0 0
1190	0 0 0 0	7 7 7	1.7500000000003888	-0.13888888888888892 -0.13888888888888892 -0.13888888888888892	0 0 0
1190	0 0 0 0	8 8 8	1.7500000000003888	-0.083333333333333343 -0.083333333333333343 -0.083333333333333343	0 0 0
1190	0 0 0 0	9 9 9	1.7500000000003888	-0.027777777777777783 -0.027777777777777783 -0.027777777777777783	0 0 0
1190	0 0 0 0	10 10 10	1.7500000000003888	0.027777777777777783 0.027777777777777783 0.027777777777777783	0 0 0
#
#
#
#
#
#
#
#
#

# iteration 1190   time 1.7500000000003888
# time level 0
# refinement level 0   multigrid level 0   map 0   component 1
# column format: 1:it	2:tl	3:rl 4:c 5:ml	6:ix 7:iy 8:iz	9:time	10:x 11:y 12:z	13:data
# data columns: 13:betax 14:betay 15:betaz
#
#
#
#
#
#
#
#
#
1190	0 0 1 0	9 9 9	1.7500000000003888	-0.027777777777777783 -0.027777777777777783 -0.027777777777777783	0 0 0
1190	0 0 1 0	10 10 10	1.7500000000003888	0.027777777777777783 0.027777777777777783 0.027777777777777783	0 0 0
#
#
#
#
#
#
#
#
#

# iteration 1190   time 1.7500000000003888
# time level 0
# refinement level 0   multigrid level 0   map 0   component 2
# column format: 1:it	2:tl	3:rl 4:c 5:ml	6:ix 7:iy 8:iz	9:time	10:x 11:y 12:z	13:data
# data columns: 13:betax 14:betay 15:betaz
#
#
#
#
#
#
#
#
#
1190	0 0 2 0	9 9 9	1.7500000000003888	-0.027777777777777783 -0.027777777777777783 -0.027777777777777783	0 0 0
1190	0 0 2 0	10 10 10	1.7500000000003888	0.027777777777777783 0.027777777777777783 0.027777777777777783	0 0 0
#
#
#
#
#
#
#
#
#

# iteration 1190   time 1.7500000000003888
# time level 0
# refinement level 0   multigrid level 0   map 0   component 3
# column format: 1:it	2:tl	3:rl 4:c 5:ml	6:ix 7:iy 8:iz	9:time	10:x 11:y 12:z	13:data
# data columns: 13:betax 14:betay 15:betaz
#
#
#
#
#
#
#
#
#
1190	0 0 3 0	9 9 9	1.7500000000003888	-0.027777777777777783 -0.027777777777777783 -0.027777777777777783	0 0 0
1190	0 0 3 0	10 10 10	1.7500000000003888	0.027777777777777783 0.027777777777777783 0.027777777777777783	0 0 0
1190	0 0 3 0	11 11 11	1.7500000000003888	0.083333333333333343 0.083333333333333343 0.083333333333333343	0 0 0
1190	0 0 3 0	12 12 12	1.7500000000003888	0.13888888888888892 0.13888888888888892 0.13888888888888892	0 0 0
1190	0 0 3 0	13 13 13	1.7500000000003888	0.19444444444444448 0.19444444444444448 0.19444444444444448	0 0 0
1190	0 0 3 0	14 14 14	1.7500000000003888	0.25000000000000006 0.25000000000000006 0.25000000000000006	0 0 0
1190	0 0 3 0	15 15 15	1.7500000000003888	0.30555555555555558 0.30555555555555558 0.30555555555555558	0 0 0
1190	0 0 3 0	16 16 16	1.7500000000003888	0.36111111111111116 0.36111111111111116 0.36111111111111116	0 0 0
1190	0 0 3 0	17 17 17	1.7500000000003888	0.41666666666666674 0.41666666666666674 0.41666666666666674	0 0 0
1190	0 0 3 0	18 18 18	1.7500000000003888	0.47222222222222227 0.47222222222222227 0.47222222222222227	0 0 0
1190	0 0 3 0	19 19 19	1.7500000000003888	0.5277777777777779 0.5277777777777779 0.5277777777777779	0 0 0


# iteration 1360   time 2.0000000000004445
# time level 0
# refinement level 0   multigrid level 0   map 0   component 0
# column format: 1:it	2:tl	3:rl 4:c 5:ml	6:ix 7:iy 8:iz	9:time	10:x 11:y 12:z	13:data
# data columns: 13:betax 14:betay 15:betaz
1360	0 0 0 0	0 0 0	2.0000000000004445	-0.5277777777777779 -0.5277777777777779 -0.5277777777777779	0 0 0
1360	0 0 0 0	1 1 1	2.0000000000004445	-0.47222222222222227 -0.47222222222222227 -0.47222222222222227	0 0 0
1360	0 0 0 0	2 2 2	2.0000000000004445	-0.41666666666666674 -0.41666666666666674 -0.41666666666666674	0 0 0
1360	0 0 0 0	3 3 3	2.0000000000004445	-0.36111111111111116 -0.36111111111111116 -0.36111111111111116	0 0 0
1360	0 0 0 0	4 4 4	2.0000000000004445	-0.30555555555555558 -0.30555555555555558 -0.30555555555555558	0 0 0
1360	0 0 0 0	5 5 5	2.0000000000004445	-0.25000000000000006 -0.25000000000000006 -0.25000000000000006	0 0 0
1360	0 0 0 0	6 6 6	2.0000000000004445	-0.19444444444444448 -0.19444444444444448 -0.19444444444444448	0 0 0
1360	0 0 0 0	7 7 7	2.0000000000004445	-0.13888888888888892 -0.13888888888888892 -0.13888888888888892	0 0 0
1360	0 0 0 0	8 8 8	2.0000000000004445	-0.083333333333333343 -0.083333333333333343 -0.083333333333333343	0 0 0
1360	0 0 0 0	9 9 9	2.0000000000004445	-0.027777777777777783 -0.027777777777777783 -0.027777777777777783	0 0 0
1360	0 0 0 0	10 10 10	2.0000000000004445	0.027777777777777783 0.027777777777777783 0.027777777777777783	0 0 0
#
#
#
#
#
#
#
#
#

# iteration 1360   time 2.0000000000004445
# time level 0
# refinement level 0   multigrid level 0   map 0   component 1
# column format: 1:it	2:tl	3:rl 4:c 5:ml	6:ix 7:iy 8:iz	9:time	10:x 11:y 12:z	13:data
# data columns: 13:betax 14:betay 15:betaz
#
#
#
#
#
#
#
#
#
1360	0 0 1 0	9 9 9	2.0000000000004445	-0.027777777777777783 -0.027777777777777783 -0.027777777777777783	0 0 0
1360	0 0 1 0	10 10 10	2.0000000000004445	0.027777777777777783 0.027777777777777783 0.027777777777777783	0 0 0
#
#
#
#
#
#
#
#
#

# iteration 1360   time 2.0000000000004445
# time level 0
# refinement level 0   multigrid level 0   map 0   component 2
# column format: 1:it	2:tl	3:rl 4:c 5:ml	6:ix 7:iy 8:iz	9:time	10:x 11:y 12:z	13:data
# data columns: 13:betax 14:betay 15:betaz
#
#
#
#
#
#
#
#
#
1360	0 0 2 0	9 9 9	2.0000000000004445	-0.027777777777777783 -0.027777777777777783 -0.027777777777777783	0 0 0
1360	0 0 2 0	10 10 10	2.0000000000004445	0.027777777777777783 0.027777777777777783 0.027777777777777783	0 0 0
#
#
#
#
#
#
#
#
#

# iteration 1360   time 2.0000000000004445
# time level 0
# refinement level 0   multigrid level 0   map 0   component 3
# column format: 1:it	2:tl	3:rl 4:c 5:ml	6:ix 7:iy 8:iz	9:time	10:x 11:y 12:z	13:data
# data columns: 13:betax 14:betay 15:betaz
#
#
#
#
#
#
#
#
#
1360	0 0 3 0	9 9 9	2.0000000000004445	-0.027777777777777783 -0.027777777777777783 -0.027777777777777783	0 0 0
1360	0 0 3 0	10 10 10	2.0000000000004445	0.027777777777777783 0.027777777777777783 0.027777777777777783	0 0 0
1360	0 0 3 0	11 11 11	2.0000000000004445	0.083333333333333343 0.083333333333333343 0.083333333333333343	0 0 0
1360	0 0 3 0	12 12 12	2.0000000000004445	0.13888888888888892 0.13888888888888892 0.13888888888888892	0 0 0
1360	0 0 3 0	13 13 13	2.0000000000004445	0.19444444444444448 0.19444444444444448 0.19444444444444448	0 0 0
1360	0 0 3 0	14 14 14	2.0000000000004445	0.25000000000000006 0.25000000000000006 0.25000000000000006	0 0 0
1360	0 0 3 0	15 15 15	2.0000000000004445	0.30555555555555558 0.30555555555555558 0.30555555555555558	0 0 0
1360	0 0 3 0	16 16 16	2.0000000000004445	0.36111111111111116 0.36111111111111116 0.36111111111111116	0 0 0
1360	0 0 3 0	17 17 17	2.0000000000004445	0.41666666666666674 0.41666666666666674 0.41666666666666674	0 0 0
1360	0 0 3 0	18 18 18	2.0000000000004445	0.47222222222222227 0.47222222222222227 0.47222222222222227	0 0 0
1360	0 0 3 0	19 19 19	2.0000000000004445	0.5277777777777779 0.5277777777777779 0.5277777777777779	0 0 0


# iteration 1530   time 2.2500000000005
# time level 0
# refinement level 0   multigrid level 0   map 0   component 0
# column format: 1:it	2:tl	3:rl 4:c 5:ml	6:ix 7:iy 8:iz	9:time	10:x 11:y 12:z	13:data
# data columns: 13:betax 14:betay 15:betaz
1530	0 0 0 0	0 0 0	2.2500000000005	-0.5277777777777779 -0.5277777777777779 -0.5277777777777779	0 0 0
1530	0 0 0 0	1 1 1	2.2500000000005	-0.47222222222222227 -0.47222222222222227 -0.47222222222222227	0 0 0
1530	0 0 0 0	2 2 2	2.2500000000005	-0.41666666666666674 -0.41666666666666674 -0.41666666666666674	0 0 0
1530	0 0 0 0	3 3 3	2.2500000000005	-0.36111111111111116 -0.36111111111111116 -0.36111111111111116	0 0 0
1530	0 0 0 0	4 4 4	2.2500000000005	-0.30555555555555558 -0.30555555555555558 -0.30555555555555558	0 0 0
1530	0 0 0 0	5 5 5	2.2500000000005	-0.25000000000000006 -0.25000000000000006 -0.25000000000000006	0 0 0
1530	0 0 0 0	6 6 6	2.2500000000005	-0.19444444444444448 -0.19444444444444448 -0.19444444444444448	0 0 0
1530	0 0 0 0	7 7 7	2.2500000000005	-0.13888888888888892 -0.13888888888888892 -0.13888888888888892	0 0 0
1530	0 0 0 0	8 8 8	2.2500000000005	-0.083333333333333343 -0.083333333333333343 -0.083333333333333343	0 0 0
1530	0 0 0 0	9 9 9	2.2500000000005	-0.027777777777777783 -0.027777777777777783 -0.027777777777777783	0 0 0
1530	0 0 0 0	10 10 10	2.2500000000005	0.027777777777777783 0.027777777777777783 0.027777777777777783	0 0 0
#
#
#
#
#
#
#
#
#

# iteration 1530   time 2.2500000000005
# time level 0
# refinement level 0   multigrid level 0   map 0   component 1
# column format: 1:it	2:tl	3:rl 4:c 5:ml	6:ix 7:iy 8:iz	9:time	10:x 11:y 12:z	13:data
# data columns: 13:betax 14:betay 15:betaz
#
#
#
#
#
#
#
#
#
1530	0 0 1 0	9 9 9	2.2500000000005	-0.027777777777777783 -0.027777777777777783 -0.027777777777777783	0 0 0
1530	0 0 1 0	10 10 10	2.2500000000005	0.027777777777777783 0.027777777777777783 0.027777777777777783	0 0 0
#
#
#
#
#
#
#
#
#

# iteration 1530   time 2.2500000000005
# time level 0
# refinement level 0   multigrid level 0   map 0   component 2
# column format: 1:it	2:tl	3:rl 4:c 5:ml	6:ix 7:iy 8:iz	9:time	10:x 11:y 12:z	13:data
# data columns: 13:betax 14:betay 15:betaz
#
#
#
#
#
#
#
#
#
1530	0 0 2 0	9 9 9	2.2500000000005	-0.027777777777777783 -0.027777777777777783 -0.027777777777777783	0 0 0
1530	0 0 2 0	10 10 10	2.2500000000005	0.027777777777777783 0.027777777777777783 0.027777777777777783	0 0 0
#
#
#
#
#
#
#
#
#

# iteration 1530   time 2.2500000000005
# time level 0
# refinement level 0   multigrid level 0   map 0   component 3
# column format: 1:it	2:tl	3:rl 4:c 5:ml	6:ix 7:iy 8:iz	9:time	10:x 11:y 12:z	13:data
# data columns: 13:betax 14:betay 15:betaz
#
#
#
#
#
#
#
#
#
1530	0 0 3 0	9 9 9	2.2500000000005	-0.027777777777777783 -0.027777777777777783 -0.027777777777777783	0 0 0
1530	0 0 3 0	10 10 10	2.2500000000005	0.027777777777777783 0.027777777777777783 0.027777777777777783	0 0 0
1530	0 0 3 0	11 11 11	2.2500000000005	0.083333333333333343 0.083333333333333343 0.083333333333333343	0 0 0
1530	0 0 3 0	12 12 12	2.2500000000005	0.13888888888888892 0.13888888888888892 0.13888888888888892	0 0 0
1530	0 0 3 0	13 13 13	2.2500000000005	0.19444444444444448 0.19444444444444448 0.19444444444444448	0 0 0
1530	0 0 3 0	14 14 14	2.2500000000005	0.25000000000000006 0.25000000000000006 0.25000000000000006	0 0 0
1530	0 0 3 0	15 15 15	2.2500000000005	0.30555555555555558 0.30555555555555558 0.30555555555555558	0 0 0
1530	0 0 3 0	16 16 16	2.2500000000005	0.36111111111111116 0.36111111111111116 0.36111111111111116	0 0 0
1530	0 0 3 0	17 17 17	2.2500000000005	0.41666666666666674 0.41666666666666674 0.41666666666666674	0 0 0
1530	0 0 3 0	18 18 18	2.2500000000005	0.47222222222222227 0.47222222222222227 0.47222222222222227	0 0 0
1530	0 0 3 0	19 19 19	2.2500000000005	0.5277777777777779 0.5277777777777779 0.5277777777777779	0 0 0


# iteration 1700   time 2.5000000000005556
# time level 0
# refinement level 0   multigrid level 0   map 0   component 0
# column format: 1:it	2:tl	3:rl 4:c 5:ml	6:ix 7:iy 8:iz	9:time	10:x 11:y 12:z	13:data
# data columns: 13:betax 14:betay 15:betaz
1700	0 0 0 0	0 0 0	2.5000000000005556	-0.5277777777777779 -0.5277777777777779 -0.5277777777777779	0 0 0
1700	0 0 0 0	1 1 1	2.5000000000005556	-0.47222222222222227 -0.47222222222222227 -0.47222222222222227	0 0 0
1700	0 0 0 0	2 2 2	2.5000000000005556	-0.41666666666666674 -0.41666666666666674 -0.41666666666666674	0 0 0
1700	0 0 0 0	3 3 3	2.5000000000005556	-0.36111111111111116 -0.36111111111111116 -0.36111111111111116	0 0 0
1700	0 0 0 0	4 4 4	2.5000000000005556	-0.30555555555555558 -0.30555555555555558 -0.30555555555555558	0 0 0
1700	0 0 0 0	5 5 5	2.5000000000005556	-0.25000000000000006 -0.25000000000000006 -0.25000000000000006	0 0 0
1700	0 0 0 0	6 6 6	2.5000000000005556	-0.19444444444444448 -0.19444444444444448 -0.19444444444444448	0 0 0
1700	0 0 0 0	7 7 7	2.5000000000005556	-0.13888888888888892 -0.13888888888888892 -0.13888888888888892	0 0 0
1700	0 0 0 0	8 8 8	2.5000000000005556	-0.083333333333333343 -0.083333333333333343 -0.083333333333333343	0 0 0
1700	0 0 0 0	9 9 9	2.5000000000005556	-0.027777777777777783 -0.027777777777777783 -0.027777777777777783	0 0 0
1700	0 0 0 0	10 10 10	2.5000000000005556	0.027777777777777783 0.027777777777777783 0.027777777777777783	0 0 0
#
#
#
#
#
#
#
#
#

# iteration 1700   time 2.5000000000005556
# time level 0
# refinement level 0   multigrid level 0   map 0   component 1
# column format: 1:it	2:tl	3:rl 4:c 5:ml	6:ix 7:iy 8:iz	9:time	10:x 11:y 12:z	13:data
# data columns: 13:betax 14:betay 15:betaz
#
#
#
#
#
#
#
#
#
1700	0 0 1 0	9 9 9	2.5000000000005556	-0.027777777777777783 -0.027777777777777783 -0.027777777777777783	0 0 0
1700	0 0 1 0	10 10 10	2.5000000000005556	0.027777777777777783 0.027777777777777783 0.027777777777777783	0 0 0
#
#
#
#
#
#
#
#
#

# iteration 1700   time 2.5000000000005556
# time level 0
# refinement level 0   multigrid level 0   map 0   component 2
# column format: 1:it	2:tl	3:rl 4:c 5:ml	6:ix 7:iy 8:iz	9:time	10:x 11:y 12:z	13:data
# data columns: 13:betax 14:betay 15:betaz
#
#
#
#
#
#
#
#
#
1700	0 0 2 0	9 9 9	2.5000000000005556	-0.027777777777777783 -0.027777777777777783 -0.027777777777777783	0 0 0
1700	0 0 2 0	10 10 10	2.5000000000005556	0.027777777777777783 0.027777777777777783 0.027777777777777783	0 0 0
#
#
#
#
#
#
#
#
#

# iteration 1700   time 2.5000000000005556
# time level 0
# refinement level 0   multigrid level 0   map 0   component 3
# column format: 1:it	2:tl	3:rl 4:c 5:ml	6:ix 7:iy 8:iz	9:time	10:x 11:y 12:z	13:data
# data columns: 13:betax 14:betay 15:betaz
#
#
#
#
#
#
#
#
#
1700	0 0 3 0	9 9 9	2.5000000000005556	-0.027777777777777783 -0.027777777777777783 -0.027777777777777783	0 0 0
1700	0 0 3 0	10 10 10	2.5000000000005556	0.027777777777777783 0.027777777777777783 0.027777777777777783	0 0 0
1700	0 0 3 0	11 11 11	2.5000000000005556	0.083333333333333343 0.083333333333333343 0.083333333333333343	0 0 0
1700	0 0 3 0	12 12 12	2.5000000000005556	0.13888888888888892 0.13888888888888892 0.13888888888888892	0 0 0
1700	0 0 3 0	13 13 13	2.5000000000005556	0.19444444444444448 0.19444444444444448 0.19444444444444448	0 0 0
1700	0 0 3 0	14 14 14	2.5000000000005556	0.25000000000000006 0.25000000000000006 0.25000000000000006	0 0 0
1700	0 0 3 0	15 15 15	2.5000000000005556	0.30555555555555558 0.30555555555555558 0.30555555555555558	0 0 0
1700	0 0 3 0	16 16 16	2.5000000000005556	0.36111111111111116 0.36111111111111116 0.36111111111111116	0 0 0
1700	0 0 3 0	17 17 17	2.5000000000005556	0.41666666666666674 0.41666666666666674 0.41666666666666674	0 0 0
1700	0 0 3 0	18 18 18	2.5000000000005556	0.47222222222222227 0.47222222222222227 0.47222222222222227	0 0 0
1700	0 0 3 0	19 19 19	2.5000000000005556	0.5277777777777779 0.5277777777777779 0.5277777777777779	0 0 0


# iteration 1870   time 2.7500000000006111
# time level 0
# refinement level 0   multigrid level 0   map 0   component 0
# column format: 1:it	2:tl	3:rl 4:c 5:ml	6:ix 7:iy 8:iz	9:time	10:x 11:y 12:z	13:data
# data columns: 13:betax 14:betay 15:betaz
1870	0 0 0 0	0 0 0	2.7500000000006111	-0.5277777777777779 -0.5277777777777779 -0.5277777777777779	0 0 0
1870	0 0 0 0	1 1 1	2.7500000000006111	-0.47222222222222227 -0.47222222222222227 -0.47222222222222227	0 0 0
1870	0 0 0 0	2 2 2	2.7500000000006111	-0.41666666666666674 -0.41666666666666674 -0.41666666666666674	0 0 0
1870	0 0 0 0	3 3 3	2.7500000000006111	-0.36111111111111116 -0.36111111111111116 -0.36111111111111116	0 0 0
1870	0 0 0 0	4 4 4	2.7500000000006111	-0.30555555555555558 -0.30555555555555558 -0.30555555555555558	0 0 0
1870	0 0 0 0	5 5 5	2.7500000000006111	-0.25000000000000006 -0.25000000000000006 -0.25000000000000006	0 0 0
1870	0 0 0 0	6 6 6	2.7500000000006111	-0.19444444444444448 -0.19444444444444448 -0.19444444444444448	0 0 0
1870	0 0 0 0	7 7 7	2.7500000000006111	-0.13888888888888892 -0.13888888888888892 -0.13888888888888892	0 0 0
1870	0 0 0 0	8 8 8	2.7500000000006111	-0.083333333333333343 -0.083333333333333343 -0.083333333333333343	0 0 0
1870	0 0 0 0	9 9 9	2.7500000000006111	-0.027777777777777783 -0.027777777777777783 -0.027777777777777783	0 0 0
1870	0 0 0 0	10 10 10	2.7500000000006111	0.027777777777777783 0.027777777777777783 0.027777777777777783	0 0 0
#
#
#
#
#
#
#
#
#

# iteration 1870   time 2.7500000000006111
# time level 0
# refinement level 0   multigrid level 0   map 0   component 1
# column format: 1:it	2:tl	3:rl 4:c 5:ml	6:ix 7:iy 8:iz	9:time	10:x 11:y 12:z	13:data
# data columns: 13:betax 14:betay 15:betaz
#
#
#
#
#
#
#
#
#
1870	0 0 1 0	9 9 9	2.7500000000006111	-0.027777777777777783 -0.027777777777777783 -0.027777777777777783	0 0 0
1870	0 0 1 0	10 10 10	2.7500000000006111	0.027777777777777783 0.027777777777777783 0.027777777777777783	0 0 0
#
#
#
#
#
#
#
#
#

# iteration 1870   time 2.7500000000006111
# time level 0
# refinement level 0   multigrid level 0   map 0   component 2
# column format: 1:it	2:tl	3:rl 4:c 5:ml	6:ix 7:iy 8:iz	9:time	10:x 11:y 12:z	13:data
# data columns: 13:betax 14:betay 15:betaz
#
#
#
#
#
#
#
#
#
1870	0 0 2 0	9 9 9	2.7500000000006111	-0.027777777777777783 -0.027777777777777783 -0.027777777777777783	0 0 0
1870	0 0 2 0	10 10 10	2.7500000000006111	0.027777777777777783 0.027777777777777783 0.027777777777777783	0 0 0
#
#
#
#
#
#
#
#
#

# iteration 1870   time 2.7500000000006111
# time level 0
# refinement level 0   multigrid level 0   map 0   component 3
# column format: 1:it	2:tl	3:rl 4:c 5:ml	6:ix 7:iy 8:iz	9:time	10:x 11:y 12:z	13:data
# data columns: 13:betax 14:betay 15:betaz
#
#
#
#
#
#
#
#
#
1870	0 0 3 0	9 9 9	2.7500000000006111	-0.027777777777777783 -0.027777777777777783 -0.027777777777777783	0 0 0
1870	0 0 3 0	10 10 10	2.7500000000006111	0.027777777777777783 0.027777777777777783 0.027777777777777783	0 0 0
1870	0 0 3 0	11 11 11	2.7500000000006111	0.083333333333333343 0.083333333333333343 0.083333333333333343	0 0 0
1870	0 0 3 0	12 12 12	2.7500000000006111	0.13888888888888892 0.13888888888888892 0.13888888888888892	0 0 0
1870	0 0 3 0	13 13 13	2.7500000000006111	0.19444444444444448 0.19444444444444448 0.19444444444444448	0 0 0
1870	0 0 3 0	14 14 14	2.7500000000006111	0.25000000000000006 0.25000000000000006 0.25000000000000006	0 0 0
1870	0 0 3 0	15 15 15	2.7500000000006111	0.30555555555555558 0.30555555555555558 0.30555555555555558	0 0 0
1870	0 0 3 0	16 16 16	2.7500000000006111	0.36111111111111116 0.36111111111111116 0.36111111111111116	0 0 0
1870	0 0 3 0	17 17 17	2.7500000000006111	0.41666666666666674 0.41666666666666674 0.41666666666666674	0 0 0
1870	0 0 3 0	18 18 18	2.7500000000006111	0.47222222222222227 0.47222222222222227 0.47222222222222227	0 0 0
1870	0 0 3 0	19 19 19	2.7500000000006111	0.5277777777777779 0.5277777777777779 0.5277777777777779	0 0 0


# iteration 2040   time 3.0000000000006666
# time level 0
# refinement level 0   multigrid level 0   map 0   component 0
# column format: 1:it	2:tl	3:rl 4:c 5:ml	6:ix 7:iy 8:iz	9:time	10:x 11:y 12:z	13:data
# data columns: 13:betax 14:betay 15:betaz
2040	0 0 0 0	0 0 0	3.0000000000006666	-0.5277777777777779 -0.5277777777777779 -0.5277777777777779	0 0 0
2040	0 0 0 0	1 1 1	3.0000000000006666	-0.47222222222222227 -0.47222222222222227 -0.47222222222222227	0 0 0
2040	0 0 0 0	2 2 2	3.0000000000006666	-0.41666666666666674 -0.41666666666666674 -0.41666666666666674	0 0 0
2040	0 0 0 0	3 3 3	3.0000000000006666	-0.36111111111111116 -0.36111111111111116 -0.36111111111111116	0 0 0
2040	0 0 0 0	4 4 4	3.0000000000006666	-0.30555555555555558 -0.30555555555555558 -0.30555555555555558	0 0 0
2040	0 0 0 0	5 5 5	3.0000000000006666	-0.25000000000000006 -0.25000000000000006 -0.25000000000000006	0 0 0
2040	0 0 0 0	6 6 6	3.0000000000006666	-0.19444444444444448 -0.19444444444444448 -0.19444444444444448	0 0 0
2040	0 0 0 0	7 7 7	3.0000000000006666	-0.13888888888888892 -0.13888888888888892 -0.13888888888888892	0 0 0
2040	0 0 0 0	8 8 8	3.0000000000006666	-0.083333333333333343 -0.083333333333333343 -0.083333333333333343	0 0 0
2040	0 0 0 0	9 9 9	3.0000000000006666	-0.027777777777777783 -0.027777777777777783 -0.027777777777777783	0 0 0
2040	0 0 0 0	10 10 10	3.0000000000006666	0.027777777777777783 0.027777777777777783 0.027777777777777783	0 0 0
#
#
#
#
#
#
#
#
#

# iteration 2040   time 3.0000000000006666
# time level 0
# refinement level 0   multigrid level 0   map 0   component 1
# column format: 1:it	2:tl	3:rl 4:c 5:ml	6:ix 7:iy 8:iz	9:time	10:x 11:y 12:z	13:data
# data columns: 13:betax 14:betay 15:betaz
#
#
#
#
#
#
#
#
#
2040	0 0 1 0	9 9 9	3.0000000000006666	-0.027777777777777783 -0.027777777777777783 -0.027777777777777783	0 0 0
2040	0 0 1 0	10 10 10	3.0000000000006666	0.027777777777777783 0.027777777777777783 0.027777777777777783	0 0 0
#
#
#
#
#
#
#
#
#

# iteration 2040   time 3.0000000000006666
# time level 0
# refinement level 0   multigrid level 0   map 0   component 2
# column format: 1:it	2:tl	3:rl 4:c 5:ml	6:ix 7:iy 8:iz	9:time	10:x 11:y 12:z	13:data
# data columns: 13:betax 14:betay 15:betaz
#
#
#
#
#
#
#
#
#
2040	0 0 2 0	9 9 9	3.0000000000006666	-0.027777777777777783 -0.027777777777777783 -0.027777777777777783	0 0 0
2040	0 0 2 0	10 10 10	3.0000000000006666	0.027777777777777783 0.027777777777777783 0.027777777777777783	0 0 0
#
#
#
#
#
#
#
#
#

# iteration 2040   time 3.0000000000006666
# time level 0
# refinement level 0   multigrid level 0   map 0   component 3
# column format: 1:it	2:tl	3:rl 4:c 5:ml	6:ix 7:iy 8:iz	9:time	10:x 11:y 12:z	13:data
# data columns: 13:betax 14:betay 15:betaz
#
#
#
#
#
#
#
#
#
2040	0 0 3 0	9 9 9	3.0000000000006666	-0.027777777777777783 -0.027777777777777783 -0.027777777777777783	0 0 0
2040	0 0 3 0	10 10 10	3.0000000000006666	0.027777777777777783 0.027777777777777783 0.027777777777777783	0 0 0
2040	0 0 3 0	11 11 11	3.0000000000006666	0.083333333333333343 0.083333333333333343 0.083333333333333343	0 0 0
2040	0 0 3 0	12 12 12	3.0000000000006666	0.13888888888888892 0.13888888888888892 0.13888888888888892	0 0 0
2040	0 0 3 0	13 13 13	3.0000000000006666	0.19444444444444448 0.19444444444444448 0.19444444444444448	0 0 0
2040	0 0 3 0	14 14 14	3.0000000000006666	0.25000000000000006 0.25000000000000006 0.25000000000000006	0 0 0
2040	0 0 3 0	15 15 15	3.0000000000006666	0.30555555555555558 0.30555555555555558 0.30555555555555558	0 0 0
2040	0 0 3 0	16 16 16	3.0000000000006666	0.36111111111111116 0.36111111111111116 0.36111111111111116	0 0 0
2040	0 0 3 0	17 17 17	3.0000000000006666	0.41666666666666674 0.41666666666666674 0.41666666666666674	0 0 0
2040	0 0 3 0	18 18 18	3.0000000000006666	0.47222222222222227 0.47222222222222227 0.47222222222222227	0 0 0
2040	0 0 3 0	19 19 19	3.0000000000006666	0.5277777777777779 0.5277777777777779 0.5277777777777779	0 0 0


# iteration 2210   time 3.2500000000007221
# time level 0
# refinement level 0   multigrid level 0   map 0   component 0
# column format: 1:it	2:tl	3:rl 4:c 5:ml	6:ix 7:iy 8:iz	9:time	10:x 11:y 12:z	13:data
# data columns: 13:betax 14:betay 15:betaz
2210	0 0 0 0	0 0 0	3.2500000000007221	-0.5277777777777779 -0.5277777777777779 -0.5277777777777779	0 0 0
2210	0 0 0 0	1 1 1	3.2500000000007221	-0.47222222222222227 -0.47222222222222227 -0.47222222222222227	0 0 0
2210	0 0 0 0	2 2 2	3.2500000000007221	-0.41666666666666674 -0.41666666666666674 -0.41666666666666674	0 0 0
2210	0 0 0 0	3 3 3	3.2500000000007221	-0.36111111111111116 -0.36111111111111116 -0.36111111111111116	0 0 0
2210	0 0 0 0	4 4 4	3.2500000000007221	-0.30555555555555558 -0.30555555555555558 -0.30555555555555558	0 0 0
2210	0 0 0 0	5 5 5	3.2500000000007221	-0.25000000000000006 -0.25000000000000006 -0.25000000000000006	0 0 0
2210	0 0 0 0	6 6 6	3.2500000000007221	-0.19444444444444448 -0.19444444444444448 -0.19444444444444448	0 0 0
2210	0 0 0 0	7 7 7	3.2500000000007221	-0.13888888888888892 -0.13888888888888892 -0.13888888888888892	0 0 0
2210	0 0 0 0	8 8 8	3.2500000000007221	-0.083333333333333343 -0.083333333333333343 -0.083333333333333343	0 0 0
2210	0 0 0 0	9 9 9	3.2500000000007221	-0.027777777777777783 -0.027777777777777783 -0.027777777777777783	0 0 0
2210	0 0 0 0	10 10 10	3.2500000000007221	0.027777777777777783 0.027777777777777783 0.027777777777777783	0 0 0
#
#
#
#
#
#
#
#
#

# iteration 2210   time 3.2500000000007221
# time level 0
# refinement level 0   multigrid level 0   map 0   component 1
# column format: 1:it	2:tl	3:rl 4:c 5:ml	6:ix 7:iy 8:iz	9:time	10:x 11:y 12:z	13:data
# data columns: 13:betax 14:betay 15:betaz
#
#
#
#
#
#
#
#
#
2210	0 0 1 0	9 9 9	3.2500000000007221	-0.027777777777777783 -0.027777777777777783 -0.027777777777777783	0 0 0
2210	0 0 1 0	10 10 10	3.2500000000007221	0.027777777777777783 0.027777777777777783 0.027777777777777783	0 0 0
#
#
#
#
#
#
#
#
#

# iteration 2210   time 3.2500000000007221
# time level 0
# refinement level 0   multigrid level 0   map 0   component 2
# column format: 1:it	2:tl	3:rl 4:c 5:ml	6:ix 7:iy 8:iz	9:time	10:x 11:y 12:z	13:data
# data columns: 13:betax 14:betay 15:betaz
#
#
#
#
#
#
#
#
#
2210	0 0 2 0	9 9 9	3.2500000000007221	-0.027777777777777783 -0.027777777777777783 -0.027777777777777783	0 0 0
2210	0 0 2 0	10 10 10	3.2500000000007221	0.027777777777777783 0.027777777777777783 0.027777777777777783	0 0 0
#
#
#
#
#
#
#
#
#

# iteration 2210   time 3.2500000000007221
# time level 0
# refinement level 0   multigrid level 0   map 0   component 3
# column format: 1:it	2:tl	3:rl 4:c 5:ml	6:ix 7:iy 8:iz	9:time	10:x 11:y 12:z	13:data
# data columns: 13:betax 14:betay 15:betaz
#
#
#
#
#
#
#
#
#
2210	0 0 3 0	9 9 9	3.2500000000007221	-0.027777777777777783 -0.027777777777777783 -0.027777777777777783	0 0 0
2210	0 0 3 0	10 10 10	3.2500000000007221	0.027777777777777783 0.027777777777777783 0.027777777777777783	0 0 0
2210	0 0 3 0	11 11 11	3.2500000000007221	0.083333333333333343 0.083333333333333343 0.083333333333333343	0 0 0
2210	0 0 3 0	12 12 12	3.2500000000007221	0.13888888888888892 0.13888888888888892 0.13888888888888892	0 0 0
2210	0 0 3 0	13 13 13	3.2500000000007221	0.19444444444444448 0.19444444444444448 0.19444444444444448	0 0 0
2210	0 0 3 0	14 14 14	3.2500000000007221	0.25000000000000006 0.25000000000000006 0.25000000000000006	0 0 0
2210	0 0 3 0	15 15 15	3.2500000000007221	0.30555555555555558 0.30555555555555558 0.30555555555555558	0 0 0
2210	0 0 3 0	16 16 16	3.2500000000007221	0.36111111111111116 0.36111111111111116 0.36111111111111116	0 0 0
2210	0 0 3 0	17 17 17	3.2500000000007221	0.41666666666666674 0.41666666666666674 0.41666666666666674	0 0 0
2210	0 0 3 0	18 18 18	3.2500000000007221	0.47222222222222227 0.47222222222222227 0.47222222222222227	0 0 0
2210	0 0 3 0	19 19 19	3.2500000000007221	0.5277777777777779 0.5277777777777779 0.5277777777777779	0 0 0


# iteration 2380   time 3.5000000000007776
# time level 0
# refinement level 0   multigrid level 0   map 0   component 0
# column format: 1:it	2:tl	3:rl 4:c 5:ml	6:ix 7:iy 8:iz	9:time	10:x 11:y 12:z	13:data
# data columns: 13:betax 14:betay 15:betaz
2380	0 0 0 0	0 0 0	3.5000000000007776	-0.5277777777777779 -0.5277777777777779 -0.5277777777777779	0 0 0
2380	0 0 0 0	1 1 1	3.5000000000007776	-0.47222222222222227 -0.47222222222222227 -0.47222222222222227	0 0 0
2380	0 0 0 0	2 2 2	3.5000000000007776	-0.41666666666666674 -0.41666666666666674 -0.41666666666666674	0 0 0
2380	0 0 0 0	3 3 3	3.5000000000007776	-0.36111111111111116 -0.36111111111111116 -0.36111111111111116	0 0 0
2380	0 0 0 0	4 4 4	3.5000000000007776	-0.30555555555555558 -0.30555555555555558 -0.30555555555555558	0 0 0
2380	0 0 0 0	5 5 5	3.5000000000007776	-0.25000000000000006 -0.25000000000000006 -0.25000000000000006	0 0 0
2380	0 0 0 0	6 6 6	3.5000000000007776	-0.19444444444444448 -0.19444444444444448 -0.19444444444444448	0 0 0
2380	0 0 0 0	7 7 7	3.5000000000007776	-0.13888888888888892 -0.13888888888888892 -0.13888888888888892	0 0 0
2380	0 0 0 0	8 8 8	3.5000000000007776	-0.083333333333333343 -0.083333333333333343 -0.083333333333333343	0 0 0
2380	0 0 0 0	9 9 9	3.5000000000007776	-0.027777777777777783 -0.027777777777777783 -0.027777777777777783	0 0 0
2380	0 0 0 0	10 10 10	3.5000000000007776	0.027777777777777783 0.027777777777777783 0.027777777777777783	0 0 0
#
#
#
#
#
#
#
#
#

# iteration 2380   time 3.5000000000007776
# time level 0
# refinement level 0   multigrid level 0   map 0   component 1
# column format: 1:it	2:tl	3:rl 4:c 5:ml	6:ix 7:iy 8:iz	9:time	10:x 11:y 12:z	13:data
# data columns: 13:betax 14:betay 15:betaz
#
#
#
#
#
#
#
#
#
2380	0 0 1 0	9 9 9	3.5000000000007776	-0.027777777777777783 -0.027777777777777783 -0.027777777777777783	0 0 0
2380	0 0 1 0	10 10 10	3.5000000000007776	0.027777777777777783 0.027777777777777783 0.027777777777777783	0 0 0
#
#
#
#
#
#
#
#
#

# iteration 2380   time 3.5000000000007776
# time level 0
# refinement level 0   multigrid level 0   map 0   component 2
# column format: 1:it	2:tl	3:rl 4:c 5:ml	6:ix 7:iy 8:iz	9:time	10:x 11:y 12:z	13:data
# data columns: 13:betax 14:betay 15:betaz
#
#
#
#
#
#
#
#
#
2380	0 0 2 0	9 9 9	3.5000000000007776	-0.027777777777777783 -0.027777777777777783 -0.027777777777777783	0 0 0
2380	0 0 2 0	10 10 10	3.5000000000007776	0.027777777777777783 0.027777777777777783 0.027777777777777783	0 0 0
#
#
#
#
#
#
#
#
#

# iteration 2380   time 3.5000000000007776
# time level 0
# refinement level 0   multigrid level 0   map 0   component 3
# column format: 1:it	2:tl	3:rl 4:c 5:ml	6:ix 7:iy 8:iz	9:time	10:x 11:y 12:z	13:data
# data columns: 13:betax 14:betay 15:betaz
#
#
#
#
#
#
#
#
#
2380	0 0 3 0	9 9 9	3.5000000000007776	-0.027777777777777783 -0.027777777777777783 -0.027777777777777783	0 0 0
2380	0 0 3 0	10 10 10	3.5000000000007776	0.027777777777777783 0.027777777777777783 0.027777777777777783	0 0 0
2380	0 0 3 0	11 11 11	3.5000000000007776	0.083333333333333343 0.083333333333333343 0.083333333333333343	0 0 0
2380	0 0 3 0	12 12 12	3.5000000000007776	0.13888888888888892 0.13888888888888892 0.13888888888888892	0 0 0
2380	0 0 3 0	13 13 13	3.5000000000007776	0.19444444444444448 0.19444444444444448 0.19444444444444448	0 0 0
2380	0 0 3 0	14 14 14	3.5000000000007776	0.25000000000000006 0.25000000000000006 0.25000000000000006	0 0 0
2380	0 0 3 0	15 15 15	3.5000000000007776	0.30555555555555558 0.30555555555555558 0.30555555555555558	0 0 0
2380	0 0 3 0	16 16 16	3.5000000000007776	0.36111111111111116 0.36111111111111116 0.36111111111111116	0 0 0
2380	0 0 3 0	17 17 17	3.5000000000007776	0.41666666666666674 0.41666666666666674 0.41666666666666674	0 0 0
2380	0 0 3 0	18 18 18	3.5000000000007776	0.47222222222222227 0.47222222222222227 0.47222222222222227	0 0 0
2380	0 0 3 0	19 19 19	3.5000000000007776	0.5277777777777779 0.5277777777777779 0.5277777777777779	0 0 0


# iteration 2550   time 3.7500000000008331
# time level 0
# refinement level 0   multigrid level 0   map 0   component 0
# column format: 1:it	2:tl	3:rl 4:c 5:ml	6:ix 7:iy 8:iz	9:time	10:x 11:y 12:z	13:data
# data columns: 13:betax 14:betay 15:betaz
2550	0 0 0 0	0 0 0	3.7500000000008331	-0.5277777777777779 -0.5277777777777779 -0.5277777777777779	0 0 0
2550	0 0 0 0	1 1 1	3.7500000000008331	-0.47222222222222227 -0.47222222222222227 -0.47222222222222227	0 0 0
2550	0 0 0 0	2 2 2	3.7500000000008331	-0.41666666666666674 -0.41666666666666674 -0.41666666666666674	0 0 0
2550	0 0 0 0	3 3 3	3.7500000000008331	-0.36111111111111116 -0.36111111111111116 -0.36111111111111116	0 0 0
2550	0 0 0 0	4 4 4	3.7500000000008331	-0.30555555555555558 -0.30555555555555558 -0.30555555555555558	0 0 0
2550	0 0 0 0	5 5 5	3.7500000000008331	-0.25000000000000006 -0.25000000000000006 -0.25000000000000006	0 0 0
2550	0 0 0 0	6 6 6	3.7500000000008331	-0.19444444444444448 -0.19444444444444448 -0.19444444444444448	0 0 0
2550	0 0 0 0	7 7 7	3.7500000000008331	-0.13888888888888892 -0.13888888888888892 -0.13888888888888892	0 0 0
2550	0 0 0 0	8 8 8	3.7500000000008331	-0.083333333333333343 -0.083333333333333343 -0.083333333333333343	0 0 0
2550	0 0 0 0	9 9 9	3.7500000000008331	-0.027777777777777783 -0.027777777777777783 -0.027777777777777783	0 0 0
2550	0 0 0 0	10 10 10	3.7500000000008331	0.027777777777777783 0.027777777777777783 0.027777777777777783	0 0 0
#
#
#
#
#
#
#
#
#

# iteration 2550   time 3.7500000000008331
# time level 0
# refinement level 0   multigrid level 0   map 0   component 1
# column format: 1:it	2:tl	3:rl 4:c 5:ml	6:ix 7:iy 8:iz	9:time	10:x 11:y 12:z	13:data
# data columns: 13:betax 14:betay 15:betaz
#
#
#
#
#
#
#
#
#
2550	0 0 1 0	9 9 9	3.7500000000008331	-0.027777777777777783 -0.027777777777777783 -0.027777777777777783	0 0 0
2550	0 0 1 0	10 10 10	3.7500000000008331	0.027777777777777783 0.027777777777777783 0.027777777777777783	0 0 0
#
#
#
#
#
#
#
#
#

# iteration 2550   time 3.7500000000008331
# time level 0
# refinement level 0   multigrid level 0   map 0   component 2
# column format: 1:it	2:tl	3:rl 4:c 5:ml	6:ix 7:iy 8:iz	9:time	10:x 11:y 12:z	13:data
# data columns: 13:betax 14:betay 15:betaz
#
#
#
#
#
#
#
#
#
2550	0 0 2 0	9 9 9	3.7500000000008331	-0.027777777777777783 -0.027777777777777783 -0.027777777777777783	0 0 0
2550	0 0 2 0	10 10 10	3.7500000000008331	0.027777777777777783 0.027777777777777783 0.027777777777777783	0 0 0
#
#
#
#
#
#
#
#
#

# iteration 2550   time 3.7500000000008331
# time level 0
# refinement level 0   multigrid level 0   map 0   component 3
# column format: 1:it	2:tl	3:rl 4:c 5:ml	6:ix 7:iy 8:iz	9:time	10:x 11:y 12:z	13:data
# data columns: 13:betax 14:betay 15:betaz
#
#
#
#
#
#
#
#
#
2550	0 0 3 0	9 9 9	3.7500000000008331	-0.027777777777777783 -0.027777777777777783 -0.027777777777777783	0 0 0
2550	0 0 3 0	10 10 10	3.7500000000008331	0.027777777777777783 0.027777777777777783 0.027777777777777783	0 0 0
2550	0 0 3 0	11 11 11	3.7500000000008331	0.083333333333333343 0.083333333333333343 0.083333333333333343	0 0 0
2550	0 0 3 0	12 12 12	3.7500000000008331	0.13888888888888892 0.13888888888888892 0.13888888888888892	0 0 0
2550	0 0 3 0	13 13 13	3.7500000000008331	0.19444444444444448 0.19444444444444448 0.19444444444444448	0 0 0
2550	0 0 3 0	14 14 14	3.7500000000008331	0.25000000000000006 0.25000000000000006 0.25000000000000006	0 0 0
2550	0 0 3 0	15 15 15	3.7500000000008331	0.30555555555555558 0.30555555555555558 0.30555555555555558	0 0 0
2550	0 0 3 0	16 16 16	3.7500000000008331	0.36111111111111116 0.36111111111111116 0.36111111111111116	0 0 0
2550	0 0 3 0	17 17 17	3.7500000000008331	0.41666666666666674 0.41666666666666674 0.41666666666666674	0 0 0
2550	0 0 3 0	18 18 18	3.7500000000008331	0.47222222222222227 0.47222222222222227 0.47222222222222227	0 0 0
2550	0 0 3 0	19 19 19	3.7500000000008331	0.5277777777777779 0.5277777777777779 0.5277777777777779	0 0 0


# iteration 2720   time 4.0000000000008891
# time level 0
# refinement level 0   multigrid level 0   map 0   component 0
# column format: 1:it	2:tl	3:rl 4:c 5:ml	6:ix 7:iy 8:iz	9:time	10:x 11:y 12:z	13:data
# data columns: 13:betax 14:betay 15:betaz
2720	0 0 0 0	0 0 0	4.0000000000008891	-0.5277777777777779 -0.5277777777777779 -0.5277777777777779	0 0 0
2720	0 0 0 0	1 1 1	4.0000000000008891	-0.47222222222222227 -0.47222222222222227 -0.47222222222222227	0 0 0
2720	0 0 0 0	2 2 2	4.0000000000008891	-0.41666666666666674 -0.41666666666666674 -0.41666666666666674	0 0 0
2720	0 0 0 0	3 3 3	4.0000000000008891	-0.36111111111111116 -0.36111111111111116 -0.36111111111111116	0 0 0
2720	0 0 0 0	4 4 4	4.0000000000008891	-0.30555555555555558 -0.30555555555555558 -0.30555555555555558	0 0 0
2720	0 0 0 0	5 5 5	4.0000000000008891	-0.25000000000000006 -0.25000000000000006 -0.25000000000000006	0 0 0
2720	0 0 0 0	6 6 6	4.0000000000008891	-0.19444444444444448 -0.19444444444444448 -0.19444444444444448	0 0 0
2720	0 0 0 0	7 7 7	4.0000000000008891	-0.13888888888888892 -0.13888888888888892 -0.13888888888888892	0 0 0
2720	0 0 0 0	8 8 8	4.0000000000008891	-0.083333333333333343 -0.083333333333333343 -0.083333333333333343	0 0 0
2720	0 0 0 0	9 9 9	4.0000000000008891	-0.027777777777777783 -0.027777777777777783 -0.027777777777777783	0 0 0
2720	0 0 0 0	10 10 10	4.0000000000008891	0.027777777777777783 0.027777777777777783 0.027777777777777783	0 0 0
#
#
#
#
#
#
#
#
#

# iteration 2720   time 4.0000000000008891
# time level 0
# refinement level 0   multigrid level 0   map 0   component 1
# column format: 1:it	2:tl	3:rl 4:c 5:ml	6:ix 7:iy 8:iz	9:time	10:x 11:y 12:z	13:data
# data columns: 13:betax 14:betay 15:betaz
#
#
#
#
#
#
#
#
#
2720	0 0 1 0	9 9 9	4.0000000000008891	-0.027777777777777783 -0.027777777777777783 -0.027777777777777783	0 0 0
2720	0 0 1 0	10 10 10	4.0000000000008891	0.027777777777777783 0.027777777777777783 0.027777777777777783	0 0 0
#
#
#
#
#
#
#
#
#

# iteration 2720   time 4.0000000000008891
# time level 0
# refinement level 0   multigrid level 0   map 0   component 2
# column format: 1:it	2:tl	3:rl 4:c 5:ml	6:ix 7:iy 8:iz	9:time	10:x 11:y 12:z	13:data
# data columns: 13:betax 14:betay 15:betaz
#
#
#
#
#
#
#
#
#
2720	0 0 2 0	9 9 9	4.0000000000008891	-0.027777777777777783 -0.027777777777777783 -0.027777777777777783	0 0 0
2720	0 0 2 0	10 10 10	4.0000000000008891	0.027777777777777783 0.027777777777777783 0.027777777777777783	0 0 0
#
#
#
#
#
#
#
#
#

# iteration 2720   time 4.0000000000008891
# time level 0
# refinement level 0   multigrid level 0   map 0   component 3
# column format: 1:it	2:tl	3:rl 4:c 5:ml	6:ix 7:iy 8:iz	9:time	10:x 11:y 12:z	13:data
# data columns: 13:betax 14:betay 15:betaz
#
#
#
#
#
#
#
#
#
2720	0 0 3 0	9 9 9	4.0000000000008891	-0.027777777777777783 -0.027777777777777783 -0.027777777777777783	0 0 0
2720	0 0 3 0	10 10 10	4.0000000000008891	0.027777777777777783 0.027777777777777783 0.027777777777777783	0 0 0
2720	0 0 3 0	11 11 11	4.0000000000008891	0.083333333333333343 0.083333333333333343 0.083333333333333343	0 0 0
2720	0 0 3 0	12 12 12	4.0000000000008891	0.13888888888888892 0.13888888888888892 0.13888888888888892	0 0 0
2720	0 0 3 0	13 13 13	4.0000000000008891	0.19444444444444448 0.19444444444444448 0.19444444444444448	0 0 0
2720	0 0 3 0	14 14 14	4.0000000000008891	0.25000000000000006 0.25000000000000006 0.25000000000000006	0 0 0
2720	0 0 3 0	15 15 15	4.0000000000008891	0.30555555555555558 0.30555555555555558 0.30555555555555558	0 0 0
2720	0 0 3 0	16 16 16	4.0000000000008891	0.36111111111111116 0.36111111111111116 0.36111111111111116	0 0 0
2720	0 0 3 0	17 17 17	4.0000000000008891	0.41666666666666674 0.41666666666666674 0.41666666666666674	0 0 0
2720	0 0 3 0	18 18 18	4.0000000000008891	0.47222222222222227 0.47222222222222227 0.47222222222222227	0 0 0
2720	0 0 3 0	19 19 19	4.0000000000008891	0.5277777777777779 0.5277777777777779 0.5277777777777779	0 0 0


# iteration 2890   time 4.2500000000009441
# time level 0
# refinement level 0   multigrid level 0   map 0   component 0
# column format: 1:it	2:tl	3:rl 4:c 5:ml	6:ix 7:iy 8:iz	9:time	10:x 11:y 12:z	13:data
# data columns: 13:betax 14:betay 15:betaz
2890	0 0 0 0	0 0 0	4.2500000000009441	-0.5277777777777779 -0.5277777777777779 -0.5277777777777779	0 0 0
2890	0 0 0 0	1 1 1	4.2500000000009441	-0.47222222222222227 -0.47222222222222227 -0.47222222222222227	0 0 0
2890	0 0 0 0	2 2 2	4.2500000000009441	-0.41666666666666674 -0.41666666666666674 -0.41666666666666674	0 0 0
2890	0 0 0 0	3 3 3	4.2500000000009441	-0.36111111111111116 -0.36111111111111116 -0.36111111111111116	0 0 0
2890	0 0 0 0	4 4 4	4.2500000000009441	-0.30555555555555558 -0.30555555555555558 -0.30555555555555558	0 0 0
2890	0 0 0 0	5 5 5	4.2500000000009441	-0.25000000000000006 -0.25000000000000006 -0.25000000000000006	0 0 0
2890	0 0 0 0	6 6 6	4.2500000000009441	-0.19444444444444448 -0.19444444444444448 -0.19444444444444448	0 0 0
2890	0 0 0 0	7 7 7	4.2500000000009441	-0.13888888888888892 -0.13888888888888892 -0.13888888888888892	0 0 0
2890	0 0 0 0	8 8 8	4.2500000000009441	-0.083333333333333343 -0.083333333333333343 -0.083333333333333343	0 0 0
2890	0 0 0 0	9 9 9	4.2500000000009441	-0.027777777777777783 -0.027777777777777783 -0.027777777777777783	0 0 0
2890	0 0 0 0	10 10 10	4.2500000000009441	0.027777777777777783 0.027777777777777783 0.027777777777777783	0 0 0
#
#
#
#
#
#
#
#
#

# iteration 2890   time 4.2500000000009441
# time level 0
# refinement level 0   multigrid level 0   map 0   component 1
# column format: 1:it	2:tl	3:rl 4:c 5:ml	6:ix 7:iy 8:iz	9:time	10:x 11:y 12:z	13:data
# data columns: 13:betax 14:betay 15:betaz
#
#
#
#
#
#
#
#
#
2890	0 0 1 0	9 9 9	4.2500000000009441	-0.027777777777777783 -0.027777777777777783 -0.027777777777777783	0 0 0
2890	0 0 1 0	10 10 10	4.2500000000009441	0.027777777777777783 0.027777777777777783 0.027777777777777783	0 0 0
#
#
#
#
#
#
#
#
#

# iteration 2890   time 4.2500000000009441
# time level 0
# refinement level 0   multigrid level 0   map 0   component 2
# column format: 1:it	2:tl	3:rl 4:c 5:ml	6:ix 7:iy 8:iz	9:time	10:x 11:y 12:z	13:data
# data columns: 13:betax 14:betay 15:betaz
#
#
#
#
#
#
#
#
#
2890	0 0 2 0	9 9 9	4.2500000000009441	-0.027777777777777783 -0.027777777777777783 -0.027777777777777783	0 0 0
2890	0 0 2 0	10 10 10	4.2500000000009441	0.027777777777777783 0.027777777777777783 0.027777777777777783	0 0 0
#
#
#
#
#
#
#
#
#

# iteration 2890   time 4.2500000000009441
# time level 0
# refinement level 0   multigrid level 0   map 0   component 3
# column format: 1:it	2:tl	3:rl 4:c 5:ml	6:ix 7:iy 8:iz	9:time	10:x 11:y 12:z	13:data
# data columns: 13:betax 14:betay 15:betaz
#
#
#
#
#
#
#
#
#
2890	0 0 3 0	9 9 9	4.2500000000009441	-0.027777777777777783 -0.027777777777777783 -0.027777777777777783	0 0 0
2890	0 0 3 0	10 10 10	4.2500000000009441	0.027777777777777783 0.027777777777777783 0.027777777777777783	0 0 0
2890	0 0 3 0	11 11 11	4.2500000000009441	0.083333333333333343 0.083333333333333343 0.083333333333333343	0 0 0
2890	0 0 3 0	12 12 12	4.2500000000009441	0.13888888888888892 0.13888888888888892 0.13888888888888892	0 0 0
2890	0 0 3 0	13 13 13	4.2500000000009441	0.19444444444444448 0.19444444444444448 0.19444444444444448	0 0 0
2890	0 0 3 0	14 14 14	4.2500000000009441	0.25000000000000006 0.25000000000000006 0.25000000000000006	0 0 0
2890	0 0 3 0	15 15 15	4.2500000000009441	0.30555555555555558 0.30555555555555558 0.30555555555555558	0 0 0
2890	0 0 3 0	16 16 16	4.2500000000009441	0.36111111111111116 0.36111111111111116 0.36111111111111116	0 0 0
2890	0 0 3 0	17 17 17	4.2500000000009441	0.41666666666666674 0.41666666666666674 0.41666666666666674	0 0 0
2890	0 0 3 0	18 18 18	4.2500000000009441	0.47222222222222227 0.47222222222222227 0.47222222222222227	0 0 0
2890	0 0 3 0	19 19 19	4.2500000000009441	0.5277777777777779 0.5277777777777779 0.5277777777777779	0 0 0


# iteration 3060   time 4.5000000000010001
# time level 0
# refinement level 0   multigrid level 0   map 0   component 0
# column format: 1:it	2:tl	3:rl 4:c 5:ml	6:ix 7:iy 8:iz	9:time	10:x 11:y 12:z	13:data
# data columns: 13:betax 14:betay 15:betaz
3060	0 0 0 0	0 0 0	4.5000000000010001	-0.5277777777777779 -0.5277777777777779 -0.5277777777777779	0 0 0
3060	0 0 0 0	1 1 1	4.5000000000010001	-0.47222222222222227 -0.47222222222222227 -0.47222222222222227	0 0 0
3060	0 0 0 0	2 2 2	4.5000000000010001	-0.41666666666666674 -0.41666666666666674 -0.41666666666666674	0 0 0
3060	0 0 0 0	3 3 3	4.5000000000010001	-0.36111111111111116 -0.36111111111111116 -0.36111111111111116	0 0 0
3060	0 0 0 0	4 4 4	4.5000000000010001	-0.30555555555555558 -0.30555555555555558 -0.30555555555555558	0 0 0
3060	0 0 0 0	5 5 5	4.5000000000010001	-0.25000000000000006 -0.25000000000000006 -0.25000000000000006	0 0 0
3060	0 0 0 0	6 6 6	4.5000000000010001	-0.19444444444444448 -0.19444444444444448 -0.19444444444444448	0 0 0
3060	0 0 0 0	7 7 7	4.5000000000010001	-0.13888888888888892 -0.13888888888888892 -0.13888888888888892	0 0 0
3060	0 0 0 0	8 8 8	4.5000000000010001	-0.083333333333333343 -0.083333333333333343 -0.083333333333333343	0 0 0
3060	0 0 0 0	9 9 9	4.5000000000010001	-0.027777777777777783 -0.027777777777777783 -0.027777777777777783	0 0 0
3060	0 0 0 0	10 10 10	4.5000000000010001	0.027777777777777783 0.027777777777777783 0.027777777777777783	0 0 0
#
#
#
#
#
#
#
#
#

# iteration 3060   time 4.5000000000010001
# time level 0
# refinement level 0   multigrid level 0   map 0   component 1
# column format: 1:it	2:tl	3:rl 4:c 5:ml	6:ix 7:iy 8:iz	9:time	10:x 11:y 12:z	13:data
# data columns: 13:betax 14:betay 15:betaz
#
#
#
#
#
#
#
#
#
3060	0 0 1 0	9 9 9	4.5000000000010001	-0.027777777777777783 -0.027777777777777783 -0.027777777777777783	0 0 0
3060	0 0 1 0	10 10 10	4.5000000000010001	0.027777777777777783 0.027777777777777783 0.027777777777777783	0 0 0
#
#
#
#
#
#
#
#
#

# iteration 3060   time 4.5000000000010001
# time level 0
# refinement level 0   multigrid level 0   map 0   component 2
# column format: 1:it	2:tl	3:rl 4:c 5:ml	6:ix 7:iy 8:iz	9:time	10:x 11:y 12:z	13:data
# data columns: 13:betax 14:betay 15:betaz
#
#
#
#
#
#
#
#
#
3060	0 0 2 0	9 9 9	4.5000000000010001	-0.027777777777777783 -0.027777777777777783 -0.027777777777777783	0 0 0
3060	0 0 2 0	10 10 10	4.5000000000010001	0.027777777777777783 0.027777777777777783 0.027777777777777783	0 0 0
#
#
#
#
#
#
#
#
#

# iteration 3060   time 4.5000000000010001
# time level 0
# refinement level 0   multigrid level 0   map 0   component 3
# column format: 1:it	2:tl	3:rl 4:c 5:ml	6:ix 7:iy 8:iz	9:time	10:x 11:y 12:z	13:data
# data columns: 13:betax 14:betay 15:betaz
#
#
#
#
#
#
#
#
#
3060	0 0 3 0	9 9 9	4.5000000000010001	-0.027777777777777783 -0.027777777777777783 -0.027777777777777783	0 0 0
3060	0 0 3 0	10 10 10	4.5000000000010001	0.027777777777777783 0.027777777777777783 0.027777777777777783	0 0 0
3060	0 0 3 0	11 11 11	4.5000000000010001	0.083333333333333343 0.083333333333333343 0.083333333333333343	0 0 0
3060	0 0 3 0	12 12 12	4.5000000000010001	0.13888888888888892 0.13888888888888892 0.13888888888888892	0 0 0
3060	0 0 3 0	13 13 13	4.5000000000010001	0.19444444444444448 0.19444444444444448 0.19444444444444448	0 0 0
3060	0 0 3 0	14 14 14	4.5000000000010001	0.25000000000000006 0.25000000000000006 0.25000000000000006	0 0 0
3060	0 0 3 0	15 15 15	4.5000000000010001	0.30555555555555558 0.30555555555555558 0.30555555555555558	0 0 0
3060	0 0 3 0	16 16 16	4.5000000000010001	0.36111111111111116 0.36111111111111116 0.36111111111111116	0 0 0
3060	0 0 3 0	17 17 17	4.5000000000010001	0.41666666666666674 0.41666666666666674 0.41666666666666674	0 0 0
3060	0 0 3 0	18 18 18	4.5000000000010001	0.47222222222222227 0.47222222222222227 0.47222222222222227	0 0 0
3060	0 0 3 0	19 19 19	4.5000000000010001	0.5277777777777779 0.5277777777777779 0.5277777777777779	0 0 0


# iteration 3230   time 4.7500000000010552
# time level 0
# refinement level 0   multigrid level 0   map 0   component 0
# column format: 1:it	2:tl	3:rl 4:c 5:ml	6:ix 7:iy 8:iz	9:time	10:x 11:y 12:z	13:data
# data columns: 13:betax 14:betay 15:betaz
3230	0 0 0 0	0 0 0	4.7500000000010552	-0.5277777777777779 -0.5277777777777779 -0.5277777777777779	0 0 0
3230	0 0 0 0	1 1 1	4.7500000000010552	-0.47222222222222227 -0.47222222222222227 -0.47222222222222227	0 0 0
3230	0 0 0 0	2 2 2	4.7500000000010552	-0.41666666666666674 -0.41666666666666674 -0.41666666666666674	0 0 0
3230	0 0 0 0	3 3 3	4.7500000000010552	-0.36111111111111116 -0.36111111111111116 -0.36111111111111116	0 0 0
3230	0 0 0 0	4 4 4	4.7500000000010552	-0.30555555555555558 -0.30555555555555558 -0.30555555555555558	0 0 0
3230	0 0 0 0	5 5 5	4.7500000000010552	-0.25000000000000006 -0.25000000000000006 -0.25000000000000006	0 0 0
3230	0 0 0 0	6 6 6	4.7500000000010552	-0.19444444444444448 -0.19444444444444448 -0.19444444444444448	0 0 0
3230	0 0 0 0	7 7 7	4.7500000000010552	-0.13888888888888892 -0.13888888888888892 -0.13888888888888892	0 0 0
3230	0 0 0 0	8 8 8	4.7500000000010552	-0.083333333333333343 -0.083333333333333343 -0.083333333333333343	0 0 0
3230	0 0 0 0	9 9 9	4.7500000000010552	-0.027777777777777783 -0.027777777777777783 -0.027777777777777783	0 0 0
3230	0 0 0 0	10 10 10	4.7500000000010552	0.027777777777777783 0.027777777777777783 0.027777777777777783	0 0 0
#
#
#
#
#
#
#
#
#

# iteration 3230   time 4.7500000000010552
# time level 0
# refinement level 0   multigrid level 0   map 0   component 1
# column format: 1:it	2:tl	3:rl 4:c 5:ml	6:ix 7:iy 8:iz	9:time	10:x 11:y 12:z	13:data
# data columns: 13:betax 14:betay 15:betaz
#
#
#
#
#
#
#
#
#
3230	0 0 1 0	9 9 9	4.7500000000010552	-0.027777777777777783 -0.027777777777777783 -0.027777777777777783	0 0 0
3230	0 0 1 0	10 10 10	4.7500000000010552	0.027777777777777783 0.027777777777777783 0.027777777777777783	0 0 0
#
#
#
#
#
#
#
#
#

# iteration 3230   time 4.7500000000010552
# time level 0
# refinement level 0   multigrid level 0   map 0   component 2
# column format: 1:it	2:tl	3:rl 4:c 5:ml	6:ix 7:iy 8:iz	9:time	10:x 11:y 12:z	13:data
# data columns: 13:betax 14:betay 15:betaz
#
#
#
#
#
#
#
#
#
3230	0 0 2 0	9 9 9	4.7500000000010552	-0.027777777777777783 -0.027777777777777783 -0.027777777777777783	0 0 0
3230	0 0 2 0	10 10 10	4.7500000000010552	0.027777777777777783 0.027777777777777783 0.027777777777777783	0 0 0
#
#
#
#
#
#
#
#
#

# iteration 3230   time 4.7500000000010552
# time level 0
# refinement level 0   multigrid level 0   map 0   component 3
# column format: 1:it	2:tl	3:rl 4:c 5:ml	6:ix 7:iy 8:iz	9:time	10:x 11:y 12:z	13:data
# data columns: 13:betax 14:betay 15:betaz
#
#
#
#
#
#
#
#
#
3230	0 0 3 0	9 9 9	4.7500000000010552	-0.027777777777777783 -0.027777777777777783 -0.027777777777777783	0 0 0
3230	0 0 3 0	10 10 10	4.7500000000010552	0.027777777777777783 0.027777777777777783 0.027777777777777783	0 0 0
3230	0 0 3 0	11 11 11	4.7500000000010552	0.083333333333333343 0.083333333333333343 0.083333333333333343	0 0 0
3230	0 0 3 0	12 12 12	4.7500000000010552	0.13888888888888892 0.13888888888888892 0.13888888888888892	0 0 0
3230	0 0 3 0	13 13 13	4.7500000000010552	0.19444444444444448 0.19444444444444448 0.19444444444444448	0 0 0
3230	0 0 3 0	14 14 14	4.7500000000010552	0.25000000000000006 0.25000000000000006 0.25000000000000006	0 0 0
3230	0 0 3 0	15 15 15	4.7500000000010552	0.30555555555555558 0.30555555555555558 0.30555555555555558	0 0 0
3230	0 0 3 0	16 16 16	4.7500000000010552	0.36111111111111116 0.36111111111111116 0.36111111111111116	0 0 0
3230	0 0 3 0	17 17 17	4.7500000000010552	0.41666666666666674 0.41666666666666674 0.41666666666666674	0 0 0
3230	0 0 3 0	18 18 18	4.7500000000010552	0.47222222222222227 0.47222222222222227 0.47222222222222227	0 0 0
3230	0 0 3 0	19 19 19	4.7500000000010552	0.5277777777777779 0.5277777777777779 0.5277777777777779	0 0 0


# iteration 3400   time 5.0000000000011111
# time level 0
# refinement level 0   multigrid level 0   map 0   component 0
# column format: 1:it	2:tl	3:rl 4:c 5:ml	6:ix 7:iy 8:iz	9:time	10:x 11:y 12:z	13:data
# data columns: 13:betax 14:betay 15:betaz
3400	0 0 0 0	0 0 0	5.0000000000011111	-0.5277777777777779 -0.5277777777777779 -0.5277777777777779	0 0 0
3400	0 0 0 0	1 1 1	5.0000000000011111	-0.47222222222222227 -0.47222222222222227 -0.47222222222222227	0 0 0
3400	0 0 0 0	2 2 2	5.0000000000011111	-0.41666666666666674 -0.41666666666666674 -0.41666666666666674	0 0 0
3400	0 0 0 0	3 3 3	5.0000000000011111	-0.36111111111111116 -0.36111111111111116 -0.36111111111111116	0 0 0
3400	0 0 0 0	4 4 4	5.0000000000011111	-0.30555555555555558 -0.30555555555555558 -0.30555555555555558	0 0 0
3400	0 0 0 0	5 5 5	5.0000000000011111	-0.25000000000000006 -0.25000000000000006 -0.25000000000000006	0 0 0
3400	0 0 0 0	6 6 6	5.0000000000011111	-0.19444444444444448 -0.19444444444444448 -0.19444444444444448	0 0 0
3400	0 0 0 0	7 7 7	5.0000000000011111	-0.13888888888888892 -0.13888888888888892 -0.13888888888888892	0 0 0
3400	0 0 0 0	8 8 8	5.0000000000011111	-0.083333333333333343 -0.083333333333333343 -0.083333333333333343	0 0 0
3400	0 0 0 0	9 9 9	5.0000000000011111	-0.027777777777777783 -0.027777777777777783 -0.027777777777777783	0 0 0
3400	0 0 0 0	10 10 10	5.0000000000011111	0.027777777777777783 0.027777777777777783 0.027777777777777783	0 0 0
#
#
#
#
#
#
#
#
#

# iteration 3400   time 5.0000000000011111
# time level 0
# refinement level 0   multigrid level 0   map 0   component 1
# column format: 1:it	2:tl	3:rl 4:c 5:ml	6:ix 7:iy 8:iz	9:time	10:x 11:y 12:z	13:data
# data columns: 13:betax 14:betay 15:betaz
#
#
#
#
#
#
#
#
#
3400	0 0 1 0	9 9 9	5.0000000000011111	-0.027777777777777783 -0.027777777777777783 -0.027777777777777783	0 0 0
3400	0 0 1 0	10 10 10	5.0000000000011111	0.027777777777777783 0.027777777777777783 0.027777777777777783	0 0 0
#
#
#
#
#
#
#
#
#

# iteration 3400   time 5.0000000000011111
# time level 0
# refinement level 0   multigrid level 0   map 0   component 2
# column format: 1:it	2:tl	3:rl 4:c 5:ml	6:ix 7:iy 8:iz	9:time	10:x 11:y 12:z	13:data
# data columns: 13:betax 14:betay 15:betaz
#
#
#
#
#
#
#
#
#
3400	0 0 2 0	9 9 9	5.0000000000011111	-0.027777777777777783 -0.027777777777777783 -0.027777777777777783	0 0 0
3400	0 0 2 0	10 10 10	5.0000000000011111	0.027777777777777783 0.027777777777777783 0.027777777777777783	0 0 0
#
#
#
#
#
#
#
#
#

# iteration 3400   time 5.0000000000011111
# time level 0
# refinement level 0   multigrid level 0   map 0   component 3
# column format: 1:it	2:tl	3:rl 4:c 5:ml	6:ix 7:iy 8:iz	9:time	10:x 11:y 12:z	13:data
# data columns: 13:betax 14:betay 15:betaz
#
#
#
#
#
#
#
#
#
3400	0 0 3 0	9 9 9	5.0000000000011111	-0.027777777777777783 -0.027777777777777783 -0.027777777777777783	0 0 0
3400	0 0 3 0	10 10 10	5.0000000000011111	0.027777777777777783 0.027777777777777783 0.027777777777777783	0 0 0
3400	0 0 3 0	11 11 11	5.0000000000011111	0.083333333333333343 0.083333333333333343 0.083333333333333343	0 0 0
3400	0 0 3 0	12 12 12	5.0000000000011111	0.13888888888888892 0.13888888888888892 0.13888888888888892	0 0 0
3400	0 0 3 0	13 13 13	5.0000000000011111	0.19444444444444448 0.19444444444444448 0.19444444444444448	0 0 0
3400	0 0 3 0	14 14 14	5.0000000000011111	0.25000000000000006 0.25000000000000006 0.25000000000000006	0 0 0
3400	0 0 3 0	15 15 15	5.0000000000011111	0.30555555555555558 0.30555555555555558 0.30555555555555558	0 0 0
3400	0 0 3 0	16 16 16	5.0000000000011111	0.36111111111111116 0.36111111111111116 0.36111111111111116	0 0 0
3400	0 0 3 0	17 17 17	5.0000000000011111	0.41666666666666674 0.41666666666666674 0.41666666666666674	0 0 0
3400	0 0 3 0	18 18 18	5.0000000000011111	0.47222222222222227 0.47222222222222227 0.47222222222222227	0 0 0
3400	0 0 3 0	19 19 19	5.0000000000011111	0.5277777777777779 0.5277777777777779 0.5277777777777779	0 0 0


