{
    "jobid": "run-gauge_wave-nid00200-miller1-2016.03.01-00.19.09-921",
    "jobtype": "default",
    "app_title": "",
    "start_time": "Feb 29 2016 18:19:09-0600",
    "project_name": "",
    "output_files": "gauge_wave",
    "host": "nid00200",
    "nprocs": 4,
    "portal_username": "",
    "local_username": "miller1",
    "parameter_filename": "/scratch/sciteam/miller1/simulations/trunc_rho_bssn_dg8_gauge_wave_3D_rho_1_v2/output-0000/gauge_wave.par",
    "executable": "/scratch/sciteam/miller1/simulations/trunc_rho_bssn_dg8_gauge_wave_3D_rho_1_v2/SIMFACTORY/exe/cactus_dgfe2",
    "data_directory": "gauge_wave",
    "app_visibility": "public",
    "notification_reports": "",
    "notification_methods": "",
    "Cactus_version": "4.2.3",
    "config_id": "config-dgfe2-h2ologin1.ncsa.illinois.edu-mnt-a-u-sciteam-miller1-Cactus",
    "build_id": "build-dgfe2-h2ologin1.ncsa.illinois.edu-miller1-2016.02.08-01.00.23-31758",
    "compile_date": "Feb 07 2016",
    "compile_time": "19:02:29",
    "simulation_id": "run-gauge_wave-nid00200-miller1-2016.03.01-00.19.09-921",
    "run_id": "run-gauge_wave-nid00200-miller1-2016.03.01-00.19.09-921",
    "run_user": "miller1",
    "run_date": "Feb 29 2016",
    "run_time": "18:19:09-0600",
    "run_host": "nid00200",
    "run_title": "",
    "argc": 4,
    "argv[0]": "/scratch/sciteam/miller1/simulations/trunc_rho_bssn_dg8_gauge_wave_3D_rho_1_v2/SIMFACTORY/exe/cactus_dgfe2",
    "argv[1]": "-L",
    "argv[2]": "3",
    "argv[3]": "/scratch/sciteam/miller1/simulations/trunc_rho_bssn_dg8_gauge_wave_3D_rho_1_v2/output-0000/gauge_wave.par",
    "parameter_filename": "/scratch/sciteam/miller1/simulations/trunc_rho_bssn_dg8_gauge_wave_3D_rho_1_v2/output-0000/gauge_wave.par",
    "parameter_file": "\n#############################################################\n# Thorns\n#############################################################\nActiveThorns = \"\n  ADMBase\n  ADMCoupling\n  ADMMacros\n  Boundary\n  Carpet\n  CarpetIOASCII\n  CarpetIOBasic\n  CarpetIOHDF5\n  CarpetIOScalar\n  CarpetLib\n  CarpetReduce\n  CartGrid3d\n  CoordBase\n  CoordGauge\n  Coordinates\n  Formaline\n  GaugeWave\n  GenericFD\n  hwloc\n  IOUtil\n  LoopControl\n  MoL\n  NanChecker\n  NewRad\n  Periodic\n  Slab\n  SpaceMask\n  SphericalSurface\n  StaticConformal\n  SymBase\n  SystemStatistics\n  Time\n  TmunuBase\n\"\n\n#############################################################\n# Carpet\n#############################################################\n\nCarpet::domain_from_multipatch          = \"yes\"\nCarpet::max_refinement_levels           = 1\nCarpet::num_integrator_substeps         = 13\nCarpet::output_timer_tree_every         = 1\nLoopControl::verbose                    = no\n\nCarpet::poison_new_timelevels  = no # Does not work with persistent RHS\n\n#############################################################\n# Grid\n#############################################################\n\nCoordinates::coordinate_system          = \"Cartesian\"\n\nCoordinates::store_jacobian             = no\nCoordinates::store_jacobian_derivative  = no\nCoordinates::store_inverse_Jacobian     = no\nCoordinates::store_volume_form          = no\n\nCoordinates::stagger_patch_boundaries   = yes\nCoordinates::stagger_outer_boundaries   = yes\n\nCoordinates::patch_xmin                 = -0.5\nCoordinates::patch_ymin                 = -0.5\nCoordinates::patch_zmin                 = -0.5\n\nCoordinates::patch_xmax                 = 0.5\nCoordinates::patch_ymax                 = 0.5\nCoordinates::patch_zmax                 = 0.5\n\nCoordinates::ncells_x                   = 18   # 2*(order+1)*n\nCoordinates::ncells_y                   = 18\nCoordinates::ncells_z                   = 18\n\nCartGrid3D::type                        = \"multipatch\"\nPeriodic::periodic = \"yes\"\nCoordinates::register_symmetry = \"no\"\n\n\n#############################################################\n# Time integration\n#############################################################\n\nCactus::terminate                       = \"time\"\nCactus::cctk_final_time                 = 5.0\n\nMoL::ODE_Method                         = \"RK87\"\nMoL::MoL_Intermediate_Steps             = 13\nMoL::MoL_Num_Scratch_Levels             = 13\n\nTime::dtfac                             = 0.0264705882353\n\nMethodOfLines::init_RHS_zero          = \"no\"\nMethodOfLines::MoL_NaN_Check          = \"yes\"\n\n#############################################################\n# Initial data\n#############################################################\n\nADMBase::initial_data                = \"GaugeWave\"\nADMBase::initial_lapse               = \"GaugeWave\"\nADMBase::initial_shift               = \"GaugeWave\"\nADMBase::initial_dtlapse             = \"GaugeWave\"\nADMBase::initial_dtshift             = \"GaugeWave\"\n\nGaugeWave::amp                          = 0.01\nGaugeWave::period                       = 0.57735026919\n\nGaugeWave::psi = -1.92167573767\nGaugeWave::theta = 0.662145235646\nGaugeWave::phi = 1.21991691592\n\n# Outputs exact data too. Convenient for comparisons.\nGaugeWave::exact_method = \"GaugeWave\"\n\n#############################################################\n# DGFE_BSSN\n#############################################################\n\nActiveThorns = \"\n   ML_BSSN_DG8\n\"\n\n\nADMBase::evolution_method               = \"ML_BSSN_DG8\"\nADMBase::lapse_evolution_method         = \"ML_BSSN_DG8\"\nADMBase::shift_evolution_method         = \"ML_BSSN_DG8\"\nADMBase::dtlapse_evolution_method       = \"ML_BSSN_DG8\"\nADMBase::dtshift_evolution_method       = \"ML_BSSN_DG8\"\n\n\n# Gauge conditions\n\nML_BSSN_DG8::harmonicN           = 2     # harmonic\nML_BSSN_DG8::harmonicF           = 1.0   # harmonic\nML_BSSN_DG8::shiftFormulation    = 0     # gamma driver\nML_BSSN_DG8::evolveB             = 0     # Do not evolve the shift (harmonic)\nML_BSSN_DG8::shiftGammaCoeff     = 0     # Do not evolve the shift (gamma driver)\nML_BSSN_DG8::BetaDriver          = 1\nML_BSSN_DG8::advectLapse         = 1\nML_BSSN_DG8::advectShift         = 1\nML_BSSN_DG8::minimumLapse        = 1e-8\nML_BSSN_DG8::conformalMethod     = 0     # 1 for W, 0 for phi\nML_BSSN_DG8::epsDiss             = 0\nML_BSSN_DG8::epsJump             = 0.0\n\n# Extra grid information\nCarpet::ghost_size                      = 1\nCarpet::granularity                     = 9   # order+1\nCarpet::granularity_boundary            = 1\n\n# Extra initial data\nML_BSSN_DG8::initial_boundary_condition = \"Minkowski\" # can't extrapolate\nML_BSSN_DG8::rhs_boundary_condition = \"zero\"          # newrad doesn't work\n\n# Set the tile size\nML_BSSN_DG8::tile_size = 9\n\nCarpetIOBasic::outInfo_vars         = \"\n   Carpet::physical_time_per_hour\n   SystemStatistics::maxrss_mb\n   SystemStatistics::swap_used_mb\n\"\n\nCarpetIOScalar::outScalar_vars      = \"\n   ADMBase::metric\n   ADMBase::curv\n   ADMBase::lapse\n   ADMBase::shift\n   ADMBase::dtshift\n   GaugeWave::metric_exact\n   GaugeWave::curv_exact\n   GaugeWave::lapse_exact\n   GaugeWave::shift_exact\n\"\n\nIOASCII::out1D_vars           =\" \n   grid::coordinates\n   CarpetReduce::weight\n   ADMBase::metric\n   ADMBase::curv\n   ADMBase::lapse\n   ADMBase::shift\n   ADMBase::dtshift\n   GaugeWave::metric_exact\n   GaugeWave::curv_exact\n   GaugeWave::lapse_exact\n   GaugeWave::shift_exact\n\"\n\nIOHDF5::out1D_vars           = \"\n   grid::coordinates\n   CarpetReduce::weight\n   ADMBase::metric\n   ADMBase::curv\n   GaugeWave::metric_exact\n   GaugeWave::curv_exact\n\"\n\nIOHDF5::out3D_vars           = \"\n   grid::coordinates\n   CarpetReduce::weight\n   ADMBase::metric\n   ADMBase::curv\n   GaugeWave::metric_exact\n   GaugeWave::curv_exact\n\"\n\n\n#############################################################\n# Checkpointing and recovery\n#############################################################\n\nCarpetIOHDF5::checkpoint                    = no\nIO::checkpoint_ID                           = no\nIO::recover                                 = \"autoprobe\"\nIO::checkpoint_every_walltime_hours         = 3\nIO::out_proc_every                          = 2\nIO::checkpoint_keep                         = 1\nIO::checkpoint_on_terminate                 = yes\nIO::checkpoint_dir                          = \"../checkpoints\"\nIO::recover_dir                             = \"../checkpoints\"\nIO::abort_on_io_errors                      = yes\nCarpetIOHDF5::open_one_input_file_at_a_time = yes\n\n#############################################################\n# Output\n#############################################################\n\nIO::out_dir                   = $parfile\nIO::out_fileinfo              = \"all\"\n\nCarpetIOBasic::outInfo_every        = 170\nCarpetIOBasic::outInfo_reductions   = \"maximum minimum norm2\"\nCarpetIOScalar::outScalar_every     = 170\nCarpetIOScalar::one_file_per_group  = yes\nCarpetIOScalar::outScalar_reductions = \"minimum maximum norm2\"\nIOASCII::out_precision = 17\nIOASCII::out1D_every          = 170\nIOASCII::one_file_per_group   = yes\nIOHDF5::out1D_every          = 170\nIOHDF5::out3D_every          = 170\nIOHDF5::one_file_per_group   = yes\n",
    "current_dir": "/mnt/c/scratch/sciteam/miller1/simulations/trunc_rho_bssn_dg8_gauge_wave_3D_rho_1_v2/output-0000",
    "out_dir": "gauge_wave",
    "thorns": {
        "Accelerator": "inactive",
        "ADMAnalysis": "inactive",
        "ADMBase": "active",
        "ADMCoupling": "active",
        "ADMMacros": "active",
        "ADMMass": "inactive",
        "AEILocalInterp": "inactive",
        "AHFinder": "inactive",
        "AHFinderDirect": "inactive",
        "Boundary": "active",
        "Cactus": "active",
        "CalcK": "inactive",
        "Carpet": "active",
        "CarpetEvolutionMask": "inactive",
        "CarpetIntegrateTest": "inactive",
        "CarpetInterp": "inactive",
        "CarpetInterp2": "inactive",
        "CarpetIOASCII": "active",
        "CarpetIOBasic": "active",
        "CarpetIOHDF5": "active",
        "CarpetIOScalar": "active",
        "CarpetLib": "active",
        "CarpetMask": "inactive",
        "CarpetProlongateTest": "inactive",
        "CarpetReduce": "active",
        "CarpetRegrid": "inactive",
        "CarpetRegrid2": "inactive",
        "CarpetRegridTest": "inactive",
        "CarpetSlab": "inactive",
        "CarpetTracker": "inactive",
        "CartGrid3D": "active",
        "Cartoon2D": "inactive",
        "Constants": "inactive",
        "CoordBase": "active",
        "CoordGauge": "active",
        "Coordinates": "active",
        "CycleClock": "active",
        "DemoInterp": "inactive",
        "Dissipation": "inactive",
        "DistortedBHIVP": "inactive",
        "EHFinder": "inactive",
        "EinsteinExact_Test": "inactive",
        "EllBase": "inactive",
        "EllSOR": "inactive",
        "EOS_Base": "inactive",
        "EOS_Hybrid": "inactive",
        "EOS_IdealFluid": "inactive",
        "EOS_Omni": "inactive",
        "EOS_Polytrope": "inactive",
        "Exact": "inactive",
        "Extract": "inactive",
        "FFTW3": "inactive",
        "FleshInfo": "inactive",
        "Formaline": "active",
        "Fortran": "inactive",
        "GaugeWave": "active",
        "GenericFD": "active",
        "GlobalDerivative": "inactive",
        "GRHydro": "inactive",
        "GRHydro_InitData": "inactive",
        "GSL": "inactive",
        "HDF5": "active",
        "HelloWorld": "inactive",
        "HelloWorldCUDA": "inactive",
        "HelloWorldOpenCL": "inactive",
        "HighOrderWaveTest": "inactive",
        "HTTPD": "inactive",
        "HTTPDExtra": "inactive",
        "hwloc": "active",
        "Hydro_Analysis": "inactive",
        "Hydro_InitExcision": "inactive",
        "HydroBase": "inactive",
        "IDAnalyticBH": "inactive",
        "IDAxiBrillBH": "inactive",
        "IDAxiOddBrillBH": "inactive",
        "IDBrillData": "inactive",
        "IDConstraintViolate": "inactive",
        "IDFileADM": "inactive",
        "IDLinearWaves": "inactive",
        "IDScalarWave": "inactive",
        "IDScalarWaveC": "inactive",
        "IDScalarWaveCXX": "inactive",
        "IDScalarWaveElliptic": "inactive",
        "IDWaveMoL": "inactive",
        "InitBase": "inactive",
        "Interpolate2": "inactive",
        "InterpToArray": "inactive",
        "IOASCII": "inactive",
        "IOBasic": "inactive",
        "IOHDF5": "inactive",
        "IOHDF5Util": "inactive",
        "IOJpeg": "inactive",
        "IOUtil": "active",
        "KerrSchild": "inactive",
        "libjpeg": "inactive",
        "LocalInterp": "inactive",
        "LocalReduce": "inactive",
        "LoopControl": "active",
        "MemSpeed": "inactive",
        "Minkowski": "inactive",
        "ML_ADMConstraints": "inactive",
        "ML_ADMQuantities": "inactive",
        "ML_BSSN": "inactive",
        "ML_BSSN_DG16": "inactive",
        "ML_BSSN_DG2": "inactive",
        "ML_BSSN_DG4": "inactive",
        "ML_BSSN_DG8": "active",
        "ML_BSSN_FD4": "inactive",
        "ML_BSSN_Helper": "inactive",
        "ML_BSSN_Test": "inactive",
        "ML_CCZ4": "inactive",
        "ML_CCZ4_Helper": "inactive",
        "ML_CCZ4_Test": "inactive",
        "ML_LocalInterp": "inactive",
        "ML_Test_DG4": "inactive",
        "ML_Test_FD4": "inactive",
        "ML_TestCases": "inactive",
        "ML_WaveToy": "inactive",
        "ML_WaveToy_CL": "inactive",
        "ML_WaveToy_DG16": "inactive",
        "ML_WaveToy_DG2": "inactive",
        "ML_WaveToy_DG4": "inactive",
        "ML_WaveToy_DG8": "inactive",
        "ML_WaveToy_FD4": "inactive",
        "ML_WaveToy_FD8": "inactive",
        "ML_WaveToy_Test": "inactive",
        "ModifiedSchwarzschildBL": "inactive",
        "MoL": "active",
        "MPI": "active",
        "Multipole": "inactive",
        "NaNCatcher": "inactive",
        "NaNChecker": "active",
        "NewRad": "active",
        "Nice": "inactive",
        "NoExcision": "inactive",
        "Noise": "inactive",
        "NoMPI": "inactive",
        "Norms": "inactive",
        "NullConstr": "inactive",
        "NullDecomp": "inactive",
        "NullEvolve": "inactive",
        "NullExact": "inactive",
        "NullGrid": "inactive",
        "NullInterp": "inactive",
        "NullNews": "inactive",
        "NullPsiInt": "inactive",
        "NullSHRExtract": "inactive",
        "NullVars": "inactive",
        "OpenBLAS": "active",
        "OpenCL": "inactive",
        "OpenCLRunTime": "inactive",
        "OpenSSL": "inactive",
        "Outflow": "inactive",
        "PAPI": "inactive",
        "Periodic": "active",
        "PeriodicCarpet": "inactive",
        "Poisson": "inactive",
        "PUGH": "inactive",
        "PUGHInterp": "inactive",
        "PUGHReduce": "inactive",
        "PUGHSlab": "inactive",
        "PunctureTracker": "inactive",
        "QuasiLocalMeasures": "inactive",
        "ReductionTest": "inactive",
        "ReductionTest2": "inactive",
        "ReductionTest3": "inactive",
        "ReflectionSymmetry": "inactive",
        "RegridSyncTest": "inactive",
        "RotatingDBHIVP": "inactive",
        "RotatingSymmetry180": "inactive",
        "RotatingSymmetry90": "inactive",
        "SampleBoundary": "inactive",
        "SampleIO": "inactive",
        "SetMask_SphericalSurface": "inactive",
        "ShiftedGaugeWave": "inactive",
        "Slab": "active",
        "SlabTest": "inactive",
        "Socket": "inactive",
        "SpaceMask": "active",
        "SphericalHarmonicDecomp": "inactive",
        "SphericalHarmonicRecon": "inactive",
        "SphericalSlice": "inactive",
        "SphericalSurface": "active",
        "StaticConformal": "active",
        "SummationByParts": "inactive",
        "SymBase": "active",
        "SystemStatistics": "active",
        "TATelliptic": "inactive",
        "TensorTypes": "active",
        "TerminationTrigger": "inactive",
        "TestCarpetGridInfo": "inactive",
        "TestComplex": "inactive",
        "TestCoordinates": "inactive",
        "TestFortranCrayPointers": "inactive",
        "TestFortranDependencies1": "inactive",
        "TestFortranDependencies2": "inactive",
        "TestFpointerNULL": "inactive",
        "TestFreeF90": "inactive",
        "TestGlobalReduce": "inactive",
        "TestInclude1": "inactive",
        "TestInclude2": "inactive",
        "TestLocalReduce": "inactive",
        "TestLoop": "inactive",
        "TestLoopControl": "inactive",
        "TestMath": "inactive",
        "TestMoL": "inactive",
        "TestPar": "inactive",
        "TestReduce": "inactive",
        "TestSchedule": "inactive",
        "TestStrings": "inactive",
        "TestTable": "inactive",
        "TestTimers": "inactive",
        "TestTypes": "inactive",
        "TGRtensor": "active",
        "Time": "active",
        "TimerInfo": "inactive",
        "TimerReport": "inactive",
        "Timers": "active",
        "TmunuBase": "active",
        "TOVSolver": "inactive",
        "Trigger": "inactive",
        "TwoPunctures": "inactive",
        "Vaidya2": "inactive",
        "Vectors": "active",
        "WaveBinarySource": "inactive",
        "WaveMoL": "inactive",
        "WaveToy1DF77": "inactive",
        "WaveToy2DF77": "inactive",
        "WaveToyC": "inactive",
        "WaveToyCXX": "inactive",
        "WaveToyExtra": "inactive",
        "WaveToyF77": "inactive",
        "WaveToyF90": "inactive",
        "WaveToyFreeF90": "inactive",
        "WaveToyOpenCL": "inactive",
        "WeylScal4": "inactive",
        "zlib": "active"
    },
    "thorn_arrangements": {
        "ADMAnalysis": "EinsteinAnalysis",
        "ADMBase": "EinsteinBase",
        "ADMCoupling": "EinsteinBase",
        "ADMMacros": "EinsteinBase",
        "ADMMass": "AEIThorns",
        "AEILocalInterp": "AEIThorns",
        "AHFinder": "EinsteinAnalysis",
        "AHFinderDirect": "EinsteinAnalysis",
        "Accelerator": "CactusUtils",
        "Boundary": "CactusBase",
        "CalcK": "EinsteinAnalysis",
        "Carpet": "Carpet",
        "CarpetEvolutionMask": "Carpet",
        "CarpetIOASCII": "Carpet",
        "CarpetIOBasic": "Carpet",
        "CarpetIOHDF5": "Carpet",
        "CarpetIOScalar": "Carpet",
        "CarpetIntegrateTest": "Carpet",
        "CarpetInterp": "Carpet",
        "CarpetInterp2": "Carpet",
        "CarpetLib": "Carpet",
        "CarpetMask": "Carpet",
        "CarpetProlongateTest": "Carpet",
        "CarpetReduce": "Carpet",
        "CarpetRegrid": "Carpet",
        "CarpetRegrid2": "Carpet",
        "CarpetRegridTest": "Carpet",
        "CarpetSlab": "Carpet",
        "CarpetTracker": "Carpet",
        "CartGrid3D": "CactusBase",
        "Cartoon2D": "CactusNumerical",
        "Constants": "EinsteinBase",
        "CoordBase": "CactusBase",
        "CoordGauge": "EinsteinBase",
        "Coordinates": "Llama",
        "CycleClock": "Carpet",
        "DemoInterp": "CactusExamples",
        "Dissipation": "CactusNumerical",
        "DistortedBHIVP": "EinsteinInitialData",
        "EHFinder": "EinsteinAnalysis",
        "EOS_Base": "EinsteinBase",
        "EOS_Hybrid": "EinsteinEOS",
        "EOS_IdealFluid": "EinsteinEOS",
        "EOS_Omni": "EinsteinEOS",
        "EOS_Polytrope": "EinsteinEOS",
        "EinsteinExact_Test": "EinsteinExact",
        "EllBase": "CactusElliptic",
        "EllSOR": "CactusElliptic",
        "Exact": "EinsteinInitialData",
        "Extract": "EinsteinAnalysis",
        "FFTW3": "ExternalLibraries",
        "FleshInfo": "CactusExamples",
        "Formaline": "CactusUtils",
        "Fortran": "CactusBase",
        "GRHydro": "EinsteinEvolve",
        "GRHydro_InitData": "EinsteinEvolve",
        "GSL": "ExternalLibraries",
        "GaugeWave": "EinsteinExact",
        "GenericFD": "KrancNumericalTools",
        "GlobalDerivative": "Llama",
        "HDF5": "ExternalLibraries",
        "HTTPD": "CactusConnect",
        "HTTPDExtra": "CactusConnect",
        "HelloWorld": "CactusExamples",
        "HelloWorldCUDA": "CactusExamples",
        "HelloWorldOpenCL": "CactusExamples",
        "HighOrderWaveTest": "Carpet",
        "HydroBase": "EinsteinBase",
        "Hydro_Analysis": "EinsteinAnalysis",
        "Hydro_InitExcision": "EinsteinInitialData",
        "IDAnalyticBH": "EinsteinInitialData",
        "IDAxiBrillBH": "EinsteinInitialData",
        "IDAxiOddBrillBH": "EinsteinInitialData",
        "IDBrillData": "EinsteinInitialData",
        "IDConstraintViolate": "EinsteinInitialData",
        "IDFileADM": "EinsteinInitialData",
        "IDLinearWaves": "EinsteinInitialData",
        "IDScalarWave": "CactusWave",
        "IDScalarWaveC": "CactusWave",
        "IDScalarWaveCXX": "CactusWave",
        "IDScalarWaveElliptic": "CactusWave",
        "IDWaveMoL": "CactusExamples",
        "IOASCII": "CactusBase",
        "IOBasic": "CactusBase",
        "IOHDF5": "CactusPUGHIO",
        "IOHDF5Util": "CactusPUGHIO",
        "IOJpeg": "CactusIO",
        "IOUtil": "CactusBase",
        "InitBase": "CactusBase",
        "InterpToArray": "CactusNumerical",
        "Interpolate2": "Llama",
        "KerrSchild": "EinsteinExact",
        "LocalInterp": "CactusNumerical",
        "LocalReduce": "CactusNumerical",
        "LoopControl": "Carpet",
        "ML_ADMConstraints": "McLachlan",
        "ML_ADMQuantities": "McLachlan",
        "ML_BSSN": "McLachlan",
        "ML_BSSN_DG16": "McLachlan_dgfe2",
        "ML_BSSN_DG2": "McLachlan_dgfe2",
        "ML_BSSN_DG4": "McLachlan_dgfe2",
        "ML_BSSN_DG8": "McLachlan_dgfe2",
        "ML_BSSN_FD4": "McLachlan_dgfe2",
        "ML_BSSN_Helper": "McLachlan",
        "ML_BSSN_Test": "McLachlan",
        "ML_CCZ4": "McLachlan",
        "ML_CCZ4_Helper": "McLachlan",
        "ML_CCZ4_Test": "McLachlan",
        "ML_LocalInterp": "McLachlan_dgfe2",
        "ML_TestCases": "McLachlan_dgfe2",
        "ML_Test_DG4": "McLachlan_dgfe2",
        "ML_Test_FD4": "McLachlan_dgfe2",
        "ML_WaveToy": "McLachlan",
        "ML_WaveToy_CL": "McLachlan",
        "ML_WaveToy_DG16": "McLachlan_dgfe2",
        "ML_WaveToy_DG2": "McLachlan_dgfe2",
        "ML_WaveToy_DG4": "McLachlan_dgfe2",
        "ML_WaveToy_DG8": "McLachlan_dgfe2",
        "ML_WaveToy_FD4": "McLachlan_dgfe2",
        "ML_WaveToy_FD8": "McLachlan_dgfe2",
        "ML_WaveToy_Test": "McLachlan",
        "MPI": "ExternalLibraries",
        "MemSpeed": "CactusUtils",
        "Minkowski": "EinsteinExact",
        "MoL": "CactusNumerical",
        "ModifiedSchwarzschildBL": "EinsteinExact",
        "Multipole": "EinsteinAnalysis",
        "NaNCatcher": "CactusUtils",
        "NaNChecker": "CactusUtils",
        "NewRad": "EinsteinEvolve",
        "Nice": "CactusUtils",
        "NoExcision": "EinsteinInitialData",
        "NoMPI": "CactusUtils",
        "Noise": "CactusNumerical",
        "Norms": "CactusNumerical",
        "NullConstr": "PITTNullCode",
        "NullDecomp": "PITTNullCode",
        "NullEvolve": "PITTNullCode",
        "NullExact": "PITTNullCode",
        "NullGrid": "PITTNullCode",
        "NullInterp": "PITTNullCode",
        "NullNews": "PITTNullCode",
        "NullPsiInt": "PITTNullCode",
        "NullSHRExtract": "PITTNullCode",
        "NullVars": "PITTNullCode",
        "OpenBLAS": "ExternalLibraries",
        "OpenCL": "ExternalLibraries",
        "OpenCLRunTime": "CactusUtils",
        "OpenSSL": "ExternalLibraries",
        "Outflow": "EinsteinAnalysis",
        "PAPI": "ExternalLibraries",
        "PUGH": "CactusPUGH",
        "PUGHInterp": "CactusPUGH",
        "PUGHReduce": "CactusPUGH",
        "PUGHSlab": "CactusPUGH",
        "Periodic": "CactusNumerical",
        "PeriodicCarpet": "LSUThorns",
        "Poisson": "CactusExamples",
        "PunctureTracker": "AEIThorns",
        "QuasiLocalMeasures": "LSUThorns",
        "ReductionTest": "Carpet",
        "ReductionTest2": "Carpet",
        "ReductionTest3": "Carpet",
        "ReflectionSymmetry": "CactusNumerical",
        "RegridSyncTest": "Carpet",
        "RotatingDBHIVP": "EinsteinInitialData",
        "RotatingSymmetry180": "CactusNumerical",
        "RotatingSymmetry90": "CactusNumerical",
        "SampleBoundary": "CactusExamples",
        "SampleIO": "CactusExamples",
        "SetMask_SphericalSurface": "EinsteinUtils",
        "ShiftedGaugeWave": "EinsteinExact",
        "Slab": "CactusNumerical",
        "SlabTest": "CactusNumerical",
        "Socket": "CactusConnect",
        "SpaceMask": "CactusNumerical",
        "SphericalHarmonicDecomp": "PITTNullCode",
        "SphericalHarmonicRecon": "PITTNullCode",
        "SphericalSlice": "Llama",
        "SphericalSurface": "CactusNumerical",
        "StaticConformal": "EinsteinBase",
        "SummationByParts": "LSUThorns",
        "SymBase": "CactusBase",
        "SystemStatistics": "AEIThorns",
        "TATelliptic": "CactusElliptic",
        "TGRtensor": "EinsteinUtils",
        "TOVSolver": "EinsteinInitialData",
        "TensorTypes": "AEIThorns",
        "TerminationTrigger": "CactusUtils",
        "TestCarpetGridInfo": "Carpet",
        "TestComplex": "CactusTest",
        "TestCoordinates": "CactusTest",
        "TestFortranCrayPointers": "CactusTest",
        "TestFortranDependencies1": "CactusTest",
        "TestFortranDependencies2": "CactusTest",
        "TestFpointerNULL": "CactusTest",
        "TestFreeF90": "CactusTest",
        "TestGlobalReduce": "CactusTest",
        "TestInclude1": "CactusTest",
        "TestInclude2": "CactusTest",
        "TestLocalReduce": "CactusNumerical",
        "TestLoop": "CactusTest",
        "TestLoopControl": "Carpet",
        "TestMath": "CactusTest",
        "TestMoL": "CactusTest",
        "TestPar": "CactusTest",
        "TestReduce": "CactusTest",
        "TestSchedule": "CactusTest",
        "TestStrings": "CactusTest",
        "TestTable": "CactusTest",
        "TestTimers": "CactusTest",
        "TestTypes": "CactusTest",
        "Time": "CactusBase",
        "TimerInfo": "CactusExamples",
        "TimerReport": "CactusUtils",
        "Timers": "Carpet",
        "TmunuBase": "EinsteinBase",
        "Trigger": "AEIThorns",
        "TwoPunctures": "EinsteinInitialData",
        "Vaidya2": "EinsteinExact",
        "Vectors": "LSUThorns",
        "WaveBinarySource": "CactusWave",
        "WaveMoL": "CactusExamples",
        "WaveToy1DF77": "CactusExamples",
        "WaveToy2DF77": "CactusExamples",
        "WaveToyC": "CactusWave",
        "WaveToyCXX": "CactusWave",
        "WaveToyExtra": "CactusWave",
        "WaveToyF77": "CactusWave",
        "WaveToyF90": "CactusWave",
        "WaveToyFreeF90": "CactusWave",
        "WaveToyOpenCL": "CactusExamples",
        "WeylScal4": "EinsteinAnalysis",
        "hwloc": "ExternalLibraries",
        "libjpeg": "ExternalLibraries",
        "zlib": "ExternalLibraries"
    },
    "parameters": {
        "ADMBase::dtlapse_evolution_method": "ML_BSSN_DG8",
        "ADMBase::dtshift_evolution_method": "ML_BSSN_DG8",
        "ADMBase::evolution_method": "ML_BSSN_DG8",
        "ADMBase::initial_data": "GaugeWave",
        "ADMBase::initial_dtlapse": "GaugeWave",
        "ADMBase::initial_dtshift": "GaugeWave",
        "ADMBase::initial_lapse": "GaugeWave",
        "ADMBase::initial_shift": "GaugeWave",
        "ADMBase::lapse_evolution_method": "ML_BSSN_DG8",
        "ADMBase::shift_evolution_method": "ML_BSSN_DG8",
        "Cactus::cctk_final_time": 5,
        "Cactus::terminate": "time",
        "Carpet::domain_from_multipatch": true,
        "Carpet::ghost_size": 1,
        "Carpet::granularity": 9,
        "Carpet::granularity_boundary": 1,
        "Carpet::max_refinement_levels": 1,
        "Carpet::num_integrator_substeps": 13,
        "Carpet::output_timer_tree_every": 1,
        "Carpet::poison_new_timelevels": false,
        "CarpetIOASCII::one_file_per_group": true,
        "CarpetIOASCII::out1D_every": 170,
        "CarpetIOASCII::out1D_vars": " \n   grid::coordinates\n   CarpetReduce::weight\n   ADMBase::metric\n   ADMBase::curv\n   ADMBase::lapse\n   ADMBase::shift\n   ADMBase::dtshift\n   GaugeWave::metric_exact\n   GaugeWave::curv_exact\n   GaugeWave::lapse_exact\n   GaugeWave::shift_exact\n",
        "CarpetIOASCII::out_precision": 17,
        "CarpetIOBasic::outInfo_every": 170,
        "CarpetIOBasic::outInfo_reductions": "maximum minimum norm2",
        "CarpetIOBasic::outInfo_vars": "\n   Carpet::physical_time_per_hour\n   SystemStatistics::maxrss_mb\n   SystemStatistics::swap_used_mb\n",
        "CarpetIOHDF5::checkpoint": false,
        "CarpetIOHDF5::one_file_per_group": true,
        "CarpetIOHDF5::open_one_input_file_at_a_time": true,
        "CarpetIOHDF5::out1D_every": 170,
        "CarpetIOHDF5::out1D_vars": "\n   grid::coordinates\n   CarpetReduce::weight\n   ADMBase::metric\n   ADMBase::curv\n   GaugeWave::metric_exact\n   GaugeWave::curv_exact\n",
        "CarpetIOHDF5::out3D_every": 170,
        "CarpetIOHDF5::out3D_vars": "\n   grid::coordinates\n   CarpetReduce::weight\n   ADMBase::metric\n   ADMBase::curv\n   GaugeWave::metric_exact\n   GaugeWave::curv_exact\n",
        "CarpetIOScalar::one_file_per_group": true,
        "CarpetIOScalar::outScalar_every": 170,
        "CarpetIOScalar::outScalar_reductions": "minimum maximum norm2",
        "CarpetIOScalar::outScalar_vars": "\n   ADMBase::metric\n   ADMBase::curv\n   ADMBase::lapse\n   ADMBase::shift\n   ADMBase::dtshift\n   GaugeWave::metric_exact\n   GaugeWave::curv_exact\n   GaugeWave::lapse_exact\n   GaugeWave::shift_exact\n",
        "Coordinates::coordinate_system": "Cartesian",
        "Coordinates::ncells_x": 18,
        "Coordinates::ncells_y": 18,
        "Coordinates::ncells_z": 18,
        "Coordinates::patch_xmax": 0.5,
        "Coordinates::patch_xmin": -0.5,
        "Coordinates::patch_ymax": 0.5,
        "Coordinates::patch_ymin": -0.5,
        "Coordinates::patch_zmax": 0.5,
        "Coordinates::patch_zmin": -0.5,
        "Coordinates::register_symmetry": false,
        "Coordinates::stagger_outer_boundaries": true,
        "Coordinates::stagger_patch_boundaries": true,
        "Coordinates::store_inverse_jacobian": false,
        "Coordinates::store_jacobian": false,
        "Coordinates::store_jacobian_derivative": false,
        "Coordinates::store_volume_form": false,
        "GaugeWave::amp": 0.01,
        "GaugeWave::exact_method": "GaugeWave",
        "GaugeWave::period": 0.57735026919,
        "GaugeWave::phi": 1.21991691592,
        "GaugeWave::psi": -1.92167573767,
        "GaugeWave::theta": 0.662145235646,
        "IO::abort_on_io_errors": true,
        "IO::checkpoint_ID": false,
        "IO::checkpoint_dir": "../checkpoints",
        "IO::checkpoint_every_walltime_hours": 3,
        "IO::checkpoint_keep": 1,
        "IO::checkpoint_on_terminate": true,
        "IO::out_dir": "gauge_wave",
        "IO::out_fileinfo": "all",
        "IO::out_proc_every": 2,
        "IO::recover": "autoprobe",
        "IO::recover_dir": "../checkpoints",
        "LoopControl::verbose": false,
        "ML_BSSN_DG8::advectLapse": 1,
        "ML_BSSN_DG8::advectShift": 1,
        "ML_BSSN_DG8::betaDriver": 1,
        "ML_BSSN_DG8::conformalMethod": 0,
        "ML_BSSN_DG8::epsDiss": 0,
        "ML_BSSN_DG8::epsJump": 0,
        "ML_BSSN_DG8::evolveB": 0,
        "ML_BSSN_DG8::harmonicF": 1,
        "ML_BSSN_DG8::harmonicN": 2,
        "ML_BSSN_DG8::initial_boundary_condition": "Minkowski",
        "ML_BSSN_DG8::minimumLapse": 1e-08,
        "ML_BSSN_DG8::rhs_boundary_condition": "zero",
        "ML_BSSN_DG8::shiftFormulation": 0,
        "ML_BSSN_DG8::shiftGammaCoeff": 0,
        "ML_BSSN_DG8::tile_size": 9,
        "MethodOfLines::MoL_Num_Evolved_Vars": 25,
        "MethodOfLines::MoL_Num_Scratch_Levels": 13,
        "MoL::MoL_Intermediate_Steps": 13,
        "MoL::MoL_NaN_Check": true,
        "MoL::ODE_Method": "RK87",
        "MoL::init_RHS_zero": false,
        "Periodic::periodic": true,
        "Time::dtfac": 0.0264705882353,
        "grid::type": "multipatch"
    }
}
