# Scalar ASCII output created by CarpetIOScalar
# created on nid00200 by miller1 on Feb 29 2016 at 18:19:11-0600
# parameter filename: "/scratch/sciteam/miller1/simulations/trunc_rho_bssn_dg8_gauge_wave_3D_rho_1_v2/output-0000/gauge_wave.par"
# Build ID: build-dgfe2-h2ologin1.ncsa.illinois.edu-miller1-2016.02.08-01.00.23-31758
# Simulation ID: run-gauge_wave-nid00200-miller1-2016.03.01-00.19.09-921
# Run ID: run-gauge_wave-nid00200-miller1-2016.03.01-00.19.09-921
#
# GAUGEWAVE::betaExact1 (gaugewave-shift_exact)
# 1:iteration 2:time 3:data
# data columns: 3:betaExact1 4:betaExact2 5:betaExact3
0 0 0 0 0
170 0.250000000000056 0 0 0
340 0.500000000000111 0 0 0
510 0.750000000000167 0 0 0
680 1.00000000000022 0 0 0
850 1.25000000000028 0 0 0
1020 1.50000000000033 0 0 0
1190 1.75000000000039 0 0 0
1360 2.00000000000044 0 0 0
1530 2.2500000000005 0 0 0
1700 2.50000000000056 0 0 0
1870 2.75000000000061 0 0 0
2040 3.00000000000067 0 0 0
2210 3.25000000000072 0 0 0
2380 3.50000000000078 0 0 0
2550 3.75000000000083 0 0 0
2720 4.00000000000089 0 0 0
2890 4.25000000000094 0 0 0
3060 4.500000000001 0 0 0
3230 4.75000000000106 0 0 0
3400 5.00000000000111 0 0 0
