# Scalar ASCII output created by CarpetIOScalar
# created on nid00200 by miller1 on Feb 29 2016 at 18:19:11-0600
# parameter filename: "/scratch/sciteam/miller1/simulations/trunc_rho_bssn_dg8_gauge_wave_3D_rho_1_v2/output-0000/gauge_wave.par"
# Build ID: build-dgfe2-h2ologin1.ncsa.illinois.edu-miller1-2016.02.08-01.00.23-31758
# Simulation ID: run-gauge_wave-nid00200-miller1-2016.03.01-00.19.09-921
# Run ID: run-gauge_wave-nid00200-miller1-2016.03.01-00.19.09-921
#
# GAUGEWAVE::alpExact (gaugewave-lapse_exact)
# 1:iteration 2:time 3:data
# data columns: 3:alpExact
0 0 1
170 0.250000000000056 1
340 0.500000000000111 1
510 0.750000000000167 1
680 1.00000000000022 1
850 1.25000000000028 1
1020 1.50000000000033 1
1190 1.75000000000039 1
1360 2.00000000000044 1
1530 2.2500000000005 1
1700 2.50000000000056 1
1870 2.75000000000061 1
2040 3.00000000000067 1
2210 3.25000000000072 1
2380 3.50000000000078 1
2550 3.75000000000083 1
2720 4.00000000000089 1
2890 4.25000000000094 1
3060 4.500000000001 1
3230 4.75000000000106 1
3400 5.00000000000111 1
