# 1D ASCII output created by CarpetIOASCII
# created on oort1 by jmiller on Nov 11 2015 at 12:42:14-0500
# parameter filename: "/home/jmiller/simulations/wavetoy_so_dg2_sinex_rho_8/output-0001/wavetoy_so_dg2_sinex.par"
# Build ID: build-dgfe2-oort1-jmiller-2015.11.07-16.10.24-25556
# Simulation ID: run-wavetoy_so_dg2_sinex-oort1-jmiller-2015.11.11-17.41.46-7869
# Run ID: run-wavetoy_so_dg2_sinex-oort1-jmiller-2015.11.11-17.41.46-7869
#
# ML_WAVETOY_DG2::WT_RHO x (ml_wavetoy_dg2-wt_rho)
#
# iteration 0   time 0
# time level 0
# refinement level 0   multigrid level 0   map 0   component 0
# column format: 1:it	2:tl	3:rl 4:c 5:ml	6:ix 7:iy 8:iz	9:time	10:x 11:y 12:z	13:data
# data columns: 13:rho
0	0	0 0 0	0 2 2	0	-0.52083333333333337 0 0	6.2831853071795862
0	0	0 0 0	1 2 2	0	-0.47916666666666669 0 0	6.2831853071795862
0	0	0 0 0	2 2 2	0	-0.4375 0 0	5.8049063042788625
0	0	0 0 0	3 2 2	0	-0.39583333333333331 0 0	4.4428829381583679
0	0	0 0 0	4 2 2	0	-0.35416666666666669 0 0	4.4428829381583679
0	0	0 0 0	5 2 2	0	-0.3125 0 0	2.404470919537387
0	0	0 0 0	6 2 2	0	-0.27083333333333331 0 0	2.4055606596625473e-15
0	0	0 0 0	7 2 2	0	-0.22916666666666669 0 0	2.4055606596625473e-15

# iteration 0   time 0
# time level 0
# refinement level 0   multigrid level 0   map 0   component 1
# column format: 1:it	2:tl	3:rl 4:c 5:ml	6:ix 7:iy 8:iz	9:time	10:x 11:y 12:z	13:data
# data columns: 13:rho
0	0	0 1 0	6 2 2	0	-0.27083333333333331 0 0	2.4055606596625473e-15
0	0	0 1 0	7 2 2	0	-0.22916666666666669 0 0	2.4055606596625473e-15
0	0	0 1 0	8 2 2	0	-0.1875 0 0	-2.4044709195373826
0	0	0 1 0	9 2 2	0	-0.14583333333333334 0 0	-4.4428829381583652
0	0	0 1 0	10 2 2	0	-0.10416666666666667 0 0	-4.4428829381583652
0	0	0 1 0	11 2 2	0	-0.0625 0 0	-5.8049063042788607
0	0	0 1 0	12 2 2	0	-0.020833333333333332 0 0	-6.2831853071795862
0	0	0 1 0	13 2 2	0	0.020833333333333332 0 0	-6.2831853071795862

# iteration 0   time 0
# time level 0
# refinement level 0   multigrid level 0   map 0   component 2
# column format: 1:it	2:tl	3:rl 4:c 5:ml	6:ix 7:iy 8:iz	9:time	10:x 11:y 12:z	13:data
# data columns: 13:rho
0	0	0 2 0	12 2 2	0	-0.020833333333333332 0 0	-6.2831853071795862
0	0	0 2 0	13 2 2	0	0.020833333333333332 0 0	-6.2831853071795862
0	0	0 2 0	14 2 2	0	0.0625 0 0	-5.8049063042788633
0	0	0 2 0	15 2 2	0	0.10416666666666667 0 0	-4.4428829381583688
0	0	0 2 0	16 2 2	0	0.14583333333333334 0 0	-4.4428829381583688
0	0	0 2 0	17 2 2	0	0.1875 0 0	-2.4044709195373879
0	0	0 2 0	18 2 2	0	0.22916666666666669 0 0	-3.1750289371512636e-15
0	0	0 2 0	19 2 2	0	0.27083333333333331 0 0	-3.1750289371512636e-15

# iteration 0   time 0
# time level 0
# refinement level 0   multigrid level 0   map 0   component 3
# column format: 1:it	2:tl	3:rl 4:c 5:ml	6:ix 7:iy 8:iz	9:time	10:x 11:y 12:z	13:data
# data columns: 13:rho
0	0	0 3 0	18 2 2	0	0.22916666666666655 0 0	-3.1750289371512636e-15
0	0	0 3 0	19 2 2	0	0.2708333333333332 0 0	-3.1750289371512636e-15
0	0	0 3 0	20 2 2	0	0.31249999999999983 0 0	2.4044709195373803
0	0	0 3 0	21 2 2	0	0.35416666666666652 0 0	4.4428829381583617
0	0	0 3 0	22 2 2	0	0.39583333333333315 0 0	4.4428829381583617
0	0	0 3 0	23 2 2	0	0.43749999999999978 0 0	5.8049063042788598
0	0	0 3 0	24 2 2	0	0.47916666666666646 0 0	6.2831853071795862
0	0	0 3 0	25 2 2	0	0.52083333333333304 0 0	6.2831853071795862


# iteration 8   time 0.050000000000000003
# time level 0
# refinement level 0   multigrid level 0   map 0   component 0
# column format: 1:it	2:tl	3:rl 4:c 5:ml	6:ix 7:iy 8:iz	9:time	10:x 11:y 12:z	13:data
# data columns: 13:rho
8	0	0 0 0	0 2 2	0.050000000000000003	-0.52083333333333337 0 0	5.6261755571430347
8	0	0 0 0	1 2 2	0.050000000000000003	-0.47916666666666669 0 0	6.3348474702867055
8	0	0 0 0	2 2 2	0.050000000000000003	-0.4375 0 0	6.2599753496903281
8	0	0 0 0	3 2 2	0.050000000000000003	-0.39583333333333331 0 0	5.3013588658741728
8	0	0 0 0	4 2 2	0.050000000000000003	-0.35416666666666669 0 0	5.9163580583585054
8	0	0 0 0	5 2 2	0.050000000000000003	-0.3125 0 0	4.076747504628992
8	0	0 0 0	6 2 2	0.050000000000000003	-0.27083333333333331 0 0	1.8710780499830695
8	0	0 0 0	7 2 2	0.050000000000000003	-0.22916666666666669 0 0	2.0321463356992813

# iteration 8   time 0.050000000000000003
# time level 0
# refinement level 0   multigrid level 0   map 0   component 1
# column format: 1:it	2:tl	3:rl 4:c 5:ml	6:ix 7:iy 8:iz	9:time	10:x 11:y 12:z	13:data
# data columns: 13:rho
8	0	0 1 0	6 2 2	0.050000000000000003	-0.27083333333333331 0 0	1.8710780499830695
8	0	0 1 0	7 2 2	0.050000000000000003	-0.22916666666666669 0 0	2.0321463356992813
8	0	0 1 0	8 2 2	0.050000000000000003	-0.1875 0 0	-0.49458373827332275
8	0	0 1 0	9 2 2	0.050000000000000003	-0.14583333333333334 0 0	-2.6552549113295241
8	0	0 1 0	10 2 2	0.050000000000000003	-0.10416666666666667 0 0	-3.0424691496858034
8	0	0 1 0	11 2 2	0.050000000000000003	-0.0625 0 0	-4.7761945350243087
8	0	0 1 0	12 2 2	0.050000000000000003	-0.020833333333333332 0 0	-5.6261755571430498
8	0	0 1 0	13 2 2	0.050000000000000003	0.020833333333333332 0 0	-6.3348474702866806

# iteration 8   time 0.050000000000000003
# time level 0
# refinement level 0   multigrid level 0   map 0   component 2
# column format: 1:it	2:tl	3:rl 4:c 5:ml	6:ix 7:iy 8:iz	9:time	10:x 11:y 12:z	13:data
# data columns: 13:rho
8	0	0 2 0	12 2 2	0.050000000000000003	-0.020833333333333332 0 0	-5.6261755571430498
8	0	0 2 0	13 2 2	0.050000000000000003	0.020833333333333332 0 0	-6.3348474702866806
8	0	0 2 0	14 2 2	0.050000000000000003	0.0625 0 0	-6.2599753496903201
8	0	0 2 0	15 2 2	0.050000000000000003	0.10416666666666667 0 0	-5.3013588658741844
8	0	0 2 0	16 2 2	0.050000000000000003	0.14583333333333334 0 0	-5.9163580583585018
8	0	0 2 0	17 2 2	0.050000000000000003	0.1875 0 0	-4.076747504628992
8	0	0 2 0	18 2 2	0.050000000000000003	0.22916666666666669 0 0	-1.8710780499830741
8	0	0 2 0	19 2 2	0.050000000000000003	0.27083333333333331 0 0	-2.0321463356992782

# iteration 8   time 0.050000000000000003
# time level 0
# refinement level 0   multigrid level 0   map 0   component 3
# column format: 1:it	2:tl	3:rl 4:c 5:ml	6:ix 7:iy 8:iz	9:time	10:x 11:y 12:z	13:data
# data columns: 13:rho
8	0	0 3 0	18 2 2	0.050000000000000003	0.22916666666666655 0 0	-1.8710780499830741
8	0	0 3 0	19 2 2	0.050000000000000003	0.2708333333333332 0 0	-2.0321463356992782
8	0	0 3 0	20 2 2	0.050000000000000003	0.31249999999999983 0 0	0.49458373827332136
8	0	0 3 0	21 2 2	0.050000000000000003	0.35416666666666652 0 0	2.6552549113295223
8	0	0 3 0	22 2 2	0.050000000000000003	0.39583333333333315 0 0	3.042469149685799
8	0	0 3 0	23 2 2	0.050000000000000003	0.43749999999999978 0 0	4.7761945350243016
8	0	0 3 0	24 2 2	0.050000000000000003	0.47916666666666646 0 0	5.6261755571430347
8	0	0 3 0	25 2 2	0.050000000000000003	0.52083333333333304 0 0	6.3348474702867055


# iteration 16   time 0.10000000000000001
# time level 0
# refinement level 0   multigrid level 0   map 0   component 0
# column format: 1:it	2:tl	3:rl 4:c 5:ml	6:ix 7:iy 8:iz	9:time	10:x 11:y 12:z	13:data
# data columns: 13:rho
16	0	0 0 0	0 2 2	0.10000000000000001	-0.52083333333333337 0 0	5.2050844384862893
16	0	0 0 0	1 2 2	0.10000000000000001	-0.47916666666666669 0 0	4.8974345292383639
16	0	0 0 0	2 2 2	0.10000000000000001	-0.4375 0 0	6.0764107825781943
16	0	0 0 0	3 2 2	0.10000000000000001	-0.39583333333333331 0 0	6.3716426726982505
16	0	0 0 0	4 2 2	0.10000000000000001	-0.35416666666666669 0 0	6.3229705262077172
16	0	0 0 0	5 2 2	0.10000000000000001	-0.3125 0 0	5.2474042354814197
16	0	0 0 0	6 2 2	0.10000000000000001	-0.27083333333333331 0 0	3.8057790438387089
16	0	0 0 0	7 2 2	0.10000000000000001	-0.22916666666666669 0 0	4.0445961434099411

# iteration 16   time 0.10000000000000001
# time level 0
# refinement level 0   multigrid level 0   map 0   component 1
# column format: 1:it	2:tl	3:rl 4:c 5:ml	6:ix 7:iy 8:iz	9:time	10:x 11:y 12:z	13:data
# data columns: 13:rho
16	0	0 1 0	6 2 2	0.10000000000000001	-0.27083333333333331 0 0	3.8057790438387089
16	0	0 1 0	7 2 2	0.10000000000000001	-0.22916666666666669 0 0	4.0445961434099411
16	0	0 1 0	8 2 2	0.10000000000000001	-0.1875 0 0	1.3445394544936664
16	0	0 1 0	9 2 2	0.10000000000000001	-0.14583333333333334 0 0	-0.98945833350620493
16	0	0 1 0	10 2 2	0.10000000000000001	-0.10416666666666667 0 0	-0.60304780587547391
16	0	0 1 0	11 2 2	0.10000000000000001	-0.0625 0 0	-3.3459383037907622
16	0	0 1 0	12 2 2	0.10000000000000001	-0.020833333333333332 0 0	-5.2050844384862893
16	0	0 1 0	13 2 2	0.10000000000000001	0.020833333333333332 0 0	-4.8974345292383612

# iteration 16   time 0.10000000000000001
# time level 0
# refinement level 0   multigrid level 0   map 0   component 2
# column format: 1:it	2:tl	3:rl 4:c 5:ml	6:ix 7:iy 8:iz	9:time	10:x 11:y 12:z	13:data
# data columns: 13:rho
16	0	0 2 0	12 2 2	0.10000000000000001	-0.020833333333333332 0 0	-5.2050844384862893
16	0	0 2 0	13 2 2	0.10000000000000001	0.020833333333333332 0 0	-4.8974345292383612
16	0	0 2 0	14 2 2	0.10000000000000001	0.0625 0 0	-6.0764107825781917
16	0	0 2 0	15 2 2	0.10000000000000001	0.10416666666666667 0 0	-6.3716426726982363
16	0	0 2 0	16 2 2	0.10000000000000001	0.14583333333333334 0 0	-6.3229705262077136
16	0	0 2 0	17 2 2	0.10000000000000001	0.1875 0 0	-5.2474042354814205
16	0	0 2 0	18 2 2	0.10000000000000001	0.22916666666666669 0 0	-3.805779043838716
16	0	0 2 0	19 2 2	0.10000000000000001	0.27083333333333331 0 0	-4.0445961434099393

# iteration 16   time 0.10000000000000001
# time level 0
# refinement level 0   multigrid level 0   map 0   component 3
# column format: 1:it	2:tl	3:rl 4:c 5:ml	6:ix 7:iy 8:iz	9:time	10:x 11:y 12:z	13:data
# data columns: 13:rho
16	0	0 3 0	18 2 2	0.10000000000000001	0.22916666666666655 0 0	-3.805779043838716
16	0	0 3 0	19 2 2	0.10000000000000001	0.2708333333333332 0 0	-4.0445961434099393
16	0	0 3 0	20 2 2	0.10000000000000001	0.31249999999999983 0 0	-1.3445394544936655
16	0	0 3 0	21 2 2	0.10000000000000001	0.35416666666666652 0 0	0.9894583335062106
16	0	0 3 0	22 2 2	0.10000000000000001	0.39583333333333315 0 0	0.60304780587545537
16	0	0 3 0	23 2 2	0.10000000000000001	0.43749999999999978 0 0	3.345938303790756
16	0	0 3 0	24 2 2	0.10000000000000001	0.47916666666666646 0 0	5.2050844384862893
16	0	0 3 0	25 2 2	0.10000000000000001	0.52083333333333304 0 0	4.8974345292383639


# iteration 24   time 0.15000000000000002
# time level 0
# refinement level 0   multigrid level 0   map 0   component 0
# column format: 1:it	2:tl	3:rl 4:c 5:ml	6:ix 7:iy 8:iz	9:time	10:x 11:y 12:z	13:data
# data columns: 13:rho
24	0	0 0 0	0 2 2	0.15000000000000002	-0.52083333333333337 0 0	3.636117416860194
24	0	0 0 0	1 2 2	0.15000000000000002	-0.47916666666666669 0 0	3.5147713580912883
24	0	0 0 0	2 2 2	0.15000000000000002	-0.4375 0 0	5.3527046370062639
24	0	0 0 0	3 2 2	0.15000000000000002	-0.39583333333333331 0 0	6.3068935527014611
24	0	0 0 0	4 2 2	0.15000000000000002	-0.35416666666666669 0 0	6.3002797637558237
24	0	0 0 0	5 2 2	0.15000000000000002	-0.3125 0 0	5.9747578232429372
24	0	0 0 0	6 2 2	0.15000000000000002	-0.27083333333333331 0 0	5.2831769818136456
24	0	0 0 0	7 2 2	0.15000000000000002	-0.22916666666666669 0 0	5.3951697305569235

# iteration 24   time 0.15000000000000002
# time level 0
# refinement level 0   multigrid level 0   map 0   component 1
# column format: 1:it	2:tl	3:rl 4:c 5:ml	6:ix 7:iy 8:iz	9:time	10:x 11:y 12:z	13:data
# data columns: 13:rho
24	0	0 1 0	6 2 2	0.15000000000000002	-0.27083333333333331 0 0	5.2831769818136456
24	0	0 1 0	7 2 2	0.15000000000000002	-0.22916666666666669 0 0	5.3951697305569235
24	0	0 1 0	8 2 2	0.15000000000000002	-0.1875 0 0	3.0968789085186477
24	0	0 1 0	9 2 2	0.15000000000000002	-0.14583333333333334 0 0	1.1646469873967784
24	0	0 1 0	10 2 2	0.15000000000000002	-0.10416666666666667 0 0	1.3296424405025937
24	0	0 1 0	11 2 2	0.15000000000000002	-0.0625 0 0	-1.5951096697886782
24	0	0 1 0	12 2 2	0.15000000000000002	-0.020833333333333332 0 0	-3.636117416860194
24	0	0 1 0	13 2 2	0.15000000000000002	0.020833333333333332 0 0	-3.5147713580912985

# iteration 24   time 0.15000000000000002
# time level 0
# refinement level 0   multigrid level 0   map 0   component 2
# column format: 1:it	2:tl	3:rl 4:c 5:ml	6:ix 7:iy 8:iz	9:time	10:x 11:y 12:z	13:data
# data columns: 13:rho
24	0	0 2 0	12 2 2	0.15000000000000002	-0.020833333333333332 0 0	-3.636117416860194
24	0	0 2 0	13 2 2	0.15000000000000002	0.020833333333333332 0 0	-3.5147713580912985
24	0	0 2 0	14 2 2	0.15000000000000002	0.0625 0 0	-5.3527046370062701
24	0	0 2 0	15 2 2	0.15000000000000002	0.10416666666666667 0 0	-6.3068935527014478
24	0	0 2 0	16 2 2	0.15000000000000002	0.14583333333333334 0 0	-6.3002797637558228
24	0	0 2 0	17 2 2	0.15000000000000002	0.1875 0 0	-5.9747578232429355
24	0	0 2 0	18 2 2	0.15000000000000002	0.22916666666666669 0 0	-5.2831769818136394
24	0	0 2 0	19 2 2	0.15000000000000002	0.27083333333333331 0 0	-5.3951697305569279

# iteration 24   time 0.15000000000000002
# time level 0
# refinement level 0   multigrid level 0   map 0   component 3
# column format: 1:it	2:tl	3:rl 4:c 5:ml	6:ix 7:iy 8:iz	9:time	10:x 11:y 12:z	13:data
# data columns: 13:rho
24	0	0 3 0	18 2 2	0.15000000000000002	0.22916666666666655 0 0	-5.2831769818136394
24	0	0 3 0	19 2 2	0.15000000000000002	0.2708333333333332 0 0	-5.3951697305569279
24	0	0 3 0	20 2 2	0.15000000000000002	0.31249999999999983 0 0	-3.0968789085186534
24	0	0 3 0	21 2 2	0.15000000000000002	0.35416666666666652 0 0	-1.1646469873967777
24	0	0 3 0	22 2 2	0.15000000000000002	0.39583333333333315 0 0	-1.3296424405025995
24	0	0 3 0	23 2 2	0.15000000000000002	0.43749999999999978 0 0	1.595109669788682
24	0	0 3 0	24 2 2	0.15000000000000002	0.47916666666666646 0 0	3.636117416860194
24	0	0 3 0	25 2 2	0.15000000000000002	0.52083333333333304 0 0	3.5147713580912883


# iteration 32   time 0.20000000000000001
# time level 0
# refinement level 0   multigrid level 0   map 0   component 0
# column format: 1:it	2:tl	3:rl 4:c 5:ml	6:ix 7:iy 8:iz	9:time	10:x 11:y 12:z	13:data
# data columns: 13:rho
32	0	0 0 0	0 2 2	0.20000000000000001	-0.52083333333333337 0 0	1.317470391881469
32	0	0 0 0	1 2 2	0.20000000000000001	-0.47916666666666669 0 0	2.2172285606384392
32	0	0 0 0	2 2 2	0.20000000000000001	-0.4375 0 0	4.1249067822355672
32	0	0 0 0	3 2 2	0.20000000000000001	-0.39583333333333331 0 0	5.1488406406129101
32	0	0 0 0	4 2 2	0.20000000000000001	-0.35416666666666669 0 0	5.9709158954818742
32	0	0 0 0	5 2 2	0.20000000000000001	-0.3125 0 0	6.1505323344846934
32	0	0 0 0	6 2 2	0.20000000000000001	-0.27083333333333331 0 0	5.9640898725711109
32	0	0 0 0	7 2 2	0.20000000000000001	-0.22916666666666669 0 0	6.2269216785411263

# iteration 32   time 0.20000000000000001
# time level 0
# refinement level 0   multigrid level 0   map 0   component 1
# column format: 1:it	2:tl	3:rl 4:c 5:ml	6:ix 7:iy 8:iz	9:time	10:x 11:y 12:z	13:data
# data columns: 13:rho
32	0	0 1 0	6 2 2	0.20000000000000001	-0.27083333333333331 0 0	5.9640898725711109
32	0	0 1 0	7 2 2	0.20000000000000001	-0.22916666666666669 0 0	6.2269216785411263
32	0	0 1 0	8 2 2	0.20000000000000001	-0.1875 0 0	4.5732594610069297
32	0	0 1 0	9 2 2	0.20000000000000001	-0.14583333333333334 0 0	3.2856561443891428
32	0	0 1 0	10 2 2	0.20000000000000001	-0.10416666666666667 0 0	2.8352811941460345
32	0	0 1 0	11 2 2	0.20000000000000001	-0.0625 0 0	0.3170332195223956
32	0	0 1 0	12 2 2	0.20000000000000001	-0.020833333333333332 0 0	-1.3174703918814863
32	0	0 1 0	13 2 2	0.20000000000000001	0.020833333333333332 0 0	-2.2172285606384312

# iteration 32   time 0.20000000000000001
# time level 0
# refinement level 0   multigrid level 0   map 0   component 2
# column format: 1:it	2:tl	3:rl 4:c 5:ml	6:ix 7:iy 8:iz	9:time	10:x 11:y 12:z	13:data
# data columns: 13:rho
32	0	0 2 0	12 2 2	0.20000000000000001	-0.020833333333333332 0 0	-1.3174703918814863
32	0	0 2 0	13 2 2	0.20000000000000001	0.020833333333333332 0 0	-2.2172285606384312
32	0	0 2 0	14 2 2	0.20000000000000001	0.0625 0 0	-4.1249067822355734
32	0	0 2 0	15 2 2	0.20000000000000001	0.10416666666666667 0 0	-5.1488406406129164
32	0	0 2 0	16 2 2	0.20000000000000001	0.14583333333333334 0 0	-5.9709158954818786
32	0	0 2 0	17 2 2	0.20000000000000001	0.1875 0 0	-6.1505323344846925
32	0	0 2 0	18 2 2	0.20000000000000001	0.22916666666666669 0 0	-5.9640898725711011
32	0	0 2 0	19 2 2	0.20000000000000001	0.27083333333333331 0 0	-6.2269216785411174

# iteration 32   time 0.20000000000000001
# time level 0
# refinement level 0   multigrid level 0   map 0   component 3
# column format: 1:it	2:tl	3:rl 4:c 5:ml	6:ix 7:iy 8:iz	9:time	10:x 11:y 12:z	13:data
# data columns: 13:rho
32	0	0 3 0	18 2 2	0.20000000000000001	0.22916666666666655 0 0	-5.9640898725711011
32	0	0 3 0	19 2 2	0.20000000000000001	0.2708333333333332 0 0	-6.2269216785411174
32	0	0 3 0	20 2 2	0.20000000000000001	0.31249999999999983 0 0	-4.5732594610069341
32	0	0 3 0	21 2 2	0.20000000000000001	0.35416666666666652 0 0	-3.2856561443891477
32	0	0 3 0	22 2 2	0.20000000000000001	0.39583333333333315 0 0	-2.8352811941460221
32	0	0 3 0	23 2 2	0.20000000000000001	0.43749999999999978 0 0	-0.31703321952239072
32	0	0 3 0	24 2 2	0.20000000000000001	0.47916666666666646 0 0	1.317470391881469
32	0	0 3 0	25 2 2	0.20000000000000001	0.52083333333333304 0 0	2.2172285606384392


# iteration 40   time 0.25
# time level 0
# refinement level 0   multigrid level 0   map 0   component 0
# column format: 1:it	2:tl	3:rl 4:c 5:ml	6:ix 7:iy 8:iz	9:time	10:x 11:y 12:z	13:data
# data columns: 13:rho
40	0	0 0 0	0 2 2	0.25	-0.52083333333333337 0 0	-0.25453853751235445
40	0	0 0 0	1 2 2	0.25	-0.47916666666666669 0 0	-0.1798252128178508
40	0	0 0 0	2 2 2	0.25	-0.4375 0 0	2.4661833879870128
40	0	0 0 0	3 2 2	0.25	-0.39583333333333331 0 0	4.2284476255720875
40	0	0 0 0	4 2 2	0.25	-0.35416666666666669 0 0	4.6041381196847313
40	0	0 0 0	5 2 2	0.25	-0.3125 0 0	5.6023317689909273
40	0	0 0 0	6 2 2	0.25	-0.27083333333333331 0 0	6.2344665173807288
40	0	0 0 0	7 2 2	0.25	-0.22916666666666669 0 0	6.691059784714974

# iteration 40   time 0.25
# time level 0
# refinement level 0   multigrid level 0   map 0   component 1
# column format: 1:it	2:tl	3:rl 4:c 5:ml	6:ix 7:iy 8:iz	9:time	10:x 11:y 12:z	13:data
# data columns: 13:rho
40	0	0 1 0	6 2 2	0.25	-0.27083333333333331 0 0	6.2344665173807288
40	0	0 1 0	7 2 2	0.25	-0.22916666666666669 0 0	6.691059784714974
40	0	0 1 0	8 2 2	0.25	-0.1875 0 0	5.4567101806336114
40	0	0 1 0	9 2 2	0.25	-0.14583333333333334 0 0	4.5884194774686629
40	0	0 1 0	10 2 2	0.25	-0.10416666666666667 0 0	4.858449374508357
40	0	0 1 0	11 2 2	0.25	-0.0625 0 0	2.1146217744004878
40	0	0 1 0	12 2 2	0.25	-0.020833333333333332 0 0	0.2545385375123706
40	0	0 1 0	13 2 2	0.25	0.020833333333333332 0 0	0.17982521281784786

# iteration 40   time 0.25
# time level 0
# refinement level 0   multigrid level 0   map 0   component 2
# column format: 1:it	2:tl	3:rl 4:c 5:ml	6:ix 7:iy 8:iz	9:time	10:x 11:y 12:z	13:data
# data columns: 13:rho
40	0	0 2 0	12 2 2	0.25	-0.020833333333333332 0 0	0.2545385375123706
40	0	0 2 0	13 2 2	0.25	0.020833333333333332 0 0	0.17982521281784786
40	0	0 2 0	14 2 2	0.25	0.0625 0 0	-2.4661833879870256
40	0	0 2 0	15 2 2	0.25	0.10416666666666667 0 0	-4.2284476255720964
40	0	0 2 0	16 2 2	0.25	0.14583333333333334 0 0	-4.6041381196847313
40	0	0 2 0	17 2 2	0.25	0.1875 0 0	-5.602331768990938
40	0	0 2 0	18 2 2	0.25	0.22916666666666669 0 0	-6.2344665173807297
40	0	0 2 0	19 2 2	0.25	0.27083333333333331 0 0	-6.6910597847149766

# iteration 40   time 0.25
# time level 0
# refinement level 0   multigrid level 0   map 0   component 3
# column format: 1:it	2:tl	3:rl 4:c 5:ml	6:ix 7:iy 8:iz	9:time	10:x 11:y 12:z	13:data
# data columns: 13:rho
40	0	0 3 0	18 2 2	0.25	0.22916666666666655 0 0	-6.2344665173807297
40	0	0 3 0	19 2 2	0.25	0.2708333333333332 0 0	-6.6910597847149766
40	0	0 3 0	20 2 2	0.25	0.31249999999999983 0 0	-5.4567101806336042
40	0	0 3 0	21 2 2	0.25	0.35416666666666652 0 0	-4.5884194774686273
40	0	0 3 0	22 2 2	0.25	0.39583333333333315 0 0	-4.8584493745083872
40	0	0 3 0	23 2 2	0.25	0.43749999999999978 0 0	-2.1146217744004856
40	0	0 3 0	24 2 2	0.25	0.47916666666666646 0 0	-0.25453853751235445
40	0	0 3 0	25 2 2	0.25	0.52083333333333304 0 0	-0.1798252128178508


# iteration 48   time 0.30000000000000004
# time level 0
# refinement level 0   multigrid level 0   map 0   component 0
# column format: 1:it	2:tl	3:rl 4:c 5:ml	6:ix 7:iy 8:iz	9:time	10:x 11:y 12:z	13:data
# data columns: 13:rho
48	0	0 0 0	0 2 2	0.30000000000000004	-0.52083333333333337 0 0	-2.0482907359491054
48	0	0 0 0	1 2 2	0.30000000000000004	-0.47916666666666669 0 0	-2.3855589853440762
48	0	0 0 0	2 2 2	0.30000000000000004	-0.4375 0 0	0.62197034522181083
48	0	0 0 0	3 2 2	0.30000000000000004	-0.39583333333333331 0 0	2.7457553125679093
48	0	0 0 0	4 2 2	0.30000000000000004	-0.35416666666666669 0 0	2.7615424135002593
48	0	0 0 0	5 2 2	0.30000000000000004	-0.3125 0 0	4.5294882261786178
48	0	0 0 0	6 2 2	0.30000000000000004	-0.27083333333333331 0 0	5.9313751379405906
48	0	0 0 0	7 2 2	0.30000000000000004	-0.22916666666666669 0 0	6.2909697195846288

# iteration 48   time 0.30000000000000004
# time level 0
# refinement level 0   multigrid level 0   map 0   component 1
# column format: 1:it	2:tl	3:rl 4:c 5:ml	6:ix 7:iy 8:iz	9:time	10:x 11:y 12:z	13:data
# data columns: 13:rho
48	0	0 1 0	6 2 2	0.30000000000000004	-0.27083333333333331 0 0	5.9313751379405906
48	0	0 1 0	7 2 2	0.30000000000000004	-0.22916666666666669 0 0	6.2909697195846288
48	0	0 1 0	8 2 2	0.30000000000000004	-0.1875 0 0	5.7836933348492536
48	0	0 1 0	9 2 2	0.30000000000000004	-0.14583333333333334 0 0	5.6424758510302881
48	0	0 1 0	10 2 2	0.30000000000000004	-0.10416666666666667 0 0	6.1352322844147951
48	0	0 1 0	11 2 2	0.30000000000000004	-0.0625 0 0	3.6498893285720762
48	0	0 1 0	12 2 2	0.30000000000000004	-0.020833333333333332 0 0	2.0482907359491049
48	0	0 1 0	13 2 2	0.30000000000000004	0.020833333333333332 0 0	2.3855589853440677

# iteration 48   time 0.30000000000000004
# time level 0
# refinement level 0   multigrid level 0   map 0   component 2
# column format: 1:it	2:tl	3:rl 4:c 5:ml	6:ix 7:iy 8:iz	9:time	10:x 11:y 12:z	13:data
# data columns: 13:rho
48	0	0 2 0	12 2 2	0.30000000000000004	-0.020833333333333332 0 0	2.0482907359491049
48	0	0 2 0	13 2 2	0.30000000000000004	0.020833333333333332 0 0	2.3855589853440677
48	0	0 2 0	14 2 2	0.30000000000000004	0.0625 0 0	-0.62197034522182448
48	0	0 2 0	15 2 2	0.30000000000000004	0.10416666666666667 0 0	-2.7457553125679124
48	0	0 2 0	16 2 2	0.30000000000000004	0.14583333333333334 0 0	-2.76154241350027
48	0	0 2 0	17 2 2	0.30000000000000004	0.1875 0 0	-4.5294882261786356
48	0	0 2 0	18 2 2	0.30000000000000004	0.22916666666666669 0 0	-5.9313751379405879
48	0	0 2 0	19 2 2	0.30000000000000004	0.27083333333333331 0 0	-6.2909697195846199

# iteration 48   time 0.30000000000000004
# time level 0
# refinement level 0   multigrid level 0   map 0   component 3
# column format: 1:it	2:tl	3:rl 4:c 5:ml	6:ix 7:iy 8:iz	9:time	10:x 11:y 12:z	13:data
# data columns: 13:rho
48	0	0 3 0	18 2 2	0.30000000000000004	0.22916666666666655 0 0	-5.9313751379405879
48	0	0 3 0	19 2 2	0.30000000000000004	0.2708333333333332 0 0	-6.2909697195846199
48	0	0 3 0	20 2 2	0.30000000000000004	0.31249999999999983 0 0	-5.783693334849251
48	0	0 3 0	21 2 2	0.30000000000000004	0.35416666666666652 0 0	-5.6424758510302739
48	0	0 3 0	22 2 2	0.30000000000000004	0.39583333333333315 0 0	-6.135232284414796
48	0	0 3 0	23 2 2	0.30000000000000004	0.43749999999999978 0 0	-3.6498893285720655
48	0	0 3 0	24 2 2	0.30000000000000004	0.47916666666666646 0 0	-2.0482907359491054
48	0	0 3 0	25 2 2	0.30000000000000004	0.52083333333333304 0 0	-2.3855589853440762


# iteration 56   time 0.35000000000000003
# time level 0
# refinement level 0   multigrid level 0   map 0   component 0
# column format: 1:it	2:tl	3:rl 4:c 5:ml	6:ix 7:iy 8:iz	9:time	10:x 11:y 12:z	13:data
# data columns: 13:rho
56	0	0 0 0	0 2 2	0.35000000000000003	-0.52083333333333337 0 0	-4.338137206297783
56	0	0 0 0	1 2 2	0.35000000000000003	-0.47916666666666669 0 0	-3.5970650498066301
56	0	0 0 0	2 2 2	0.35000000000000003	-0.4375 0 0	-1.2195358979197821
56	0	0 0 0	3 2 2	0.35000000000000003	-0.39583333333333331 0 0	0.27424889074727921
56	0	0 0 0	4 2 2	0.35000000000000003	-0.35416666666666669 0 0	1.0977109644969638
56	0	0 0 0	5 2 2	0.35000000000000003	-0.3125 0 0	3.0948767862358531
56	0	0 0 0	6 2 2	0.35000000000000003	-0.27083333333333331 0 0	4.725983707058365
56	0	0 0 0	7 2 2	0.35000000000000003	-0.22916666666666669 0 0	5.1494627833638464

# iteration 56   time 0.35000000000000003
# time level 0
# refinement level 0   multigrid level 0   map 0   component 1
# column format: 1:it	2:tl	3:rl 4:c 5:ml	6:ix 7:iy 8:iz	9:time	10:x 11:y 12:z	13:data
# data columns: 13:rho
56	0	0 1 0	6 2 2	0.35000000000000003	-0.27083333333333331 0 0	4.725983707058365
56	0	0 1 0	7 2 2	0.35000000000000003	-0.22916666666666669 0 0	5.1494627833638464
56	0	0 1 0	8 2 2	0.35000000000000003	-0.1875 0 0	5.5963526228881957
56	0	0 1 0	9 2 2	0.35000000000000003	-0.14583333333333334 0 0	6.4093013633289484
56	0	0 1 0	10 2 2	0.35000000000000003	-0.10416666666666667 0 0	6.1847291426717508
56	0	0 1 0	11 2 2	0.35000000000000003	-0.0625 0 0	4.8195609928748757
56	0	0 1 0	12 2 2	0.35000000000000003	-0.020833333333333332 0 0	4.3381372062977475
56	0	0 1 0	13 2 2	0.35000000000000003	0.020833333333333332 0 0	3.5970650498066377

# iteration 56   time 0.35000000000000003
# time level 0
# refinement level 0   multigrid level 0   map 0   component 2
# column format: 1:it	2:tl	3:rl 4:c 5:ml	6:ix 7:iy 8:iz	9:time	10:x 11:y 12:z	13:data
# data columns: 13:rho
56	0	0 2 0	12 2 2	0.35000000000000003	-0.020833333333333332 0 0	4.3381372062977475
56	0	0 2 0	13 2 2	0.35000000000000003	0.020833333333333332 0 0	3.5970650498066377
56	0	0 2 0	14 2 2	0.35000000000000003	0.0625 0 0	1.2195358979197712
56	0	0 2 0	15 2 2	0.35000000000000003	0.10416666666666667 0 0	-0.27424889074729109
56	0	0 2 0	16 2 2	0.35000000000000003	0.14583333333333334 0 0	-1.0977109644969811
56	0	0 2 0	17 2 2	0.35000000000000003	0.1875 0 0	-3.0948767862358668
56	0	0 2 0	18 2 2	0.35000000000000003	0.22916666666666669 0 0	-4.7259837070583419
56	0	0 2 0	19 2 2	0.35000000000000003	0.27083333333333331 0 0	-5.1494627833638367

# iteration 56   time 0.35000000000000003
# time level 0
# refinement level 0   multigrid level 0   map 0   component 3
# column format: 1:it	2:tl	3:rl 4:c 5:ml	6:ix 7:iy 8:iz	9:time	10:x 11:y 12:z	13:data
# data columns: 13:rho
56	0	0 3 0	18 2 2	0.35000000000000003	0.22916666666666655 0 0	-4.7259837070583419
56	0	0 3 0	19 2 2	0.35000000000000003	0.2708333333333332 0 0	-5.1494627833638367
56	0	0 3 0	20 2 2	0.35000000000000003	0.31249999999999983 0 0	-5.5963526228882046
56	0	0 3 0	21 2 2	0.35000000000000003	0.35416666666666652 0 0	-6.4093013633289644
56	0	0 3 0	22 2 2	0.35000000000000003	0.39583333333333315 0 0	-6.1847291426717002
56	0	0 3 0	23 2 2	0.35000000000000003	0.43749999999999978 0 0	-4.8195609928748562
56	0	0 3 0	24 2 2	0.35000000000000003	0.47916666666666646 0 0	-4.338137206297783
56	0	0 3 0	25 2 2	0.35000000000000003	0.52083333333333304 0 0	-3.5970650498066301


# iteration 64   time 0.40000000000000002
# time level 0
# refinement level 0   multigrid level 0   map 0   component 0
# column format: 1:it	2:tl	3:rl 4:c 5:ml	6:ix 7:iy 8:iz	9:time	10:x 11:y 12:z	13:data
# data columns: 13:rho
64	0	0 0 0	0 2 2	0.40000000000000002	-0.52083333333333337 0 0	-5.4351864693284773
64	0	0 0 0	1 2 2	0.40000000000000002	-0.47916666666666669 0 0	-5.1441943074903742
64	0	0 0 0	2 2 2	0.40000000000000002	-0.4375 0 0	-2.9444822497823799
64	0	0 0 0	3 2 2	0.40000000000000002	-0.39583333333333331 0 0	-1.6285145552941711
64	0	0 0 0	4 2 2	0.40000000000000002	-0.35416666666666669 0 0	-0.96845509946156516
64	0	0 0 0	5 2 2	0.40000000000000002	-0.3125 0 0	1.2648614500821682
64	0	0 0 0	6 2 2	0.40000000000000002	-0.27083333333333331 0 0	3.1321190987095231
64	0	0 0 0	7 2 2	0.40000000000000002	-0.22916666666666669 0 0	3.7745919712824767

# iteration 64   time 0.40000000000000002
# time level 0
# refinement level 0   multigrid level 0   map 0   component 1
# column format: 1:it	2:tl	3:rl 4:c 5:ml	6:ix 7:iy 8:iz	9:time	10:x 11:y 12:z	13:data
# data columns: 13:rho
64	0	0 1 0	6 2 2	0.40000000000000002	-0.27083333333333331 0 0	3.1321190987095231
64	0	0 1 0	7 2 2	0.40000000000000002	-0.22916666666666669 0 0	3.7745919712824767
64	0	0 1 0	8 2 2	0.40000000000000002	-0.1875 0 0	4.733266467011517
64	0	0 1 0	9 2 2	0.40000000000000002	-0.14583333333333334 0 0	6.0579998636569483
64	0	0 1 0	10 2 2	0.40000000000000002	-0.10416666666666667 0 0	6.3065342576738441
64	0	0 1 0	11 2 2	0.40000000000000002	-0.0625 0 0	5.42898818189129
64	0	0 1 0	12 2 2	0.40000000000000002	-0.020833333333333332 0 0	5.4351864693284879
64	0	0 1 0	13 2 2	0.40000000000000002	0.020833333333333332 0 0	5.1441943074903751

# iteration 64   time 0.40000000000000002
# time level 0
# refinement level 0   multigrid level 0   map 0   component 2
# column format: 1:it	2:tl	3:rl 4:c 5:ml	6:ix 7:iy 8:iz	9:time	10:x 11:y 12:z	13:data
# data columns: 13:rho
64	0	0 2 0	12 2 2	0.40000000000000002	-0.020833333333333332 0 0	5.4351864693284879
64	0	0 2 0	13 2 2	0.40000000000000002	0.020833333333333332 0 0	5.1441943074903751
64	0	0 2 0	14 2 2	0.40000000000000002	0.0625 0 0	2.9444822497823768
64	0	0 2 0	15 2 2	0.40000000000000002	0.10416666666666667 0 0	1.6285145552941802
64	0	0 2 0	16 2 2	0.40000000000000002	0.14583333333333334 0 0	0.96845509946154207
64	0	0 2 0	17 2 2	0.40000000000000002	0.1875 0 0	-1.26486145008219
64	0	0 2 0	18 2 2	0.40000000000000002	0.22916666666666669 0 0	-3.132119098709508
64	0	0 2 0	19 2 2	0.40000000000000002	0.27083333333333331 0 0	-3.774591971282502

# iteration 64   time 0.40000000000000002
# time level 0
# refinement level 0   multigrid level 0   map 0   component 3
# column format: 1:it	2:tl	3:rl 4:c 5:ml	6:ix 7:iy 8:iz	9:time	10:x 11:y 12:z	13:data
# data columns: 13:rho
64	0	0 3 0	18 2 2	0.40000000000000002	0.22916666666666655 0 0	-3.132119098709508
64	0	0 3 0	19 2 2	0.40000000000000002	0.2708333333333332 0 0	-3.774591971282502
64	0	0 3 0	20 2 2	0.40000000000000002	0.31249999999999983 0 0	-4.7332664670115161
64	0	0 3 0	21 2 2	0.40000000000000002	0.35416666666666652 0 0	-6.0579998636569181
64	0	0 3 0	22 2 2	0.40000000000000002	0.39583333333333315 0 0	-6.3065342576738592
64	0	0 3 0	23 2 2	0.40000000000000002	0.43749999999999978 0 0	-5.4289881818912855
64	0	0 3 0	24 2 2	0.40000000000000002	0.47916666666666646 0 0	-5.4351864693284773
64	0	0 3 0	25 2 2	0.40000000000000002	0.52083333333333304 0 0	-5.1441943074903742


# iteration 72   time 0.45000000000000001
# time level 0
# refinement level 0   multigrid level 0   map 0   component 0
# column format: 1:it	2:tl	3:rl 4:c 5:ml	6:ix 7:iy 8:iz	9:time	10:x 11:y 12:z	13:data
# data columns: 13:rho
72	0	0 0 0	0 2 2	0.45000000000000001	-0.52083333333333337 0 0	-5.7994880763235406
72	0	0 0 0	1 2 2	0.45000000000000001	-0.47916666666666669 0 0	-6.4147314440392229
72	0	0 0 0	2 2 2	0.45000000000000001	-0.4375 0 0	-4.3222185398637976
72	0	0 0 0	3 2 2	0.45000000000000001	-0.39583333333333331 0 0	-3.1134499989081519
72	0	0 0 0	4 2 2	0.45000000000000001	-0.35416666666666669 0 0	-3.158253218706502
72	0	0 0 0	5 2 2	0.45000000000000001	-0.3125 0 0	-0.69789472784648676
72	0	0 0 0	6 2 2	0.45000000000000001	-0.27083333333333331 0 0	1.3964048620971516
72	0	0 0 0	7 2 2	0.45000000000000001	-0.22916666666666669 0 0	1.9482869087360497

# iteration 72   time 0.45000000000000001
# time level 0
# refinement level 0   multigrid level 0   map 0   component 1
# column format: 1:it	2:tl	3:rl 4:c 5:ml	6:ix 7:iy 8:iz	9:time	10:x 11:y 12:z	13:data
# data columns: 13:rho
72	0	0 1 0	6 2 2	0.45000000000000001	-0.27083333333333331 0 0	1.3964048620971516
72	0	0 1 0	7 2 2	0.45000000000000001	-0.22916666666666669 0 0	1.9482869087360497
72	0	0 1 0	8 2 2	0.45000000000000001	-0.1875 0 0	3.3352463506346619
72	0	0 1 0	9 2 2	0.45000000000000001	-0.14583333333333334 0 0	5.0882646934496663
72	0	0 1 0	10 2 2	0.45000000000000001	-0.10416666666666667 0 0	5.9135469884349323
72	0	0 1 0	11 2 2	0.45000000000000001	-0.0625 0 0	5.4146453507693684
72	0	0 1 0	12 2 2	0.45000000000000001	-0.020833333333333332 0 0	5.7994880763235512
72	0	0 1 0	13 2 2	0.45000000000000001	0.020833333333333332 0 0	6.4147314440392478

# iteration 72   time 0.45000000000000001
# time level 0
# refinement level 0   multigrid level 0   map 0   component 2
# column format: 1:it	2:tl	3:rl 4:c 5:ml	6:ix 7:iy 8:iz	9:time	10:x 11:y 12:z	13:data
# data columns: 13:rho
72	0	0 2 0	12 2 2	0.45000000000000001	-0.020833333333333332 0 0	5.7994880763235512
72	0	0 2 0	13 2 2	0.45000000000000001	0.020833333333333332 0 0	6.4147314440392478
72	0	0 2 0	14 2 2	0.45000000000000001	0.0625 0 0	4.3222185398637993
72	0	0 2 0	15 2 2	0.45000000000000001	0.10416666666666667 0 0	3.1134499989081523
72	0	0 2 0	16 2 2	0.45000000000000001	0.14583333333333334 0 0	3.1582532187065113
72	0	0 2 0	17 2 2	0.45000000000000001	0.1875 0 0	0.69789472784646112
72	0	0 2 0	18 2 2	0.45000000000000001	0.22916666666666669 0 0	-1.3964048620971743
72	0	0 2 0	19 2 2	0.45000000000000001	0.27083333333333331 0 0	-1.948286908736047

# iteration 72   time 0.45000000000000001
# time level 0
# refinement level 0   multigrid level 0   map 0   component 3
# column format: 1:it	2:tl	3:rl 4:c 5:ml	6:ix 7:iy 8:iz	9:time	10:x 11:y 12:z	13:data
# data columns: 13:rho
72	0	0 3 0	18 2 2	0.45000000000000001	0.22916666666666655 0 0	-1.3964048620971743
72	0	0 3 0	19 2 2	0.45000000000000001	0.2708333333333332 0 0	-1.948286908736047
72	0	0 3 0	20 2 2	0.45000000000000001	0.31249999999999983 0 0	-3.3352463506346579
72	0	0 3 0	21 2 2	0.45000000000000001	0.35416666666666652 0 0	-5.0882646934496565
72	0	0 3 0	22 2 2	0.45000000000000001	0.39583333333333315 0 0	-5.9135469884349554
72	0	0 3 0	23 2 2	0.45000000000000001	0.43749999999999978 0 0	-5.4146453507693693
72	0	0 3 0	24 2 2	0.45000000000000001	0.47916666666666646 0 0	-5.7994880763235406
72	0	0 3 0	25 2 2	0.45000000000000001	0.52083333333333304 0 0	-6.4147314440392229


# iteration 80   time 0.5
# time level 0
# refinement level 0   multigrid level 0   map 0   component 0
# column format: 1:it	2:tl	3:rl 4:c 5:ml	6:ix 7:iy 8:iz	9:time	10:x 11:y 12:z	13:data
# data columns: 13:rho
80	0	0 0 0	0 2 2	0.5	-0.52083333333333337 0 0	-6.4421869645625147
80	0	0 0 0	1 2 2	0.5	-0.47916666666666669 0 0	-6.1459817133344536
80	0	0 0 0	2 2 2	0.5	-0.4375 0 0	-5.17485705972895
80	0	0 0 0	3 2 2	0.5	-0.39583333333333331 0 0	-5.0874767693432306
80	0	0 0 0	4 2 2	0.5	-0.35416666666666669 0 0	-4.5431014589878016
80	0	0 0 0	5 2 2	0.5	-0.3125 0 0	-2.4648171194860908
80	0	0 0 0	6 2 2	0.5	-0.27083333333333331 0 0	-0.75259168090076078
80	0	0 0 0	7 2 2	0.5	-0.22916666666666669 0 0	-0.2789339852031274

# iteration 80   time 0.5
# time level 0
# refinement level 0   multigrid level 0   map 0   component 1
# column format: 1:it	2:tl	3:rl 4:c 5:ml	6:ix 7:iy 8:iz	9:time	10:x 11:y 12:z	13:data
# data columns: 13:rho
80	0	0 1 0	6 2 2	0.5	-0.27083333333333331 0 0	-0.75259168090076078
80	0	0 1 0	7 2 2	0.5	-0.22916666666666669 0 0	-0.2789339852031274
80	0	0 1 0	8 2 2	0.5	-0.1875 0 0	1.689079260582349
80	0	0 1 0	9 2 2	0.5	-0.14583333333333334 0 0	4.02315140728422
80	0	0 1 0	10 2 2	0.5	-0.10416666666666667 0 0	4.1486292341067585
80	0	0 1 0	11 2 2	0.5	-0.0625 0 0	4.8535359177247521
80	0	0 1 0	12 2 2	0.5	-0.020833333333333332 0 0	6.4421869645624916
80	0	0 1 0	13 2 2	0.5	0.020833333333333332 0 0	6.1459817133344723

# iteration 80   time 0.5
# time level 0
# refinement level 0   multigrid level 0   map 0   component 2
# column format: 1:it	2:tl	3:rl 4:c 5:ml	6:ix 7:iy 8:iz	9:time	10:x 11:y 12:z	13:data
# data columns: 13:rho
80	0	0 2 0	12 2 2	0.5	-0.020833333333333332 0 0	6.4421869645624916
80	0	0 2 0	13 2 2	0.5	0.020833333333333332 0 0	6.1459817133344723
80	0	0 2 0	14 2 2	0.5	0.0625 0 0	5.1748570597289509
80	0	0 2 0	15 2 2	0.5	0.10416666666666667 0 0	5.0874767693432332
80	0	0 2 0	16 2 2	0.5	0.14583333333333334 0 0	4.5431014589878131
80	0	0 2 0	17 2 2	0.5	0.1875 0 0	2.4648171194860784
80	0	0 2 0	18 2 2	0.5	0.22916666666666669 0 0	0.75259168090076023
80	0	0 2 0	19 2 2	0.5	0.27083333333333331 0 0	0.27893398520312784

# iteration 80   time 0.5
# time level 0
# refinement level 0   multigrid level 0   map 0   component 3
# column format: 1:it	2:tl	3:rl 4:c 5:ml	6:ix 7:iy 8:iz	9:time	10:x 11:y 12:z	13:data
# data columns: 13:rho
80	0	0 3 0	18 2 2	0.5	0.22916666666666655 0 0	0.75259168090076023
80	0	0 3 0	19 2 2	0.5	0.2708333333333332 0 0	0.27893398520312784
80	0	0 3 0	20 2 2	0.5	0.31249999999999983 0 0	-1.689079260582365
80	0	0 3 0	21 2 2	0.5	0.35416666666666652 0 0	-4.0231514072842431
80	0	0 3 0	22 2 2	0.5	0.39583333333333315 0 0	-4.1486292341067319
80	0	0 3 0	23 2 2	0.5	0.43749999999999978 0 0	-4.8535359177247486
80	0	0 3 0	24 2 2	0.5	0.47916666666666646 0 0	-6.4421869645625147
80	0	0 3 0	25 2 2	0.5	0.52083333333333304 0 0	-6.1459817133344536


# iteration 88   time 0.55000000000000004
# time level 0
# refinement level 0   multigrid level 0   map 0   component 0
# column format: 1:it	2:tl	3:rl 4:c 5:ml	6:ix 7:iy 8:iz	9:time	10:x 11:y 12:z	13:data
# data columns: 13:rho
88	0	0 0 0	0 2 2	0.55000000000000004	-0.52083333333333337 0 0	-5.981838353389163
88	0	0 0 0	1 2 2	0.55000000000000004	-0.47916666666666669 0 0	-5.6217832334705014
88	0	0 0 0	2 2 2	0.55000000000000004	-0.4375 0 0	-5.4948914582320327
88	0	0 0 0	3 2 2	0.55000000000000004	-0.39583333333333331 0 0	-6.25174404621335
88	0	0 0 0	4 2 2	0.55000000000000004	-0.35416666666666669 0 0	-5.5470959230395911
88	0	0 0 0	5 2 2	0.55000000000000004	-0.3125 0 0	-4.0202499436870909
88	0	0 0 0	6 2 2	0.55000000000000004	-0.27083333333333331 0 0	-2.8594628652509702
88	0	0 0 0	7 2 2	0.55000000000000004	-0.22916666666666669 0 0	-2.2229950526766644

# iteration 88   time 0.55000000000000004
# time level 0
# refinement level 0   multigrid level 0   map 0   component 1
# column format: 1:it	2:tl	3:rl 4:c 5:ml	6:ix 7:iy 8:iz	9:time	10:x 11:y 12:z	13:data
# data columns: 13:rho
88	0	0 1 0	6 2 2	0.55000000000000004	-0.27083333333333331 0 0	-2.8594628652509702
88	0	0 1 0	7 2 2	0.55000000000000004	-0.22916666666666669 0 0	-2.2229950526766644
88	0	0 1 0	8 2 2	0.55000000000000004	-0.1875 0 0	-0.19060053625995074
88	0	0 1 0	9 2 2	0.55000000000000004	-0.14583333333333334 0 0	2.2078528810731579
88	0	0 1 0	10 2 2	0.55000000000000004	-0.10416666666666667 0 0	2.4033061704559997
88	0	0 1 0	11 2 2	0.55000000000000004	-0.0625 0 0	3.75070008031271
88	0	0 1 0	12 2 2	0.55000000000000004	-0.020833333333333332 0 0	5.9818383533891719
88	0	0 1 0	13 2 2	0.55000000000000004	0.020833333333333332 0 0	5.6217832334704827

# iteration 88   time 0.55000000000000004
# time level 0
# refinement level 0   multigrid level 0   map 0   component 2
# column format: 1:it	2:tl	3:rl 4:c 5:ml	6:ix 7:iy 8:iz	9:time	10:x 11:y 12:z	13:data
# data columns: 13:rho
88	0	0 2 0	12 2 2	0.55000000000000004	-0.020833333333333332 0 0	5.9818383533891719
88	0	0 2 0	13 2 2	0.55000000000000004	0.020833333333333332 0 0	5.6217832334704827
88	0	0 2 0	14 2 2	0.55000000000000004	0.0625 0 0	5.4948914582320239
88	0	0 2 0	15 2 2	0.55000000000000004	0.10416666666666667 0 0	6.2517440462133695
88	0	0 2 0	16 2 2	0.55000000000000004	0.14583333333333334 0 0	5.5470959230395955
88	0	0 2 0	17 2 2	0.55000000000000004	0.1875 0 0	4.0202499436870891
88	0	0 2 0	18 2 2	0.55000000000000004	0.22916666666666669 0 0	2.8594628652510035
88	0	0 2 0	19 2 2	0.55000000000000004	0.27083333333333331 0 0	2.2229950526766342

# iteration 88   time 0.55000000000000004
# time level 0
# refinement level 0   multigrid level 0   map 0   component 3
# column format: 1:it	2:tl	3:rl 4:c 5:ml	6:ix 7:iy 8:iz	9:time	10:x 11:y 12:z	13:data
# data columns: 13:rho
88	0	0 3 0	18 2 2	0.55000000000000004	0.22916666666666655 0 0	2.8594628652510035
88	0	0 3 0	19 2 2	0.55000000000000004	0.2708333333333332 0 0	2.2229950526766342
88	0	0 3 0	20 2 2	0.55000000000000004	0.31249999999999983 0 0	0.19060053625992737
88	0	0 3 0	21 2 2	0.55000000000000004	0.35416666666666652 0 0	-2.2078528810731659
88	0	0 3 0	22 2 2	0.55000000000000004	0.39583333333333315 0 0	-2.4033061704560033
88	0	0 3 0	23 2 2	0.55000000000000004	0.43749999999999978 0 0	-3.7507000803127029
88	0	0 3 0	24 2 2	0.55000000000000004	0.47916666666666646 0 0	-5.981838353389163
88	0	0 3 0	25 2 2	0.55000000000000004	0.52083333333333304 0 0	-5.6217832334705014


# iteration 96   time 0.60000000000000009
# time level 0
# refinement level 0   multigrid level 0   map 0   component 0
# column format: 1:it	2:tl	3:rl 4:c 5:ml	6:ix 7:iy 8:iz	9:time	10:x 11:y 12:z	13:data
# data columns: 13:rho
96	0	0 0 0	0 2 2	0.60000000000000009	-0.52083333333333337 0 0	-4.3495424006020125
96	0	0 0 0	1 2 2	0.60000000000000009	-0.47916666666666669 0 0	-5.1379571879634733
96	0	0 0 0	2 2 2	0.60000000000000009	-0.4375 0 0	-5.2296041183427944
96	0	0 0 0	3 2 2	0.60000000000000009	-0.39583333333333331 0 0	-6.2049954119418906
96	0	0 0 0	4 2 2	0.60000000000000009	-0.35416666666666669 0 0	-6.3703445343298624
96	0	0 0 0	5 2 2	0.60000000000000009	-0.3125 0 0	-5.2149659494212326
96	0	0 0 0	6 2 2	0.60000000000000009	-0.27083333333333331 0 0	-4.4256462654289814
96	0	0 0 0	7 2 2	0.60000000000000009	-0.22916666666666669 0 0	-3.8710704494751855

# iteration 96   time 0.60000000000000009
# time level 0
# refinement level 0   multigrid level 0   map 0   component 1
# column format: 1:it	2:tl	3:rl 4:c 5:ml	6:ix 7:iy 8:iz	9:time	10:x 11:y 12:z	13:data
# data columns: 13:rho
96	0	0 1 0	6 2 2	0.60000000000000009	-0.27083333333333331 0 0	-4.4256462654289814
96	0	0 1 0	7 2 2	0.60000000000000009	-0.22916666666666669 0 0	-3.8710704494751855
96	0	0 1 0	8 2 2	0.60000000000000009	-0.1875 0 0	-2.1454714546426259
96	0	0 1 0	9 2 2	0.60000000000000009	-0.14583333333333334 0 0	-0.053813558893670579
96	0	0 1 0	10 2 2	0.60000000000000009	-0.10416666666666667 0 0	0.89582420378039729
96	0	0 1 0	11 2 2	0.60000000000000009	-0.0625 0 0	2.1808111205813363
96	0	0 1 0	12 2 2	0.60000000000000009	-0.020833333333333332 0 0	4.3495424006020285
96	0	0 1 0	13 2 2	0.60000000000000009	0.020833333333333332 0 0	5.1379571879634796

# iteration 96   time 0.60000000000000009
# time level 0
# refinement level 0   multigrid level 0   map 0   component 2
# column format: 1:it	2:tl	3:rl 4:c 5:ml	6:ix 7:iy 8:iz	9:time	10:x 11:y 12:z	13:data
# data columns: 13:rho
96	0	0 2 0	12 2 2	0.60000000000000009	-0.020833333333333332 0 0	4.3495424006020285
96	0	0 2 0	13 2 2	0.60000000000000009	0.020833333333333332 0 0	5.1379571879634796
96	0	0 2 0	14 2 2	0.60000000000000009	0.0625 0 0	5.229604118342781
96	0	0 2 0	15 2 2	0.60000000000000009	0.10416666666666667 0 0	6.2049954119418853
96	0	0 2 0	16 2 2	0.60000000000000009	0.14583333333333334 0 0	6.3703445343298997
96	0	0 2 0	17 2 2	0.60000000000000009	0.1875 0 0	5.2149659494212326
96	0	0 2 0	18 2 2	0.60000000000000009	0.22916666666666669 0 0	4.4256462654289868
96	0	0 2 0	19 2 2	0.60000000000000009	0.27083333333333331 0 0	3.8710704494751611

# iteration 96   time 0.60000000000000009
# time level 0
# refinement level 0   multigrid level 0   map 0   component 3
# column format: 1:it	2:tl	3:rl 4:c 5:ml	6:ix 7:iy 8:iz	9:time	10:x 11:y 12:z	13:data
# data columns: 13:rho
96	0	0 3 0	18 2 2	0.60000000000000009	0.22916666666666655 0 0	4.4256462654289868
96	0	0 3 0	19 2 2	0.60000000000000009	0.2708333333333332 0 0	3.8710704494751611
96	0	0 3 0	20 2 2	0.60000000000000009	0.31249999999999983 0 0	2.1454714546426144
96	0	0 3 0	21 2 2	0.60000000000000009	0.35416666666666652 0 0	0.053813558893681945
96	0	0 3 0	22 2 2	0.60000000000000009	0.39583333333333315 0 0	-0.89582420378043393
96	0	0 3 0	23 2 2	0.60000000000000009	0.43749999999999978 0 0	-2.1808111205813443
96	0	0 3 0	24 2 2	0.60000000000000009	0.47916666666666646 0 0	-4.3495424006020125
96	0	0 3 0	25 2 2	0.60000000000000009	0.52083333333333304 0 0	-5.1379571879634733


# iteration 104   time 0.65000000000000002
# time level 0
# refinement level 0   multigrid level 0   map 0   component 0
# column format: 1:it	2:tl	3:rl 4:c 5:ml	6:ix 7:iy 8:iz	9:time	10:x 11:y 12:z	13:data
# data columns: 13:rho
104	0	0 0 0	0 2 2	0.65000000000000002	-0.52083333333333337 0 0	-3.110430993934671
104	0	0 0 0	1 2 2	0.65000000000000002	-0.47916666666666669 0 0	-3.3162073207229685
104	0	0 0 0	2 2 2	0.65000000000000002	-0.4375 0 0	-4.3404247676163346
104	0	0 0 0	3 2 2	0.65000000000000002	-0.39583333333333331 0 0	-6.2483865777294811
104	0	0 0 0	4 2 2	0.65000000000000002	-0.35416666666666669 0 0	-6.1477075620205524
104	0	0 0 0	5 2 2	0.65000000000000002	-0.3125 0 0	-5.7538853541723078
104	0	0 0 0	6 2 2	0.65000000000000002	-0.27083333333333331 0 0	-5.7261220472404402
104	0	0 0 0	7 2 2	0.65000000000000002	-0.22916666666666669 0 0	-5.3779640909901261

# iteration 104   time 0.65000000000000002
# time level 0
# refinement level 0   multigrid level 0   map 0   component 1
# column format: 1:it	2:tl	3:rl 4:c 5:ml	6:ix 7:iy 8:iz	9:time	10:x 11:y 12:z	13:data
# data columns: 13:rho
104	0	0 1 0	6 2 2	0.65000000000000002	-0.27083333333333331 0 0	-5.7261220472404402
104	0	0 1 0	7 2 2	0.65000000000000002	-0.22916666666666669 0 0	-5.3779640909901261
104	0	0 1 0	8 2 2	0.65000000000000002	-0.1875 0 0	-3.7967979365940168
104	0	0 1 0	9 2 2	0.65000000000000002	-0.14583333333333334 0 0	-1.8495728812815115
104	0	0 1 0	10 2 2	0.65000000000000002	-0.10416666666666667 0 0	-1.4578821934131976
104	0	0 1 0	11 2 2	0.65000000000000002	-0.0625 0 0	0.38440221865084068
104	0	0 1 0	12 2 2	0.65000000000000002	-0.020833333333333332 0 0	3.1104309939346328
104	0	0 1 0	13 2 2	0.65000000000000002	0.020833333333333332 0 0	3.3162073207229845

# iteration 104   time 0.65000000000000002
# time level 0
# refinement level 0   multigrid level 0   map 0   component 2
# column format: 1:it	2:tl	3:rl 4:c 5:ml	6:ix 7:iy 8:iz	9:time	10:x 11:y 12:z	13:data
# data columns: 13:rho
104	0	0 2 0	12 2 2	0.65000000000000002	-0.020833333333333332 0 0	3.1104309939346328
104	0	0 2 0	13 2 2	0.65000000000000002	0.020833333333333332 0 0	3.3162073207229845
104	0	0 2 0	14 2 2	0.65000000000000002	0.0625 0 0	4.3404247676163399
104	0	0 2 0	15 2 2	0.65000000000000002	0.10416666666666667 0 0	6.2483865777294909
104	0	0 2 0	16 2 2	0.65000000000000002	0.14583333333333334 0 0	6.1477075620205612
104	0	0 2 0	17 2 2	0.65000000000000002	0.1875 0 0	5.7538853541722865
104	0	0 2 0	18 2 2	0.65000000000000002	0.22916666666666669 0 0	5.7261220472404348
104	0	0 2 0	19 2 2	0.65000000000000002	0.27083333333333331 0 0	5.3779640909901705

# iteration 104   time 0.65000000000000002
# time level 0
# refinement level 0   multigrid level 0   map 0   component 3
# column format: 1:it	2:tl	3:rl 4:c 5:ml	6:ix 7:iy 8:iz	9:time	10:x 11:y 12:z	13:data
# data columns: 13:rho
104	0	0 3 0	18 2 2	0.65000000000000002	0.22916666666666655 0 0	5.7261220472404348
104	0	0 3 0	19 2 2	0.65000000000000002	0.2708333333333332 0 0	5.3779640909901705
104	0	0 3 0	20 2 2	0.65000000000000002	0.31249999999999983 0 0	3.7967979365940234
104	0	0 3 0	21 2 2	0.65000000000000002	0.35416666666666652 0 0	1.8495728812814858
104	0	0 3 0	22 2 2	0.65000000000000002	0.39583333333333315 0 0	1.4578821934131967
104	0	0 3 0	23 2 2	0.65000000000000002	0.43749999999999978 0 0	-0.38440221865085844
104	0	0 3 0	24 2 2	0.65000000000000002	0.47916666666666646 0 0	-3.110430993934671
104	0	0 3 0	25 2 2	0.65000000000000002	0.52083333333333304 0 0	-3.3162073207229685


# iteration 112   time 0.70000000000000007
# time level 0
# refinement level 0   multigrid level 0   map 0   component 0
# column format: 1:it	2:tl	3:rl 4:c 5:ml	6:ix 7:iy 8:iz	9:time	10:x 11:y 12:z	13:data
# data columns: 13:rho
112	0	0 0 0	0 2 2	0.70000000000000007	-0.52083333333333337 0 0	-1.5168623462156265
112	0	0 0 0	1 2 2	0.70000000000000007	-0.47916666666666669 0 0	-1.1131296130631103
112	0	0 0 0	2 2 2	0.70000000000000007	-0.4375 0 0	-2.9850045697901533
112	0	0 0 0	3 2 2	0.70000000000000007	-0.39583333333333331 0 0	-5.7406238897369715
112	0	0 0 0	4 2 2	0.70000000000000007	-0.35416666666666669 0 0	-5.1523625089637113
112	0	0 0 0	5 2 2	0.70000000000000007	-0.3125 0 0	-5.6939547115903855
112	0	0 0 0	6 2 2	0.70000000000000007	-0.27083333333333331 0 0	-6.6016058151334391
112	0	0 0 0	7 2 2	0.70000000000000007	-0.22916666666666669 0 0	-6.1734113253760503

# iteration 112   time 0.70000000000000007
# time level 0
# refinement level 0   multigrid level 0   map 0   component 1
# column format: 1:it	2:tl	3:rl 4:c 5:ml	6:ix 7:iy 8:iz	9:time	10:x 11:y 12:z	13:data
# data columns: 13:rho
112	0	0 1 0	6 2 2	0.70000000000000007	-0.27083333333333331 0 0	-6.6016058151334391
112	0	0 1 0	7 2 2	0.70000000000000007	-0.22916666666666669 0 0	-6.1734113253760503
112	0	0 1 0	8 2 2	0.70000000000000007	-0.1875 0 0	-5.0674634068791109
112	0	0 1 0	9 2 2	0.70000000000000007	-0.14583333333333334 0 0	-3.5954565874657676
112	0	0 1 0	10 2 2	0.70000000000000007	-0.10416666666666667 0 0	-3.5781595134907702
112	0	0 1 0	11 2 2	0.70000000000000007	-0.0625 0 0	-1.4725207652474657
112	0	0 1 0	12 2 2	0.70000000000000007	-0.020833333333333332 0 0	1.5168623462155946
112	0	0 1 0	13 2 2	0.70000000000000007	0.020833333333333332 0 0	1.1131296130631048

# iteration 112   time 0.70000000000000007
# time level 0
# refinement level 0   multigrid level 0   map 0   component 2
# column format: 1:it	2:tl	3:rl 4:c 5:ml	6:ix 7:iy 8:iz	9:time	10:x 11:y 12:z	13:data
# data columns: 13:rho
112	0	0 2 0	12 2 2	0.70000000000000007	-0.020833333333333332 0 0	1.5168623462155946
112	0	0 2 0	13 2 2	0.70000000000000007	0.020833333333333332 0 0	1.1131296130631048
112	0	0 2 0	14 2 2	0.70000000000000007	0.0625 0 0	2.9850045697901502
112	0	0 2 0	15 2 2	0.70000000000000007	0.10416666666666667 0 0	5.7406238897369892
112	0	0 2 0	16 2 2	0.70000000000000007	0.14583333333333334 0 0	5.15236250896369
112	0	0 2 0	17 2 2	0.70000000000000007	0.1875 0 0	5.6939547115903775
112	0	0 2 0	18 2 2	0.70000000000000007	0.22916666666666669 0 0	6.6016058151334835
112	0	0 2 0	19 2 2	0.70000000000000007	0.27083333333333331 0 0	6.1734113253760485

# iteration 112   time 0.70000000000000007
# time level 0
# refinement level 0   multigrid level 0   map 0   component 3
# column format: 1:it	2:tl	3:rl 4:c 5:ml	6:ix 7:iy 8:iz	9:time	10:x 11:y 12:z	13:data
# data columns: 13:rho
112	0	0 3 0	18 2 2	0.70000000000000007	0.22916666666666655 0 0	6.6016058151334835
112	0	0 3 0	19 2 2	0.70000000000000007	0.2708333333333332 0 0	6.1734113253760485
112	0	0 3 0	20 2 2	0.70000000000000007	0.31249999999999983 0 0	5.0674634068791118
112	0	0 3 0	21 2 2	0.70000000000000007	0.35416666666666652 0 0	3.5954565874657805
112	0	0 3 0	22 2 2	0.70000000000000007	0.39583333333333315 0 0	3.578159513490772
112	0	0 3 0	23 2 2	0.70000000000000007	0.43749999999999978 0 0	1.4725207652474521
112	0	0 3 0	24 2 2	0.70000000000000007	0.47916666666666646 0 0	-1.5168623462156265
112	0	0 3 0	25 2 2	0.70000000000000007	0.52083333333333304 0 0	-1.1131296130631103


# iteration 120   time 0.75
# time level 0
# refinement level 0   multigrid level 0   map 0   component 0
# column format: 1:it	2:tl	3:rl 4:c 5:ml	6:ix 7:iy 8:iz	9:time	10:x 11:y 12:z	13:data
# data columns: 13:rho
120	0	0 0 0	0 2 2	0.75	-0.52083333333333337 0 0	1.0458105963595896
120	0	0 0 0	1 2 2	0.75	-0.47916666666666669 0 0	0.36327000858376285
120	0	0 0 0	2 2 2	0.75	-0.4375 0 0	-1.3208620063190308
120	0	0 0 0	3 2 2	0.75	-0.39583333333333331 0 0	-3.8887383844416026
120	0	0 0 0	4 2 2	0.75	-0.35416666666666669 0 0	-4.0896457936742907
120	0	0 0 0	5 2 2	0.75	-0.3125 0 0	-5.1344520264577884
120	0	0 0 0	6 2 2	0.75	-0.27083333333333331 0 0	-6.5453171601576647
120	0	0 0 0	7 2 2	0.75	-0.22916666666666669 0 0	-6.1469025553000352

# iteration 120   time 0.75
# time level 0
# refinement level 0   multigrid level 0   map 0   component 1
# column format: 1:it	2:tl	3:rl 4:c 5:ml	6:ix 7:iy 8:iz	9:time	10:x 11:y 12:z	13:data
# data columns: 13:rho
120	0	0 1 0	6 2 2	0.75	-0.27083333333333331 0 0	-6.5453171601576647
120	0	0 1 0	7 2 2	0.75	-0.22916666666666669 0 0	-6.1469025553000352
120	0	0 1 0	8 2 2	0.75	-0.1875 0 0	-5.9403496848515926
120	0	0 1 0	9 2 2	0.75	-0.14583333333333334 0 0	-5.3677379134867467
120	0	0 1 0	10 2 2	0.75	-0.10416666666666667 0 0	-4.6033871666168249
120	0	0 1 0	11 2 2	0.75	-0.0625 0 0	-3.266471063098082
120	0	0 1 0	12 2 2	0.75	-0.020833333333333332 0 0	-1.0458105963595834
120	0	0 1 0	13 2 2	0.75	0.020833333333333332 0 0	-0.36327000858378605

# iteration 120   time 0.75
# time level 0
# refinement level 0   multigrid level 0   map 0   component 2
# column format: 1:it	2:tl	3:rl 4:c 5:ml	6:ix 7:iy 8:iz	9:time	10:x 11:y 12:z	13:data
# data columns: 13:rho
120	0	0 2 0	12 2 2	0.75	-0.020833333333333332 0 0	-1.0458105963595834
120	0	0 2 0	13 2 2	0.75	0.020833333333333332 0 0	-0.36327000858378605
120	0	0 2 0	14 2 2	0.75	0.0625 0 0	1.320862006319006
120	0	0 2 0	15 2 2	0.75	0.10416666666666667 0 0	3.888738384441591
120	0	0 2 0	16 2 2	0.75	0.14583333333333334 0 0	4.0896457936743076
120	0	0 2 0	17 2 2	0.75	0.1875 0 0	5.1344520264577911
120	0	0 2 0	18 2 2	0.75	0.22916666666666669 0 0	6.545317160157694
120	0	0 2 0	19 2 2	0.75	0.27083333333333331 0 0	6.1469025553000058

# iteration 120   time 0.75
# time level 0
# refinement level 0   multigrid level 0   map 0   component 3
# column format: 1:it	2:tl	3:rl 4:c 5:ml	6:ix 7:iy 8:iz	9:time	10:x 11:y 12:z	13:data
# data columns: 13:rho
120	0	0 3 0	18 2 2	0.75	0.22916666666666655 0 0	6.545317160157694
120	0	0 3 0	19 2 2	0.75	0.2708333333333332 0 0	6.1469025553000058
120	0	0 3 0	20 2 2	0.75	0.31249999999999983 0 0	5.9403496848515944
120	0	0 3 0	21 2 2	0.75	0.35416666666666652 0 0	5.3677379134867893
120	0	0 3 0	22 2 2	0.75	0.39583333333333315 0 0	4.6033871666168151
120	0	0 3 0	23 2 2	0.75	0.43749999999999978 0 0	3.266471063098082
120	0	0 3 0	24 2 2	0.75	0.47916666666666646 0 0	1.0458105963595896
120	0	0 3 0	25 2 2	0.75	0.52083333333333304 0 0	0.36327000858376285


# iteration 128   time 0.80000000000000004
# time level 0
# refinement level 0   multigrid level 0   map 0   component 0
# column format: 1:it	2:tl	3:rl 4:c 5:ml	6:ix 7:iy 8:iz	9:time	10:x 11:y 12:z	13:data
# data columns: 13:rho
128	0	0 0 0	0 2 2	0.80000000000000004	-0.52083333333333337 0 0	2.88895137310565
128	0	0 0 0	1 2 2	0.80000000000000004	-0.47916666666666669 0 0	2.3568475137264779
128	0	0 0 0	2 2 2	0.80000000000000004	-0.4375 0 0	0.56116858149443427
128	0	0 0 0	3 2 2	0.80000000000000004	-0.39583333333333331 0 0	-2.1182547139573873
128	0	0 0 0	4 2 2	0.80000000000000004	-0.35416666666666669 0 0	-2.3905050465841531
128	0	0 0 0	5 2 2	0.80000000000000004	-0.3125 0 0	-3.9545310319063125
128	0	0 0 0	6 2 2	0.80000000000000004	-0.27083333333333331 0 0	-5.8846159181448527
128	0	0 0 0	7 2 2	0.80000000000000004	-0.22916666666666669 0 0	-5.7375321715271017

# iteration 128   time 0.80000000000000004
# time level 0
# refinement level 0   multigrid level 0   map 0   component 1
# column format: 1:it	2:tl	3:rl 4:c 5:ml	6:ix 7:iy 8:iz	9:time	10:x 11:y 12:z	13:data
# data columns: 13:rho
128	0	0 1 0	6 2 2	0.80000000000000004	-0.27083333333333331 0 0	-5.8846159181448527
128	0	0 1 0	7 2 2	0.80000000000000004	-0.22916666666666669 0 0	-5.7375321715271017
128	0	0 1 0	8 2 2	0.80000000000000004	-0.1875 0 0	-6.1537199996416234
128	0	0 1 0	9 2 2	0.80000000000000004	-0.14583333333333334 0 0	-6.2038489268397505
128	0	0 1 0	10 2 2	0.80000000000000004	-0.10416666666666667 0 0	-5.7235907649414219
128	0	0 1 0	11 2 2	0.80000000000000004	-0.0625 0 0	-4.7481432506334196
128	0	0 1 0	12 2 2	0.80000000000000004	-0.020833333333333332 0 0	-2.8889513731056629
128	0	0 1 0	13 2 2	0.80000000000000004	0.020833333333333332 0 0	-2.3568475137264722

# iteration 128   time 0.80000000000000004
# time level 0
# refinement level 0   multigrid level 0   map 0   component 2
# column format: 1:it	2:tl	3:rl 4:c 5:ml	6:ix 7:iy 8:iz	9:time	10:x 11:y 12:z	13:data
# data columns: 13:rho
128	0	0 2 0	12 2 2	0.80000000000000004	-0.020833333333333332 0 0	-2.8889513731056629
128	0	0 2 0	13 2 2	0.80000000000000004	0.020833333333333332 0 0	-2.3568475137264722
128	0	0 2 0	14 2 2	0.80000000000000004	0.0625 0 0	-0.56116858149445492
128	0	0 2 0	15 2 2	0.80000000000000004	0.10416666666666667 0 0	2.1182547139573549
128	0	0 2 0	16 2 2	0.80000000000000004	0.14583333333333334 0 0	2.3905050465841859
128	0	0 2 0	17 2 2	0.80000000000000004	0.1875 0 0	3.9545310319063018
128	0	0 2 0	18 2 2	0.80000000000000004	0.22916666666666669 0 0	5.8846159181448394
128	0	0 2 0	19 2 2	0.80000000000000004	0.27083333333333331 0 0	5.7375321715271168

# iteration 128   time 0.80000000000000004
# time level 0
# refinement level 0   multigrid level 0   map 0   component 3
# column format: 1:it	2:tl	3:rl 4:c 5:ml	6:ix 7:iy 8:iz	9:time	10:x 11:y 12:z	13:data
# data columns: 13:rho
128	0	0 3 0	18 2 2	0.80000000000000004	0.22916666666666655 0 0	5.8846159181448394
128	0	0 3 0	19 2 2	0.80000000000000004	0.2708333333333332 0 0	5.7375321715271168
128	0	0 3 0	20 2 2	0.80000000000000004	0.31249999999999983 0 0	6.1537199996416243
128	0	0 3 0	21 2 2	0.80000000000000004	0.35416666666666652 0 0	6.2038489268397425
128	0	0 3 0	22 2 2	0.80000000000000004	0.39583333333333315 0 0	5.7235907649414477
128	0	0 3 0	23 2 2	0.80000000000000004	0.43749999999999978 0 0	4.7481432506334302
128	0	0 3 0	24 2 2	0.80000000000000004	0.47916666666666646 0 0	2.88895137310565
128	0	0 3 0	25 2 2	0.80000000000000004	0.52083333333333304 0 0	2.3568475137264779


# iteration 136   time 0.85000000000000009
# time level 0
# refinement level 0   multigrid level 0   map 0   component 0
# column format: 1:it	2:tl	3:rl 4:c 5:ml	6:ix 7:iy 8:iz	9:time	10:x 11:y 12:z	13:data
# data columns: 13:rho
136	0	0 0 0	0 2 2	0.85000000000000009	-0.52083333333333337 0 0	4.0563692754077447
136	0	0 0 0	1 2 2	0.85000000000000009	-0.47916666666666669 0 0	4.5567117509487431
136	0	0 0 0	2 2 2	0.85000000000000009	-0.4375 0 0	2.4303223283877964
136	0	0 0 0	3 2 2	0.85000000000000009	-0.39583333333333331 0 0	-0.57981145739292794
136	0	0 0 0	4 2 2	0.85000000000000009	-0.35416666666666669 0 0	-0.10624519514500826
136	0	0 0 0	5 2 2	0.85000000000000009	-0.3125 0 0	-2.3082663981503888
136	0	0 0 0	6 2 2	0.85000000000000009	-0.27083333333333331 0 0	-4.8763465020721481
136	0	0 0 0	7 2 2	0.85000000000000009	-0.22916666666666669 0 0	-4.7069651468598259

# iteration 136   time 0.85000000000000009
# time level 0
# refinement level 0   multigrid level 0   map 0   component 1
# column format: 1:it	2:tl	3:rl 4:c 5:ml	6:ix 7:iy 8:iz	9:time	10:x 11:y 12:z	13:data
# data columns: 13:rho
136	0	0 1 0	6 2 2	0.85000000000000009	-0.27083333333333331 0 0	-4.8763465020721481
136	0	0 1 0	7 2 2	0.85000000000000009	-0.22916666666666669 0 0	-4.7069651468598259
136	0	0 1 0	8 2 2	0.85000000000000009	-0.1875 0 0	-5.6947039742221666
136	0	0 1 0	9 2 2	0.85000000000000009	-0.14583333333333334 0 0	-6.3163839006681108
136	0	0 1 0	10 2 2	0.85000000000000009	-0.10416666666666667 0 0	-6.5504087531616522
136	0	0 1 0	11 2 2	0.85000000000000009	-0.0625 0 0	-5.7452611958945718
136	0	0 1 0	12 2 2	0.85000000000000009	-0.020833333333333332 0 0	-4.0563692754077394
136	0	0 1 0	13 2 2	0.85000000000000009	0.020833333333333332 0 0	-4.5567117509487414

# iteration 136   time 0.85000000000000009
# time level 0
# refinement level 0   multigrid level 0   map 0   component 2
# column format: 1:it	2:tl	3:rl 4:c 5:ml	6:ix 7:iy 8:iz	9:time	10:x 11:y 12:z	13:data
# data columns: 13:rho
136	0	0 2 0	12 2 2	0.85000000000000009	-0.020833333333333332 0 0	-4.0563692754077394
136	0	0 2 0	13 2 2	0.85000000000000009	0.020833333333333332 0 0	-4.5567117509487414
136	0	0 2 0	14 2 2	0.85000000000000009	0.0625 0 0	-2.4303223283878004
136	0	0 2 0	15 2 2	0.85000000000000009	0.10416666666666667 0 0	0.57981145739293227
136	0	0 2 0	16 2 2	0.85000000000000009	0.14583333333333334 0 0	0.10624519514498058
136	0	0 2 0	17 2 2	0.85000000000000009	0.1875 0 0	2.3082663981503617
136	0	0 2 0	18 2 2	0.85000000000000009	0.22916666666666669 0 0	4.8763465020721659
136	0	0 2 0	19 2 2	0.85000000000000009	0.27083333333333331 0 0	4.7069651468598295

# iteration 136   time 0.85000000000000009
# time level 0
# refinement level 0   multigrid level 0   map 0   component 3
# column format: 1:it	2:tl	3:rl 4:c 5:ml	6:ix 7:iy 8:iz	9:time	10:x 11:y 12:z	13:data
# data columns: 13:rho
136	0	0 3 0	18 2 2	0.85000000000000009	0.22916666666666655 0 0	4.8763465020721659
136	0	0 3 0	19 2 2	0.85000000000000009	0.2708333333333332 0 0	4.7069651468598295
136	0	0 3 0	20 2 2	0.85000000000000009	0.31249999999999983 0 0	5.694703974222163
136	0	0 3 0	21 2 2	0.85000000000000009	0.35416666666666652 0 0	6.3163839006681126
136	0	0 3 0	22 2 2	0.85000000000000009	0.39583333333333315 0 0	6.5504087531616602
136	0	0 3 0	23 2 2	0.85000000000000009	0.43749999999999978 0 0	5.7452611958945834
136	0	0 3 0	24 2 2	0.85000000000000009	0.47916666666666646 0 0	4.0563692754077447
136	0	0 3 0	25 2 2	0.85000000000000009	0.52083333333333304 0 0	4.5567117509487431


# iteration 144   time 0.90000000000000002
# time level 0
# refinement level 0   multigrid level 0   map 0   component 0
# column format: 1:it	2:tl	3:rl 4:c 5:ml	6:ix 7:iy 8:iz	9:time	10:x 11:y 12:z	13:data
# data columns: 13:rho
144	0	0 0 0	0 2 2	0.90000000000000002	-0.52083333333333337 0 0	5.6895010222109414
144	0	0 0 0	1 2 2	0.90000000000000002	-0.47916666666666669 0 0	5.4177865899340283
144	0	0 0 0	2 2 2	0.90000000000000002	-0.4375 0 0	4.0421788297631673
144	0	0 0 0	3 2 2	0.90000000000000002	-0.39583333333333331 0 0	1.7828267063725327
144	0	0 0 0	4 2 2	0.90000000000000002	-0.35416666666666669 0 0	1.7640152834047242
144	0	0 0 0	5 2 2	0.90000000000000002	-0.3125 0 0	-0.51906456518841848
144	0	0 0 0	6 2 2	0.90000000000000002	-0.27083333333333331 0 0	-3.1682033146979394
144	0	0 0 0	7 2 2	0.90000000000000002	-0.22916666666666669 0 0	-2.9230922519097033

# iteration 144   time 0.90000000000000002
# time level 0
# refinement level 0   multigrid level 0   map 0   component 1
# column format: 1:it	2:tl	3:rl 4:c 5:ml	6:ix 7:iy 8:iz	9:time	10:x 11:y 12:z	13:data
# data columns: 13:rho
144	0	0 1 0	6 2 2	0.90000000000000002	-0.27083333333333331 0 0	-3.1682033146979394
144	0	0 1 0	7 2 2	0.90000000000000002	-0.22916666666666669 0 0	-2.9230922519097033
144	0	0 1 0	8 2 2	0.90000000000000002	-0.1875 0 0	-4.7762469775999206
144	0	0 1 0	9 2 2	0.90000000000000002	-0.14583333333333334 0 0	-6.263342802373745
144	0	0 1 0	10 2 2	0.90000000000000002	-0.10416666666666667 0 0	-5.8978919901231253
144	0	0 1 0	11 2 2	0.90000000000000002	-0.0625 0 0	-6.2355686877768921
144	0	0 1 0	12 2 2	0.90000000000000002	-0.020833333333333332 0 0	-5.6895010222109033
144	0	0 1 0	13 2 2	0.90000000000000002	0.020833333333333332 0 0	-5.4177865899340194

# iteration 144   time 0.90000000000000002
# time level 0
# refinement level 0   multigrid level 0   map 0   component 2
# column format: 1:it	2:tl	3:rl 4:c 5:ml	6:ix 7:iy 8:iz	9:time	10:x 11:y 12:z	13:data
# data columns: 13:rho
144	0	0 2 0	12 2 2	0.90000000000000002	-0.020833333333333332 0 0	-5.6895010222109033
144	0	0 2 0	13 2 2	0.90000000000000002	0.020833333333333332 0 0	-5.4177865899340194
144	0	0 2 0	14 2 2	0.90000000000000002	0.0625 0 0	-4.0421788297631682
144	0	0 2 0	15 2 2	0.90000000000000002	0.10416666666666667 0 0	-1.7828267063725265
144	0	0 2 0	16 2 2	0.90000000000000002	0.14583333333333334 0 0	-1.7640152834047451
144	0	0 2 0	17 2 2	0.90000000000000002	0.1875 0 0	0.51906456518839184
144	0	0 2 0	18 2 2	0.90000000000000002	0.22916666666666669 0 0	3.1682033146979514
144	0	0 2 0	19 2 2	0.90000000000000002	0.27083333333333331 0 0	2.9230922519096749

# iteration 144   time 0.90000000000000002
# time level 0
# refinement level 0   multigrid level 0   map 0   component 3
# column format: 1:it	2:tl	3:rl 4:c 5:ml	6:ix 7:iy 8:iz	9:time	10:x 11:y 12:z	13:data
# data columns: 13:rho
144	0	0 3 0	18 2 2	0.90000000000000002	0.22916666666666655 0 0	3.1682033146979514
144	0	0 3 0	19 2 2	0.90000000000000002	0.2708333333333332 0 0	2.9230922519096749
144	0	0 3 0	20 2 2	0.90000000000000002	0.31249999999999983 0 0	4.776246977599917
144	0	0 3 0	21 2 2	0.90000000000000002	0.35416666666666652 0 0	6.2633428023737823
144	0	0 3 0	22 2 2	0.90000000000000002	0.39583333333333315 0 0	5.8978919901230853
144	0	0 3 0	23 2 2	0.90000000000000002	0.43749999999999978 0 0	6.2355686877768974
144	0	0 3 0	24 2 2	0.90000000000000002	0.47916666666666646 0 0	5.6895010222109414
144	0	0 3 0	25 2 2	0.90000000000000002	0.52083333333333304 0 0	5.4177865899340283


# iteration 152   time 0.95000000000000007
# time level 0
# refinement level 0   multigrid level 0   map 0   component 0
# column format: 1:it	2:tl	3:rl 4:c 5:ml	6:ix 7:iy 8:iz	9:time	10:x 11:y 12:z	13:data
# data columns: 13:rho
152	0	0 0 0	0 2 2	0.95000000000000007	-0.52083333333333337 0 0	6.4944992314468042
152	0	0 0 0	1 2 2	0.95000000000000007	-0.47916666666666669 0 0	5.8936766981884183
152	0	0 0 0	2 2 2	0.95000000000000007	-0.4375 0 0	5.3069005386226555
152	0	0 0 0	3 2 2	0.95000000000000007	-0.39583333333333331 0 0	3.8363800158371237
152	0	0 0 0	4 2 2	0.95000000000000007	-0.35416666666666669 0 0	3.4479729146159626
152	0	0 0 0	5 2 2	0.95000000000000007	-0.3125 0 0	1.3724966164497792
152	0	0 0 0	6 2 2	0.95000000000000007	-0.27083333333333331 0 0	-1.0690385826327826
152	0	0 0 0	7 2 2	0.95000000000000007	-0.22916666666666669 0 0	-1.0175066396434533

# iteration 152   time 0.95000000000000007
# time level 0
# refinement level 0   multigrid level 0   map 0   component 1
# column format: 1:it	2:tl	3:rl 4:c 5:ml	6:ix 7:iy 8:iz	9:time	10:x 11:y 12:z	13:data
# data columns: 13:rho
152	0	0 1 0	6 2 2	0.95000000000000007	-0.27083333333333331 0 0	-1.0690385826327826
152	0	0 1 0	7 2 2	0.95000000000000007	-0.22916666666666669 0 0	-1.0175066396434533
152	0	0 1 0	8 2 2	0.95000000000000007	-0.1875 0 0	-3.3658972093282005
152	0	0 1 0	9 2 2	0.95000000000000007	-0.14583333333333334 0 0	-5.3482288780965526
152	0	0 1 0	10 2 2	0.95000000000000007	-0.10416666666666667 0 0	-4.8869446042043307
152	0	0 1 0	11 2 2	0.95000000000000007	-0.0625 0 0	-6.132594099435444
152	0	0 1 0	12 2 2	0.95000000000000007	-0.020833333333333332 0 0	-6.4944992314468015
152	0	0 1 0	13 2 2	0.95000000000000007	0.020833333333333332 0 0	-5.8936766981883846

# iteration 152   time 0.95000000000000007
# time level 0
# refinement level 0   multigrid level 0   map 0   component 2
# column format: 1:it	2:tl	3:rl 4:c 5:ml	6:ix 7:iy 8:iz	9:time	10:x 11:y 12:z	13:data
# data columns: 13:rho
152	0	0 2 0	12 2 2	0.95000000000000007	-0.020833333333333332 0 0	-6.4944992314468015
152	0	0 2 0	13 2 2	0.95000000000000007	0.020833333333333332 0 0	-5.8936766981883846
152	0	0 2 0	14 2 2	0.95000000000000007	0.0625 0 0	-5.3069005386226618
152	0	0 2 0	15 2 2	0.95000000000000007	0.10416666666666667 0 0	-3.8363800158371495
152	0	0 2 0	16 2 2	0.95000000000000007	0.14583333333333334 0 0	-3.4479729146159128
152	0	0 2 0	17 2 2	0.95000000000000007	0.1875 0 0	-1.372496616449796
152	0	0 2 0	18 2 2	0.95000000000000007	0.22916666666666669 0 0	1.0690385826327427
152	0	0 2 0	19 2 2	0.95000000000000007	0.27083333333333331 0 0	1.017506639643436

# iteration 152   time 0.95000000000000007
# time level 0
# refinement level 0   multigrid level 0   map 0   component 3
# column format: 1:it	2:tl	3:rl 4:c 5:ml	6:ix 7:iy 8:iz	9:time	10:x 11:y 12:z	13:data
# data columns: 13:rho
152	0	0 3 0	18 2 2	0.95000000000000007	0.22916666666666655 0 0	1.0690385826327427
152	0	0 3 0	19 2 2	0.95000000000000007	0.2708333333333332 0 0	1.017506639643436
152	0	0 3 0	20 2 2	0.95000000000000007	0.31249999999999983 0 0	3.3658972093281854
152	0	0 3 0	21 2 2	0.95000000000000007	0.35416666666666652 0 0	5.3482288780965606
152	0	0 3 0	22 2 2	0.95000000000000007	0.39583333333333315 0 0	4.886944604204329
152	0	0 3 0	23 2 2	0.95000000000000007	0.43749999999999978 0 0	6.1325940994354529
152	0	0 3 0	24 2 2	0.95000000000000007	0.47916666666666646 0 0	6.4944992314468042
152	0	0 3 0	25 2 2	0.95000000000000007	0.52083333333333304 0 0	5.8936766981884183


# iteration 160   time 1
# time level 0
# refinement level 0   multigrid level 0   map 0   component 0
# column format: 1:it	2:tl	3:rl 4:c 5:ml	6:ix 7:iy 8:iz	9:time	10:x 11:y 12:z	13:data
# data columns: 13:rho
160	0	0 0 0	0 2 2	1	-0.52083333333333337 0 0	5.9261645282985738
160	0	0 0 0	1 2 2	1	-0.47916666666666669 0 0	6.5168354447359915
160	0	0 0 0	2 2 2	1	-0.4375 0 0	6.094330635875715
160	0	0 0 0	3 2 2	1	-0.39583333333333331 0 0	4.7880814637956615
160	0	0 0 0	4 2 2	1	-0.35416666666666669 0 0	5.2408443566000829
160	0	0 0 0	5 2 2	1	-0.3125 0 0	3.2260542365324714
160	0	0 0 0	6 2 2	1	-0.27083333333333331 0 0	0.84520521554847838
160	0	0 0 0	7 2 2	1	-0.22916666666666669 0 0	0.89483772265436401

# iteration 160   time 1
# time level 0
# refinement level 0   multigrid level 0   map 0   component 1
# column format: 1:it	2:tl	3:rl 4:c 5:ml	6:ix 7:iy 8:iz	9:time	10:x 11:y 12:z	13:data
# data columns: 13:rho
160	0	0 1 0	6 2 2	1	-0.27083333333333331 0 0	0.84520521554847838
160	0	0 1 0	7 2 2	1	-0.22916666666666669 0 0	0.89483772265436401
160	0	0 1 0	8 2 2	1	-0.1875 0 0	-1.5320009816202864
160	0	0 1 0	9 2 2	1	-0.14583333333333334 0 0	-3.5927807849785447
160	0	0 1 0	10 2 2	1	-0.10416666666666667 0 0	-3.9753527130991926
160	0	0 1 0	11 2 2	1	-0.0625 0 0	-5.392630802308771
160	0	0 1 0	12 2 2	1	-0.020833333333333332 0 0	-5.926164528298588
160	0	0 1 0	13 2 2	1	0.020833333333333332 0 0	-6.5168354447359906

# iteration 160   time 1
# time level 0
# refinement level 0   multigrid level 0   map 0   component 2
# column format: 1:it	2:tl	3:rl 4:c 5:ml	6:ix 7:iy 8:iz	9:time	10:x 11:y 12:z	13:data
# data columns: 13:rho
160	0	0 2 0	12 2 2	1	-0.020833333333333332 0 0	-5.926164528298588
160	0	0 2 0	13 2 2	1	0.020833333333333332 0 0	-6.5168354447359906
160	0	0 2 0	14 2 2	1	0.0625 0 0	-6.0943306358757114
160	0	0 2 0	15 2 2	1	0.10416666666666667 0 0	-4.7880814637956428
160	0	0 2 0	16 2 2	1	0.14583333333333334 0 0	-5.2408443566000695
160	0	0 2 0	17 2 2	1	0.1875 0 0	-3.226054236532482
160	0	0 2 0	18 2 2	1	0.22916666666666669 0 0	-0.84520521554847394
160	0	0 2 0	19 2 2	1	0.27083333333333331 0 0	-0.89483772265437977

# iteration 160   time 1
# time level 0
# refinement level 0   multigrid level 0   map 0   component 3
# column format: 1:it	2:tl	3:rl 4:c 5:ml	6:ix 7:iy 8:iz	9:time	10:x 11:y 12:z	13:data
# data columns: 13:rho
160	0	0 3 0	18 2 2	1	0.22916666666666655 0 0	-0.84520521554847394
160	0	0 3 0	19 2 2	1	0.2708333333333332 0 0	-0.89483772265437977
160	0	0 3 0	20 2 2	1	0.31249999999999983 0 0	1.5320009816202544
160	0	0 3 0	21 2 2	1	0.35416666666666652 0 0	3.5927807849785114
160	0	0 3 0	22 2 2	1	0.39583333333333315 0 0	3.9753527130992232
160	0	0 3 0	23 2 2	1	0.43749999999999978 0 0	5.3926308023087843
160	0	0 3 0	24 2 2	1	0.47916666666666646 0 0	5.9261645282985738
160	0	0 3 0	25 2 2	1	0.52083333333333304 0 0	6.5168354447359915


