# 1D ASCII output created by CarpetIOASCII
# created on oort1 by jmiller on Nov 11 2015 at 12:42:14-0500
# parameter filename: "/home/jmiller/simulations/wavetoy_so_dg2_sinex_rho_8/output-0001/wavetoy_so_dg2_sinex.par"
# Build ID: build-dgfe2-oort1-jmiller-2015.11.07-16.10.24-25556
# Simulation ID: run-wavetoy_so_dg2_sinex-oort1-jmiller-2015.11.11-17.41.46-7869
# Run ID: run-wavetoy_so_dg2_sinex-oort1-jmiller-2015.11.11-17.41.46-7869
#
# ML_WAVETOY_DG2::WT_ERRU x (ml_wavetoy_dg2-wt_erru)
#
# iteration 0   time 0
# time level 0
# refinement level 0   multigrid level 0   map 0   component 0
# column format: 1:it	2:tl	3:rl 4:c 5:ml	6:ix 7:iy 8:iz	9:time	10:x 11:y 12:z	13:data
# data columns: 13:erru
0	0	0 0 0	0 2 2	0	-0.52083333333333337 0 0	1.1331077795295959e-15
0	0	0 0 0	1 2 2	0	-0.47916666666666669 0 0	0
0	0	0 0 0	2 2 2	0	-0.4375 0 0	0
0	0	0 0 0	3 2 2	0	-0.39583333333333331 0 0	0
0	0	0 0 0	4 2 2	0	-0.35416666666666669 0 0	0
0	0	0 0 0	5 2 2	0	-0.3125 0 0	0
0	0	0 0 0	6 2 2	0	-0.27083333333333331 0 0	0
0	0	0 0 0	7 2 2	0	-0.22916666666666669 0 0	0

# iteration 0   time 0
# time level 0
# refinement level 0   multigrid level 0   map 0   component 1
# column format: 1:it	2:tl	3:rl 4:c 5:ml	6:ix 7:iy 8:iz	9:time	10:x 11:y 12:z	13:data
# data columns: 13:erru
0	0	0 1 0	6 2 2	0	-0.27083333333333331 0 0	0
0	0	0 1 0	7 2 2	0	-0.22916666666666669 0 0	0
0	0	0 1 0	8 2 2	0	-0.1875 0 0	0
0	0	0 1 0	9 2 2	0	-0.14583333333333334 0 0	0
0	0	0 1 0	10 2 2	0	-0.10416666666666667 0 0	0
0	0	0 1 0	11 2 2	0	-0.0625 0 0	0
0	0	0 1 0	12 2 2	0	-0.020833333333333332 0 0	0
0	0	0 1 0	13 2 2	0	0.020833333333333332 0 0	0

# iteration 0   time 0
# time level 0
# refinement level 0   multigrid level 0   map 0   component 2
# column format: 1:it	2:tl	3:rl 4:c 5:ml	6:ix 7:iy 8:iz	9:time	10:x 11:y 12:z	13:data
# data columns: 13:erru
0	0	0 2 0	12 2 2	0	-0.020833333333333332 0 0	0
0	0	0 2 0	13 2 2	0	0.020833333333333332 0 0	0
0	0	0 2 0	14 2 2	0	0.0625 0 0	0
0	0	0 2 0	15 2 2	0	0.10416666666666667 0 0	0
0	0	0 2 0	16 2 2	0	0.14583333333333334 0 0	0
0	0	0 2 0	17 2 2	0	0.1875 0 0	0
0	0	0 2 0	18 2 2	0	0.22916666666666669 0 0	0
0	0	0 2 0	19 2 2	0	0.27083333333333331 0 0	0

# iteration 0   time 0
# time level 0
# refinement level 0   multigrid level 0   map 0   component 3
# column format: 1:it	2:tl	3:rl 4:c 5:ml	6:ix 7:iy 8:iz	9:time	10:x 11:y 12:z	13:data
# data columns: 13:erru
0	0	0 3 0	18 2 2	0	0.22916666666666655 0 0	0
0	0	0 3 0	19 2 2	0	0.2708333333333332 0 0	0
0	0	0 3 0	20 2 2	0	0.31249999999999983 0 0	0
0	0	0 3 0	21 2 2	0	0.35416666666666652 0 0	0
0	0	0 3 0	22 2 2	0	0.39583333333333315 0 0	0
0	0	0 3 0	23 2 2	0	0.43749999999999978 0 0	0
0	0	0 3 0	24 2 2	0	0.47916666666666646 0 0	0
0	0	0 3 0	25 2 2	0	0.52083333333333304 0 0	-1.1331077795295959e-15


# iteration 8   time 0.050000000000000003
# time level 0
# refinement level 0   multigrid level 0   map 0   component 0
# column format: 1:it	2:tl	3:rl 4:c 5:ml	6:ix 7:iy 8:iz	9:time	10:x 11:y 12:z	13:data
# data columns: 13:erru
8	0	0 0 0	0 2 2	0.050000000000000003	-0.52083333333333337 0 0	-0.01269034612788017
8	0	0 0 0	1 2 2	0.050000000000000003	-0.47916666666666669 0 0	0.012944467719192387
8	0	0 0 0	2 2 2	0.050000000000000003	-0.4375 0 0	0.00011090126128965316
8	0	0 0 0	3 2 2	0.050000000000000003	-0.39583333333333331 0 0	-0.010594485905060624
8	0	0 0 0	4 2 2	0.050000000000000003	-0.35416666666666669 0 0	0.0096831772427053431
8	0	0 0 0	5 2 2	0.050000000000000003	-0.3125 0 0	0.00040311704621798228
8	0	0 0 0	6 2 2	0.050000000000000003	-0.27083333333333331 0 0	-0.0022925195254258623
8	0	0 0 0	7 2 2	0.050000000000000003	-0.22916666666666669 0 0	0.00074961286430419438

# iteration 8   time 0.050000000000000003
# time level 0
# refinement level 0   multigrid level 0   map 0   component 1
# column format: 1:it	2:tl	3:rl 4:c 5:ml	6:ix 7:iy 8:iz	9:time	10:x 11:y 12:z	13:data
# data columns: 13:erru
8	0	0 1 0	6 2 2	0.050000000000000003	-0.27083333333333331 0 0	-0.0022925195254258623
8	0	0 1 0	7 2 2	0.050000000000000003	-0.22916666666666669 0 0	0.00074961286430419438
8	0	0 1 0	8 2 2	0.050000000000000003	-0.1875 0 0	0.0004591923326953129
8	0	0 1 0	9 2 2	0.050000000000000003	-0.14583333333333334 0 0	0.0073523737001979228
8	0	0 1 0	10 2 2	0.050000000000000003	-0.10416666666666667 0 0	-0.0086230645634771674
8	0	0 1 0	11 2 2	0.050000000000000003	-0.0625 0 0	0.00024627897841800195
8	0	0 1 0	12 2 2	0.050000000000000003	-0.020833333333333332 0 0	0.012690346127880725
8	0	0 1 0	13 2 2	0.050000000000000003	0.020833333333333332 0 0	-0.012944467719191777

# iteration 8   time 0.050000000000000003
# time level 0
# refinement level 0   multigrid level 0   map 0   component 2
# column format: 1:it	2:tl	3:rl 4:c 5:ml	6:ix 7:iy 8:iz	9:time	10:x 11:y 12:z	13:data
# data columns: 13:erru
8	0	0 2 0	12 2 2	0.050000000000000003	-0.020833333333333332 0 0	0.012690346127880725
8	0	0 2 0	13 2 2	0.050000000000000003	0.020833333333333332 0 0	-0.012944467719191777
8	0	0 2 0	14 2 2	0.050000000000000003	0.0625 0 0	-0.00011090126128937561
8	0	0 2 0	15 2 2	0.050000000000000003	0.10416666666666667 0 0	0.010594485905060014
8	0	0 2 0	16 2 2	0.050000000000000003	0.14583333333333334 0 0	-0.0096831772427052876
8	0	0 2 0	17 2 2	0.050000000000000003	0.1875 0 0	-0.00040311704621787126
8	0	0 2 0	18 2 2	0.050000000000000003	0.22916666666666669 0 0	0.0022925195254257513
8	0	0 2 0	19 2 2	0.050000000000000003	0.27083333333333331 0 0	-0.00074961286430419438

# iteration 8   time 0.050000000000000003
# time level 0
# refinement level 0   multigrid level 0   map 0   component 3
# column format: 1:it	2:tl	3:rl 4:c 5:ml	6:ix 7:iy 8:iz	9:time	10:x 11:y 12:z	13:data
# data columns: 13:erru
8	0	0 3 0	18 2 2	0.050000000000000003	0.22916666666666655 0 0	0.0022925195254257513
8	0	0 3 0	19 2 2	0.050000000000000003	0.2708333333333332 0 0	-0.00074961286430419438
8	0	0 3 0	20 2 2	0.050000000000000003	0.31249999999999983 0 0	-0.00045919233269553494
8	0	0 3 0	21 2 2	0.050000000000000003	0.35416666666666652 0 0	-0.0073523737001975897
8	0	0 3 0	22 2 2	0.050000000000000003	0.39583333333333315 0 0	0.0086230645634768344
8	0	0 3 0	23 2 2	0.050000000000000003	0.43749999999999978 0 0	-0.00024627897841766888
8	0	0 3 0	24 2 2	0.050000000000000003	0.47916666666666646 0 0	-0.01269034612788128
8	0	0 3 0	25 2 2	0.050000000000000003	0.52083333333333304 0 0	0.012944467719191277


# iteration 16   time 0.10000000000000001
# time level 0
# refinement level 0   multigrid level 0   map 0   component 0
# column format: 1:it	2:tl	3:rl 4:c 5:ml	6:ix 7:iy 8:iz	9:time	10:x 11:y 12:z	13:data
# data columns: 13:erru
16	0	0 0 0	0 2 2	0.10000000000000001	-0.52083333333333337 0 0	-0.019250817961901867
16	0	0 0 0	1 2 2	0.10000000000000001	-0.47916666666666669 0 0	0.018758103929727099
16	0	0 0 0	2 2 2	0.10000000000000001	-0.4375 0 0	-0.00089977354495288098
16	0	0 0 0	3 2 2	0.10000000000000001	-0.39583333333333331 0 0	-0.01513206333840969
16	0	0 0 0	4 2 2	0.10000000000000001	-0.35416666666666669 0 0	0.021973634924297214
16	0	0 0 0	5 2 2	0.10000000000000001	-0.3125 0 0	-0.0023381200206670227
16	0	0 0 0	6 2 2	0.10000000000000001	-0.27083333333333331 0 0	-0.0021491512379662181
16	0	0 0 0	7 2 2	0.10000000000000001	-0.22916666666666669 0 0	0.012317308594851029

# iteration 16   time 0.10000000000000001
# time level 0
# refinement level 0   multigrid level 0   map 0   component 1
# column format: 1:it	2:tl	3:rl 4:c 5:ml	6:ix 7:iy 8:iz	9:time	10:x 11:y 12:z	13:data
# data columns: 13:erru
16	0	0 1 0	6 2 2	0.10000000000000001	-0.27083333333333331 0 0	-0.0021491512379662181
16	0	0 1 0	7 2 2	0.10000000000000001	-0.22916666666666669 0 0	0.012317308594851029
16	0	0 1 0	8 2 2	0.10000000000000001	-0.1875 0 0	-0.002406827498730002
16	0	0 1 0	9 2 2	0.10000000000000001	-0.14583333333333334 0 0	0.012092704510086816
16	0	0 1 0	10 2 2	0.10000000000000001	-0.10416666666666667 0 0	-0.0045543300575251466
16	0	0 1 0	11 2 2	0.10000000000000001	-0.0625 0 0	-0.0010656480703288285
16	0	0 1 0	12 2 2	0.10000000000000001	-0.020833333333333332 0 0	0.019250817961901312
16	0	0 1 0	13 2 2	0.10000000000000001	0.020833333333333332 0 0	-0.018758103929725656

# iteration 16   time 0.10000000000000001
# time level 0
# refinement level 0   multigrid level 0   map 0   component 2
# column format: 1:it	2:tl	3:rl 4:c 5:ml	6:ix 7:iy 8:iz	9:time	10:x 11:y 12:z	13:data
# data columns: 13:erru
16	0	0 2 0	12 2 2	0.10000000000000001	-0.020833333333333332 0 0	0.019250817961901312
16	0	0 2 0	13 2 2	0.10000000000000001	0.020833333333333332 0 0	-0.018758103929725656
16	0	0 2 0	14 2 2	0.10000000000000001	0.0625 0 0	0.00089977354495351936
16	0	0 2 0	15 2 2	0.10000000000000001	0.10416666666666667 0 0	0.015132063338409413
16	0	0 2 0	16 2 2	0.10000000000000001	0.14583333333333334 0 0	-0.021973634924297242
16	0	0 2 0	17 2 2	0.10000000000000001	0.1875 0 0	0.0023381200206670227
16	0	0 2 0	18 2 2	0.10000000000000001	0.22916666666666669 0 0	0.0021491512379659961
16	0	0 2 0	19 2 2	0.10000000000000001	0.27083333333333331 0 0	-0.012317308594850584

# iteration 16   time 0.10000000000000001
# time level 0
# refinement level 0   multigrid level 0   map 0   component 3
# column format: 1:it	2:tl	3:rl 4:c 5:ml	6:ix 7:iy 8:iz	9:time	10:x 11:y 12:z	13:data
# data columns: 13:erru
16	0	0 3 0	18 2 2	0.10000000000000001	0.22916666666666655 0 0	0.0021491512379659961
16	0	0 3 0	19 2 2	0.10000000000000001	0.2708333333333332 0 0	-0.012317308594850584
16	0	0 3 0	20 2 2	0.10000000000000001	0.31249999999999983 0 0	0.002406827498730002
16	0	0 3 0	21 2 2	0.10000000000000001	0.35416666666666652 0 0	-0.01209270451008615
16	0	0 3 0	22 2 2	0.10000000000000001	0.39583333333333315 0 0	0.0045543300575242585
16	0	0 3 0	23 2 2	0.10000000000000001	0.43749999999999978 0 0	0.0010656480703293836
16	0	0 3 0	24 2 2	0.10000000000000001	0.47916666666666646 0 0	-0.019250817961902755
16	0	0 3 0	25 2 2	0.10000000000000001	0.52083333333333304 0 0	0.018758103929726211


# iteration 24   time 0.15000000000000002
# time level 0
# refinement level 0   multigrid level 0   map 0   component 0
# column format: 1:it	2:tl	3:rl 4:c 5:ml	6:ix 7:iy 8:iz	9:time	10:x 11:y 12:z	13:data
# data columns: 13:erru
24	0	0 0 0	0 2 2	0.15000000000000002	-0.52083333333333337 0 0	-0.01287007084973657
24	0	0 0 0	1 2 2	0.15000000000000002	-0.47916666666666669 0 0	0.0049541287032045522
24	0	0 0 0	2 2 2	0.15000000000000002	-0.4375 0 0	-0.0021336648230906308
24	0	0 0 0	3 2 2	0.15000000000000002	-0.39583333333333331 0 0	-0.0039773592720001583
24	0	0 0 0	4 2 2	0.15000000000000002	-0.35416666666666669 0 0	0.024876088566423149
24	0	0 0 0	5 2 2	0.15000000000000002	-0.3125 0 0	-0.0090410921238649467
24	0	0 0 0	6 2 2	0.15000000000000002	-0.27083333333333331 0 0	0.0072452354248421225
24	0	0 0 0	7 2 2	0.15000000000000002	-0.22916666666666669 0 0	0.030225973126225658

# iteration 24   time 0.15000000000000002
# time level 0
# refinement level 0   multigrid level 0   map 0   component 1
# column format: 1:it	2:tl	3:rl 4:c 5:ml	6:ix 7:iy 8:iz	9:time	10:x 11:y 12:z	13:data
# data columns: 13:erru
24	0	0 1 0	6 2 2	0.15000000000000002	-0.27083333333333331 0 0	0.0072452354248421225
24	0	0 1 0	7 2 2	0.15000000000000002	-0.22916666666666669 0 0	0.030225973126225658
24	0	0 1 0	8 2 2	0.15000000000000002	-0.1875 0 0	-0.010652370277143053
24	0	0 1 0	9 2 2	0.15000000000000002	-0.14583333333333334 0 0	0.014223669472399947
24	0	0 1 0	10 2 2	0.15000000000000002	-0.10416666666666667 0 0	0.017869892564609469
24	0	0 1 0	11 2 2	0.15000000000000002	-0.0625 0 0	-0.0060236343934908509
24	0	0 1 0	12 2 2	0.15000000000000002	-0.020833333333333332 0 0	0.012870070849736237
24	0	0 1 0	13 2 2	0.15000000000000002	0.020833333333333332 0 0	-0.004954128703203442

# iteration 24   time 0.15000000000000002
# time level 0
# refinement level 0   multigrid level 0   map 0   component 2
# column format: 1:it	2:tl	3:rl 4:c 5:ml	6:ix 7:iy 8:iz	9:time	10:x 11:y 12:z	13:data
# data columns: 13:erru
24	0	0 2 0	12 2 2	0.15000000000000002	-0.020833333333333332 0 0	0.012870070849736237
24	0	0 2 0	13 2 2	0.15000000000000002	0.020833333333333332 0 0	-0.004954128703203442
24	0	0 2 0	14 2 2	0.15000000000000002	0.0625 0 0	0.0021336648230910749
24	0	0 2 0	15 2 2	0.15000000000000002	0.10416666666666667 0 0	0.0039773592720009632
24	0	0 2 0	16 2 2	0.15000000000000002	0.14583333333333334 0 0	-0.024876088566422844
24	0	0 2 0	17 2 2	0.15000000000000002	0.1875 0 0	0.0090410921238651409
24	0	0 2 0	18 2 2	0.15000000000000002	0.22916666666666669 0 0	-0.0072452354248427886
24	0	0 2 0	19 2 2	0.15000000000000002	0.27083333333333331 0 0	-0.030225973126225769

# iteration 24   time 0.15000000000000002
# time level 0
# refinement level 0   multigrid level 0   map 0   component 3
# column format: 1:it	2:tl	3:rl 4:c 5:ml	6:ix 7:iy 8:iz	9:time	10:x 11:y 12:z	13:data
# data columns: 13:erru
24	0	0 3 0	18 2 2	0.15000000000000002	0.22916666666666655 0 0	-0.0072452354248427886
24	0	0 3 0	19 2 2	0.15000000000000002	0.2708333333333332 0 0	-0.030225973126225769
24	0	0 3 0	20 2 2	0.15000000000000002	0.31249999999999983 0 0	0.010652370277143164
24	0	0 3 0	21 2 2	0.15000000000000002	0.35416666666666652 0 0	-0.014223669472398726
24	0	0 3 0	22 2 2	0.15000000000000002	0.39583333333333315 0 0	-0.017869892564611578
24	0	0 3 0	23 2 2	0.15000000000000002	0.43749999999999978 0 0	0.0060236343934915171
24	0	0 3 0	24 2 2	0.15000000000000002	0.47916666666666646 0 0	-0.012870070849737236
24	0	0 3 0	25 2 2	0.15000000000000002	0.52083333333333304 0 0	0.0049541287032038861


# iteration 32   time 0.20000000000000001
# time level 0
# refinement level 0   multigrid level 0   map 0   component 0
# column format: 1:it	2:tl	3:rl 4:c 5:ml	6:ix 7:iy 8:iz	9:time	10:x 11:y 12:z	13:data
# data columns: 13:erru
32	0	0 0 0	0 2 2	0.20000000000000001	-0.52083333333333337 0 0	-0.032362977763890521
32	0	0 0 0	1 2 2	0.20000000000000001	-0.47916666666666669 0 0	0.0094680033580087919
32	0	0 0 0	2 2 2	0.20000000000000001	-0.4375 0 0	-0.001007468769514408
32	0	0 0 0	3 2 2	0.20000000000000001	-0.39583333333333331 0 0	-0.014206814831999259
32	0	0 0 0	4 2 2	0.20000000000000001	-0.35416666666666669 0 0	0.037240255166190117
32	0	0 0 0	5 2 2	0.20000000000000001	-0.3125 0 0	-0.014936713513645505
32	0	0 0 0	6 2 2	0.20000000000000001	-0.27083333333333331 0 0	0.012271507550353167
32	0	0 0 0	7 2 2	0.20000000000000001	-0.22916666666666669 0 0	0.043197670564251667

# iteration 32   time 0.20000000000000001
# time level 0
# refinement level 0   multigrid level 0   map 0   component 1
# column format: 1:it	2:tl	3:rl 4:c 5:ml	6:ix 7:iy 8:iz	9:time	10:x 11:y 12:z	13:data
# data columns: 13:erru
32	0	0 1 0	6 2 2	0.20000000000000001	-0.27083333333333331 0 0	0.012271507550353167
32	0	0 1 0	7 2 2	0.20000000000000001	-0.22916666666666669 0 0	0.043197670564251667
32	0	0 1 0	8 2 2	0.20000000000000001	-0.1875 0 0	-0.020116234058764504
32	0	0 1 0	9 2 2	0.20000000000000001	-0.14583333333333334 0 0	0.031561347240473325
32	0	0 1 0	10 2 2	0.20000000000000001	-0.10416666666666667 0 0	0.023850476408699861
32	0	0 1 0	11 2 2	0.20000000000000001	-0.0625 0 0	-0.013511937516130668
32	0	0 1 0	12 2 2	0.20000000000000001	-0.020833333333333332 0 0	0.032362977763888412
32	0	0 1 0	13 2 2	0.20000000000000001	0.020833333333333332 0 0	-0.0094680033580074596

# iteration 32   time 0.20000000000000001
# time level 0
# refinement level 0   multigrid level 0   map 0   component 2
# column format: 1:it	2:tl	3:rl 4:c 5:ml	6:ix 7:iy 8:iz	9:time	10:x 11:y 12:z	13:data
# data columns: 13:erru
32	0	0 2 0	12 2 2	0.20000000000000001	-0.020833333333333332 0 0	0.032362977763888412
32	0	0 2 0	13 2 2	0.20000000000000001	0.020833333333333332 0 0	-0.0094680033580074596
32	0	0 2 0	14 2 2	0.20000000000000001	0.0625 0 0	0.001007468769514408
32	0	0 2 0	15 2 2	0.20000000000000001	0.10416666666666667 0 0	0.014206814831999981
32	0	0 2 0	16 2 2	0.20000000000000001	0.14583333333333334 0 0	-0.037240255166190062
32	0	0 2 0	17 2 2	0.20000000000000001	0.1875 0 0	0.014936713513645589
32	0	0 2 0	18 2 2	0.20000000000000001	0.22916666666666669 0 0	-0.012271507550353444
32	0	0 2 0	19 2 2	0.20000000000000001	0.27083333333333331 0 0	-0.043197670564251667

# iteration 32   time 0.20000000000000001
# time level 0
# refinement level 0   multigrid level 0   map 0   component 3
# column format: 1:it	2:tl	3:rl 4:c 5:ml	6:ix 7:iy 8:iz	9:time	10:x 11:y 12:z	13:data
# data columns: 13:erru
32	0	0 3 0	18 2 2	0.20000000000000001	0.22916666666666655 0 0	-0.012271507550353444
32	0	0 3 0	19 2 2	0.20000000000000001	0.2708333333333332 0 0	-0.043197670564251667
32	0	0 3 0	20 2 2	0.20000000000000001	0.31249999999999983 0 0	0.020116234058763616
32	0	0 3 0	21 2 2	0.20000000000000001	0.35416666666666652 0 0	-0.031561347240473214
32	0	0 3 0	22 2 2	0.20000000000000001	0.39583333333333315 0 0	-0.023850476408701748
32	0	0 3 0	23 2 2	0.20000000000000001	0.43749999999999978 0 0	0.013511937516132
32	0	0 3 0	24 2 2	0.20000000000000001	0.47916666666666646 0 0	-0.032362977763890743
32	0	0 3 0	25 2 2	0.20000000000000001	0.52083333333333304 0 0	0.0094680033580085698


# iteration 40   time 0.25
# time level 0
# refinement level 0   multigrid level 0   map 0   component 0
# column format: 1:it	2:tl	3:rl 4:c 5:ml	6:ix 7:iy 8:iz	9:time	10:x 11:y 12:z	13:data
# data columns: 13:erru
40	0	0 0 0	0 2 2	0.25	-0.52083333333333337 0 0	-0.057479968513723501
40	0	0 0 0	1 2 2	0.25	-0.47916666666666669 0 0	0.015189106965000976
40	0	0 0 0	2 2 2	0.25	-0.4375 0 0	0.0016543705925321506
40	0	0 0 0	3 2 2	0.25	-0.39583333333333331 0 0	-0.033904089205224031
40	0	0 0 0	4 2 2	0.25	-0.35416666666666669 0 0	0.052883030668083086
40	0	0 0 0	5 2 2	0.25	-0.3125 0 0	-0.022491132871341635
40	0	0 0 0	6 2 2	0.25	-0.27083333333333331 0 0	0.0095323457397893559
40	0	0 0 0	7 2 2	0.25	-0.22916666666666669 0 0	0.059598792225195166

# iteration 40   time 0.25
# time level 0
# refinement level 0   multigrid level 0   map 0   component 1
# column format: 1:it	2:tl	3:rl 4:c 5:ml	6:ix 7:iy 8:iz	9:time	10:x 11:y 12:z	13:data
# data columns: 13:erru
40	0	0 1 0	6 2 2	0.25	-0.27083333333333331 0 0	0.0095323457397893559
40	0	0 1 0	7 2 2	0.25	-0.22916666666666669 0 0	0.059598792225195166
40	0	0 1 0	8 2 2	0.25	-0.1875 0 0	-0.033461635732318307
40	0	0 1 0	9 2 2	0.25	-0.14583333333333334 0 0	0.047384861831661573
40	0	0 1 0	10 2 2	0.25	-0.10416666666666667 0 0	0.031402389597844027
40	0	0 1 0	11 2 2	0.25	-0.0625 0 0	-0.024830766200491294
40	0	0 1 0	12 2 2	0.25	-0.020833333333333332 0 0	0.057479968513721169
40	0	0 1 0	13 2 2	0.25	0.020833333333333332 0 0	-0.015189106964999199

# iteration 40   time 0.25
# time level 0
# refinement level 0   multigrid level 0   map 0   component 2
# column format: 1:it	2:tl	3:rl 4:c 5:ml	6:ix 7:iy 8:iz	9:time	10:x 11:y 12:z	13:data
# data columns: 13:erru
40	0	0 2 0	12 2 2	0.25	-0.020833333333333332 0 0	0.057479968513721169
40	0	0 2 0	13 2 2	0.25	0.020833333333333332 0 0	-0.015189106964999199
40	0	0 2 0	14 2 2	0.25	0.0625 0 0	-0.0016543705925324836
40	0	0 2 0	15 2 2	0.25	0.10416666666666667 0 0	0.033904089205224475
40	0	0 2 0	16 2 2	0.25	0.14583333333333334 0 0	-0.052883030668082975
40	0	0 2 0	17 2 2	0.25	0.1875 0 0	0.022491132871341579
40	0	0 2 0	18 2 2	0.25	0.22916666666666669 0 0	-0.0095323457397893489
40	0	0 2 0	19 2 2	0.25	0.27083333333333331 0 0	-0.059598792225195055

# iteration 40   time 0.25
# time level 0
# refinement level 0   multigrid level 0   map 0   component 3
# column format: 1:it	2:tl	3:rl 4:c 5:ml	6:ix 7:iy 8:iz	9:time	10:x 11:y 12:z	13:data
# data columns: 13:erru
40	0	0 3 0	18 2 2	0.25	0.22916666666666655 0 0	-0.0095323457397893489
40	0	0 3 0	19 2 2	0.25	0.2708333333333332 0 0	-0.059598792225195055
40	0	0 3 0	20 2 2	0.25	0.31249999999999983 0 0	0.033461635732317752
40	0	0 3 0	21 2 2	0.25	0.35416666666666652 0 0	-0.047384861831660796
40	0	0 3 0	22 2 2	0.25	0.39583333333333315 0 0	-0.031402389597845803
40	0	0 3 0	23 2 2	0.25	0.43749999999999978 0 0	0.024830766200492516
40	0	0 3 0	24 2 2	0.25	0.47916666666666646 0 0	-0.057479968513723501
40	0	0 3 0	25 2 2	0.25	0.52083333333333304 0 0	0.015189106965000976


# iteration 48   time 0.30000000000000004
# time level 0
# refinement level 0   multigrid level 0   map 0   component 0
# column format: 1:it	2:tl	3:rl 4:c 5:ml	6:ix 7:iy 8:iz	9:time	10:x 11:y 12:z	13:data
# data columns: 13:erru
48	0	0 0 0	0 2 2	0.30000000000000004	-0.52083333333333337 0 0	-0.062126613779420414
48	0	0 0 0	1 2 2	0.30000000000000004	-0.47916666666666669 0 0	-0.0048953586017062012
48	0	0 0 0	2 2 2	0.30000000000000004	-0.4375 0 0	0.0060656112971727572
48	0	0 0 0	3 2 2	0.30000000000000004	-0.39583333333333331 0 0	-0.038065017243517629
48	0	0 0 0	4 2 2	0.30000000000000004	-0.35416666666666669 0 0	0.052640707569110323
48	0	0 0 0	5 2 2	0.30000000000000004	-0.3125 0 0	-0.034385966973686344
48	0	0 0 0	6 2 2	0.30000000000000004	-0.27083333333333331 0 0	0.0082945501416729628
48	0	0 0 0	7 2 2	0.30000000000000004	-0.22916666666666669 0 0	0.079340561178857627

# iteration 48   time 0.30000000000000004
# time level 0
# refinement level 0   multigrid level 0   map 0   component 1
# column format: 1:it	2:tl	3:rl 4:c 5:ml	6:ix 7:iy 8:iz	9:time	10:x 11:y 12:z	13:data
# data columns: 13:erru
48	0	0 1 0	6 2 2	0.30000000000000004	-0.27083333333333331 0 0	0.0082945501416729628
48	0	0 1 0	7 2 2	0.30000000000000004	-0.22916666666666669 0 0	0.079340561178857627
48	0	0 1 0	8 2 2	0.30000000000000004	-0.1875 0 0	-0.054694712146672236
48	0	0 1 0	9 2 2	0.30000000000000004	-0.14583333333333334 0 0	0.049795282547652864
48	0	0 1 0	10 2 2	0.30000000000000004	-0.10416666666666667 0 0	0.059563790096322122
48	0	0 1 0	11 2 2	0.30000000000000004	-0.0625 0 0	-0.042964036734229882
48	0	0 1 0	12 2 2	0.30000000000000004	-0.020833333333333332 0 0	0.062126613779418971
48	0	0 1 0	13 2 2	0.30000000000000004	0.020833333333333332 0 0	0.0048953586017075335

# iteration 48   time 0.30000000000000004
# time level 0
# refinement level 0   multigrid level 0   map 0   component 2
# column format: 1:it	2:tl	3:rl 4:c 5:ml	6:ix 7:iy 8:iz	9:time	10:x 11:y 12:z	13:data
# data columns: 13:erru
48	0	0 2 0	12 2 2	0.30000000000000004	-0.020833333333333332 0 0	0.062126613779418971
48	0	0 2 0	13 2 2	0.30000000000000004	0.020833333333333332 0 0	0.0048953586017075335
48	0	0 2 0	14 2 2	0.30000000000000004	0.0625 0 0	-0.0060656112971735343
48	0	0 2 0	15 2 2	0.30000000000000004	0.10416666666666667 0 0	0.038065017243517962
48	0	0 2 0	16 2 2	0.30000000000000004	0.14583333333333334 0 0	-0.052640707569110545
48	0	0 2 0	17 2 2	0.30000000000000004	0.1875 0 0	0.034385966973685567
48	0	0 2 0	18 2 2	0.30000000000000004	0.22916666666666669 0 0	-0.0082945501416729628
48	0	0 2 0	19 2 2	0.30000000000000004	0.27083333333333331 0 0	-0.079340561178857294

# iteration 48   time 0.30000000000000004
# time level 0
# refinement level 0   multigrid level 0   map 0   component 3
# column format: 1:it	2:tl	3:rl 4:c 5:ml	6:ix 7:iy 8:iz	9:time	10:x 11:y 12:z	13:data
# data columns: 13:erru
48	0	0 3 0	18 2 2	0.30000000000000004	0.22916666666666655 0 0	-0.0082945501416729628
48	0	0 3 0	19 2 2	0.30000000000000004	0.2708333333333332 0 0	-0.079340561178857294
48	0	0 3 0	20 2 2	0.30000000000000004	0.31249999999999983 0 0	0.054694712146672361
48	0	0 3 0	21 2 2	0.30000000000000004	0.35416666666666652 0 0	-0.049795282547650255
48	0	0 3 0	22 2 2	0.30000000000000004	0.39583333333333315 0 0	-0.059563790096324398
48	0	0 3 0	23 2 2	0.30000000000000004	0.43749999999999978 0 0	0.042964036734230993
48	0	0 3 0	24 2 2	0.30000000000000004	0.47916666666666646 0 0	-0.062126613779420081
48	0	0 3 0	25 2 2	0.30000000000000004	0.52083333333333304 0 0	-0.0048953586017058681


# iteration 56   time 0.35000000000000003
# time level 0
# refinement level 0   multigrid level 0   map 0   component 0
# column format: 1:it	2:tl	3:rl 4:c 5:ml	6:ix 7:iy 8:iz	9:time	10:x 11:y 12:z	13:data
# data columns: 13:erru
56	0	0 0 0	0 2 2	0.35000000000000003	-0.52083333333333337 0 0	-0.08133578287995924
56	0	0 0 0	1 2 2	0.35000000000000003	-0.47916666666666669 0 0	-0.01393699458995068
56	0	0 0 0	2 2 2	0.35000000000000003	-0.4375 0 0	0.015472626510066423
56	0	0 0 0	3 2 2	0.35000000000000003	-0.39583333333333331 0 0	-0.058133690147939565
56	0	0 0 0	4 2 2	0.35000000000000003	-0.35416666666666669 0 0	0.052535795478768299
56	0	0 0 0	5 2 2	0.35000000000000003	-0.3125 0 0	-0.045340139507571431
56	0	0 0 0	6 2 2	0.35000000000000003	-0.27083333333333331 0 0	-0.00087767015805317872
56	0	0 0 0	7 2 2	0.35000000000000003	-0.22916666666666669 0 0	0.088233829066081682

# iteration 56   time 0.35000000000000003
# time level 0
# refinement level 0   multigrid level 0   map 0   component 1
# column format: 1:it	2:tl	3:rl 4:c 5:ml	6:ix 7:iy 8:iz	9:time	10:x 11:y 12:z	13:data
# data columns: 13:erru
56	0	0 1 0	6 2 2	0.35000000000000003	-0.27083333333333331 0 0	-0.00087767015805317872
56	0	0 1 0	7 2 2	0.35000000000000003	-0.22916666666666669 0 0	0.088233829066081682
56	0	0 1 0	8 2 2	0.35000000000000003	-0.1875 0 0	-0.079593266721561473
56	0	0 1 0	9 2 2	0.35000000000000003	-0.14583333333333334 0 0	0.056892477107130413
56	0	0 1 0	10 2 2	0.35000000000000003	-0.10416666666666667 0 0	0.072245682246594473
56	0	0 1 0	11 2 2	0.35000000000000003	-0.0625 0 0	-0.067221737763640488
56	0	0 1 0	12 2 2	0.35000000000000003	-0.020833333333333332 0 0	0.081335782879956575
56	0	0 1 0	13 2 2	0.35000000000000003	0.020833333333333332 0 0	0.013936994589951901

# iteration 56   time 0.35000000000000003
# time level 0
# refinement level 0   multigrid level 0   map 0   component 2
# column format: 1:it	2:tl	3:rl 4:c 5:ml	6:ix 7:iy 8:iz	9:time	10:x 11:y 12:z	13:data
# data columns: 13:erru
56	0	0 2 0	12 2 2	0.35000000000000003	-0.020833333333333332 0 0	0.081335782879956575
56	0	0 2 0	13 2 2	0.35000000000000003	0.020833333333333332 0 0	0.013936994589951901
56	0	0 2 0	14 2 2	0.35000000000000003	0.0625 0 0	-0.015472626510068199
56	0	0 2 0	15 2 2	0.35000000000000003	0.10416666666666667 0 0	0.058133690147939676
56	0	0 2 0	16 2 2	0.35000000000000003	0.14583333333333334 0 0	-0.052535795478768632
56	0	0 2 0	17 2 2	0.35000000000000003	0.1875 0 0	0.045340139507569654
56	0	0 2 0	18 2 2	0.35000000000000003	0.22916666666666669 0 0	0.00087767015805373383
56	0	0 2 0	19 2 2	0.35000000000000003	0.27083333333333331 0 0	-0.088233829066080238

# iteration 56   time 0.35000000000000003
# time level 0
# refinement level 0   multigrid level 0   map 0   component 3
# column format: 1:it	2:tl	3:rl 4:c 5:ml	6:ix 7:iy 8:iz	9:time	10:x 11:y 12:z	13:data
# data columns: 13:erru
56	0	0 3 0	18 2 2	0.35000000000000003	0.22916666666666655 0 0	0.00087767015805373383
56	0	0 3 0	19 2 2	0.35000000000000003	0.2708333333333332 0 0	-0.088233829066080238
56	0	0 3 0	20 2 2	0.35000000000000003	0.31249999999999983 0 0	0.079593266721561279
56	0	0 3 0	21 2 2	0.35000000000000003	0.35416666666666652 0 0	-0.056892477107128178
56	0	0 3 0	22 2 2	0.35000000000000003	0.39583333333333315 0 0	-0.072245682246595389
56	0	0 3 0	23 2 2	0.35000000000000003	0.43749999999999978 0 0	0.067221737763642042
56	0	0 3 0	24 2 2	0.35000000000000003	0.47916666666666646 0 0	-0.081335782879958685
56	0	0 3 0	25 2 2	0.35000000000000003	0.52083333333333304 0 0	-0.013936994589950125


# iteration 64   time 0.40000000000000002
# time level 0
# refinement level 0   multigrid level 0   map 0   component 0
# column format: 1:it	2:tl	3:rl 4:c 5:ml	6:ix 7:iy 8:iz	9:time	10:x 11:y 12:z	13:data
# data columns: 13:erru
64	0	0 0 0	0 2 2	0.40000000000000002	-0.52083333333333337 0 0	-0.11090507461829396
64	0	0 0 0	1 2 2	0.40000000000000002	-0.47916666666666669 0 0	-0.0086523411458587773
64	0	0 0 0	2 2 2	0.40000000000000002	-0.4375 0 0	0.030223261290717285
64	0	0 0 0	3 2 2	0.40000000000000002	-0.39583333333333331 0 0	-0.096332062196414658
64	0	0 0 0	4 2 2	0.40000000000000002	-0.35416666666666669 0 0	0.058268038159186686
64	0	0 0 0	5 2 2	0.40000000000000002	-0.3125 0 0	-0.054662112683394826
64	0	0 0 0	6 2 2	0.40000000000000002	-0.27083333333333331 0 0	-0.025329034231242553
64	0	0 0 0	7 2 2	0.40000000000000002	-0.22916666666666669 0 0	0.091055790963450844

# iteration 64   time 0.40000000000000002
# time level 0
# refinement level 0   multigrid level 0   map 0   component 1
# column format: 1:it	2:tl	3:rl 4:c 5:ml	6:ix 7:iy 8:iz	9:time	10:x 11:y 12:z	13:data
# data columns: 13:erru
64	0	0 1 0	6 2 2	0.40000000000000002	-0.27083333333333331 0 0	-0.025329034231242553
64	0	0 1 0	7 2 2	0.40000000000000002	-0.22916666666666669 0 0	0.091055790963450844
64	0	0 1 0	8 2 2	0.40000000000000002	-0.1875 0 0	-0.107527162395539
64	0	0 1 0	9 2 2	0.40000000000000002	-0.14583333333333334 0 0	0.060511398464777322
64	0	0 1 0	10 2 2	0.40000000000000002	-0.10416666666666667 0 0	0.070504296353937568
64	0	0 1 0	11 2 2	0.40000000000000002	-0.0625 0 0	-0.097404258699871349
64	0	0 1 0	12 2 2	0.40000000000000002	-0.020833333333333332 0 0	0.11090507461829002
64	0	0 1 0	13 2 2	0.40000000000000002	0.020833333333333332 0 0	0.0086523411458603317

# iteration 64   time 0.40000000000000002
# time level 0
# refinement level 0   multigrid level 0   map 0   component 2
# column format: 1:it	2:tl	3:rl 4:c 5:ml	6:ix 7:iy 8:iz	9:time	10:x 11:y 12:z	13:data
# data columns: 13:erru
64	0	0 2 0	12 2 2	0.40000000000000002	-0.020833333333333332 0 0	0.11090507461829002
64	0	0 2 0	13 2 2	0.40000000000000002	0.020833333333333332 0 0	0.0086523411458603317
64	0	0 2 0	14 2 2	0.40000000000000002	0.0625 0 0	-0.030223261290719949
64	0	0 2 0	15 2 2	0.40000000000000002	0.10416666666666667 0 0	0.096332062196413992
64	0	0 2 0	16 2 2	0.40000000000000002	0.14583333333333334 0 0	-0.058268038159187019
64	0	0 2 0	17 2 2	0.40000000000000002	0.1875 0 0	0.054662112683392716
64	0	0 2 0	18 2 2	0.40000000000000002	0.22916666666666669 0 0	0.025329034231244552
64	0	0 2 0	19 2 2	0.40000000000000002	0.27083333333333331 0 0	-0.091055790963450067

# iteration 64   time 0.40000000000000002
# time level 0
# refinement level 0   multigrid level 0   map 0   component 3
# column format: 1:it	2:tl	3:rl 4:c 5:ml	6:ix 7:iy 8:iz	9:time	10:x 11:y 12:z	13:data
# data columns: 13:erru
64	0	0 3 0	18 2 2	0.40000000000000002	0.22916666666666655 0 0	0.025329034231244552
64	0	0 3 0	19 2 2	0.40000000000000002	0.2708333333333332 0 0	-0.091055790963450067
64	0	0 3 0	20 2 2	0.40000000000000002	0.31249999999999983 0 0	0.1075271623955385
64	0	0 3 0	21 2 2	0.40000000000000002	0.35416666666666652 0 0	-0.060511398464774574
64	0	0 3 0	22 2 2	0.40000000000000002	0.39583333333333315 0 0	-0.070504296353937235
64	0	0 3 0	23 2 2	0.40000000000000002	0.43749999999999978 0 0	0.097404258699873431
64	0	0 3 0	24 2 2	0.40000000000000002	0.47916666666666646 0 0	-0.11090507461829319
64	0	0 3 0	25 2 2	0.40000000000000002	0.52083333333333304 0 0	-0.0086523411458580002


# iteration 72   time 0.45000000000000001
# time level 0
# refinement level 0   multigrid level 0   map 0   component 0
# column format: 1:it	2:tl	3:rl 4:c 5:ml	6:ix 7:iy 8:iz	9:time	10:x 11:y 12:z	13:data
# data columns: 13:erru
72	0	0 0 0	0 2 2	0.45000000000000001	-0.52083333333333337 0 0	-0.11217338479136854
72	0	0 0 0	1 2 2	0.45000000000000001	-0.47916666666666669 0 0	-0.024338629065116135
72	0	0 0 0	2 2 2	0.45000000000000001	-0.4375 0 0	0.04976850859745896
72	0	0 0 0	3 2 2	0.45000000000000001	-0.39583333333333331 0 0	-0.11667665554818385
72	0	0 0 0	4 2 2	0.45000000000000001	-0.35416666666666669 0 0	0.049733701322320023
72	0	0 0 0	5 2 2	0.45000000000000001	-0.3125 0 0	-0.065398013990631609
72	0	0 0 0	6 2 2	0.45000000000000001	-0.27083333333333331 0 0	-0.052832323897203715
72	0	0 0 0	7 2 2	0.45000000000000001	-0.22916666666666669 0 0	0.094672703982153217

# iteration 72   time 0.45000000000000001
# time level 0
# refinement level 0   multigrid level 0   map 0   component 1
# column format: 1:it	2:tl	3:rl 4:c 5:ml	6:ix 7:iy 8:iz	9:time	10:x 11:y 12:z	13:data
# data columns: 13:erru
72	0	0 1 0	6 2 2	0.45000000000000001	-0.27083333333333331 0 0	-0.052832323897203715
72	0	0 1 0	7 2 2	0.45000000000000001	-0.22916666666666669 0 0	0.094672703982153217
72	0	0 1 0	8 2 2	0.45000000000000001	-0.1875 0 0	-0.14225526693527291
72	0	0 1 0	9 2 2	0.45000000000000001	-0.14583333333333334 0 0	0.041960466561068055
72	0	0 1 0	10 2 2	0.45000000000000001	-0.10416666666666667 0 0	0.084153720635776419
72	0	0 1 0	11 2 2	0.45000000000000001	-0.0625 0 0	-0.13578131382823733
72	0	0 1 0	12 2 2	0.45000000000000001	-0.020833333333333332 0 0	0.1121733847913659
72	0	0 1 0	13 2 2	0.45000000000000001	0.020833333333333332 0 0	0.024338629065118522

# iteration 72   time 0.45000000000000001
# time level 0
# refinement level 0   multigrid level 0   map 0   component 2
# column format: 1:it	2:tl	3:rl 4:c 5:ml	6:ix 7:iy 8:iz	9:time	10:x 11:y 12:z	13:data
# data columns: 13:erru
72	0	0 2 0	12 2 2	0.45000000000000001	-0.020833333333333332 0 0	0.1121733847913659
72	0	0 2 0	13 2 2	0.45000000000000001	0.020833333333333332 0 0	0.024338629065118522
72	0	0 2 0	14 2 2	0.45000000000000001	0.0625 0 0	-0.049768508597461958
72	0	0 2 0	15 2 2	0.45000000000000001	0.10416666666666667 0 0	0.11667665554818363
72	0	0 2 0	16 2 2	0.45000000000000001	0.14583333333333334 0 0	-0.049733701322321133
72	0	0 2 0	17 2 2	0.45000000000000001	0.1875 0 0	0.06539801399062839
72	0	0 2 0	18 2 2	0.45000000000000001	0.22916666666666669 0 0	0.05283232389720538
72	0	0 2 0	19 2 2	0.45000000000000001	0.27083333333333331 0 0	-0.094672703982154216

# iteration 72   time 0.45000000000000001
# time level 0
# refinement level 0   multigrid level 0   map 0   component 3
# column format: 1:it	2:tl	3:rl 4:c 5:ml	6:ix 7:iy 8:iz	9:time	10:x 11:y 12:z	13:data
# data columns: 13:erru
72	0	0 3 0	18 2 2	0.45000000000000001	0.22916666666666655 0 0	0.05283232389720538
72	0	0 3 0	19 2 2	0.45000000000000001	0.2708333333333332 0 0	-0.094672703982154216
72	0	0 3 0	20 2 2	0.45000000000000001	0.31249999999999983 0 0	0.14225526693527268
72	0	0 3 0	21 2 2	0.45000000000000001	0.35416666666666652 0 0	-0.041960466561063947
72	0	0 3 0	22 2 2	0.45000000000000001	0.39583333333333315 0 0	-0.084153720635777973
72	0	0 3 0	23 2 2	0.45000000000000001	0.43749999999999978 0 0	0.13578131382823933
72	0	0 3 0	24 2 2	0.45000000000000001	0.47916666666666646 0 0	-0.11217338479136765
72	0	0 3 0	25 2 2	0.45000000000000001	0.52083333333333304 0 0	-0.024338629065115247


# iteration 80   time 0.5
# time level 0
# refinement level 0   multigrid level 0   map 0   component 0
# column format: 1:it	2:tl	3:rl 4:c 5:ml	6:ix 7:iy 8:iz	9:time	10:x 11:y 12:z	13:data
# data columns: 13:erru
80	0	0 0 0	0 2 2	0.5	-0.52083333333333337 0 0	-0.10984208888949064
80	0	0 0 0	1 2 2	0.5	-0.47916666666666669 0 0	-0.034457125285695438
80	0	0 0 0	2 2 2	0.5	-0.4375 0 0	0.076844443900794757
80	0	0 0 0	3 2 2	0.5	-0.39583333333333331 0 0	-0.13720600143534289
80	0	0 0 0	4 2 2	0.5	-0.35416666666666669 0 0	0.037624192605137274
80	0	0 0 0	5 2 2	0.5	-0.3125 0 0	-0.072423711894032294
80	0	0 0 0	6 2 2	0.5	-0.27083333333333331 0 0	-0.084196499179349793
80	0	0 0 0	7 2 2	0.5	-0.22916666666666669 0 0	0.087665768741217454

# iteration 80   time 0.5
# time level 0
# refinement level 0   multigrid level 0   map 0   component 1
# column format: 1:it	2:tl	3:rl 4:c 5:ml	6:ix 7:iy 8:iz	9:time	10:x 11:y 12:z	13:data
# data columns: 13:erru
80	0	0 1 0	6 2 2	0.5	-0.27083333333333331 0 0	-0.084196499179349793
80	0	0 1 0	7 2 2	0.5	-0.22916666666666669 0 0	0.087665768741217454
80	0	0 1 0	8 2 2	0.5	-0.1875 0 0	-0.17926703949873235
80	0	0 1 0	9 2 2	0.5	-0.14583333333333334 0 0	0.018134170391568727
80	0	0 1 0	10 2 2	0.5	-0.10416666666666667 0 0	0.086353926504557421
80	0	0 1 0	11 2 2	0.5	-0.0625 0 0	-0.18109816665155079
80	0	0 1 0	12 2 2	0.5	-0.020833333333333332 0 0	0.10984208888948729
80	0	0 1 0	13 2 2	0.5	0.020833333333333332 0 0	0.034457125285699178

# iteration 80   time 0.5
# time level 0
# refinement level 0   multigrid level 0   map 0   component 2
# column format: 1:it	2:tl	3:rl 4:c 5:ml	6:ix 7:iy 8:iz	9:time	10:x 11:y 12:z	13:data
# data columns: 13:erru
80	0	0 2 0	12 2 2	0.5	-0.020833333333333332 0 0	0.10984208888948729
80	0	0 2 0	13 2 2	0.5	0.020833333333333332 0 0	0.034457125285699178
80	0	0 2 0	14 2 2	0.5	0.0625 0 0	-0.076844443900797643
80	0	0 2 0	15 2 2	0.5	0.10416666666666667 0 0	0.13720600143534178
80	0	0 2 0	16 2 2	0.5	0.14583333333333334 0 0	-0.037624192605137829
80	0	0 2 0	17 2 2	0.5	0.1875 0 0	0.072423711894028187
80	0	0 2 0	18 2 2	0.5	0.22916666666666669 0 0	0.084196499179350348
80	0	0 2 0	19 2 2	0.5	0.27083333333333331 0 0	-0.087665768741217898

# iteration 80   time 0.5
# time level 0
# refinement level 0   multigrid level 0   map 0   component 3
# column format: 1:it	2:tl	3:rl 4:c 5:ml	6:ix 7:iy 8:iz	9:time	10:x 11:y 12:z	13:data
# data columns: 13:erru
80	0	0 3 0	18 2 2	0.5	0.22916666666666655 0 0	0.084196499179350348
80	0	0 3 0	19 2 2	0.5	0.2708333333333332 0 0	-0.087665768741217898
80	0	0 3 0	20 2 2	0.5	0.31249999999999983 0 0	0.17926703949873202
80	0	0 3 0	21 2 2	0.5	0.35416666666666652 0 0	-0.018134170391565063
80	0	0 3 0	22 2 2	0.5	0.39583333333333315 0 0	-0.086353926504558309
80	0	0 3 0	23 2 2	0.5	0.43749999999999978 0 0	0.18109816665155279
80	0	0 3 0	24 2 2	0.5	0.47916666666666646 0 0	-0.10984208888948969
80	0	0 3 0	25 2 2	0.5	0.52083333333333304 0 0	-0.034457125285694494


# iteration 88   time 0.55000000000000004
# time level 0
# refinement level 0   multigrid level 0   map 0   component 0
# column format: 1:it	2:tl	3:rl 4:c 5:ml	6:ix 7:iy 8:iz	9:time	10:x 11:y 12:z	13:data
# data columns: 13:erru
88	0	0 0 0	0 2 2	0.55000000000000004	-0.52083333333333337 0 0	-0.11883600934770727
88	0	0 0 0	1 2 2	0.55000000000000004	-0.47916666666666669 0 0	-0.01753901085761822
88	0	0 0 0	2 2 2	0.55000000000000004	-0.4375 0 0	0.11208980575887599
88	0	0 0 0	3 2 2	0.55000000000000004	-0.39583333333333331 0 0	-0.17413600776078725
88	0	0 0 0	4 2 2	0.55000000000000004	-0.35416666666666669 0 0	0.038573512406556265
88	0	0 0 0	5 2 2	0.55000000000000004	-0.3125 0 0	-0.071970392807957251
88	0	0 0 0	6 2 2	0.55000000000000004	-0.27083333333333331 0 0	-0.12742949452510166
88	0	0 0 0	7 2 2	0.55000000000000004	-0.22916666666666669 0 0	0.072090195251332756

# iteration 88   time 0.55000000000000004
# time level 0
# refinement level 0   multigrid level 0   map 0   component 1
# column format: 1:it	2:tl	3:rl 4:c 5:ml	6:ix 7:iy 8:iz	9:time	10:x 11:y 12:z	13:data
# data columns: 13:erru
88	0	0 1 0	6 2 2	0.55000000000000004	-0.27083333333333331 0 0	-0.12742949452510166
88	0	0 1 0	7 2 2	0.55000000000000004	-0.22916666666666669 0 0	0.072090195251332756
88	0	0 1 0	8 2 2	0.55000000000000004	-0.1875 0 0	-0.21387131135720383
88	0	0 1 0	9 2 2	0.55000000000000004	-0.14583333333333334 0 0	-0.0060765116429621902
88	0	0 1 0	10 2 2	0.55000000000000004	-0.10416666666666667 0 0	0.063377419432005477
88	0	0 1 0	11 2 2	0.55000000000000004	-0.0625 0 0	-0.23048931631592257
88	0	0 1 0	12 2 2	0.55000000000000004	-0.020833333333333332 0 0	0.11883600934770294
88	0	0 1 0	13 2 2	0.55000000000000004	0.020833333333333332 0 0	0.017539010857621218

# iteration 88   time 0.55000000000000004
# time level 0
# refinement level 0   multigrid level 0   map 0   component 2
# column format: 1:it	2:tl	3:rl 4:c 5:ml	6:ix 7:iy 8:iz	9:time	10:x 11:y 12:z	13:data
# data columns: 13:erru
88	0	0 2 0	12 2 2	0.55000000000000004	-0.020833333333333332 0 0	0.11883600934770294
88	0	0 2 0	13 2 2	0.55000000000000004	0.020833333333333332 0 0	0.017539010857621218
88	0	0 2 0	14 2 2	0.55000000000000004	0.0625 0 0	-0.11208980575887953
88	0	0 2 0	15 2 2	0.55000000000000004	0.10416666666666667 0 0	0.17413600776078725
88	0	0 2 0	16 2 2	0.55000000000000004	0.14583333333333334 0 0	-0.03857351240655682
88	0	0 2 0	17 2 2	0.55000000000000004	0.1875 0 0	0.071970392807952477
88	0	0 2 0	18 2 2	0.55000000000000004	0.22916666666666669 0 0	0.12742949452510322
88	0	0 2 0	19 2 2	0.55000000000000004	0.27083333333333331 0 0	-0.072090195251333422

# iteration 88   time 0.55000000000000004
# time level 0
# refinement level 0   multigrid level 0   map 0   component 3
# column format: 1:it	2:tl	3:rl 4:c 5:ml	6:ix 7:iy 8:iz	9:time	10:x 11:y 12:z	13:data
# data columns: 13:erru
88	0	0 3 0	18 2 2	0.55000000000000004	0.22916666666666655 0 0	0.12742949452510322
88	0	0 3 0	19 2 2	0.55000000000000004	0.2708333333333332 0 0	-0.072090195251333422
88	0	0 3 0	20 2 2	0.55000000000000004	0.31249999999999983 0 0	0.21387131135720305
88	0	0 3 0	21 2 2	0.55000000000000004	0.35416666666666652 0 0	0.0060765116429646326
88	0	0 3 0	22 2 2	0.55000000000000004	0.39583333333333315 0 0	-0.063377419432005477
88	0	0 3 0	23 2 2	0.55000000000000004	0.43749999999999978 0 0	0.23048931631592484
88	0	0 3 0	24 2 2	0.55000000000000004	0.47916666666666646 0 0	-0.11883600934770594
88	0	0 3 0	25 2 2	0.55000000000000004	0.52083333333333304 0 0	-0.017539010857616888


# iteration 96   time 0.60000000000000009
# time level 0
# refinement level 0   multigrid level 0   map 0   component 0
# column format: 1:it	2:tl	3:rl 4:c 5:ml	6:ix 7:iy 8:iz	9:time	10:x 11:y 12:z	13:data
# data columns: 13:erru
96	0	0 0 0	0 2 2	0.60000000000000009	-0.52083333333333337 0 0	-0.099284659544976228
96	0	0 0 0	1 2 2	0.60000000000000009	-0.47916666666666669 0 0	-0.011021177116702696
96	0	0 0 0	2 2 2	0.60000000000000009	-0.4375 0 0	0.15323213810381203
96	0	0 0 0	3 2 2	0.60000000000000009	-0.39583333333333331 0 0	-0.19004102152347849
96	0	0 0 0	4 2 2	0.60000000000000009	-0.35416666666666669 0 0	0.035639045670101566
96	0	0 0 0	5 2 2	0.60000000000000009	-0.3125 0 0	-0.067198749066782137
96	0	0 0 0	6 2 2	0.60000000000000009	-0.27083333333333331 0 0	-0.16947393050075732
96	0	0 0 0	7 2 2	0.60000000000000009	-0.22916666666666669 0 0	0.061422398853387739

# iteration 96   time 0.60000000000000009
# time level 0
# refinement level 0   multigrid level 0   map 0   component 1
# column format: 1:it	2:tl	3:rl 4:c 5:ml	6:ix 7:iy 8:iz	9:time	10:x 11:y 12:z	13:data
# data columns: 13:erru
96	0	0 1 0	6 2 2	0.60000000000000009	-0.27083333333333331 0 0	-0.16947393050075732
96	0	0 1 0	7 2 2	0.60000000000000009	-0.22916666666666669 0 0	0.061422398853387739
96	0	0 1 0	8 2 2	0.60000000000000009	-0.1875 0 0	-0.24826552040855887
96	0	0 1 0	9 2 2	0.60000000000000009	-0.14583333333333334 0 0	-0.049631309459374107
96	0	0 1 0	10 2 2	0.60000000000000009	-0.10416666666666667 0 0	0.051225343821854286
96	0	0 1 0	11 2 2	0.60000000000000009	-0.0625 0 0	-0.2839017169646173
96	0	0 1 0	12 2 2	0.60000000000000009	-0.020833333333333332 0 0	0.099284659544973786
96	0	0 1 0	13 2 2	0.60000000000000009	0.020833333333333332 0 0	0.011021177116705805

# iteration 96   time 0.60000000000000009
# time level 0
# refinement level 0   multigrid level 0   map 0   component 2
# column format: 1:it	2:tl	3:rl 4:c 5:ml	6:ix 7:iy 8:iz	9:time	10:x 11:y 12:z	13:data
# data columns: 13:erru
96	0	0 2 0	12 2 2	0.60000000000000009	-0.020833333333333332 0 0	0.099284659544973786
96	0	0 2 0	13 2 2	0.60000000000000009	0.020833333333333332 0 0	0.011021177116705805
96	0	0 2 0	14 2 2	0.60000000000000009	0.0625 0 0	-0.1532321381038162
96	0	0 2 0	15 2 2	0.60000000000000009	0.10416666666666667 0 0	0.19004102152347874
96	0	0 2 0	16 2 2	0.60000000000000009	0.14583333333333334 0 0	-0.035639045670100983
96	0	0 2 0	17 2 2	0.60000000000000009	0.1875 0 0	0.06719874906677753
96	0	0 2 0	18 2 2	0.60000000000000009	0.22916666666666669 0 0	0.16947393050075976
96	0	0 2 0	19 2 2	0.60000000000000009	0.27083333333333331 0 0	-0.061422398853390625

# iteration 96   time 0.60000000000000009
# time level 0
# refinement level 0   multigrid level 0   map 0   component 3
# column format: 1:it	2:tl	3:rl 4:c 5:ml	6:ix 7:iy 8:iz	9:time	10:x 11:y 12:z	13:data
# data columns: 13:erru
96	0	0 3 0	18 2 2	0.60000000000000009	0.22916666666666655 0 0	0.16947393050075976
96	0	0 3 0	19 2 2	0.60000000000000009	0.2708333333333332 0 0	-0.061422398853390625
96	0	0 3 0	20 2 2	0.60000000000000009	0.31249999999999983 0 0	0.24826552040855665
96	0	0 3 0	21 2 2	0.60000000000000009	0.35416666666666652 0 0	0.049631309459376549
96	0	0 3 0	22 2 2	0.60000000000000009	0.39583333333333315 0 0	-0.051225343821855618
96	0	0 3 0	23 2 2	0.60000000000000009	0.43749999999999978 0 0	0.28390171696461974
96	0	0 3 0	24 2 2	0.60000000000000009	0.47916666666666646 0 0	-0.099284659544975118
96	0	0 3 0	25 2 2	0.60000000000000009	0.52083333333333304 0 0	-0.011021177116701586


# iteration 104   time 0.65000000000000002
# time level 0
# refinement level 0   multigrid level 0   map 0   component 0
# column format: 1:it	2:tl	3:rl 4:c 5:ml	6:ix 7:iy 8:iz	9:time	10:x 11:y 12:z	13:data
# data columns: 13:erru
104	0	0 0 0	0 2 2	0.65000000000000002	-0.52083333333333337 0 0	-0.062401418954734167
104	0	0 0 0	1 2 2	0.65000000000000002	-0.47916666666666669 0 0	-0.0069903592407293269
104	0	0 0 0	2 2 2	0.65000000000000002	-0.4375 0 0	0.20063970022970173
104	0	0 0 0	3 2 2	0.65000000000000002	-0.39583333333333331 0 0	-0.18744966286581277
104	0	0 0 0	4 2 2	0.65000000000000002	-0.35416666666666669 0 0	0.030379306981132503
104	0	0 0 0	5 2 2	0.65000000000000002	-0.3125 0 0	-0.055283534125579931
104	0	0 0 0	6 2 2	0.65000000000000002	-0.27083333333333331 0 0	-0.20269243653235497
104	0	0 0 0	7 2 2	0.65000000000000002	-0.22916666666666669 0 0	0.049953187188935377

# iteration 104   time 0.65000000000000002
# time level 0
# refinement level 0   multigrid level 0   map 0   component 1
# column format: 1:it	2:tl	3:rl 4:c 5:ml	6:ix 7:iy 8:iz	9:time	10:x 11:y 12:z	13:data
# data columns: 13:erru
104	0	0 1 0	6 2 2	0.65000000000000002	-0.27083333333333331 0 0	-0.20269243653235497
104	0	0 1 0	7 2 2	0.65000000000000002	-0.22916666666666669 0 0	0.049953187188935377
104	0	0 1 0	8 2 2	0.65000000000000002	-0.1875 0 0	-0.27882242396600965
104	0	0 1 0	9 2 2	0.65000000000000002	-0.14583333333333334 0 0	-0.099200729868698434
104	0	0 1 0	10 2 2	0.65000000000000002	-0.10416666666666667 0 0	0.04026516782522882
104	0	0 1 0	11 2 2	0.65000000000000002	-0.0625 0 0	-0.33903091934089269
104	0	0 1 0	12 2 2	0.65000000000000002	-0.020833333333333332 0 0	0.062401418954732391
104	0	0 1 0	13 2 2	0.65000000000000002	0.020833333333333332 0 0	0.006990359240734545

# iteration 104   time 0.65000000000000002
# time level 0
# refinement level 0   multigrid level 0   map 0   component 2
# column format: 1:it	2:tl	3:rl 4:c 5:ml	6:ix 7:iy 8:iz	9:time	10:x 11:y 12:z	13:data
# data columns: 13:erru
104	0	0 2 0	12 2 2	0.65000000000000002	-0.020833333333333332 0 0	0.062401418954732391
104	0	0 2 0	13 2 2	0.65000000000000002	0.020833333333333332 0 0	0.006990359240734545
104	0	0 2 0	14 2 2	0.65000000000000002	0.0625 0 0	-0.20063970022970551
104	0	0 2 0	15 2 2	0.65000000000000002	0.10416666666666667 0 0	0.18744966286581261
104	0	0 2 0	16 2 2	0.65000000000000002	0.14583333333333334 0 0	-0.030379306981130755
104	0	0 2 0	17 2 2	0.65000000000000002	0.1875 0 0	0.055283534125574824
104	0	0 2 0	18 2 2	0.65000000000000002	0.22916666666666669 0 0	0.20269243653235625
104	0	0 2 0	19 2 2	0.65000000000000002	0.27083333333333331 0 0	-0.049953187188938375

# iteration 104   time 0.65000000000000002
# time level 0
# refinement level 0   multigrid level 0   map 0   component 3
# column format: 1:it	2:tl	3:rl 4:c 5:ml	6:ix 7:iy 8:iz	9:time	10:x 11:y 12:z	13:data
# data columns: 13:erru
104	0	0 3 0	18 2 2	0.65000000000000002	0.22916666666666655 0 0	0.20269243653235625
104	0	0 3 0	19 2 2	0.65000000000000002	0.2708333333333332 0 0	-0.049953187188938375
104	0	0 3 0	20 2 2	0.65000000000000002	0.31249999999999983 0 0	0.27882242396600743
104	0	0 3 0	21 2 2	0.65000000000000002	0.35416666666666652 0 0	0.099200729868700765
104	0	0 3 0	22 2 2	0.65000000000000002	0.39583333333333315 0 0	-0.04026516782523093
104	0	0 3 0	23 2 2	0.65000000000000002	0.43749999999999978 0 0	0.33903091934089391
104	0	0 3 0	24 2 2	0.65000000000000002	0.47916666666666646 0 0	-0.062401418954733612
104	0	0 3 0	25 2 2	0.65000000000000002	0.52083333333333304 0 0	-0.0069903592407287718


# iteration 112   time 0.70000000000000007
# time level 0
# refinement level 0   multigrid level 0   map 0   component 0
# column format: 1:it	2:tl	3:rl 4:c 5:ml	6:ix 7:iy 8:iz	9:time	10:x 11:y 12:z	13:data
# data columns: 13:erru
112	0	0 0 0	0 2 2	0.70000000000000007	-0.52083333333333337 0 0	-0.041041858100235862
112	0	0 0 0	1 2 2	0.70000000000000007	-0.47916666666666669 0 0	0.027107411549359584
112	0	0 0 0	2 2 2	0.70000000000000007	-0.4375 0 0	0.25390490182088288
112	0	0 0 0	3 2 2	0.70000000000000007	-0.39583333333333331 0 0	-0.19542349378317031
112	0	0 0 0	4 2 2	0.70000000000000007	-0.35416666666666669 0 0	0.04453241172372413
112	0	0 0 0	5 2 2	0.70000000000000007	-0.3125 0 0	-0.031631326296994666
112	0	0 0 0	6 2 2	0.70000000000000007	-0.27083333333333331 0 0	-0.23532869721425437
112	0	0 0 0	7 2 2	0.70000000000000007	-0.22916666666666669 0 0	0.03587092907550693

# iteration 112   time 0.70000000000000007
# time level 0
# refinement level 0   multigrid level 0   map 0   component 1
# column format: 1:it	2:tl	3:rl 4:c 5:ml	6:ix 7:iy 8:iz	9:time	10:x 11:y 12:z	13:data
# data columns: 13:erru
112	0	0 1 0	6 2 2	0.70000000000000007	-0.27083333333333331 0 0	-0.23532869721425437
112	0	0 1 0	7 2 2	0.70000000000000007	-0.22916666666666669 0 0	0.03587092907550693
112	0	0 1 0	8 2 2	0.70000000000000007	-0.1875 0 0	-0.29863835246593606
112	0	0 1 0	9 2 2	0.70000000000000007	-0.14583333333333334 0 0	-0.13738154143282377
112	0	0 1 0	10 2 2	0.70000000000000007	-0.10416666666666667 0 0	0.0061967426697865369
112	0	0 1 0	11 2 2	0.70000000000000007	-0.0625 0 0	-0.39070708200509086
112	0	0 1 0	12 2 2	0.70000000000000007	-0.020833333333333332 0 0	0.041041858100231754
112	0	0 1 0	13 2 2	0.70000000000000007	0.020833333333333332 0 0	-0.027107411549354032

# iteration 112   time 0.70000000000000007
# time level 0
# refinement level 0   multigrid level 0   map 0   component 2
# column format: 1:it	2:tl	3:rl 4:c 5:ml	6:ix 7:iy 8:iz	9:time	10:x 11:y 12:z	13:data
# data columns: 13:erru
112	0	0 2 0	12 2 2	0.70000000000000007	-0.020833333333333332 0 0	0.041041858100231754
112	0	0 2 0	13 2 2	0.70000000000000007	0.020833333333333332 0 0	-0.027107411549354032
112	0	0 2 0	14 2 2	0.70000000000000007	0.0625 0 0	-0.25390490182088654
112	0	0 2 0	15 2 2	0.70000000000000007	0.10416666666666667 0 0	0.19542349378317103
112	0	0 2 0	16 2 2	0.70000000000000007	0.14583333333333334 0 0	-0.044532411723723131
112	0	0 2 0	17 2 2	0.70000000000000007	0.1875 0 0	0.031631326296988616
112	0	0 2 0	18 2 2	0.70000000000000007	0.22916666666666669 0 0	0.23532869721425642
112	0	0 2 0	19 2 2	0.70000000000000007	0.27083333333333331 0 0	-0.035870929075507929

# iteration 112   time 0.70000000000000007
# time level 0
# refinement level 0   multigrid level 0   map 0   component 3
# column format: 1:it	2:tl	3:rl 4:c 5:ml	6:ix 7:iy 8:iz	9:time	10:x 11:y 12:z	13:data
# data columns: 13:erru
112	0	0 3 0	18 2 2	0.70000000000000007	0.22916666666666655 0 0	0.23532869721425642
112	0	0 3 0	19 2 2	0.70000000000000007	0.2708333333333332 0 0	-0.035870929075507929
112	0	0 3 0	20 2 2	0.70000000000000007	0.31249999999999983 0 0	0.29863835246593351
112	0	0 3 0	21 2 2	0.70000000000000007	0.35416666666666652 0 0	0.13738154143282499
112	0	0 3 0	22 2 2	0.70000000000000007	0.39583333333333315 0 0	-0.0061967426697890904
112	0	0 3 0	23 2 2	0.70000000000000007	0.43749999999999978 0 0	0.39070708200509163
112	0	0 3 0	24 2 2	0.70000000000000007	0.47916666666666646 0 0	-0.04104185810023564
112	0	0 3 0	25 2 2	0.70000000000000007	0.52083333333333304 0 0	0.027107411549359806


# iteration 120   time 0.75
# time level 0
# refinement level 0   multigrid level 0   map 0   component 0
# column format: 1:it	2:tl	3:rl 4:c 5:ml	6:ix 7:iy 8:iz	9:time	10:x 11:y 12:z	13:data
# data columns: 13:erru
120	0	0 0 0	0 2 2	0.75	-0.52083333333333337 0 0	-0.0049229851393703949
120	0	0 0 0	1 2 2	0.75	-0.47916666666666669 0 0	0.058486668623729088
120	0	0 0 0	2 2 2	0.75	-0.4375 0 0	0.30859531208484392
120	0	0 0 0	3 2 2	0.75	-0.39583333333333331 0 0	-0.18649651716127014
120	0	0 0 0	4 2 2	0.75	-0.35416666666666669 0 0	0.065794478552017033
120	0	0 0 0	5 2 2	0.75	-0.3125 0 0	-0.00043823240926066376
120	0	0 0 0	6 2 2	0.75	-0.27083333333333331 0 0	-0.25882291876543972
120	0	0 0 0	7 2 2	0.75	-0.22916666666666669 0 0	0.034560775273791269

# iteration 120   time 0.75
# time level 0
# refinement level 0   multigrid level 0   map 0   component 1
# column format: 1:it	2:tl	3:rl 4:c 5:ml	6:ix 7:iy 8:iz	9:time	10:x 11:y 12:z	13:data
# data columns: 13:erru
120	0	0 1 0	6 2 2	0.75	-0.27083333333333331 0 0	-0.25882291876543972
120	0	0 1 0	7 2 2	0.75	-0.22916666666666669 0 0	0.034560775273791269
120	0	0 1 0	8 2 2	0.75	-0.1875 0 0	-0.30921506630148587
120	0	0 1 0	9 2 2	0.75	-0.14583333333333334 0 0	-0.17953436480980778
120	0	0 1 0	10 2 2	0.75	-0.10416666666666667 0 0	-0.016918161433686296
120	0	0 1 0	11 2 2	0.75	-0.0625 0 0	-0.43685790804440011
120	0	0 1 0	12 2 2	0.75	-0.020833333333333332 0 0	0.0049229851393661761
120	0	0 1 0	13 2 2	0.75	0.020833333333333332 0 0	-0.058486668623724314

# iteration 120   time 0.75
# time level 0
# refinement level 0   multigrid level 0   map 0   component 2
# column format: 1:it	2:tl	3:rl 4:c 5:ml	6:ix 7:iy 8:iz	9:time	10:x 11:y 12:z	13:data
# data columns: 13:erru
120	0	0 2 0	12 2 2	0.75	-0.020833333333333332 0 0	0.0049229851393661761
120	0	0 2 0	13 2 2	0.75	0.020833333333333332 0 0	-0.058486668623724314
120	0	0 2 0	14 2 2	0.75	0.0625 0 0	-0.30859531208484881
120	0	0 2 0	15 2 2	0.75	0.10416666666666667 0 0	0.18649651716127091
120	0	0 2 0	16 2 2	0.75	0.14583333333333334 0 0	-0.065794478552015923
120	0	0 2 0	17 2 2	0.75	0.1875 0 0	0.00043823240925461304
120	0	0 2 0	18 2 2	0.75	0.22916666666666669 0 0	0.25882291876544383
120	0	0 2 0	19 2 2	0.75	0.27083333333333331 0 0	-0.03456077527379342

# iteration 120   time 0.75
# time level 0
# refinement level 0   multigrid level 0   map 0   component 3
# column format: 1:it	2:tl	3:rl 4:c 5:ml	6:ix 7:iy 8:iz	9:time	10:x 11:y 12:z	13:data
# data columns: 13:erru
120	0	0 3 0	18 2 2	0.75	0.22916666666666655 0 0	0.25882291876544383
120	0	0 3 0	19 2 2	0.75	0.2708333333333332 0 0	-0.03456077527379342
120	0	0 3 0	20 2 2	0.75	0.31249999999999983 0 0	0.3092150663014831
120	0	0 3 0	21 2 2	0.75	0.35416666666666652 0 0	0.17953436480980967
120	0	0 3 0	22 2 2	0.75	0.39583333333333315 0 0	0.016918161433682966
120	0	0 3 0	23 2 2	0.75	0.43749999999999978 0 0	0.43685790804439989
120	0	0 3 0	24 2 2	0.75	0.47916666666666646 0 0	-0.0049229851393703949
120	0	0 3 0	25 2 2	0.75	0.52083333333333304 0 0	0.058486668623729088


# iteration 128   time 0.80000000000000004
# time level 0
# refinement level 0   multigrid level 0   map 0   component 0
# column format: 1:it	2:tl	3:rl 4:c 5:ml	6:ix 7:iy 8:iz	9:time	10:x 11:y 12:z	13:data
# data columns: 13:erru
128	0	0 0 0	0 2 2	0.80000000000000004	-0.52083333333333337 0 0	0.050019842857694341
128	0	0 0 0	1 2 2	0.80000000000000004	-0.47916666666666669 0 0	0.073428948180387699
128	0	0 0 0	2 2 2	0.80000000000000004	-0.4375 0 0	0.36207942900130696
128	0	0 0 0	3 2 2	0.80000000000000004	-0.39583333333333331 0 0	-0.14977712419270006
128	0	0 0 0	4 2 2	0.80000000000000004	-0.35416666666666669 0 0	0.083724834777110568
128	0	0 0 0	5 2 2	0.80000000000000004	-0.3125 0 0	0.03647778327350526
128	0	0 0 0	6 2 2	0.80000000000000004	-0.27083333333333331 0 0	-0.2618366832242402
128	0	0 0 0	7 2 2	0.80000000000000004	-0.22916666666666669 0 0	0.044975848668841911

# iteration 128   time 0.80000000000000004
# time level 0
# refinement level 0   multigrid level 0   map 0   component 1
# column format: 1:it	2:tl	3:rl 4:c 5:ml	6:ix 7:iy 8:iz	9:time	10:x 11:y 12:z	13:data
# data columns: 13:erru
128	0	0 1 0	6 2 2	0.80000000000000004	-0.27083333333333331 0 0	-0.2618366832242402
128	0	0 1 0	7 2 2	0.80000000000000004	-0.22916666666666669 0 0	0.044975848668841911
128	0	0 1 0	8 2 2	0.80000000000000004	-0.1875 0 0	-0.31049205317060347
128	0	0 1 0	9 2 2	0.80000000000000004	-0.14583333333333334 0 0	-0.22051586434981515
128	0	0 1 0	10 2 2	0.80000000000000004	-0.10416666666666667 0 0	-0.020119379610387456
128	0	0 1 0	11 2 2	0.80000000000000004	-0.0625 0 0	-0.47557985587644458
128	0	0 1 0	12 2 2	0.80000000000000004	-0.020833333333333332 0 0	-0.050019842857698893
128	0	0 1 0	13 2 2	0.80000000000000004	0.020833333333333332 0 0	-0.073428948180383702

# iteration 128   time 0.80000000000000004
# time level 0
# refinement level 0   multigrid level 0   map 0   component 2
# column format: 1:it	2:tl	3:rl 4:c 5:ml	6:ix 7:iy 8:iz	9:time	10:x 11:y 12:z	13:data
# data columns: 13:erru
128	0	0 2 0	12 2 2	0.80000000000000004	-0.020833333333333332 0 0	-0.050019842857698893
128	0	0 2 0	13 2 2	0.80000000000000004	0.020833333333333332 0 0	-0.073428948180383702
128	0	0 2 0	14 2 2	0.80000000000000004	0.0625 0 0	-0.36207942900131351
128	0	0 2 0	15 2 2	0.80000000000000004	0.10416666666666667 0 0	0.14977712419270017
128	0	0 2 0	16 2 2	0.80000000000000004	0.14583333333333334 0 0	-0.08372483477710857
128	0	0 2 0	17 2 2	0.80000000000000004	0.1875 0 0	-0.036477783273511699
128	0	0 2 0	18 2 2	0.80000000000000004	0.22916666666666669 0 0	0.26183668322424453
128	0	0 2 0	19 2 2	0.80000000000000004	0.27083333333333331 0 0	-0.044975848668844409

# iteration 128   time 0.80000000000000004
# time level 0
# refinement level 0   multigrid level 0   map 0   component 3
# column format: 1:it	2:tl	3:rl 4:c 5:ml	6:ix 7:iy 8:iz	9:time	10:x 11:y 12:z	13:data
# data columns: 13:erru
128	0	0 3 0	18 2 2	0.80000000000000004	0.22916666666666655 0 0	0.26183668322424453
128	0	0 3 0	19 2 2	0.80000000000000004	0.2708333333333332 0 0	-0.044975848668844409
128	0	0 3 0	20 2 2	0.80000000000000004	0.31249999999999983 0 0	0.31049205317060075
128	0	0 3 0	21 2 2	0.80000000000000004	0.35416666666666652 0 0	0.22051586434981785
128	0	0 3 0	22 2 2	0.80000000000000004	0.39583333333333315 0 0	0.020119379610384347
128	0	0 3 0	23 2 2	0.80000000000000004	0.43749999999999978 0 0	0.47557985587644414
128	0	0 3 0	24 2 2	0.80000000000000004	0.47916666666666646 0 0	0.050019842857694119
128	0	0 3 0	25 2 2	0.80000000000000004	0.52083333333333304 0 0	0.073428948180387477


# iteration 136   time 0.85000000000000009
# time level 0
# refinement level 0   multigrid level 0   map 0   component 0
# column format: 1:it	2:tl	3:rl 4:c 5:ml	6:ix 7:iy 8:iz	9:time	10:x 11:y 12:z	13:data
# data columns: 13:erru
136	0	0 0 0	0 2 2	0.85000000000000009	-0.52083333333333337 0 0	0.080767045228880896
136	0	0 0 0	1 2 2	0.85000000000000009	-0.47916666666666669 0 0	0.10772492517852339
136	0	0 0 0	2 2 2	0.85000000000000009	-0.4375 0 0	0.41300061497216678
136	0	0 0 0	3 2 2	0.85000000000000009	-0.39583333333333331 0 0	-0.12268082625263799
136	0	0 0 0	4 2 2	0.85000000000000009	-0.35416666666666669 0 0	0.1179064797303383
136	0	0 0 0	5 2 2	0.85000000000000009	-0.3125 0 0	0.081973531967664992
136	0	0 0 0	6 2 2	0.85000000000000009	-0.27083333333333331 0 0	-0.25426393355848931
136	0	0 0 0	7 2 2	0.85000000000000009	-0.22916666666666669 0 0	0.059020017547781856

# iteration 136   time 0.85000000000000009
# time level 0
# refinement level 0   multigrid level 0   map 0   component 1
# column format: 1:it	2:tl	3:rl 4:c 5:ml	6:ix 7:iy 8:iz	9:time	10:x 11:y 12:z	13:data
# data columns: 13:erru
136	0	0 1 0	6 2 2	0.85000000000000009	-0.27083333333333331 0 0	-0.25426393355848931
136	0	0 1 0	7 2 2	0.85000000000000009	-0.22916666666666669 0 0	0.059020017547781856
136	0	0 1 0	8 2 2	0.85000000000000009	-0.1875 0 0	-0.29707253430786479
136	0	0 1 0	9 2 2	0.85000000000000009	-0.14583333333333334 0 0	-0.23690267700811751
136	0	0 1 0	10 2 2	0.85000000000000009	-0.10416666666666667 0 0	-0.034439570462760527
136	0	0 1 0	11 2 2	0.85000000000000009	-0.0625 0 0	-0.50209753899439769
136	0	0 1 0	12 2 2	0.85000000000000009	-0.020833333333333332 0 0	-0.080767045228887113
136	0	0 1 0	13 2 2	0.85000000000000009	0.020833333333333332 0 0	-0.10772492517851895

# iteration 136   time 0.85000000000000009
# time level 0
# refinement level 0   multigrid level 0   map 0   component 2
# column format: 1:it	2:tl	3:rl 4:c 5:ml	6:ix 7:iy 8:iz	9:time	10:x 11:y 12:z	13:data
# data columns: 13:erru
136	0	0 2 0	12 2 2	0.85000000000000009	-0.020833333333333332 0 0	-0.080767045228887113
136	0	0 2 0	13 2 2	0.85000000000000009	0.020833333333333332 0 0	-0.10772492517851895
136	0	0 2 0	14 2 2	0.85000000000000009	0.0625 0 0	-0.41300061497217389
136	0	0 2 0	15 2 2	0.85000000000000009	0.10416666666666667 0 0	0.12268082625263677
136	0	0 2 0	16 2 2	0.85000000000000009	0.14583333333333334 0 0	-0.11790647973033563
136	0	0 2 0	17 2 2	0.85000000000000009	0.1875 0 0	-0.08197353196767232
136	0	0 2 0	18 2 2	0.85000000000000009	0.22916666666666669 0 0	0.25426393355849297
136	0	0 2 0	19 2 2	0.85000000000000009	0.27083333333333331 0 0	-0.059020017547783743

# iteration 136   time 0.85000000000000009
# time level 0
# refinement level 0   multigrid level 0   map 0   component 3
# column format: 1:it	2:tl	3:rl 4:c 5:ml	6:ix 7:iy 8:iz	9:time	10:x 11:y 12:z	13:data
# data columns: 13:erru
136	0	0 3 0	18 2 2	0.85000000000000009	0.22916666666666655 0 0	0.25426393355849297
136	0	0 3 0	19 2 2	0.85000000000000009	0.2708333333333332 0 0	-0.059020017547783743
136	0	0 3 0	20 2 2	0.85000000000000009	0.31249999999999983 0 0	0.29707253430786207
136	0	0 3 0	21 2 2	0.85000000000000009	0.35416666666666652 0 0	0.23690267700811962
136	0	0 3 0	22 2 2	0.85000000000000009	0.39583333333333315 0 0	0.034439570462758723
136	0	0 3 0	23 2 2	0.85000000000000009	0.43749999999999978 0 0	0.50209753899439791
136	0	0 3 0	24 2 2	0.85000000000000009	0.47916666666666646 0 0	0.080767045228880785
136	0	0 3 0	25 2 2	0.85000000000000009	0.52083333333333304 0 0	0.10772492517852328


# iteration 144   time 0.90000000000000002
# time level 0
# refinement level 0   multigrid level 0   map 0   component 0
# column format: 1:it	2:tl	3:rl 4:c 5:ml	6:ix 7:iy 8:iz	9:time	10:x 11:y 12:z	13:data
# data columns: 13:erru
144	0	0 0 0	0 2 2	0.90000000000000002	-0.52083333333333337 0 0	0.1023127515675728
144	0	0 0 0	1 2 2	0.90000000000000002	-0.47916666666666669 0 0	0.14132338881682716
144	0	0 0 0	2 2 2	0.90000000000000002	-0.4375 0 0	0.4564165344366421
144	0	0 0 0	3 2 2	0.90000000000000002	-0.39583333333333331 0 0	-0.095406899118286037
144	0	0 0 0	4 2 2	0.90000000000000002	-0.35416666666666669 0 0	0.16179743857860451
144	0	0 0 0	5 2 2	0.90000000000000002	-0.3125 0 0	0.13069709457399681
144	0	0 0 0	6 2 2	0.90000000000000002	-0.27083333333333331 0 0	-0.23723848224460542
144	0	0 0 0	7 2 2	0.90000000000000002	-0.22916666666666669 0 0	0.087492743178254839

# iteration 144   time 0.90000000000000002
# time level 0
# refinement level 0   multigrid level 0   map 0   component 1
# column format: 1:it	2:tl	3:rl 4:c 5:ml	6:ix 7:iy 8:iz	9:time	10:x 11:y 12:z	13:data
# data columns: 13:erru
144	0	0 1 0	6 2 2	0.90000000000000002	-0.27083333333333331 0 0	-0.23723848224460542
144	0	0 1 0	7 2 2	0.90000000000000002	-0.22916666666666669 0 0	0.087492743178254839
144	0	0 1 0	8 2 2	0.90000000000000002	-0.1875 0 0	-0.27158293072732997
144	0	0 1 0	9 2 2	0.90000000000000002	-0.14583333333333334 0 0	-0.24009897998885149
144	0	0 1 0	10 2 2	0.90000000000000002	-0.10416666666666667 0 0	-0.038064014566685428
144	0	0 1 0	11 2 2	0.90000000000000002	-0.0625 0 0	-0.51477335851762396
144	0	0 1 0	12 2 2	0.90000000000000002	-0.020833333333333332 0 0	-0.1023127515675783
144	0	0 1 0	13 2 2	0.90000000000000002	0.020833333333333332 0 0	-0.14132338881682222

# iteration 144   time 0.90000000000000002
# time level 0
# refinement level 0   multigrid level 0   map 0   component 2
# column format: 1:it	2:tl	3:rl 4:c 5:ml	6:ix 7:iy 8:iz	9:time	10:x 11:y 12:z	13:data
# data columns: 13:erru
144	0	0 2 0	12 2 2	0.90000000000000002	-0.020833333333333332 0 0	-0.1023127515675783
144	0	0 2 0	13 2 2	0.90000000000000002	0.020833333333333332 0 0	-0.14132338881682222
144	0	0 2 0	14 2 2	0.90000000000000002	0.0625 0 0	-0.45641653443664865
144	0	0 2 0	15 2 2	0.90000000000000002	0.10416666666666667 0 0	0.095406899118284816
144	0	0 2 0	16 2 2	0.90000000000000002	0.14583333333333334 0 0	-0.1617974385786044
144	0	0 2 0	17 2 2	0.90000000000000002	0.1875 0 0	-0.13069709457400602
144	0	0 2 0	18 2 2	0.90000000000000002	0.22916666666666669 0 0	0.23723848224460986
144	0	0 2 0	19 2 2	0.90000000000000002	0.27083333333333331 0 0	-0.087492743178257393

# iteration 144   time 0.90000000000000002
# time level 0
# refinement level 0   multigrid level 0   map 0   component 3
# column format: 1:it	2:tl	3:rl 4:c 5:ml	6:ix 7:iy 8:iz	9:time	10:x 11:y 12:z	13:data
# data columns: 13:erru
144	0	0 3 0	18 2 2	0.90000000000000002	0.22916666666666655 0 0	0.23723848224460986
144	0	0 3 0	19 2 2	0.90000000000000002	0.2708333333333332 0 0	-0.087492743178257393
144	0	0 3 0	20 2 2	0.90000000000000002	0.31249999999999983 0 0	0.27158293072732709
144	0	0 3 0	21 2 2	0.90000000000000002	0.35416666666666652 0 0	0.24009897998885477
144	0	0 3 0	22 2 2	0.90000000000000002	0.39583333333333315 0 0	0.038064014566682514
144	0	0 3 0	23 2 2	0.90000000000000002	0.43749999999999978 0 0	0.51477335851762451
144	0	0 3 0	24 2 2	0.90000000000000002	0.47916666666666646 0 0	0.10231275156757191
144	0	0 3 0	25 2 2	0.90000000000000002	0.52083333333333304 0 0	0.14132338881682627


# iteration 152   time 0.95000000000000007
# time level 0
# refinement level 0   multigrid level 0   map 0   component 0
# column format: 1:it	2:tl	3:rl 4:c 5:ml	6:ix 7:iy 8:iz	9:time	10:x 11:y 12:z	13:data
# data columns: 13:erru
152	0	0 0 0	0 2 2	0.95000000000000007	-0.52083333333333337 0 0	0.13527265001743144
152	0	0 0 0	1 2 2	0.95000000000000007	-0.47916666666666669 0 0	0.14347421347131678
152	0	0 0 0	2 2 2	0.95000000000000007	-0.4375 0 0	0.4885590149245565
152	0	0 0 0	3 2 2	0.95000000000000007	-0.39583333333333331 0 0	-0.046525823234412678
152	0	0 0 0	4 2 2	0.95000000000000007	-0.35416666666666669 0 0	0.19446702996029119
152	0	0 0 0	5 2 2	0.95000000000000007	-0.3125 0 0	0.17613611437073506
152	0	0 0 0	6 2 2	0.95000000000000007	-0.27083333333333331 0 0	-0.20107010023610072
152	0	0 0 0	7 2 2	0.95000000000000007	-0.22916666666666669 0 0	0.13154369773293273

# iteration 152   time 0.95000000000000007
# time level 0
# refinement level 0   multigrid level 0   map 0   component 1
# column format: 1:it	2:tl	3:rl 4:c 5:ml	6:ix 7:iy 8:iz	9:time	10:x 11:y 12:z	13:data
# data columns: 13:erru
152	0	0 1 0	6 2 2	0.95000000000000007	-0.27083333333333331 0 0	-0.20107010023610072
152	0	0 1 0	7 2 2	0.95000000000000007	-0.22916666666666669 0 0	0.13154369773293273
152	0	0 1 0	8 2 2	0.95000000000000007	-0.1875 0 0	-0.23946493315775774
152	0	0 1 0	9 2 2	0.95000000000000007	-0.14583333333333334 0 0	-0.23783023950720711
152	0	0 1 0	10 2 2	0.95000000000000007	-0.10416666666666667 0 0	-0.0084361485816640824
152	0	0 1 0	11 2 2	0.95000000000000007	-0.0625 0 0	-0.51479067055520589
152	0	0 1 0	12 2 2	0.95000000000000007	-0.020833333333333332 0 0	-0.1352726500174358
152	0	0 1 0	13 2 2	0.95000000000000007	0.020833333333333332 0 0	-0.14347421347131051

# iteration 152   time 0.95000000000000007
# time level 0
# refinement level 0   multigrid level 0   map 0   component 2
# column format: 1:it	2:tl	3:rl 4:c 5:ml	6:ix 7:iy 8:iz	9:time	10:x 11:y 12:z	13:data
# data columns: 13:erru
152	0	0 2 0	12 2 2	0.95000000000000007	-0.020833333333333332 0 0	-0.1352726500174358
152	0	0 2 0	13 2 2	0.95000000000000007	0.020833333333333332 0 0	-0.14347421347131051
152	0	0 2 0	14 2 2	0.95000000000000007	0.0625 0 0	-0.48855901492456327
152	0	0 2 0	15 2 2	0.95000000000000007	0.10416666666666667 0 0	0.046525823234410346
152	0	0 2 0	16 2 2	0.95000000000000007	0.14583333333333334 0 0	-0.19446702996029108
152	0	0 2 0	17 2 2	0.95000000000000007	0.1875 0 0	-0.1761361143707455
152	0	0 2 0	18 2 2	0.95000000000000007	0.22916666666666669 0 0	0.20107010023610583
152	0	0 2 0	19 2 2	0.95000000000000007	0.27083333333333331 0 0	-0.13154369773293628

# iteration 152   time 0.95000000000000007
# time level 0
# refinement level 0   multigrid level 0   map 0   component 3
# column format: 1:it	2:tl	3:rl 4:c 5:ml	6:ix 7:iy 8:iz	9:time	10:x 11:y 12:z	13:data
# data columns: 13:erru
152	0	0 3 0	18 2 2	0.95000000000000007	0.22916666666666655 0 0	0.20107010023610583
152	0	0 3 0	19 2 2	0.95000000000000007	0.2708333333333332 0 0	-0.13154369773293628
152	0	0 3 0	20 2 2	0.95000000000000007	0.31249999999999983 0 0	0.23946493315775497
152	0	0 3 0	21 2 2	0.95000000000000007	0.35416666666666652 0 0	0.23783023950721177
152	0	0 3 0	22 2 2	0.95000000000000007	0.39583333333333315 0 0	0.0084361485816598081
152	0	0 3 0	23 2 2	0.95000000000000007	0.43749999999999978 0 0	0.51479067055520689
152	0	0 3 0	24 2 2	0.95000000000000007	0.47916666666666646 0 0	0.13527265001743033
152	0	0 3 0	25 2 2	0.95000000000000007	0.52083333333333304 0 0	0.14347421347131567


# iteration 160   time 1
# time level 0
# refinement level 0   multigrid level 0   map 0   component 0
# column format: 1:it	2:tl	3:rl 4:c 5:ml	6:ix 7:iy 8:iz	9:time	10:x 11:y 12:z	13:data
# data columns: 13:erru
160	0	0 0 0	0 2 2	1	-0.52083333333333337 0 0	0.13929224805675813
160	0	0 0 0	1 2 2	1	-0.47916666666666669 0 0	0.14719150690070526
160	0	0 0 0	2 2 2	1	-0.4375 0 0	0.50923414519543209
160	0	0 0 0	3 2 2	1	-0.39583333333333331 0 0	-0.012467579729619094
160	0	0 0 0	4 2 2	1	-0.35416666666666669 0 0	0.22892626072474009
160	0	0 0 0	5 2 2	1	-0.3125 0 0	0.21903054662039456
160	0	0 0 0	6 2 2	1	-0.27083333333333331 0 0	-0.15692406840034145
160	0	0 0 0	7 2 2	1	-0.22916666666666669 0 0	0.17655911579957184

# iteration 160   time 1
# time level 0
# refinement level 0   multigrid level 0   map 0   component 1
# column format: 1:it	2:tl	3:rl 4:c 5:ml	6:ix 7:iy 8:iz	9:time	10:x 11:y 12:z	13:data
# data columns: 13:erru
160	0	0 1 0	6 2 2	1	-0.27083333333333331 0 0	-0.15692406840034145
160	0	0 1 0	7 2 2	1	-0.22916666666666669 0 0	0.17655911579957184
160	0	0 1 0	8 2 2	1	-0.1875 0 0	-0.19947817559086978
160	0	0 1 0	9 2 2	1	-0.14583333333333334 0 0	-0.20945656606491625
160	0	0 1 0	10 2 2	1	-0.10416666666666667 0 0	0.020766035399626626
160	0	0 1 0	11 2 2	1	-0.0625 0 0	-0.50113528793844775
160	0	0 1 0	12 2 2	1	-0.020833333333333332 0 0	-0.13929224805676327
160	0	0 1 0	13 2 2	1	0.020833333333333332 0 0	-0.14719150690069771

# iteration 160   time 1
# time level 0
# refinement level 0   multigrid level 0   map 0   component 2
# column format: 1:it	2:tl	3:rl 4:c 5:ml	6:ix 7:iy 8:iz	9:time	10:x 11:y 12:z	13:data
# data columns: 13:erru
160	0	0 2 0	12 2 2	1	-0.020833333333333332 0 0	-0.13929224805676327
160	0	0 2 0	13 2 2	1	0.020833333333333332 0 0	-0.14719150690069771
160	0	0 2 0	14 2 2	1	0.0625 0 0	-0.50923414519543886
160	0	0 2 0	15 2 2	1	0.10416666666666667 0 0	0.012467579729615652
160	0	0 2 0	16 2 2	1	0.14583333333333334 0 0	-0.22892626072473748
160	0	0 2 0	17 2 2	1	0.1875 0 0	-0.21903054662040577
160	0	0 2 0	18 2 2	1	0.22916666666666669 0 0	0.1569240684003439
160	0	0 2 0	19 2 2	1	0.27083333333333331 0 0	-0.17655911579957595

# iteration 160   time 1
# time level 0
# refinement level 0   multigrid level 0   map 0   component 3
# column format: 1:it	2:tl	3:rl 4:c 5:ml	6:ix 7:iy 8:iz	9:time	10:x 11:y 12:z	13:data
# data columns: 13:erru
160	0	0 3 0	18 2 2	1	0.22916666666666655 0 0	0.1569240684003439
160	0	0 3 0	19 2 2	1	0.2708333333333332 0 0	-0.17655911579957595
160	0	0 3 0	20 2 2	1	0.31249999999999983 0 0	0.19947817559086645
160	0	0 3 0	21 2 2	1	0.35416666666666652 0 0	0.20945656606492047
160	0	0 3 0	22 2 2	1	0.39583333333333315 0 0	-0.020766035399629068
160	0	0 3 0	23 2 2	1	0.43749999999999978 0 0	0.50113528793844897
160	0	0 3 0	24 2 2	1	0.47916666666666646 0 0	0.139292248056757
160	0	0 3 0	25 2 2	1	0.52083333333333304 0 0	0.14719150690070412


