# Scalar ASCII output created by CarpetIOScalar
# created on oort1 by jmiller on Mar 06 2016 at 13:15:21-0500
# parameter filename: "/home/jmiller/simulations/wavetoy_so_dg4_sinex_rho_8/output-0000/wavetoy_so_dg4_sinex.par"
# Build ID: build-dgfe2-oort1-jmiller-2016.03.04-22.00.04-20032
# Simulation ID: run-wavetoy_so_dg4_sinex-oort1-jmiller-2016.03.06-18.15.19-4855
# Run ID: run-wavetoy_so_dg4_sinex-oort1-jmiller-2016.03.06-18.15.19-4855
#
# ML_WAVETOY_DG4::errenergy (ml_wavetoy_dg4-wt_errenergy)
# 1:iteration 2:time 3:data
# data columns: 3:errenergy
0 0 0
8 0.050000000000000003 1.183232977772896
16 0.10000000000000001 4.6171088259418065
24 0.15000000000000002 9.9654956752024759
32 0.20000000000000001 16.70485630143704
40 0.25 24.175495278460907
48 0.30000000000000004 31.646134087669544
56 0.35000000000000003 38.385494720903608
64 0.40000000000000002 43.733881712684557
72 0.45000000000000001 47.16775753624416
80 0.5 48.350990439774357
88 0.55000000000000004 47.167757430226281
96 0.60000000000000009 43.733881735636494
104 0.65000000000000002 38.385494825368944
112 0.70000000000000007 31.646134089370715
120 0.75 24.175495245747829
128 0.80000000000000004 16.704856329049992
136 0.85000000000000009 9.9654956747774381
144 0.90000000000000002 4.6171087692131563
152 0.95000000000000007 1.1832329591691992
160 1 2.8146972058833017e-07
