tput: No value for $TERM and no -T specified
tput: No value for $TERM and no -T specified
tput: No value for $TERM and no -T specified
tput: No value for $TERM and no -T specified
tput: No value for $TERM and no -T specified
/u/sciteam/miller1/.bashrc: line 150: -f: command not found
tput: No value for $TERM and no -T specified
tput: No value for $TERM and no -T specified
tput: No value for $TERM and no -T specified
tput: No value for $TERM and no -T specified
tput: No value for $TERM and no -T specified
/u/sciteam/miller1/.bashrc: line 150: -f: command not found
+ set -e
+ cd /scratch/sciteam/miller1/simulations/trunc_rho_bssn_dg8_gauge_wave_3D_rho_2/output-0000-active
+ echo Checking:
+ pwd
+ hostname
+ date
+ cat /var/spool/torque/aux//3894337.bw
+ echo Environment:
+ export CACTUS_NUM_PROCS=8
+ CACTUS_NUM_PROCS=8
+ export CACTUS_NUM_THREADS=8
+ CACTUS_NUM_THREADS=8
+ export GMON_OUT_PREFIX=gmon.out
+ GMON_OUT_PREFIX=gmon.out
+ export OMP_NUM_THREADS=8
+ OMP_NUM_THREADS=8
+ export ATP_ENABLED=1
+ ATP_ENABLED=1
+ env
+ sort
+ echo Starting:
++ date +%s
+ export CACTUS_STARTTIME=1455745927
+ CACTUS_STARTTIME=1455745927
+ aprun -cc numa_node -n 8 -N 4 -d 8 /scratch/sciteam/miller1/simulations/trunc_rho_bssn_dg8_gauge_wave_3D_rho_2/SIMFACTORY/exe/cactus_dgfe2 -L 3 /scratch/sciteam/miller1/simulations/trunc_rho_bssn_dg8_gauge_wave_3D_rho_2/output-0000/gauge_wave.par
[1mWARNING[L1,P0] (CarpetReduce):[0m Simulation domain volume and reduction weight sum differ
+ echo Stopping:
+ date
+ echo Done.
