# Scalar ASCII output created by CarpetIOScalar
# created on nid00138 by miller1 on Feb 20 2016 at 20:37:58-0600
# parameter filename: "/scratch/sciteam/miller1/simulations/trunc_rho_bssn_dg8_shifted_gauge_wave_1plulog_rho_9/output-0000/shifted_gauge_wave_1_plus_log.par"
# Build ID: build-dgfe2-h2ologin1.ncsa.illinois.edu-miller1-2016.02.08-01.00.23-31758
# Simulation ID: run-shifted_gauge_wave_1_plus_log-nid00138-miller1-2016.02.21-02.37.55-9785
# Run ID: run-shifted_gauge_wave_1_plus_log-nid00138-miller1-2016.02.21-02.37.55-9785
#
# ADMBASE::kxx (admbase-curv)
# 1:iteration 2:time 3:data
# data columns: 3:kxx 4:kxy 5:kxz 6:kyy 7:kyz 8:kzz
0 0 -0.031415926535895 0 0 -2.17430725444494e-15 0 -2.17430725444494e-15
1530 0.250000000000056 -0.0263083347137373 -4.38889653966165e-11 -4.38841714486703e-11 -3.2981016136475e-11 -7.00214232947203e-11 -3.61562817590478e-11
3060 0.500000000000111 -0.0235176158456052 -7.24956213342396e-11 -7.78868266301372e-11 -6.08269782069429e-11 -1.40291074480334e-10 -5.53127007011793e-11
4590 0.750000000000167 -0.0311131367538217 -1.0752860778148e-10 -1.62552132470472e-10 -5.26362264083783e-11 -1.89172742070973e-10 -4.77854200316376e-11
6120 1.00000000000022 -0.0293770726586626 -2.01865646556645e-10 -1.78049733266885e-10 -5.11328471196041e-11 -3.05042350338011e-10 -5.96959087207341e-11
7650 1.25000000000028 -0.0222671611077674 -2.00494980293868e-10 -2.19385676146064e-10 -8.21313889907627e-11 -3.61904435764392e-10 -7.19332947464454e-11
9180 1.50000000000033 -0.0274594125659722 -2.26370255588124e-10 -3.0877860798394e-10 -5.86393366101698e-11 -3.66176230726531e-10 -6.4159529496794e-11
10710 1.75000000000039 -0.0307424248765295 -1.80436079981404e-10 -3.69253574540008e-10 -9.09566712162844e-11 -3.87058950841223e-10 -9.21676249704997e-11
12240 2.00000000000044 -0.0242118129147066 -2.75851910563291e-10 -3.57340770384411e-10 -8.09466389675969e-11 -5.07419810080031e-10 -1.02556363480836e-10
13770 2.2500000000005 -0.0241083523035619 -4.47033271073494e-10 -4.61098536611336e-10 -1.67878942278622e-10 -6.90168878873895e-10 -1.26586980994724e-10
15300 2.50000000000056 -0.0311394868664392 -4.58999679325308e-10 -4.89008866525187e-10 -1.01690115229236e-10 -7.90046281170745e-10 -9.48496793172096e-11
16830 2.75000000000061 -0.0281064005235897 -4.59649634511475e-10 -4.18400177358243e-10 -1.07486035020425e-10 -7.29162668498891e-10 -9.8958780081813e-11
18360 3.00000000000067 -0.0224442300310836 -4.84609963447494e-10 -5.68824699853653e-10 -9.15184974650623e-11 -7.06100192614131e-10 -1.14061958580868e-10
19890 3.25000000000072 -0.0291773101475682 -5.76994773660509e-10 -5.34244296104514e-10 -1.09971371165097e-10 -9.18069815477015e-10 -1.38204452254688e-10
21420 3.50000000000078 -0.0306599082723222 -4.63439380978268e-10 -4.67220847917722e-10 -1.45307848223475e-10 -8.46732350823304e-10 -1.07639585930368e-10
22950 3.75000000000083 -0.0231637696208122 -8.4216109901116e-10 -4.84011723055461e-10 -1.17244674479796e-10 -1.28279238318446e-09 -1.08333555271164e-10
24480 4.00000000000089 -0.0255219326670575 -7.37914192248012e-10 -5.82898504079831e-10 -1.38846372215485e-10 -1.15026089126251e-09 -1.13911564291518e-10
26010 4.25000000000094 -0.0312505995429889 -5.93923812749989e-10 -6.2878015839217e-10 -1.3394456331446e-10 -1.29942560657448e-09 -1.47361331653776e-10
27540 4.500000000001 -0.0263550500648484 -6.69490890536023e-10 -7.15461745606813e-10 -1.29494856330633e-10 -1.39805669220077e-09 -1.65157035215408e-10
