+ set -e
+ cd /home/jmiller/simulations/wavetoy_so_fd4_sinex_rho_8/output-0000-active
+ echo Checking:
+ pwd
+ hostname
+ date
+ echo Environment:
+ export GMON_OUT_PREFIX=gmon.out
+ GMON_OUT_PREFIX=gmon.out
+ export OMP_NUM_THREADS=4
+ OMP_NUM_THREADS=4
+ env
+ echo Starting:
++ date +%s
+ export CACTUS_STARTTIME=1457288286
+ CACTUS_STARTTIME=1457288286
+ mpirun -np 1 /home/jmiller/simulations/wavetoy_so_fd4_sinex_rho_8/SIMFACTORY/exe/cactus_dgfe2 -L 3 /home/jmiller/simulations/wavetoy_so_fd4_sinex_rho_8/output-0000/wavetoy_so_fd4_sinex.par
+ echo Stopping:
+ date
+ echo Done.
