# Scalar ASCII output created by CarpetIOScalar
# created on nid00142 by miller1 on Feb 20 2016 at 20:48:41-0600
# parameter filename: "/scratch/sciteam/miller1/simulations/trunc_rho_bssn_dg8_shifted_gauge_wave_1plulog_rho_6/output-0000/shifted_gauge_wave_1_plus_log.par"
# Build ID: build-dgfe2-h2ologin1.ncsa.illinois.edu-miller1-2016.02.08-01.00.23-31758
# Simulation ID: run-shifted_gauge_wave_1_plus_log-nid00142-miller1-2016.02.21-02.48.39-21472
# Run ID: run-shifted_gauge_wave_1_plus_log-nid00142-miller1-2016.02.21-02.48.39-21472
#
# ADMBASE::gxx (admbase-metric)
# 1:iteration 2:time 3:data
# data columns: 3:gxx 4:gxy 5:gxz 6:gyy 7:gyz 8:gzz
0 0 0.99 0 0 1 0 1
1020 0.250000000000056 0.981977346227576 -6.51947786171738e-14 -7.14002308692989e-14 0.999999999999933 -8.8031969129049e-14 0.999999999999924
2040 0.500000000000111 0.980522716406239 -1.36511121630694e-13 -1.66288544494045e-13 0.999999999999889 -2.27563893922173e-13 0.999999999999898
3060 0.750000000000167 0.970233333190534 -1.44572627605411e-13 -1.43753259525748e-13 0.999999999999829 -2.57533669286253e-13 0.999999999999854
4080 1.00000000000022 0.976972601248346 -1.56904767525789e-13 -1.74942253468014e-13 0.999999999999779 -3.8186718375003e-13 0.999999999999833
5100 1.25000000000028 0.968159396944034 -2.12753216716562e-13 -2.16387411514542e-13 0.999999999999697 -3.79519364617795e-13 0.999999999999808
6120 1.50000000000033 0.979545435914142 -3.55087529365374e-13 -3.38725875220945e-13 0.99999999999975 -7.34354894222405e-13 0.999999999999826
7140 1.75000000000039 0.981190432196349 -2.56345414281237e-13 -2.69528630974971e-13 0.999999999999803 -9.73714540010547e-13 0.999999999999791
8160 2.00000000000044 0.987645420625316 -3.38931397190585e-13 -2.75155145375153e-13 0.999999999999748 -9.35347959589395e-13 0.999999999999753
9180 2.2500000000005 0.996855304957732 -4.15641675247164e-13 -3.59605036988611e-13 0.999999999999698 -7.87721604926717e-13 0.99999999999977
10200 2.50000000000056 0.995745718655852 -3.45013997790063e-13 -3.76156368062327e-13 0.999999999999742 -1.33918801674276e-12 0.999999999999758
11220 2.75000000000061 0.991210197782438 -4.86483571069015e-13 -3.75462537179155e-13 0.999999999999743 -1.25527235733562e-12 0.99999999999977
12240 3.00000000000067 0.984538355622241 -4.27609009036705e-13 -4.86775095000559e-13 0.999999999999752 -8.44109967110602e-13 0.999999999999772
13260 3.25000000000072 0.980722556875063 -4.05242641106702e-13 -3.41593815829332e-13 0.999999999999608 -1.24660487143489e-12 0.99999999999966
14280 3.50000000000078 0.98477385331375 -5.13220528574274e-13 -5.45207323616334e-13 0.99999999999968 -9.04573927074344e-13 0.999999999999651
15300 3.75000000000083 0.979859033414071 -5.6774067224139e-13 -5.64040156398831e-13 0.999999999999672 -1.37595323261429e-12 0.999999999999692
16320 4.00000000000089 0.985063475062349 -5.96269032914489e-13 -6.42704584443778e-13 0.999999999999635 -1.54728593981272e-12 0.999999999999699
17340 4.25000000000095 0.989812463977072 -7.7861028487255e-13 -4.66642969292018e-13 0.999999999999683 -1.56475332697816e-12 0.99999999999967
18360 4.500000000001 0.989772630341172 -8.38867581516064e-13 -6.29747124283542e-13 0.999999999999673 -1.87295377922623e-12 0.999999999999539
19380 4.75000000000106 0.991123616805422 -7.56696529503665e-13 -8.00529577243518e-13 0.999999999999661 -1.95865448343091e-12 0.999999999999622
20400 5.00000000000111 0.991185292952837 -9.83798362883991e-13 -8.70559387014659e-13 0.999999999999642 -1.7989607561934e-12 0.999999999999702
