# Scalar ASCII output created by CarpetIOScalar
# created on oort1 by jmiller on Mar 06 2016 at 13:18:09-0500
# parameter filename: "/home/jmiller/simulations/wavetoy_so_fd4_sinex_rho_8/output-0000/wavetoy_so_fd4_sinex.par"
# Build ID: build-dgfe2-oort1-jmiller-2016.03.04-22.00.04-20032
# Simulation ID: run-wavetoy_so_fd4_sinex-oort1-jmiller-2016.03.06-18.18.07-5350
# Run ID: run-wavetoy_so_fd4_sinex-oort1-jmiller-2016.03.06-18.18.07-5350
#
# ML_WAVETOY_FD4::weight (ml_wavetoy_fd4-wt_weight)
# 1:iteration 2:time 3:data
# data columns: 3:weight
0 0 1
8 0.050000000000000003 1
16 0.10000000000000001 1
24 0.15000000000000002 1
32 0.20000000000000001 1
40 0.25 1
48 0.30000000000000004 1
56 0.35000000000000003 1
64 0.40000000000000002 1
72 0.45000000000000001 1
80 0.5 1
88 0.55000000000000004 1
96 0.60000000000000009 1
104 0.65000000000000002 1
112 0.70000000000000007 1
120 0.75 1
128 0.80000000000000004 1
136 0.85000000000000009 1
144 0.90000000000000002 1
152 0.95000000000000007 1
160 1 1
