# Scalar ASCII output created by CarpetIOScalar
# created on oort1 by jmiller on Mar 06 2016 at 13:18:09-0500
# parameter filename: "/home/jmiller/simulations/wavetoy_so_fd4_sinex_rho_8/output-0000/wavetoy_so_fd4_sinex.par"
# Build ID: build-dgfe2-oort1-jmiller-2016.03.04-22.00.04-20032
# Simulation ID: run-wavetoy_so_fd4_sinex-oort1-jmiller-2016.03.06-18.18.07-5350
# Run ID: run-wavetoy_so_fd4_sinex-oort1-jmiller-2016.03.06-18.18.07-5350
#
# ML_WAVETOY_FD4::u (ml_wavetoy_fd4-wt_u)
# 1:iteration 2:time 3:data
# data columns: 3:u
0 0 0.70710678118654757
8 0.050000000000000003 0.707108147429787
16 0.10000000000000001 0.70711172430894309
24 0.15000000000000002 0.70711614561097891
32 0.20000000000000001 0.70711972261486955
40 0.25 0.70712108910039351
48 0.30000000000000004 0.70711972314945437
56 0.35000000000000003 0.70711614647596743
64 0.40000000000000002 0.70711172517395482
72 0.45000000000000001 0.70710814796442722
80 0.5 0.70710678118660486
88 0.55000000000000004 0.70710814689524071
96 0.60000000000000009 0.707111723443968
104 0.65000000000000002 0.70711614474595508
112 0.70000000000000007 0.70711972208019214
120 0.75 0.7071210891002786
128 0.80000000000000004 0.70711972368394538
136 0.85000000000000009 0.70711614734092032
144 0.90000000000000002 0.70711172603900241
152 0.95000000000000007 0.70710814849916026
160 1 0.70710678118677883
