# Scalar ASCII output created by CarpetIOScalar
# created on oort1 by jmiller on Nov 11 2015 at 12:42:30-0500
# parameter filename: "/home/jmiller/simulations/wavetoy_so_dg8_sinex_rho_8/output-0001/wavetoy_so_dg8_sinex.par"
# Build ID: build-dgfe2-oort1-jmiller-2015.11.07-16.10.24-25556
# Simulation ID: run-wavetoy_so_dg8_sinex-oort1-jmiller-2015.11.11-17.41.48-7926
# Run ID: run-wavetoy_so_dg8_sinex-oort1-jmiller-2015.11.11-17.41.48-7926
#
# ML_WAVETOY_DG8::urhs (ml_wavetoy_dg8-wt_urhs)
# 1:iteration 2:time 3:data
# data columns: 3:urhs
0 0 4.4428829381583546
8 0.050000000000000003 4.4428829381583643
16 0.10000000000000001 4.4428829381583546
24 0.15000000000000002 4.4428829381583625
32 0.20000000000000001 4.4428829381583554
40 0.25 4.442882938158359
48 0.30000000000000004 4.442882938158359
56 0.35000000000000003 4.4428829381583625
64 0.40000000000000002 4.4428829381583581
72 0.45000000000000001 4.4428829381583608
80 0.5 4.4428829381583581
88 0.55000000000000004 4.4428829381583572
96 0.60000000000000009 4.4428829381583608
104 0.65000000000000002 4.4428829381583643
112 0.70000000000000007 4.442882938158359
120 0.75 4.4428829381583625
128 0.80000000000000004 4.442882938158359
136 0.85000000000000009 4.4428829381583581
144 0.90000000000000002 4.4428829381583599
152 0.95000000000000007 4.442882938158359
160 1 4.4428829381583599
