# Scalar ASCII output created by CarpetIOScalar
# created on oort1 by jmiller on Nov 11 2015 at 12:42:30-0500
# parameter filename: "/home/jmiller/simulations/wavetoy_so_dg8_sinex_rho_8/output-0001/wavetoy_so_dg8_sinex.par"
# Build ID: build-dgfe2-oort1-jmiller-2015.11.07-16.10.24-25556
# Simulation ID: run-wavetoy_so_dg8_sinex-oort1-jmiller-2015.11.11-17.41.48-7926
# Run ID: run-wavetoy_so_dg8_sinex-oort1-jmiller-2015.11.11-17.41.48-7926
#
# ML_WAVETOY_DG8::du1 (ml_wavetoy_dg8-wt_du)
# 1:iteration 2:time 3:data
# data columns: 3:du1 4:du2 5:du3
0 0 4.4428829381583554 9.7746929081160792e-16 1.0055329296236698e-15
8 0.050000000000000003 4.4428829381583608 3.5310964535290422e-15 3.5412760300646769e-15
16 0.10000000000000001 4.442882938158359 5.0643778159614227e-15 5.1352166894005719e-15
24 0.15000000000000002 4.4428829381583581 6.3840874469583808e-15 6.437614239023982e-15
32 0.20000000000000001 4.4428829381583625 7.5288519695576262e-15 7.5686924339380109e-15
40 0.25 4.4428829381583608 8.4541327845420042e-15 8.3923455462112778e-15
48 0.30000000000000004 4.4428829381583617 9.3460584879118936e-15 9.2796791409738333e-15
56 0.35000000000000003 4.4428829381583617 1.0120642381079272e-14 9.9436892493441582e-15
64 0.40000000000000002 4.442882938158359 1.0924810017585623e-14 1.0906969341661149e-14
72 0.45000000000000001 4.4428829381583599 1.1898034560887196e-14 1.1755463037850848e-14
80 0.5 4.4428829381583617 1.2612347232441725e-14 1.2420063624072258e-14
88 0.55000000000000004 4.442882938158359 1.3444325356231444e-14 1.329628417830246e-14
96 0.60000000000000009 4.4428829381583581 1.4031787907556399e-14 1.3866192804404771e-14
104 0.65000000000000002 4.4428829381583608 1.4916601237233608e-14 1.4893673550722328e-14
112 0.70000000000000007 4.442882938158359 1.5644425725801594e-14 1.5695754670930084e-14
120 0.75 4.4428829381583617 1.6467139777452414e-14 1.6273072711452426e-14
128 0.80000000000000004 4.4428829381583599 1.7407666861927227e-14 1.7188759702047488e-14
136 0.85000000000000009 4.4428829381583608 1.7680806178326694e-14 1.7794278353809678e-14
144 0.90000000000000002 4.4428829381583581 1.8461409484898192e-14 1.8742700121834617e-14
152 0.95000000000000007 4.4428829381583625 1.9071925413471856e-14 1.8980861677232977e-14
160 1 4.442882938158359 1.9570197143104649e-14 1.9583268112279862e-14
