# Scalar ASCII output created by CarpetIOScalar
# created on nid25594 by miller1 on Mar 13 2016 at 10:07:38-0500
# parameter filename: "/scratch/sciteam/miller1/simulations/trunc_rho_bssn_dg4_gauge_wave_rho_16/output-0000/gauge_wave.par"
# Build ID: build-dgfe2-h2ologin1.ncsa.illinois.edu-miller1-2016.02.08-01.00.23-31758
# Simulation ID: run-gauge_wave-nid25594-miller1-2016.03.13-15.07.36-404
# Run ID: run-gauge_wave-nid25594-miller1-2016.03.13-15.07.36-404
#
# ADMBASE::gxx (admbase-metric)
# 1:iteration 2:time 3:data
# data columns: 3:gxx 4:gxy 5:gxz 6:gyy 7:gyz 8:gzz
0 0 0.99 0 0 1 0 1
800 0.25 0.989999998441196 -2.30759076011884e-14 -2.16884963393714e-14 0.999999999932805 -2.55573749198204e-14 0.999999999932805
1600 0.5 0.98999999998581 -3.74189624066534e-14 -4.51740146463515e-14 0.999999999981131 -3.26243082427809e-14 0.999999999981121
2400 0.75 0.989999998654322 -4.55909356200066e-14 -4.03704916757395e-14 0.999999999932852 -3.05301597714977e-14 0.999999999932839
3200 1 0.989999999961672 -5.68578100567297e-14 -4.81145450511496e-14 0.999999999999135 -4.19625188608856e-14 0.999999999999143
4000 1.25 0.989999998354297 -7.05083598811928e-14 -5.60411506412473e-14 0.999999999932811 -5.13560472038434e-14 0.999999999932806
4800 1.5 0.989999999974083 -7.42702693768409e-14 -6.5664125422581e-14 0.999999999981281 -7.16561486411585e-14 0.999999999981274
5600 1.75 0.989999998651122 -7.29906253681941e-14 -5.92645312951751e-14 0.999999999933131 -7.19155950358143e-14 0.99999999993312
6400 2 0.989999999986537 -7.40044276857373e-14 -5.99259600749879e-14 0.999999999998013 -6.77381776756337e-14 0.999999999998022
7200 2.25 0.989999998359152 -6.31047003712696e-14 -7.54016700579624e-14 0.9999999999328 -8.0974218968057e-14 0.999999999932798
8000 2.5 0.989999999987867 -8.09621854200641e-14 -7.76281702258185e-14 0.999999999981487 -9.82616431011762e-14 0.999999999981496
8800 2.75 0.989999998617731 -7.25321305286978e-14 -8.13134755062317e-14 0.999999999933597 -9.9459015428158e-14 0.999999999933595
9600 3 0.989999999986397 -1.10188601834793e-13 -8.2870792929255e-14 0.999999999996963 -9.06495750568808e-14 0.999999999996935
10400 3.25 0.989999998501182 -1.03386245269737e-13 -1.05476097359922e-13 0.99999999993279 -8.80181458233953e-14 0.999999999932788
11200 3.5 0.989999999959303 -1.13238505103715e-13 -9.68794654440425e-14 0.999999999981789 -1.13498799805287e-13 0.99999999998179
12000 3.75 0.989999998376139 -1.09788901082194e-13 -1.05741025267101e-13 0.999999999934328 -9.13334857975504e-14 0.999999999934308
12800 4 0.98999999998714 -1.05665918065498e-13 -1.07468794018734e-13 0.999999999996066 -9.5655501503618e-14 0.999999999996073
13600 4.25 0.989999998742065 -1.34736373642344e-13 -9.53840506775597e-14 0.999999999932772 -1.07528378832888e-13 0.999999999932796
14400 4.5 0.989999999990197 -1.20971551611974e-13 -9.65451083743639e-14 0.999999999982011 -1.05823270328573e-13 0.999999999982004
15200 4.75 0.989999998236529 -1.26782674159482e-13 -1.07716347185651e-13 0.999999999935075 -1.07705334422225e-13 0.99999999993507
16000 5 0.989999999989862 -1.39371599359903e-13 -1.05205877565254e-13 0.999999999995544 -1.05624316820379e-13 0.999999999995535
