# Scalar ASCII output created by CarpetIOScalar
# created on nid25594 by miller1 on Mar 13 2016 at 10:07:38-0500
# parameter filename: "/scratch/sciteam/miller1/simulations/trunc_rho_bssn_dg4_gauge_wave_rho_16/output-0000/gauge_wave.par"
# Build ID: build-dgfe2-h2ologin1.ncsa.illinois.edu-miller1-2016.02.08-01.00.23-31758
# Simulation ID: run-gauge_wave-nid25594-miller1-2016.03.13-15.07.36-404
# Run ID: run-gauge_wave-nid25594-miller1-2016.03.13-15.07.36-404
#
# GAUGEWAVE::kExact11 (gaugewave-curv_exact)
# 1:iteration 2:time 3:data
# data columns: 3:kExact11 4:kExact12 5:kExact13 6:kExact22 7:kExact23 8:kExact33
0 0 -0.0314159265358979 0 0 0 0 0
800 0.25 -0.0314159265358979 0 0 0 0 0
1600 0.5 -0.0314159265358979 0 0 0 0 0
2400 0.75 -0.0314159265358979 0 0 0 0 0
3200 1 -0.0314159265358979 0 0 0 0 0
4000 1.25 -0.0314159265358979 0 0 0 0 0
4800 1.5 -0.0314159265358979 0 0 0 0 0
5600 1.75 -0.0314159265358979 0 0 0 0 0
6400 2 -0.0314159265358979 0 0 0 0 0
7200 2.25 -0.0314159265358979 0 0 0 0 0
8000 2.5 -0.0314159265358979 0 0 0 0 0
8800 2.75 -0.0314159265358979 0 0 0 0 0
9600 3 -0.0314159265358979 0 0 0 0 0
10400 3.25 -0.0314159265358979 0 0 0 0 0
11200 3.5 -0.0314159265358979 0 0 0 0 0
12000 3.75 -0.0314159265358979 0 0 0 0 0
12800 4 -0.0314159265358979 0 0 0 0 0
13600 4.25 -0.0314159265358979 0 0 0 0 0
14400 4.5 -0.0314159265358979 0 0 0 0 0
15200 4.75 -0.0314159265358979 0 0 0 0 0
16000 5 -0.0314159265358979 0 0 0 0 0
