# Scalar ASCII output created by CarpetIOScalar
# created on oort1 by jmiller on Mar 18 2016 at 16:47:12-0400
# parameter filename: "/home/jmiller/simulations/wavetoy_so_dg4_sinex_rho_64/output-0000/wavetoy_so_dg4_sinex.par"
# Build ID: build-dgfe2-oort1-jmiller-2016.03.04-22.00.04-20032
# Simulation ID: run-wavetoy_so_dg4_sinex-oort1-jmiller-2016.03.18-20.47.09-22819
# Run ID: run-wavetoy_so_dg4_sinex-oort1-jmiller-2016.03.18-20.47.09-22819
#
# ML_WAVETOY_DG4::u (ml_wavetoy_dg4-wt_u)
# 1:iteration 2:time 3:data
# data columns: 3:u
0 0 0.70710678118656078
64 0.050000000000000003 0.70710678118656234
128 0.10000000000000001 0.70710678118659565
192 0.15000000000000002 0.70710678118670189
256 0.20000000000000001 0.70710678118688264
320 0.25 0.70710678118700221
384 0.30000000000000004 0.70710678118675707
448 0.35000000000000003 0.70710678118571024
512 0.40000000000000002 0.70710678118340553
576 0.45000000000000001 0.70710678117952541
640 0.5 0.70710678117405257
704 0.55000000000000004 0.70710678116738135
768 0.60000000000000009 0.70710678116030534
832 0.65000000000000002 0.70710678115391601
896 0.70000000000000007 0.70710678114938008
960 0.75 0.70710678114770398
1024 0.80000000000000004 0.70710678114951053
1088 0.85000000000000009 0.70710678115491432
1152 0.90000000000000002 0.70710678116350556
1216 0.95000000000000007 0.70710678117443337
1280 1 0.70710678118657944
