# Scalar ASCII output created by CarpetIOScalar
# created on oort1 by jmiller on Mar 18 2016 at 16:47:12-0400
# parameter filename: "/home/jmiller/simulations/wavetoy_so_dg4_sinex_rho_64/output-0000/wavetoy_so_dg4_sinex.par"
# Build ID: build-dgfe2-oort1-jmiller-2016.03.04-22.00.04-20032
# Simulation ID: run-wavetoy_so_dg4_sinex-oort1-jmiller-2016.03.18-20.47.09-22819
# Run ID: run-wavetoy_so_dg4_sinex-oort1-jmiller-2016.03.18-20.47.09-22819
#
# ML_WAVETOY_DG4::urhs (ml_wavetoy_dg4-wt_urhs)
# 1:iteration 2:time 3:data
# data columns: 3:urhs
0 0 4.4428829381584327
64 0.050000000000000003 4.4428829381584016
128 0.10000000000000001 4.4428829381577364
192 0.15000000000000002 4.4428829381551109
256 0.20000000000000001 4.4428829381490722
320 0.25 4.4428829381388049
384 0.30000000000000004 4.4428829381247796
448 0.35000000000000003 4.4428829381089061
512 0.40000000000000002 4.4428829380941384
576 0.45000000000000001 4.4428829380836374
640 0.5 4.4428829380798316
704 0.55000000000000004 4.442882938083633
768 0.60000000000000009 4.4428829380941295
832 0.65000000000000002 4.4428829381089061
896 0.70000000000000007 4.4428829381247725
960 0.75 4.4428829381387986
1024 0.80000000000000004 4.442882938149074
1088 0.85000000000000009 4.4428829381551145
1152 0.90000000000000002 4.4428829381577337
1216 0.95000000000000007 4.4428829381583981
1280 1 4.442882938158446
