# Scalar ASCII output created by CarpetIOScalar
# created on compute4 by jmiller on Dec 15 2015 at 23:35:25-0500
# parameter filename: "/xfs1/jmiller/simulations/trunc_rho_bssn_dg4_robust_stability_rho_4/output-0000/robust_stability.par"
# Build ID: build-dgfe2-compute-jmiller-2015.12.16-04.26.30-10022
# Simulation ID: run-robust_stability-compute4-jmiller-2015.12.16-04.35.22-11023
# Run ID: run-robust_stability-compute4-jmiller-2015.12.16-04.35.22-11023
#
# ADMBASE::betax (admbase-shift)
# 1:iteration 2:time 3:data
# data columns: 3:betax 4:betay 5:betaz
0 0 1.82498548675794e-12 1.78329409245705e-12 1.80121894606167e-12
50 0.125 1.73146227968796e-12 1.6898063345607e-12 1.70949285206521e-12
100 0.25 1.67764550226649e-12 1.65498828757006e-12 1.6614756340948e-12
150 0.375 1.68249171516242e-12 1.64372149606673e-12 1.67100479316645e-12
200 0.5 1.61390884164592e-12 1.61509969779404e-12 1.64908988523369e-12
250 0.625 1.60657789983088e-12 1.58235934526184e-12 1.60757580424368e-12
300 0.75 1.59697269424212e-12 1.54129589462765e-12 1.6111059299603e-12
350 0.875 1.56383916409619e-12 1.54626550096847e-12 1.59244605878327e-12
400 1 1.56170518881916e-12 1.53452342838538e-12 1.58173949491889e-12
450 1.125 1.56990616192723e-12 1.52300329837069e-12 1.6074649530082e-12
500 1.25 1.52815871602768e-12 1.51854244517965e-12 1.54445697456897e-12
550 1.375 1.54571789681721e-12 1.51076342035495e-12 1.54228744947928e-12
600 1.5 1.60009798155389e-12 1.52433415001375e-12 1.59424835314679e-12
650 1.625 1.50357181514073e-12 1.48073618597163e-12 1.53685634938757e-12
700 1.75 1.5276432574015e-12 1.47507149967461e-12 1.52087065539004e-12
750 1.875 1.58325139578668e-12 1.50156047173141e-12 1.53871538776855e-12
800 2 1.46442839051412e-12 1.43875454208194e-12 1.56719052154754e-12
850 2.125 1.51699154316413e-12 1.46801496444026e-12 1.50240868027861e-12
900 2.25 1.58669353483524e-12 1.4869518265892e-12 1.55003396000858e-12
950 2.375 1.47751884228034e-12 1.44042946766488e-12 1.53358537296807e-12
1000 2.5 1.49140742933765e-12 1.45576382348197e-12 1.47949927238138e-12
1050 2.625 1.58614101680344e-12 1.49410574133263e-12 1.55277740064391e-12
1100 2.75 1.47135627715201e-12 1.44033685799386e-12 1.49824192327755e-12
1150 2.875 1.49981027069815e-12 1.46803977470579e-12 1.53417853404768e-12
1200 3 1.56634761380582e-12 1.47343453311786e-12 1.46212014410805e-12
1250 3.125 1.4522178952654e-12 1.42966008096328e-12 1.52643496720135e-12
1300 3.25 1.46975132332752e-12 1.41794907527877e-12 1.46065405096215e-12
1350 3.375 1.57152736126944e-12 1.47938982382694e-12 1.52599295932836e-12
1400 3.5 1.45610100799685e-12 1.42218732855904e-12 1.48036097539958e-12
1450 3.625 1.48245699882691e-12 1.43854564626084e-12 1.49458407375212e-12
1500 3.75 1.55820771539807e-12 1.47027454492284e-12 1.4914362497476e-12
1550 3.875 1.47569374983301e-12 1.43108158266528e-12 1.45330959062014e-12
1600 4 1.46358002890392e-12 1.4150086615196e-12 1.49009401576101e-12
1650 4.125 1.55086778839582e-12 1.45817550802062e-12 1.48119687916578e-12
1700 4.25 1.46039529542602e-12 1.4262491618484e-12 1.46628166616067e-12
1750 4.375 1.45623945205838e-12 1.41512481704908e-12 1.45732550903189e-12
1800 4.5 1.55671420885211e-12 1.46031049684628e-12 1.52260824498646e-12
1850 4.625 1.4824079362345e-12 1.43544185506216e-12 1.44668958789809e-12
1900 4.75 1.43605939184916e-12 1.41317894925523e-12 1.4536849237542e-12
1950 4.875 1.53214530089825e-12 1.45582287270772e-12 1.4984533462281e-12
2000 5 1.47851812677963e-12 1.42107814185628e-12 1.45485120714247e-12
2050 5.125 1.43924517498633e-12 1.41799519370368e-12 1.45869200704063e-12
2100 5.25 1.52727327777628e-12 1.44822145776365e-12 1.4907993928794e-12
2150 5.375 1.48448064729757e-12 1.43034540643925e-12 1.48447700253324e-12
2200 5.5 1.41805540938365e-12 1.4026684189746e-12 1.39610953404168e-12
2250 5.625 1.50788946541235e-12 1.44057432587003e-12 1.48324237270631e-12
2300 5.75 1.48218403451099e-12 1.43329390352398e-12 1.47453730361983e-12
2350 5.875 1.42535791828708e-12 1.40080944405027e-12 1.44403075091872e-12
2400 6 1.51713271493827e-12 1.44600837326805e-12 1.45235937535552e-12
2450 6.125 1.49059436095374e-12 1.4272761045464e-12 1.48607120922348e-12
2500 6.25 1.4282759874091e-12 1.40564209627571e-12 1.44693074459696e-12
2550 6.375 1.47638725391768e-12 1.42019449794048e-12 1.44082427229833e-12
2600 6.5 1.49596580991933e-12 1.43568413043594e-12 1.48928145995746e-12
2650 6.625 1.42464233724745e-12 1.40405556730474e-12 1.43847916051675e-12
2700 6.75 1.485367005399e-12 1.42799771256136e-12 1.47638621101768e-12
2750 6.875 1.50437396390525e-12 1.43638430550994e-12 1.47162639314213e-12
2800 7 1.43856413805227e-12 1.40962272342539e-12 1.49172252540386e-12
2850 7.125 1.47172063343042e-12 1.42203327834995e-12 1.42816659996914e-12
2900 7.25 1.50290753936571e-12 1.45422657041668e-12 1.48768987411754e-12
2950 7.375 1.4329670897885e-12 1.40252484441615e-12 1.45699049306585e-12
3000 7.5 1.46806812984406e-12 1.4243706019218e-12 1.47683762736418e-12
3050 7.625 1.53327489230159e-12 1.43934626299512e-12 1.47235828787119e-12
3100 7.75 1.43769396028381e-12 1.41979180331726e-12 1.46389319626604e-12
3150 7.875 1.45479062595913e-12 1.4125359086074e-12 1.47024876464767e-12
3200 8 1.52443598916887e-12 1.44862530837058e-12 1.46386198503528e-12
3250 8.125 1.45964868289553e-12 1.41399391777251e-12 1.48583659999974e-12
3300 8.25 1.44981610415747e-12 1.40969604844655e-12 1.45279215057691e-12
3350 8.375 1.51334407000428e-12 1.43753080560465e-12 1.47094816343761e-12
3400 8.5 1.45957026984159e-12 1.4184477682475e-12 1.45280001346846e-12
3450 8.625 1.43488958426224e-12 1.40681969389947e-12 1.47858573376151e-12
3500 8.75 1.51989305931685e-12 1.45289559959936e-12 1.46990782829793e-12
3550 8.875 1.45247041973944e-12 1.41054624950319e-12 1.43040333426676e-12
3600 9 1.43623608661325e-12 1.41528233898843e-12 1.48472453076354e-12
3650 9.125 1.51819612608905e-12 1.43910611226695e-12 1.47540865782624e-12
3700 9.25 1.48858776161832e-12 1.43276560524679e-12 1.47279134653399e-12
3750 9.375 1.41770081261634e-12 1.39902860610159e-12 1.42553133328957e-12
3800 9.5 1.50095160294212e-12 1.4355473162771e-12 1.50069083199192e-12
3850 9.625 1.48702174099348e-12 1.43467584815317e-12 1.42979055852513e-12
3900 9.75 1.43371618323424e-12 1.40262961214804e-12 1.46523553610681e-12
3950 9.875 1.51789486136596e-12 1.44436197423713e-12 1.48358294699339e-12
4000 10 1.49837701342745e-12 1.43070671208995e-12 1.48260160386625e-12
4050 10.125 1.41604298931723e-12 1.39572075836481e-12 1.41175091725999e-12
4100 10.25 1.49494569048041e-12 1.44063290149417e-12 1.49188453294594e-12
4150 10.375 1.50384471478043e-12 1.44245357396787e-12 1.47855865939373e-12
4200 10.5 1.42366157509037e-12 1.39919795356826e-12 1.4291840365339e-12
4250 10.625 1.48977038272917e-12 1.42208775568167e-12 1.47470326485281e-12
4300 10.75 1.52237041937455e-12 1.4547920473854e-12 1.49976486329286e-12
4350 10.875 1.4304085029997e-12 1.39785375131954e-12 1.45548668339536e-12
4400 11 1.47340297868998e-12 1.4362716301613e-12 1.44908563425157e-12
4450 11.125 1.51742161336746e-12 1.44782141025186e-12 1.51086934683373e-12
4500 11.25 1.4242120733958e-12 1.39766760094664e-12 1.43346747260898e-12
4550 11.375 1.46677350421255e-12 1.41716634152158e-12 1.45344342712823e-12
4600 11.5 1.53036179083695e-12 1.45254241380551e-12 1.48545422816453e-12
4650 11.625 1.44774681523131e-12 1.4070439798465e-12 1.47125448370996e-12
4700 11.75 1.4577799581291e-12 1.41051503509717e-12 1.44409146654958e-12
4750 11.875 1.51441350067126e-12 1.44800794079285e-12 1.45729768806268e-12
4800 12 1.44209149817154e-12 1.4135947448153e-12 1.46961930236032e-12
4850 12.125 1.44450758795533e-12 1.40441834229369e-12 1.41859054618367e-12
4900 12.25 1.54203377166267e-12 1.4583001341708e-12 1.50958307582681e-12
4950 12.375 1.43222796256747e-12 1.40457307894045e-12 1.44285479072479e-12
5000 12.5 1.43980189484313e-12 1.40623711851232e-12 1.45641298902333e-12
5050 12.625 1.51014420158168e-12 1.43519362222283e-12 1.44093369560196e-12
5100 12.75 1.46046708894255e-12 1.41923020835437e-12 1.48611906473794e-12
5150 12.875 1.43743060722924e-12 1.4087248930175e-12 1.45678017932839e-12
5200 13 1.52868589847474e-12 1.44992693296685e-12 1.45570177197886e-12
5250 13.125 1.47073791512252e-12 1.42634664262181e-12 1.4747424168983e-12
5300 13.25 1.42702374394646e-12 1.39269066981131e-12 1.4416617025755e-12
5350 13.375 1.52287925688383e-12 1.45170050434116e-12 1.49207621650337e-12
5400 13.5 1.48181557253385e-12 1.42685552928282e-12 1.43874666694265e-12
5450 13.625 1.4361429973067e-12 1.41634754212829e-12 1.47299359795438e-12
5500 13.75 1.51087953275983e-12 1.43480483772545e-12 1.45415063999931e-12
5550 13.875 1.49567656683469e-12 1.43178457808243e-12 1.47487954108125e-12
5600 14 1.42842930920017e-12 1.40201359673909e-12 1.4581012714378e-12
5650 14.125 1.49258323223276e-12 1.43070286169622e-12 1.4689640294356e-12
5700 14.25 1.49398438633359e-12 1.42390616608776e-12 1.43899114031959e-12
5750 14.375 1.42657922517453e-12 1.41319670990087e-12 1.45223832457269e-12
5800 14.5 1.48869617755223e-12 1.42289092777975e-12 1.50049161966693e-12
5850 14.625 1.51466903762424e-12 1.45059111049431e-12 1.46709959675417e-12
5900 14.75 1.42237236346327e-12 1.38904831974569e-12 1.4348839828981e-12
5950 14.875 1.48398180040771e-12 1.43593330629034e-12 1.47922270272389e-12
6000 15 1.49293546248138e-12 1.41599033354171e-12 1.47085199098314e-12
6050 15.125 1.433735646962e-12 1.4109217485673e-12 1.42643074543592e-12
6100 15.25 1.48835126718591e-12 1.4264798447003e-12 1.4783798499223e-12
6150 15.375 1.53323688927344e-12 1.45142420110728e-12 1.49579829568699e-12
6200 15.5 1.42506026213696e-12 1.4037635605582e-12 1.43796555453436e-12
6250 15.625 1.45758861336636e-12 1.41080679477034e-12 1.45402190994227e-12
6300 15.75 1.52854248141529e-12 1.44825521750438e-12 1.48380681566589e-12
6350 15.875 1.43596294960976e-12 1.41031818915729e-12 1.44421694637952e-12
6400 16 1.46210850716496e-12 1.42220853078189e-12 1.4324394438475e-12
6450 16.125 1.51502322271234e-12 1.45109202656196e-12 1.51244315211895e-12
6500 16.25 1.45432014368724e-12 1.41295111187891e-12 1.44954727027733e-12
6550 16.375 1.45321040774018e-12 1.4173430223686e-12 1.4700586980573e-12
6600 16.5 1.52099380564699e-12 1.43837568399834e-12 1.47316968529942e-12
6650 16.625 1.44521494688958e-12 1.42682875998942e-12 1.48622661665089e-12
6700 16.75 1.4388645262202e-12 1.41024978251021e-12 1.42587374102923e-12
6750 16.875 1.52778768526282e-12 1.44761939559726e-12 1.49692474008641e-12
6800 17 1.4749208848266e-12 1.42157366174566e-12 1.47875987522769e-12
6850 17.125 1.43877238258306e-12 1.41470299022622e-12 1.45635021925626e-12
6900 17.25 1.51210273110849e-12 1.43851741255556e-12 1.47419995958713e-12
6950 17.375 1.4844206914375e-12 1.43492907980736e-12 1.4713021516039e-12
7000 17.5 1.43012868084792e-12 1.40792738089407e-12 1.45734847721471e-12
7050 17.625 1.51680955062532e-12 1.45007035921193e-12 1.46034921979818e-12
7100 17.75 1.47833826511727e-12 1.42442505826968e-12 1.48454036105572e-12
7150 17.875 1.4216328792878e-12 1.41423223062657e-12 1.44525871672974e-12
7200 18 1.50545344077399e-12 1.43029366475273e-12 1.47056856820961e-12
7250 18.125 1.49146369646287e-12 1.43391206674159e-12 1.47924610045268e-12
7300 18.25 1.40227920561033e-12 1.39520776436764e-12 1.45491277060718e-12
7350 18.375 1.5078183771337e-12 1.44496725340032e-12 1.46505633187634e-12
7400 18.5 1.50016423230469e-12 1.43573498851487e-12 1.45962839783393e-12
7450 18.625 1.41960908531917e-12 1.40389733981656e-12 1.47762075190812e-12
7500 18.75 1.47881758010985e-12 1.42014959154993e-12 1.45695313605311e-12
7550 18.875 1.50888691391085e-12 1.43595843347622e-12 1.46744777485167e-12
7600 19 1.42301961921263e-12 1.3938433139209e-12 1.4330685913633e-12
7650 19.125 1.48826613826588e-12 1.42997738341052e-12 1.48989829071769e-12
7700 19.25 1.51662650024949e-12 1.44640451242132e-12 1.46022830640484e-12
7750 19.375 1.43764369991215e-12 1.41445515208711e-12 1.45345833027246e-12
7800 19.5 1.47064468682621e-12 1.4197447445356e-12 1.46757035423303e-12
7850 19.625 1.50817716191203e-12 1.44185736523057e-12 1.46887154785166e-12
7900 19.75 1.43832794139827e-12 1.40754967838449e-12 1.44490455561101e-12
7950 19.875 1.4557750790354e-12 1.42540122088916e-12 1.47861443553717e-12
8000 20 1.53827955251882e-12 1.45835290664906e-12 1.49980335767768e-12
8050 20.125 1.44389233470861e-12 1.41647870901887e-12 1.41876685728951e-12
8100 20.25 1.44383069820796e-12 1.41767446364764e-12 1.48187643321415e-12
8150 20.375 1.51475945162774e-12 1.44340391663115e-12 1.49098374212487e-12
8200 20.5 1.45629762191289e-12 1.41647093671973e-12 1.45777365568517e-12
8250 20.625 1.43813841437383e-12 1.3918948988604e-12 1.4144122638766e-12
8300 20.75 1.5289505842538e-12 1.44814570546114e-12 1.51120964373378e-12
8350 20.875 1.46591236014206e-12 1.42433088221268e-12 1.45826266423587e-12
8400 21 1.43222220872952e-12 1.40692875508249e-12 1.43933791878402e-12
8450 21.125 1.52419090280674e-12 1.43580756996472e-12 1.48393247201151e-12
8500 21.25 1.46308432257739e-12 1.42177738990044e-12 1.46012948522423e-12
8550 21.375 1.42909350798181e-12 1.39869383104884e-12 1.43545132991251e-12
8600 21.5 1.52181547011372e-12 1.4415692490858e-12 1.47619694491882e-12
8650 21.625 1.4878559924816e-12 1.434120266632e-12 1.49062737836093e-12
8700 21.75 1.42384359949954e-12 1.41165594980349e-12 1.42567093703088e-12
8750 21.875 1.4909267934262e-12 1.42556494512203e-12 1.47295501008401e-12
8800 22 1.49296441159688e-12 1.44131295236e-12 1.48787058292095e-12
8850 22.125 1.41999215232074e-12 1.38774810614326e-12 1.43679708972665e-12
8900 22.25 1.51135633458112e-12 1.43950690983935e-12 1.4692316730618e-12
8950 22.375 1.49794836475378e-12 1.4326300781607e-12 1.47579756056935e-12
9000 22.5 1.42256322850266e-12 1.41812472580174e-12 1.46235130125898e-12
9050 22.625 1.48956025870406e-12 1.41935801144505e-12 1.44249207683459e-12
9100 22.75 1.5183316555456e-12 1.44371291183848e-12 1.50117762726528e-12
9150 22.875 1.43207042844981e-12 1.40502526271856e-12 1.45069127493953e-12
9200 23 1.4923553027972e-12 1.43379039989907e-12 1.4687546869192e-12
9250 23.125 1.52263069696336e-12 1.44837357679062e-12 1.4593607517882e-12
9300 23.25 1.42336827096013e-12 1.4090328690177e-12 1.47193553865498e-12
9350 23.375 1.46288971945894e-12 1.4200110671807e-12 1.43516329933031e-12
9400 23.5 1.52402735370284e-12 1.45303932486768e-12 1.49191899357737e-12
9450 23.625 1.42987123536027e-12 1.40179366529317e-12 1.45502593815833e-12
9500 23.75 1.467262638492e-12 1.42298602075878e-12 1.47003406918155e-12
9550 23.875 1.51449715920188e-12 1.43992371560068e-12 1.45488737914025e-12
9600 24 1.44324176806552e-12 1.41871042306585e-12 1.4831480688878e-12
9650 24.125 1.44599625869714e-12 1.41554102164191e-12 1.46065809986679e-12
9700 24.25 1.52210306235704e-12 1.44277937645499e-12 1.44990471775075e-12
9750 24.375 1.43989380890214e-12 1.39957629622895e-12 1.44543796580793e-12
9800 24.5 1.44054632804827e-12 1.39908122026347e-12 1.46434175522743e-12
9850 24.625 1.5336619541012e-12 1.44664473738287e-12 1.48753633185344e-12
9900 24.75 1.45532319337483e-12 1.41894049916627e-12 1.42325689342187e-12
9950 24.875 1.43296472128581e-12 1.40804458255035e-12 1.45744976411612e-12
10000 25 1.51345076948774e-12 1.44523220699007e-12 1.47593264873422e-12
10050 25.125 1.46334259100608e-12 1.40614977487546e-12 1.44358837633524e-12
10100 25.25 1.4411536918262e-12 1.40080567602522e-12 1.45591525781767e-12
10150 25.375 1.51615709755094e-12 1.42453061190324e-12 1.47784179075904e-12
10200 25.5 1.47616254578047e-12 1.43705274117879e-12 1.46979775359496e-12
10250 25.625 1.41673507802783e-12 1.39876676451791e-12 1.42696059785624e-12
10300 25.75 1.51877952287074e-12 1.45256675309117e-12 1.51261330325182e-12
10350 25.875 1.48038736350481e-12 1.42035226266678e-12 1.44658782799391e-12
10400 26 1.42095606039889e-12 1.40135841985759e-12 1.43599679106508e-12
10450 26.125 1.50675928233688e-12 1.440876107556e-12 1.48160753612836e-12
10500 26.25 1.49822151607532e-12 1.43040771086975e-12 1.48909473174845e-12
10550 26.375 1.43061202734162e-12 1.40798822320127e-12 1.434000536919e-12
10600 26.5 1.4906164396069e-12 1.43674280759321e-12 1.45253350023323e-12
10650 26.625 1.50642324509947e-12 1.44001190570655e-12 1.49302688243232e-12
10700 26.75 1.42134912862691e-12 1.398738728068e-12 1.42570671875859e-12
10750 26.875 1.49273665874233e-12 1.42766224293247e-12 1.47786452915572e-12
10800 27 1.51141839750936e-12 1.4351059407502e-12 1.48005186271968e-12
10850 27.125 1.42544310947378e-12 1.40871755345576e-12 1.45413591984268e-12
10900 27.25 1.48300933735364e-12 1.43587318119953e-12 1.44729201057036e-12
10950 27.375 1.50725361670579e-12 1.43656763686057e-12 1.49401863345014e-12
11000 27.5 1.43254501641098e-12 1.40456918395449e-12 1.44543556976564e-12
11050 27.625 1.46835485362523e-12 1.42387879527354e-12 1.4566578105113e-12
11100 27.75 1.52575564505861e-12 1.44228319804688e-12 1.48514959850952e-12
11150 27.875 1.43858846276034e-12 1.41013864169334e-12 1.47469219439782e-12
11200 28 1.44808465121739e-12 1.41391657590049e-12 1.44105024726634e-12
11250 28.125 1.52880744625476e-12 1.45091044234095e-12 1.47573241976784e-12
11300 28.25 1.43523773399758e-12 1.39227778140448e-12 1.45770941508958e-12
11350 28.375 1.46458724106057e-12 1.42681709139223e-12 1.44888779314327e-12
11400 28.5 1.52902454555465e-12 1.43801365162499e-12 1.47531516940005e-12
11450 28.625 1.46539481684428e-12 1.42411772650066e-12 1.47907935023497e-12
11500 28.75 1.42941725718411e-12 1.40481115623128e-12 1.45778308251782e-12
11550 28.875 1.53071977096841e-12 1.45639344881014e-12 1.45954015169191e-12
11600 29 1.44982288628141e-12 1.40384376346292e-12 1.46629991469456e-12
11650 29.125 1.44217736517224e-12 1.41618744475281e-12 1.47539827718613e-12
11700 29.25 1.52025013731023e-12 1.44341695886154e-12 1.46460275981451e-12
11750 29.375 1.48062280962516e-12 1.42858970638003e-12 1.47953331404205e-12
11800 29.5 1.42639980928499e-12 1.40278382703258e-12 1.45932247506579e-12
11850 29.625 1.51086038724455e-12 1.45273792117576e-12 1.49224429305605e-12
11900 29.75 1.47901569670105e-12 1.42433916046843e-12 1.43125288626846e-12
11950 29.875 1.4353627685371e-12 1.40760414454961e-12 1.48364110394194e-12
12000 30 1.51088604517116e-12 1.44179608409887e-12 1.46992835402906e-12
12050 30.125 1.49911793899006e-12 1.43636164170338e-12 1.47924144407096e-12
12100 30.25 1.42929257671601e-12 1.40911165857778e-12 1.43066798524556e-12
12150 30.375 1.5008107321143e-12 1.43480770480536e-12 1.50443158057848e-12
12200 30.5 1.49847185574737e-12 1.44320761138129e-12 1.45417409094231e-12
12250 30.625 1.41197250729274e-12 1.39509820635206e-12 1.42829852014928e-12
12300 30.75 1.48890249742885e-12 1.42360820659237e-12 1.46664783018056e-12
12350 30.875 1.51886842077929e-12 1.43712228943653e-12 1.47921028815913e-12
12400 31 1.41567528221996e-12 1.39972280597794e-12 1.44466472431054e-12
12450 31.125 1.47763746946019e-12 1.43087759319856e-12 1.46995445793339e-12
12500 31.25 1.50632188019244e-12 1.43804544486956e-12 1.48950585693829e-12
12550 31.375 1.43087923023731e-12 1.41630360884694e-12 1.42761860091673e-12
12600 31.5 1.47708778879999e-12 1.41215968821438e-12 1.46684969375579e-12
12650 31.625 1.52429529033407e-12 1.44073098526209e-12 1.50094744680199e-12
12700 31.75 1.43314285364881e-12 1.40162843763778e-12 1.45222778984997e-12
12750 31.875 1.46523406972928e-12 1.42085115788571e-12 1.44116070561719e-12
12800 32 1.52016434823587e-12 1.44542162515239e-12 1.48684319315699e-12
12850 32.125 1.44543661672102e-12 1.41704595652645e-12 1.46741067018411e-12
12900 32.25 1.45940240582222e-12 1.42499716065069e-12 1.44112631282657e-12
12950 32.375 1.53029713599154e-12 1.43889606057318e-12 1.49888778381291e-12
13000 32.5 1.45589723727416e-12 1.41432869323799e-12 1.45139618763708e-12
13050 32.625 1.45197530855448e-12 1.42685112368778e-12 1.46776271549936e-12
13100 32.75 1.50759365881371e-12 1.43827725585837e-12 1.47131884350913e-12
13150 32.875 1.46521640805791e-12 1.41658159039322e-12 1.48432971512249e-12
13200 33 1.43642629421409e-12 1.41173011286724e-12 1.41722176344447e-12
13250 33.125 1.52779790442487e-12 1.44934695704419e-12 1.48452503008075e-12
13300 33.25 1.46703086598017e-12 1.4204917733329e-12 1.48402384111203e-12
13350 33.375 1.43003126143929e-12 1.40276498249668e-12 1.45351485783114e-12
13400 33.5 1.52174814975344e-12 1.44412640014735e-12 1.46740165192555e-12
13450 33.625 1.4753620022947e-12 1.42269223205338e-12 1.45097268373037e-12
13500 33.75 1.42432657807761e-12 1.40290578752057e-12 1.46897469722566e-12
13550 33.875 1.5100133149131e-12 1.43496793801684e-12 1.43673181984808e-12
13600 34 1.50885269003739e-12 1.43965199634888e-12 1.4964698414424e-12
13650 34.125 1.42925947261837e-12 1.39819559617762e-12 1.45486716212288e-12
13700 34.25 1.50171616331192e-12 1.44513513693134e-12 1.47818456130185e-12
13750 34.375 1.48965974769109e-12 1.43230823692923e-12 1.44507377256453e-12
13800 34.5 1.42690384364618e-12 1.40035737213255e-12 1.47284930387209e-12
13850 34.625 1.5037836616572e-12 1.42470434052801e-12 1.46811184638243e-12
13900 34.75 1.49954067860328e-12 1.44060093706173e-12 1.44936366261452e-12
13950 34.875 1.41438439496469e-12 1.40233458427585e-12 1.46521457036208e-12
14000 35 1.49141220699884e-12 1.43688886052176e-12 1.48754418499066e-12
14050 35.125 1.50335030823262e-12 1.43226830752308e-12 1.46449149778948e-12
14100 35.25 1.43357676378588e-12 1.41226415581466e-12 1.43931832396944e-12
14150 35.375 1.47498541179028e-12 1.41182820265991e-12 1.48667651200123e-12
14200 35.5 1.52688053266316e-12 1.45277024447014e-12 1.47282146305192e-12
14250 35.625 1.43922827644302e-12 1.40253661596649e-12 1.44093660006288e-12
14300 35.75 1.48393948911699e-12 1.44065562575783e-12 1.49435070476011e-12
14350 35.875 1.5168452800974e-12 1.43650646812792e-12 1.4891896013505e-12
14400 36 1.43478057879246e-12 1.41115608948394e-12 1.4357355513711e-12
14450 36.125 1.466837251616e-12 1.41845543324317e-12 1.45722876966575e-12
14500 36.25 1.52828501963711e-12 1.45226544120425e-12 1.50865250545141e-12
14550 36.375 1.44733227995676e-12 1.41537533656165e-12 1.43667656621669e-12
14600 36.5 1.43720912470756e-12 1.41108866767396e-12 1.46649866038233e-12
14650 36.625 1.52589649989337e-12 1.44932473008823e-12 1.48143843699865e-12
14700 36.75 1.45316724259257e-12 1.41753356478077e-12 1.46301009637383e-12
14750 36.875 1.43326988703291e-12 1.40407107657923e-12 1.41536285610996e-12
14800 37 1.53058075297373e-12 1.45454804226384e-12 1.51000063481152e-12
14850 37.125 1.45029156697473e-12 1.40261194004755e-12 1.43435682539284e-12
14900 37.25 1.44047852702313e-12 1.41627422371242e-12 1.44819479123957e-12
14950 37.375 1.51371485262788e-12 1.4386240950254e-12 1.47601158032204e-12
15000 37.5 1.47281121143296e-12 1.42658516614003e-12 1.47768822020124e-12
15050 37.625 1.4294026404156e-12 1.39029791713411e-12 1.42821700025389e-12
15100 37.75 1.52931951799227e-12 1.45014322878627e-12 1.47205900355067e-12
15150 37.875 1.48251334173856e-12 1.43075740902937e-12 1.49125235834596e-12
15200 38 1.41773363069976e-12 1.388330283525e-12 1.42077248559321e-12
15250 38.125 1.51400959488643e-12 1.4439675700684e-12 1.49263138445094e-12
15300 38.25 1.48009668600296e-12 1.42224565057313e-12 1.47246307441959e-12
15350 38.375 1.42761123585514e-12 1.40391668458779e-12 1.44867232901551e-12
15400 38.5 1.49852689082822e-12 1.44109979879202e-12 1.45326334765417e-12
15450 38.625 1.50665503272929e-12 1.44737675190606e-12 1.49650234232125e-12
15500 38.75 1.4228249536333e-12 1.40186860050221e-12 1.46982104689975e-12
15550 38.875 1.4846813613369e-12 1.43455766988963e-12 1.4353827203244e-12
15600 39 1.51109876178833e-12 1.44396261437262e-12 1.48653007708069e-12
15650 39.125 1.41632891167681e-12 1.38191193500434e-12 1.43868067494877e-12
15700 39.25 1.49065666515946e-12 1.42842285246724e-12 1.4767909126619e-12
15750 39.375 1.51656443761541e-12 1.44811907291436e-12 1.44027451793637e-12
15800 39.5 1.42966051505479e-12 1.40156930995987e-12 1.47023540011353e-12
15850 39.625 1.47023322166465e-12 1.41967249640949e-12 1.45922446556958e-12
15900 39.75 1.53073662282862e-12 1.4504789931593e-12 1.47855648089324e-12
15950 39.875 1.43848090827321e-12 1.400787711326e-12 1.45570369606897e-12
16000 40 1.46243544331184e-12 1.4126193020694e-12 1.46533361208188e-12
16050 40.125 1.52013053691303e-12 1.44315739170707e-12 1.46368957031121e-12
16100 40.25 1.44078572000849e-12 1.41797425256423e-12 1.43888573850772e-12
16150 40.375 1.45334517864233e-12 1.41153224432962e-12 1.48881439521123e-12
16200 40.5 1.52156456373788e-12 1.45255835634956e-12 1.4685913768974e-12
16250 40.625 1.44282627480605e-12 1.41163841859902e-12 1.4480750892257e-12
16300 40.75 1.44837802752319e-12 1.40659250402218e-12 1.44032625046226e-12
16350 40.875 1.52656894279671e-12 1.44711723803329e-12 1.51050510130752e-12
16400 41 1.45747353874105e-12 1.41706881058448e-12 1.42260675671865e-12
16450 41.125 1.43860717855625e-12 1.41681401542789e-12 1.45996374763391e-12
16500 41.25 1.51970227882851e-12 1.43949374714972e-12 1.48644659096766e-12
16550 41.375 1.47786858146393e-12 1.43823432535262e-12 1.4766351984452e-12
16600 41.5 1.43443491356502e-12 1.40228133895535e-12 1.43986302564218e-12
16650 41.625 1.52974877358529e-12 1.45223265672268e-12 1.49836194825213e-12
16700 41.75 1.48743361311099e-12 1.42409358355162e-12 1.48373598953291e-12
16750 41.875 1.42901679060269e-12 1.41504179030264e-12 1.43396906758701e-12
16800 42 1.50102039241345e-12 1.43968061852494e-12 1.49815464091822e-12
16850 42.125 1.48740383191208e-12 1.43512019903923e-12 1.47433268939183e-12
16900 42.25 1.43067802296531e-12 1.40710700603871e-12 1.45476656424678e-12
16950 42.375 1.50356698656843e-12 1.44067989652279e-12 1.47155371514114e-12
17000 42.5 1.49554861345018e-12 1.43161899283053e-12 1.48567659091339e-12
17050 42.625 1.42314073900541e-12 1.41118297121615e-12 1.4322719366689e-12
17100 42.75 1.49903118476162e-12 1.43121727560288e-12 1.45964593424245e-12
17150 42.875 1.50628183282837e-12 1.44154333889718e-12 1.50765110927518e-12
17200 43 1.42019937327713e-12 1.38441888160005e-12 1.42238930410459e-12
17250 43.125 1.48478307697845e-12 1.43550919248046e-12 1.45501303483558e-12
17300 43.25 1.51036695621621e-12 1.42578548741645e-12 1.46502672648018e-12
17350 43.375 1.43974856602247e-12 1.41991819679184e-12 1.48579766893605e-12
17400 43.5 1.4704707316445e-12 1.41605860372261e-12 1.42011940119521e-12
17450 43.625 1.50875206995417e-12 1.44631030409986e-12 1.50006351115347e-12
17500 43.75 1.42111487251315e-12 1.40112496547349e-12 1.44588875427941e-12
17550 43.875 1.4848470328597e-12 1.42495384158126e-12 1.46645727491053e-12
17600 44 1.52381300712047e-12 1.44106246874464e-12 1.46895147123973e-12
17650 44.125 1.43758009919878e-12 1.41100148342619e-12 1.48086240456239e-12
17700 44.25 1.44723556500603e-12 1.4156008270014e-12 1.43907792981842e-12
17750 44.375 1.52155999928103e-12 1.4483599311645e-12 1.45825943204852e-12
17800 44.5 1.44471379490026e-12 1.41863948657556e-12 1.48870869362322e-12
17850 44.625 1.45275813363939e-12 1.41363799323748e-12 1.46643067819088e-12
17900 44.75 1.52506458601587e-12 1.43857037200606e-12 1.46431411534717e-12
17950 44.875 1.4554564445833e-12 1.42511194087719e-12 1.44296991716105e-12
18000 45 1.44797978324294e-12 1.42148471378787e-12 1.48794526437075e-12
18050 45.125 1.51583717036904e-12 1.44418000671774e-12 1.4621327823365e-12
18100 45.25 1.46660776116677e-12 1.42829158982372e-12 1.4506123920265e-12
18150 45.375 1.43577571472891e-12 1.4035936175545e-12 1.46326874810877e-12
18200 45.5 1.52478582545929e-12 1.43510476364981e-12 1.48412879106493e-12
18250 45.625 1.46676411549345e-12 1.41876718404427e-12 1.45380154707438e-12
18300 45.75 1.42360561821631e-12 1.41350839520853e-12 1.44366934826755e-12
18350 45.875 1.51769156580354e-12 1.44625089815723e-12 1.50967556425202e-12
18400 46 1.47641556926635e-12 1.42190210448146e-12 1.42915566621982e-12
18450 46.125 1.42747837301097e-12 1.41647628882678e-12 1.47354700170961e-12
18500 46.25 1.50448503091227e-12 1.41856789182692e-12 1.47236760092504e-12
18550 46.375 1.50509803906037e-12 1.43988129061861e-12 1.4895573698943e-12
18600 46.5 1.41375049355344e-12 1.39214277664884e-12 1.41198520047148e-12
18650 46.625 1.49527842063895e-12 1.43872573553912e-12 1.48623661244421e-12
18700 46.75 1.49313721797892e-12 1.44108748348025e-12 1.47684173026136e-12
18750 46.875 1.42907313995767e-12 1.40590947229105e-12 1.42218603877719e-12
18800 47 1.51070231559069e-12 1.43880826819652e-12 1.49496844041892e-12
18850 47.125 1.51503661735157e-12 1.43255135494609e-12 1.47168713409395e-12
18900 47.25 1.42152881032135e-12 1.40907332222999e-12 1.46577010305897e-12
18950 47.375 1.47807633301139e-12 1.42939738200288e-12 1.44443490583796e-12
19000 47.5 1.51971550881416e-12 1.45259845834169e-12 1.51613963826423e-12
19050 47.625 1.42829210428979e-12 1.40743545828542e-12 1.42574439477727e-12
19100 47.75 1.47183128964011e-12 1.42178569146385e-12 1.47125462196348e-12
19150 47.875 1.52494275175528e-12 1.44798942114317e-12 1.49551935737931e-12
19200 48 1.4348537359556e-12 1.40674914876151e-12 1.45712977927537e-12
19250 48.125 1.47386261246294e-12 1.42597879859946e-12 1.4585845498874e-12
19300 48.25 1.52083080767536e-12 1.45237630304926e-12 1.49219910416646e-12
19350 48.375 1.43616218260507e-12 1.41240334429732e-12 1.47401282337921e-12
19400 48.5 1.46231214850184e-12 1.41642275133023e-12 1.42751512239684e-12
19450 48.625 1.5278021771795e-12 1.43660539918814e-12 1.48845527346381e-12
19500 48.75 1.45596622118822e-12 1.42308732457291e-12 1.47145209607628e-12
19550 48.875 1.43526084386429e-12 1.39892437973138e-12 1.44985616098432e-12
19600 49 1.52712791707802e-12 1.45880369553556e-12 1.46031838063122e-12
19650 49.125 1.45971225938172e-12 1.4146675687438e-12 1.47487940965289e-12
19700 49.25 1.43236474153123e-12 1.39840503913398e-12 1.44159216923444e-12
19750 49.375 1.51072033039345e-12 1.4267666478823e-12 1.45173530567614e-12
19800 49.5 1.46871996750139e-12 1.43003471073106e-12 1.47195159367798e-12
19850 49.625 1.42593444792624e-12 1.39459161684819e-12 1.44292525256097e-12
19900 49.75 1.51071835882292e-12 1.44043485589944e-12 1.46794241836847e-12
19950 49.875 1.47758534717569e-12 1.43147644867682e-12 1.44569009287415e-12
20000 50 1.43137236042831e-12 1.41061229085871e-12 1.49399794857512e-12
