# Scalar ASCII output created by CarpetIOScalar
# created on compute4 by jmiller on Dec 15 2015 at 23:35:25-0500
# parameter filename: "/xfs1/jmiller/simulations/trunc_rho_bssn_dg4_robust_stability_rho_4/output-0000/robust_stability.par"
# Build ID: build-dgfe2-compute-jmiller-2015.12.16-04.26.30-10022
# Simulation ID: run-robust_stability-compute4-jmiller-2015.12.16-04.35.22-11023
# Run ID: run-robust_stability-compute4-jmiller-2015.12.16-04.35.22-11023
#
# ML_BSSN_DG4::H (ml_bssn_dg4-ml_ham)
# 1:iteration 2:time 3:data
# data columns: 3:H
0 0 8.03175933274725e-09
50 0.125 8.03130429015697e-09
100 0.25 8.03126552051908e-09
150 0.375 8.03143904107767e-09
200 0.5 8.03172978796207e-09
250 0.625 8.03192542946967e-09
300 0.75 8.03203532606052e-09
350 0.875 8.03240320128654e-09
400 1 8.0322675693323e-09
450 1.125 8.03226968615426e-09
500 1.25 8.03178173028487e-09
550 1.375 8.0321718069025e-09
600 1.5 8.03234224632391e-09
650 1.625 8.03265220371096e-09
700 1.75 8.03259620113921e-09
750 1.875 8.0325019169731e-09
800 2 8.03229896077536e-09
850 2.125 8.03179345302656e-09
900 2.25 8.03186045664058e-09
950 2.375 8.03190751291308e-09
1000 2.5 8.03172432494863e-09
1050 2.625 8.03187835802581e-09
1100 2.75 8.03234969285161e-09
1150 2.875 8.03255433430012e-09
1200 3 8.03285176614037e-09
1250 3.125 8.03302131364819e-09
1300 3.25 8.03342483757109e-09
1350 3.375 8.03319706288078e-09
1400 3.5 8.03283224170278e-09
1450 3.625 8.03262427727988e-09
1500 3.75 8.03242167432725e-09
1550 3.875 8.0322733708309e-09
1600 4 8.03242190962631e-09
1650 4.125 8.03241778732712e-09
1700 4.25 8.03257958627996e-09
1750 4.375 8.03266223533028e-09
1800 4.5 8.03311966081299e-09
1850 4.625 8.03326488052097e-09
1900 4.75 8.03311142357963e-09
1950 4.875 8.03363383644772e-09
2000 5 8.03353955937913e-09
2050 5.125 8.03369724082992e-09
2100 5.25 8.03317437110285e-09
2150 5.375 8.03296381046972e-09
2200 5.5 8.03356594161253e-09
2250 5.625 8.03367304900117e-09
2300 5.75 8.03335853621409e-09
2350 5.875 8.03364665171454e-09
2400 6 8.0338027275469e-09
2450 6.125 8.03443791642361e-09
2500 6.25 8.03417890268987e-09
2550 6.375 8.0341542329948e-09
2600 6.5 8.03380551131e-09
2650 6.625 8.03384300852305e-09
2700 6.75 8.03390349411874e-09
2750 6.875 8.03457864606984e-09
2800 7 8.03430954158985e-09
2850 7.125 8.03403984354385e-09
2900 7.25 8.03420032669726e-09
2950 7.375 8.03340210810096e-09
3000 7.5 8.03348981444281e-09
3050 7.625 8.03344289051525e-09
3100 7.75 8.03340809542625e-09
3150 7.875 8.03368115352697e-09
3200 8 8.03307593101051e-09
3250 8.125 8.03301875908813e-09
3300 8.25 8.0324790691376e-09
3350 8.375 8.0328457118062e-09
3400 8.5 8.03273316104364e-09
3450 8.625 8.03299085902649e-09
3500 8.75 8.03298770969488e-09
3550 8.875 8.03304308651249e-09
3600 9 8.03293023138057e-09
3650 9.125 8.03320473595618e-09
3700 9.25 8.03371979528417e-09
3750 9.375 8.03360820075939e-09
3800 9.5 8.03326374157716e-09
3850 9.625 8.03332626100496e-09
3900 9.75 8.0334523391718e-09
3950 9.875 8.03327760537452e-09
4000 10 8.03329388772976e-09
4050 10.125 8.033232141923e-09
4100 10.25 8.03327432224123e-09
4150 10.375 8.03306740830155e-09
4200 10.5 8.03308627798446e-09
4250 10.625 8.03325381843922e-09
4300 10.75 8.03387654160531e-09
4350 10.875 8.03451074750964e-09
4400 11 8.03452719629455e-09
4450 11.125 8.03445209831729e-09
4500 11.25 8.03434528718059e-09
4550 11.375 8.03467392843116e-09
4600 11.5 8.03464984571772e-09
4650 11.625 8.03486482031839e-09
4700 11.75 8.03483313420132e-09
4750 11.875 8.03463642215728e-09
4800 12 8.03493728569033e-09
4850 12.125 8.0342935425164e-09
4900 12.25 8.03403053450222e-09
4950 12.375 8.03368719628162e-09
5000 12.5 8.03373915483389e-09
5050 12.625 8.03356433997404e-09
5100 12.75 8.03344775511071e-09
5150 12.875 8.033665684664e-09
5200 13 8.03317283125799e-09
5250 13.125 8.03329953589633e-09
5300 13.25 8.0330603703449e-09
5350 13.375 8.03273352212932e-09
5400 13.5 8.03326003302958e-09
5450 13.625 8.03312424538813e-09
5500 13.75 8.03256909678287e-09
5550 13.875 8.03233161369381e-09
5600 14 8.03218864081644e-09
5650 14.125 8.03221272635512e-09
5700 14.25 8.03196186599901e-09
5750 14.375 8.03213313578492e-09
5800 14.5 8.03177987997756e-09
5850 14.625 8.03217880140184e-09
5900 14.75 8.03216768119919e-09
5950 14.875 8.03195717480998e-09
6000 15 8.0323596658786e-09
6050 15.125 8.03235646357326e-09
6100 15.25 8.03243978810213e-09
6150 15.375 8.03240387413349e-09
6200 15.5 8.03237371246815e-09
6250 15.625 8.03279439553419e-09
6300 15.75 8.03236970906111e-09
6350 15.875 8.03240283045606e-09
6400 16 8.03239604276123e-09
6450 16.125 8.03268273950686e-09
6500 16.25 8.03215887694555e-09
6550 16.375 8.03177308365813e-09
6600 16.5 8.03198743662807e-09
6650 16.625 8.03207059565084e-09
6700 16.75 8.03169113277431e-09
6750 16.875 8.03147490864047e-09
6800 17 8.03136198958109e-09
6850 17.125 8.03142760084447e-09
6900 17.25 8.03187947015401e-09
6950 17.375 8.0317487460335e-09
7000 17.5 8.03189391461218e-09
7050 17.625 8.03129832826348e-09
7100 17.75 8.03155472957894e-09
7150 17.875 8.03197952558952e-09
7200 18 8.03183154092185e-09
7250 18.125 8.03237739921462e-09
7300 18.25 8.03222129632676e-09
7350 18.375 8.03180698683176e-09
7400 18.5 8.03213905226686e-09
7450 18.625 8.03210976391139e-09
7500 18.75 8.03182984773567e-09
7550 18.875 8.03160613092087e-09
7600 19 8.0315789512491e-09
7650 19.125 8.03187659290428e-09
7700 19.25 8.03186634207116e-09
7750 19.375 8.03204406737138e-09
7800 19.5 8.03193054051556e-09
7850 19.625 8.03182162634276e-09
7900 19.75 8.03178394924205e-09
7950 19.875 8.0316279191904e-09
8000 20 8.03173212806692e-09
8050 20.125 8.03129607207029e-09
8100 20.25 8.03129041916666e-09
8150 20.375 8.03120461675177e-09
8200 20.5 8.03115417350861e-09
8250 20.625 8.0308433524276e-09
8300 20.75 8.03085604850464e-09
8350 20.875 8.03057696561876e-09
8400 21 8.03065942331623e-09
8450 21.125 8.03025542802479e-09
8500 21.25 8.03014806715425e-09
8550 21.375 8.03015352284473e-09
8600 21.5 8.03051599527252e-09
8650 21.625 8.03035479460475e-09
8700 21.75 8.03052579528464e-09
8750 21.875 8.03038507802699e-09
8800 22 8.0306510931624e-09
8850 22.125 8.03130783174828e-09
8900 22.25 8.03114001129359e-09
8950 22.375 8.03093609597152e-09
9000 22.5 8.03061560170415e-09
9050 22.625 8.03050320302726e-09
9100 22.75 8.03088451064415e-09
9150 22.875 8.03114888711721e-09
9200 23 8.0314474812009e-09
9250 23.125 8.03136756016677e-09
9300 23.25 8.03130315838894e-09
9350 23.375 8.03132060910798e-09
9400 23.5 8.03097109288855e-09
9450 23.625 8.03125252108833e-09
9500 23.75 8.03120915244234e-09
9550 23.875 8.03140031022213e-09
9600 24 8.03161941963165e-09
9650 24.125 8.03150706629111e-09
9700 24.25 8.03140894427879e-09
9750 24.375 8.03140757594589e-09
9800 24.5 8.03140041919417e-09
9850 24.625 8.03135809219662e-09
9900 24.75 8.03162955866641e-09
9950 24.875 8.03160464790384e-09
10000 25 8.03172246836964e-09
10050 25.125 8.03192352431422e-09
10100 25.25 8.03175900211727e-09
10150 25.375 8.0319389520735e-09
10200 25.5 8.03147800580445e-09
10250 25.625 8.03159475689554e-09
10300 25.75 8.0316089800223e-09
10350 25.875 8.03096850850235e-09
10400 26 8.03084140126218e-09
10450 26.125 8.03066619865394e-09
10500 26.25 8.0306055110079e-09
10550 26.375 8.03077649214713e-09
10600 26.5 8.03063189202888e-09
10650 26.625 8.03079193034322e-09
10700 26.75 8.03100013608273e-09
10750 26.875 8.03101203427415e-09
10800 27 8.03115005364366e-09
10850 27.125 8.03095650260751e-09
10900 27.25 8.0307476009041e-09
10950 27.375 8.03032209003302e-09
11000 27.5 8.03046831181772e-09
11050 27.625 8.03065731175652e-09
11100 27.75 8.03053961889583e-09
11150 27.875 8.03048248049344e-09
11200 28 8.030435330822e-09
11250 28.125 8.03037751222021e-09
11300 28.25 8.03038392716766e-09
11350 28.375 8.0299991214976e-09
11400 28.5 8.03050790221014e-09
11450 28.625 8.03017940609154e-09
11500 28.75 8.03015801658113e-09
11550 28.875 8.02987842548602e-09
11600 29 8.02994587679289e-09
11650 29.125 8.02976898180967e-09
11700 29.25 8.02984149121774e-09
11750 29.375 8.02979403366953e-09
11800 29.5 8.02987462548731e-09
11850 29.625 8.02970978890755e-09
11900 29.75 8.02959824251741e-09
11950 29.875 8.02997854610442e-09
12000 30 8.03023448822503e-09
12050 30.125 8.03045411203814e-09
12100 30.25 8.03062060704703e-09
12150 30.375 8.03100772576196e-09
12200 30.5 8.03116596741567e-09
12250 30.625 8.03098051076065e-09
12300 30.75 8.03018125535842e-09
12350 30.875 8.03026711097776e-09
12400 31 8.02992686333128e-09
12450 31.125 8.03036299982245e-09
12500 31.25 8.0303436146576e-09
12550 31.375 8.02991407879491e-09
12600 31.5 8.0298618013036e-09
12650 31.625 8.02956224612675e-09
12700 31.75 8.0294063063713e-09
12750 31.875 8.02890900292462e-09
12800 32 8.02866928395451e-09
12850 32.125 8.02873938344008e-09
12900 32.25 8.0287138996892e-09
12950 32.375 8.02899627389103e-09
13000 32.5 8.02853676838415e-09
13050 32.625 8.02876055629449e-09
13100 32.75 8.02874362112863e-09
13150 32.875 8.02883409186968e-09
13200 33 8.02909806427849e-09
13250 33.125 8.02897053239429e-09
13300 33.25 8.02860510059267e-09
13350 33.375 8.02849739284744e-09
13400 33.5 8.02863670920263e-09
13450 33.625 8.02884939061626e-09
13500 33.75 8.02909319000211e-09
13550 33.875 8.02922065622213e-09
13600 34 8.02968130634067e-09
13650 34.125 8.02968721844123e-09
13700 34.25 8.02946125452394e-09
13750 34.375 8.02925575958207e-09
13800 34.5 8.02959248312199e-09
13850 34.625 8.02917138213398e-09
13900 34.75 8.02931169405227e-09
13950 34.875 8.02898070072813e-09
14000 35 8.02875945973751e-09
14050 35.125 8.02868050289325e-09
14100 35.25 8.0286550067571e-09
14150 35.375 8.02843475896274e-09
14200 35.5 8.02881696358997e-09
14250 35.625 8.02894811617091e-09
14300 35.75 8.02928508058809e-09
14350 35.875 8.0294279794161e-09
14400 36 8.02902009002485e-09
14450 36.125 8.02917155339262e-09
14500 36.25 8.02941739926094e-09
14550 36.375 8.02948212743327e-09
14600 36.5 8.03007101629794e-09
14650 36.625 8.02940486201269e-09
14700 36.75 8.02879651014218e-09
14750 36.875 8.02919902334377e-09
14800 37 8.02953061391661e-09
14850 37.125 8.02992877592787e-09
14900 37.25 8.0297916904534e-09
14950 37.375 8.03018382032803e-09
15000 37.5 8.03007828985888e-09
15050 37.625 8.03023143186442e-09
15100 37.75 8.02939576927388e-09
15150 37.875 8.02917919343187e-09
15200 38 8.02977893424674e-09
15250 38.125 8.02980716361364e-09
15300 38.25 8.02993464588411e-09
15350 38.375 8.02999897024508e-09
15400 38.5 8.03002480177519e-09
15450 38.625 8.03000819066212e-09
15500 38.75 8.02972165523317e-09
15550 38.875 8.02997216245599e-09
15600 39 8.029458786452e-09
15650 39.125 8.02964942686051e-09
15700 39.25 8.02938549593921e-09
15750 39.375 8.0299307164587e-09
15800 39.5 8.0300446380569e-09
15850 39.625 8.03033334789346e-09
15900 39.75 8.03087726257567e-09
15950 39.875 8.03067088512358e-09
16000 40 8.03100108701423e-09
16050 40.125 8.0310968010856e-09
16100 40.25 8.0315239536914e-09
16150 40.375 8.03124883723146e-09
16200 40.5 8.03157343921739e-09
16250 40.625 8.03111789809471e-09
16300 40.75 8.03086065094863e-09
16350 40.875 8.03138020621233e-09
16400 41 8.03140208364051e-09
16450 41.125 8.03191127751025e-09
16500 41.25 8.03217570355696e-09
16550 41.375 8.03180004015507e-09
16600 41.5 8.03187216948178e-09
16650 41.625 8.03212189668765e-09
16700 41.75 8.03216295620284e-09
16750 41.875 8.03226803808512e-09
16800 42 8.03259347608082e-09
16850 42.125 8.03269063859288e-09
16900 42.25 8.03292501923078e-09
16950 42.375 8.03274444858504e-09
17000 42.5 8.03244356957596e-09
17050 42.625 8.03237740558032e-09
17100 42.75 8.03188207750895e-09
17150 42.875 8.03192050590687e-09
17200 43 8.03169062299737e-09
17250 43.125 8.03149762819294e-09
17300 43.25 8.0312336194393e-09
17350 43.375 8.03115070441152e-09
17400 43.5 8.03138716318447e-09
17450 43.625 8.03100404153669e-09
17500 43.75 8.03054796896101e-09
17550 43.875 8.0305116696951e-09
17600 44 8.03068783176203e-09
17650 44.125 8.03061604814288e-09
17700 44.25 8.03079232579735e-09
17750 44.375 8.0307841471808e-09
17800 44.5 8.0310883543548e-09
17850 44.625 8.03116480395175e-09
17900 44.75 8.03062942459316e-09
17950 44.875 8.03055740651074e-09
18000 45 8.03004099672431e-09
18050 45.125 8.02975220921552e-09
18100 45.25 8.02943584704286e-09
18150 45.375 8.02947494151852e-09
18200 45.5 8.02941611426572e-09
18250 45.625 8.02926521880754e-09
18300 45.75 8.02922810276615e-09
18350 45.875 8.02926259763126e-09
18400 46 8.02928241234242e-09
18450 46.125 8.02962081427229e-09
18500 46.25 8.02948356583802e-09
18550 46.375 8.03016340725462e-09
18600 46.5 8.0300988998774e-09
18650 46.625 8.02992790893927e-09
18700 46.75 8.03017362922445e-09
18750 46.875 8.03032739356095e-09
18800 47 8.0301366847246e-09
18850 47.125 8.03075327782768e-09
18900 47.25 8.03090739362985e-09
18950 47.375 8.03084930892151e-09
19000 47.5 8.0303831466031e-09
19050 47.625 8.02987147446267e-09
19100 47.75 8.03033059559127e-09
19150 47.875 8.03030347503427e-09
19200 48 8.03082305158757e-09
19250 48.125 8.03109524644763e-09
19300 48.25 8.03101233385161e-09
19350 48.375 8.03056625760287e-09
19400 48.5 8.03045750923021e-09
19450 48.625 8.03087042247937e-09
19500 48.75 8.03125753572744e-09
19550 48.875 8.03094676484685e-09
19600 49 8.03090948208615e-09
19650 49.125 8.03094161643798e-09
19700 49.25 8.03063294372772e-09
19750 49.375 8.03027662370026e-09
19800 49.5 8.03035332207652e-09
19850 49.625 8.03018400745063e-09
19900 49.75 8.03015165707472e-09
19950 49.875 8.03030400732156e-09
20000 50 8.02992186559905e-09
