# Scalar ASCII output created by CarpetIOScalar
# created on nid00200 by miller1 on Feb 29 2016 at 18:19:11-0600
# parameter filename: "/scratch/sciteam/miller1/simulations/trunc_rho_bssn_dg8_gauge_wave_3D_rho_1_v2/output-0000/gauge_wave.par"
# Build ID: build-dgfe2-h2ologin1.ncsa.illinois.edu-miller1-2016.02.08-01.00.23-31758
# Simulation ID: run-gauge_wave-nid00200-miller1-2016.03.01-00.19.09-921
# Run ID: run-gauge_wave-nid00200-miller1-2016.03.01-00.19.09-921
#
# ADMBASE::gxx (admbase-metric)
# 1:iteration 2:time 3:data
# data columns: 3:gxx 4:gxy 5:gxz 6:gyy 7:gyz 8:gzz
0 0 1.00333333333329 0.0033333333333348 0.00333333333331204 1.00333333333338 0.00333333333335295 1.00333333333333
170 0.250000000000056 1.00333329875579 0.0033333114683018 0.00333331146832944 1.00333329875572 0.00333328755326551 1.00333329875573
340 0.500000000000111 1.00333333547608 0.00333331216893379 0.0033333121689584 1.00333333547617 0.0033333292606847 1.00333333547612
510 0.750000000000167 1.00333340935939 0.00333333282487187 0.00333333282483532 1.00333340935936 0.00333339993807763 1.00333340935939
680 1.00000000000022 1.00333200579953 0.0033321602976987 0.00333216029770205 1.00333200579963 0.00333201488978872 1.00333200579953
850 1.25000000000028 1.00333245754184 0.00333238107413604 0.00333238107411588 1.00333245754192 0.00333244958459169 1.00333245754187
1020 1.50000000000033 1.00333194490415 0.00333203952935231 0.00333203952936543 1.0033319449043 0.00333194341601174 1.00333194490424
1190 1.75000000000039 1.00333226343114 0.00333226179909041 0.00333226179910608 1.00333226343115 0.00333226243178111 1.00333226343117
1360 2.00000000000044 1.00333331232737 0.00333330212333958 0.00333330212334292 1.00333331232732 0.00333331081081565 1.00333331232733
1530 2.2500000000005 1.00333283453068 0.0033327667447766 0.0033327667447023 1.00333283453071 0.00333281222292085 1.00333283453069
1700 2.50000000000056 1.00333337410081 0.00333340263764523 0.00333340263762381 1.00333337410076 0.00333336994123614 1.00333337410079
1870 2.75000000000061 1.00333271508836 0.00333269643072071 0.00333269643071748 1.00333271508842 0.00333270685877901 1.00333271508843
2040 3.00000000000067 1.00333334437938 0.00333333563149697 0.00333333563148163 1.00333334437931 0.00333333206109732 1.0033333443793
2210 3.25000000000072 1.00333171389505 0.00333170557309683 0.00333170557312811 1.00333171389509 0.00333170468225854 1.00333171389509
2380 3.50000000000078 1.00333318705454 0.00333324140684159 0.00333324140683123 1.00333318705479 0.00333319196490147 1.00333318705457
2550 3.75000000000083 1.00333265614598 0.00333266011505231 0.00333266011510591 1.00333265614601 0.00333266389890072 1.00333265614604
2720 4.00000000000089 1.00333323230325 0.00333324171669678 0.00333324171672574 1.00333323230341 0.00333323077646864 1.00333323230333
2890 4.25000000000094 1.00333303340185 0.00333305652052509 0.00333305652054747 1.0033330334021 0.00333301905438973 1.003333033402
3060 4.500000000001 1.00333113714267 0.00333103256881284 0.00333103256883194 1.00333113714319 0.00333110079370009 1.0033311371429
3230 4.75000000000106 1.00333329525296 0.00333344280721111 0.00333344280722494 1.0033332952531 0.00333330209396495 1.00333329525299
3400 5.00000000000111 1.00333329727476 0.00333331539808037 0.00333331539807273 1.003333297275 0.00333328955052235 1.0033332972749
