# Scalar ASCII output created by CarpetIOScalar
# created on nid00200 by miller1 on Feb 29 2016 at 18:19:11-0600
# parameter filename: "/scratch/sciteam/miller1/simulations/trunc_rho_bssn_dg8_gauge_wave_3D_rho_1_v2/output-0000/gauge_wave.par"
# Build ID: build-dgfe2-h2ologin1.ncsa.illinois.edu-miller1-2016.02.08-01.00.23-31758
# Simulation ID: run-gauge_wave-nid00200-miller1-2016.03.01-00.19.09-921
# Run ID: run-gauge_wave-nid00200-miller1-2016.03.01-00.19.09-921
#
# GAUGEWAVE::gExact11 (gaugewave-metric_exact)
# 1:iteration 2:time 3:data
# data columns: 3:gExact11 4:gExact12 5:gExact13 6:gExact22 7:gExact23 8:gExact33
0 0 1.00333333333329 0.0033333333333348 0.00333333333331204 1.00333333333338 0.00333333333335295 1.00333333333333
170 0.250000000000056 1.00333322747096 0.0033332274710039 0.00333322747098103 1.00333322747104 0.0033332274710221 1.003333227471
340 0.500000000000111 1.0033333310683 0.00333333106833605 0.00333333106831318 1.00333333106838 0.00333333106835421 1.00333333106833
510 0.750000000000167 1.00333325617532 0.0033332561753634 0.00333325617534053 1.0033332561754 0.00333325617538155 1.00333325617536
680 1.00000000000022 1.00333206599251 0.00333206599254987 0.003332065992527 1.00333206599259 0.00333206599256824 1.00333206599255
850 1.25000000000028 1.00333245358997 0.00333245359000778 0.00333245358998491 1.00333245359005 0.0033324535900256 1.00333245359
1020 1.50000000000033 1.00333195658401 0.00333195658404539 0.00333195658402252 1.00333195658409 0.00333195658406388 1.00333195658404
1190 1.75000000000039 1.00333225546949 0.00333225546953347 0.0033322554695106 1.00333225546957 0.00333225546955129 1.00333225546953
1360 2.00000000000044 1.00333329513375 0.00333329513379044 0.00333329513376757 1.00333329513383 0.00333329513380859 1.00333329513379
1530 2.2500000000005 1.00333278826219 0.00333278826222805 0.00333278826220518 1.00333278826227 0.00333278826224592 1.00333278826222
1700 2.50000000000056 1.00333331147215 0.00333331147219379 0.00333331147217092 1.00333331147223 0.00333331147221194 1.00333331147219
1870 2.75000000000061 1.00333271572711 0.00333271572714716 0.00333271572712429 1.00333271572719 0.00333271572716498 1.00333271572714
2040 3.00000000000067 1.00333332328059 0.0033333232806288 0.00333332328060593 1.00333332328067 0.00333332328064695 1.00333332328062
2210 3.25000000000072 1.00333169181674 0.00333169181678522 0.00333169181676241 1.00333169181683 0.00333169181680371 1.00333169181678
2380 3.50000000000078 1.00333321256192 0.00333321256196073 0.00333321256193786 1.003333212562 0.00333321256197894 1.00333321256196
2550 3.75000000000083 1.00333270907621 0.00333270907624728 0.0033327090762244 1.00333270907629 0.00333270907626559 1.00333270907624
2720 4.00000000000089 1.00333324337521 0.00333324337525331 0.0033332433752305 1.00333324337529 0.00333324337527147 1.00333324337525
2890 4.25000000000094 1.00333303864918 0.00333303864922391 0.00333303864920104 1.00333303864926 0.00333303864924217 1.00333303864922
3060 4.500000000001 1.00333104910957 0.00333104910961218 0.00333104910958937 1.00333104910965 0.00333104910962995 1.00333104910961
3230 4.75000000000106 1.00333332169533 0.00333332169537309 0.00333332169535033 1.00333332169541 0.00333332169539136 1.00333332169537
3400 5.00000000000111 1.003333263067 0.00333326306703868 0.00333326306701581 1.00333326306708 0.00333326306705667 1.00333326306703
