# 1D ASCII output created by CarpetIOASCII
# created on nid00144 by miller1 on Feb 20 2016 at 20:48:43-0600
# parameter filename: "/scratch/sciteam/miller1/simulations/trunc_rho_bssn_dg8_shifted_gauge_wave_1plulog_rho_3/output-0000/shifted_gauge_wave_1_plus_log.par"
# Build ID: build-dgfe2-h2ologin1.ncsa.illinois.edu-miller1-2016.02.08-01.00.23-31758
# Simulation ID: run-shifted_gauge_wave_1_plus_log-nid00144-miller1-2016.02.21-02.48.38-21930
# Run ID: run-shifted_gauge_wave_1_plus_log-nid00144-miller1-2016.02.21-02.48.38-21930
#
# ADMBASE::METRIC d (admbase-metric)
#
# iteration 0   time 0
# time level 0
# refinement level 0   multigrid level 0   map 0   component 0
# column format: 1:it	2:tl	3:rl 4:c 5:ml	6:ix 7:iy 8:iz	9:time	10:x 11:y 12:z	13:data
# data columns: 13:gxx 14:gxy 15:gxz 16:gyy 17:gyz 18:gzz
0	0 0 0 0	0 0 0	0	-0.50925925925925919 -0.092592592592555548 -0.092592592592555548	1 0 0 1 0 1
0	0 0 0 0	1 1 1	0	-0.4907407407407407 -0.074074074074044441 -0.074074074074044441	1 0 0 1 0 1
0	0 0 0 0	2 2 2	0	-0.47222222222222221 -0.055555555555533327 -0.055555555555533327	0.99947537504527473 0 0 1 0 1
0	0 0 0 0	3 3 3	0	-0.45370370370370366 -0.03703703703702222 -0.03703703703702222	0.99831778805678684 0 0 1 0 1
0	0 0 0 0	4 4 4	0	-0.43518518518518517 -0.01851851851851111 -0.01851851851851111	0.99672675296471624 0 0 1 0 1
0	0 0 0 0	5 5 5	0	-0.41666666666666663 0 0	0.995 0 0 1 0 1
0	0 0 0 0	6 6 6	0	-0.39814814814814814 0.01851851851851111 0.01851851851851111	0.99345344623833853 0 0 1 0 1
0	0 0 0 0	7 7 7	0	-0.37962962962962959 0.03703703703702222 0.03703703703702222	0.99230426684734163 0 0 1 0 1
0	0 0 0 0	8 8 8	0	-0.3611111111111111 0.055555555555533327 0.055555555555533327	0.99161398451800198 0 0 1 0 1
0	0 0 0 0	9 9 9	0	-0.34259259259259256 0.074074074074044441 0.074074074074044441	0.99133974596215557 0 0 1 0 1
0	0 0 0 0	10 10 10	0	-0.32407407407407407 0.092592592592555548 0.092592592592555548	0.99133974596215557 0 0 1 0 1
#
#
#
#
#
#
#
#
#
#
#
#
#
#
#
#
#
#
#
#
#
#
#
#
#
#
#
#
#
#
#
#
#
#
#
#
#
#
#
#
#
#
#
#
#

# iteration 0   time 0
# time level 0
# refinement level 0   multigrid level 0   map 0   component 1
# column format: 1:it	2:tl	3:rl 4:c 5:ml	6:ix 7:iy 8:iz	9:time	10:x 11:y 12:z	13:data
# data columns: 13:gxx 14:gxy 15:gxz 16:gyy 17:gyz 18:gzz
#
#
#
#
#
#
#
#
#
#
#
#
#
#
#
#
#
#
#
#
#
#
#
#
#
#
#
#
#
#
#
#
#
#
#
#
#
#
#
#
#
#
#
#
#
#
#
#
#
#
#
#
#
#
#
#

# iteration 0   time 0
# time level 0
# refinement level 0   multigrid level 0   map 0   component 2
# column format: 1:it	2:tl	3:rl 4:c 5:ml	6:ix 7:iy 8:iz	9:time	10:x 11:y 12:z	13:data
# data columns: 13:gxx 14:gxy 15:gxz 16:gyy 17:gyz 18:gzz
#
#
#
#
#
#
#
#
#
#
#
#
#
#
#
#
#
#
#
#
#
#
#
#
#
#
#
#
#
#
#
#
#
#
#
#
#
#
#
#
#
#
#
#
#
#
#
#
#
#
#
#
#
#
#
#

# iteration 0   time 0
# time level 0
# refinement level 0   multigrid level 0   map 0   component 3
# column format: 1:it	2:tl	3:rl 4:c 5:ml	6:ix 7:iy 8:iz	9:time	10:x 11:y 12:z	13:data
# data columns: 13:gxx 14:gxy 15:gxz 16:gyy 17:gyz 18:gzz
#
#
#
#
#
#
#
#
#
#
#
#
#
#
#
#
#
#
#
#
#
#
#
#
#
#
#
#
#
#
#
#
#
#
#
#
#
#
#
#
#
#
#
#
#
#
#
#
#
#
#
#
#
#
#
#


# iteration 510   time 0.24999999999995554
# time level 0
# refinement level 0   multigrid level 0   map 0   component 0
# column format: 1:it	2:tl	3:rl 4:c 5:ml	6:ix 7:iy 8:iz	9:time	10:x 11:y 12:z	13:data
# data columns: 13:gxx 14:gxy 15:gxz 16:gyy 17:gyz 18:gzz
510	0 0 0 0	0 0 0	0.24999999999995554	-0.50925925925925919 -0.092592592592555548 -0.092592592592555548	1.0168629503727278 -8.1749886564078897e-15 -9.1097346794449217e-15 1.0000000000006561 -1.2480759226563596e-14 1.0000000000006959
510	0 0 0 0	1 1 1	0.24999999999995554	-0.4907407407407407 -0.074074074074044441 -0.074074074074044441	1.0168629505032318 -1.9536243207695511e-14 1.0905636099154001e-14 0.99999999999914124 2.2675337896771734e-15 0.99999999999916167
510	0 0 0 0	2 2 2	0.24999999999995554	-0.47222222222222221 -0.055555555555533327 -0.055555555555533327	1.0164915626693956 -6.0258735392190953e-16 -7.3488894598434171e-16 1.000000000000399 3.8624274779919281e-15 1.0000000000004059
510	0 0 0 0	3 3 3	0.24999999999995554	-0.45370370370370366 -0.03703703703702222 -0.03703703703702222	1.0155049846281055 3.1034993827513214e-15 1.2631756511899777e-15 0.99999999999962319 7.1314030623106954e-16 0.99999999999962341
510	0 0 0 0	4 4 4	0.24999999999995554	-0.43518518518518517 -0.01851851851851111 -0.01851851851851111	1.0137554852708259 1.50302064220538e-15 -3.309092134023015e-16 1.0000000000004565 2.1466640748329415e-15 1.0000000000004572
510	0 0 0 0	5 5 5	0.24999999999995554	-0.41666666666666663 0 0	1.0112689822755878 -8.3980705993174099e-17 7.5888342203172437e-16 0.99999999999939204 -2.0828299111023779e-15 0.99999999999939371
510	0 0 0 0	6 6 6	0.24999999999995554	-0.39814814814814814 0.01851851851851111 0.01851851851851111	1.0083719594486027 7.6318361950122252e-16 -1.5923602958650473e-16 1.0000000000008265 1.8718535980353628e-15 1.0000000000008267
510	0 0 0 0	7 7 7	0.24999999999995554	-0.37962962962962959 0.03703703703702222 0.03703703703702222	1.0056164234756733 1.884287832571338e-15 -2.9522909418424966e-15 0.999999999998884 -5.2784422213242399e-16 0.99999999999888411
510	0 0 0 0	8 8 8	0.24999999999995554	-0.3611111111111111 0.055555555555533327 0.055555555555533327	1.0035667530522341 -4.9358732441429236e-15 -3.0640326208542328e-15 1.0000000000016593 -1.444366730986388e-15 1.0000000000016604
510	0 0 0 0	9 9 9	0.24999999999995554	-0.34259259259259256 0.074074074074044441 0.074074074074044441	1.0026261255624165 6.1352631937219748e-16 -4.8746923329700821e-16 0.99999999999582667 1.4762650720804778e-14 0.99999999999582234
510	0 0 0 0	10 10 10	0.24999999999995554	-0.32407407407407407 0.092592592592555548 0.092592592592555548	1.0026261254715885 1.6718037611349266e-14 3.8566832043981566e-14 1.0000000000042071 -6.9219355289514798e-15 1.0000000000042153
#
#
#
#
#
#
#
#
#
#
#
#
#
#
#
#
#
#
#
#
#
#
#
#
#
#
#
#
#
#
#
#
#
#
#
#
#
#
#
#
#
#
#
#
#

# iteration 510   time 0.24999999999995554
# time level 0
# refinement level 0   multigrid level 0   map 0   component 1
# column format: 1:it	2:tl	3:rl 4:c 5:ml	6:ix 7:iy 8:iz	9:time	10:x 11:y 12:z	13:data
# data columns: 13:gxx 14:gxy 15:gxz 16:gyy 17:gyz 18:gzz
#
#
#
#
#
#
#
#
#
#
#
#
#
#
#
#
#
#
#
#
#
#
#
#
#
#
#
#
#
#
#
#
#
#
#
#
#
#
#
#
#
#
#
#
#
#
#
#
#
#
#
#
#
#
#
#

# iteration 510   time 0.24999999999995554
# time level 0
# refinement level 0   multigrid level 0   map 0   component 2
# column format: 1:it	2:tl	3:rl 4:c 5:ml	6:ix 7:iy 8:iz	9:time	10:x 11:y 12:z	13:data
# data columns: 13:gxx 14:gxy 15:gxz 16:gyy 17:gyz 18:gzz
#
#
#
#
#
#
#
#
#
#
#
#
#
#
#
#
#
#
#
#
#
#
#
#
#
#
#
#
#
#
#
#
#
#
#
#
#
#
#
#
#
#
#
#
#
#
#
#
#
#
#
#
#
#
#
#

# iteration 510   time 0.24999999999995554
# time level 0
# refinement level 0   multigrid level 0   map 0   component 3
# column format: 1:it	2:tl	3:rl 4:c 5:ml	6:ix 7:iy 8:iz	9:time	10:x 11:y 12:z	13:data
# data columns: 13:gxx 14:gxy 15:gxz 16:gyy 17:gyz 18:gzz
#
#
#
#
#
#
#
#
#
#
#
#
#
#
#
#
#
#
#
#
#
#
#
#
#
#
#
#
#
#
#
#
#
#
#
#
#
#
#
#
#
#
#
#
#
#
#
#
#
#
#
#
#
#
#
#


# iteration 1020   time 0.49999999999991107
# time level 0
# refinement level 0   multigrid level 0   map 0   component 0
# column format: 1:it	2:tl	3:rl 4:c 5:ml	6:ix 7:iy 8:iz	9:time	10:x 11:y 12:z	13:data
# data columns: 13:gxx 14:gxy 15:gxz 16:gyy 17:gyz 18:gzz
1020	0 0 0 0	0 0 0	0.49999999999991107	-0.50925925925925919 -0.092592592592555548 -0.092592592592555548	1.0130928902323588 -2.8901222160943682e-14 -1.5412440385137529e-14 1.0000000000013816 1.2069614601553372e-14 1.0000000000013904
1020	0 0 0 0	1 1 1	0.49999999999991107	-0.4907407407407407 -0.074074074074044441 -0.074074074074044441	1.0130928902476393 8.1768996025328155e-15 -2.8400780482262591e-14 0.99999999999872824 2.7820921037826568e-14 0.99999999999874101
1020	0 0 0 0	2 2 2	0.49999999999991107	-0.47222222222222221 -0.055555555555533327 -0.055555555555533327	1.0138439376160875 -1.48487246838817e-15 -4.5203346485411522e-15 1.0000000000002067 -3.2906776899309657e-15 1.0000000000002116
1020	0 0 0 0	3 3 3	0.49999999999991107	-0.45370370370370366 -0.03703703703702222 -0.03703703703702222	1.0153690418393755 4.0625308804084753e-15 -9.0202504285617532e-16 1.0000000000003013 1.8158101664373245e-15 1.0000000000003073
1020	0 0 0 0	4 4 4	0.49999999999991107	-0.43518518518518517 -0.01851851851851111 -0.01851851851851111	1.0171546024891092 2.0337332253662672e-15 1.4086844223644607e-15 0.99999999999929501 2.3468491380538819e-16 0.99999999999929212
1020	0 0 0 0	5 5 5	0.49999999999991107	-0.41666666666666663 0 0	1.0186300416740806 -3.4543544451967894e-15 1.3866981682404988e-15 1.0000000000009803 6.884368352347001e-16 1.0000000000009854
1020	0 0 0 0	6 6 6	0.49999999999991107	-0.39814814814814814 0.01851851851851111 0.01851851851851111	1.0194270657957634 -2.9420802273604332e-16 6.2837798759853911e-17 0.99999999999890921 -2.0094805890304374e-15 0.99999999999890998
1020	0 0 0 0	7 7 7	0.49999999999991107	-0.37962962962962959 0.03703703703702222 0.03703703703702222	1.0195500355261913 1.1763089247821438e-15 -2.9559196527638761e-15 1.0000000000011215 -3.4560289180990535e-15 1.0000000000011169
1020	0 0 0 0	8 8 8	0.49999999999991107	-0.3611111111111111 0.055555555555533327 0.055555555555533327	1.0193181935385303 -4.1890920168274713e-15 -2.3026695316502711e-15 0.99999999999883893 -6.4491266614452326e-16 0.99999999999883438
1020	0 0 0 0	9 9 9	0.49999999999991107	-0.34259259259259256 0.074074074074044441 0.074074074074044441	1.019128443610239 1.8774897035092219e-14 2.4541703514638158e-14 1.0000000000025453 3.6729634486315533e-14 1.0000000000025873
1020	0 0 0 0	10 10 10	0.49999999999991107	-0.32407407407407407 0.092592592592555548 0.092592592592555548	1.0191284435246024 5.5001681424731246e-15 -1.8462147597782047e-14 0.99999999999664546 1.7489367377417206e-14 0.99999999999661948
#
#
#
#
#
#
#
#
#
#
#
#
#
#
#
#
#
#
#
#
#
#
#
#
#
#
#
#
#
#
#
#
#
#
#
#
#
#
#
#
#
#
#
#
#

# iteration 1020   time 0.49999999999991107
# time level 0
# refinement level 0   multigrid level 0   map 0   component 1
# column format: 1:it	2:tl	3:rl 4:c 5:ml	6:ix 7:iy 8:iz	9:time	10:x 11:y 12:z	13:data
# data columns: 13:gxx 14:gxy 15:gxz 16:gyy 17:gyz 18:gzz
#
#
#
#
#
#
#
#
#
#
#
#
#
#
#
#
#
#
#
#
#
#
#
#
#
#
#
#
#
#
#
#
#
#
#
#
#
#
#
#
#
#
#
#
#
#
#
#
#
#
#
#
#
#
#
#

# iteration 1020   time 0.49999999999991107
# time level 0
# refinement level 0   multigrid level 0   map 0   component 2
# column format: 1:it	2:tl	3:rl 4:c 5:ml	6:ix 7:iy 8:iz	9:time	10:x 11:y 12:z	13:data
# data columns: 13:gxx 14:gxy 15:gxz 16:gyy 17:gyz 18:gzz
#
#
#
#
#
#
#
#
#
#
#
#
#
#
#
#
#
#
#
#
#
#
#
#
#
#
#
#
#
#
#
#
#
#
#
#
#
#
#
#
#
#
#
#
#
#
#
#
#
#
#
#
#
#
#
#

# iteration 1020   time 0.49999999999991107
# time level 0
# refinement level 0   multigrid level 0   map 0   component 3
# column format: 1:it	2:tl	3:rl 4:c 5:ml	6:ix 7:iy 8:iz	9:time	10:x 11:y 12:z	13:data
# data columns: 13:gxx 14:gxy 15:gxz 16:gyy 17:gyz 18:gzz
#
#
#
#
#
#
#
#
#
#
#
#
#
#
#
#
#
#
#
#
#
#
#
#
#
#
#
#
#
#
#
#
#
#
#
#
#
#
#
#
#
#
#
#
#
#
#
#
#
#
#
#
#
#
#
#


# iteration 1530   time 0.74999999999986666
# time level 0
# refinement level 0   multigrid level 0   map 0   component 0
# column format: 1:it	2:tl	3:rl 4:c 5:ml	6:ix 7:iy 8:iz	9:time	10:x 11:y 12:z	13:data
# data columns: 13:gxx 14:gxy 15:gxz 16:gyy 17:gyz 18:gzz
1530	0 0 0 0	0 0 0	0.74999999999986666	-0.50925925925925919 -0.092592592592555548 -0.092592592592555548	0.97154671685275085 -6.169266134869031e-14 7.2311274529162731e-16 1.0000000000035536 1.0774821169786322e-14 1.0000000000035205
1530	0 0 0 0	1 1 1	0.74999999999986666	-0.4907407407407407 -0.074074074074044441 -0.074074074074044441	0.97154671682235405 2.0467242682376836e-14 2.6637669124930665e-14 0.99999999999685474 6.2532966992721529e-14 0.99999999999692468
1530	0 0 0 0	2 2 2	0.74999999999986666	-0.47222222222222221 -0.055555555555533327 -0.055555555555533327	0.97204310372794966 -3.2618056582794281e-15 -1.8141890619165042e-15 1.0000000000011244 3.949938578917495e-15 1.0000000000011142
1530	0 0 0 0	3 3 3	0.74999999999986666	-0.45370370370370366 -0.03703703703702222 -0.03703703703702222	0.97341262778143467 -2.3164071552319042e-17 1.9771072353370452e-15 0.99999999999929134 1.468637800607455e-15 0.99999999999929423
1530	0 0 0 0	4 4 4	0.74999999999986666	-0.43518518518518517 -0.01851851851851111 -0.01851851851851111	0.97594312039098263 1.6866743607921537e-15 -6.1969806521096265e-16 1.0000000000004052 2.5245232950459739e-16 1.0000000000004061
1530	0 0 0 0	5 5 5	0.74999999999986666	-0.41666666666666663 0 0	0.97966480394248823 4.2382977703079822e-16 -2.2600711169135753e-15 0.99999999999992417 6.6821304653143896e-16 0.99999999999992262
1530	0 0 0 0	6 6 6	0.74999999999986666	-0.39814814814814814 0.01851851851851111 0.01851851851851111	0.98412154942873098 -1.5445857549864104e-15 -1.179145146691889e-15 0.99999999999974687 9.825590477309208e-16 0.99999999999975064
1530	0 0 0 0	7 7 7	0.74999999999986666	-0.37962962962962959 0.03703703703702222 0.03703703703702222	0.98845472352458774 1.1643429771855535e-15 5.134062764851672e-16 1.000000000000671 -5.5473019162985247e-15 1.0000000000006719
1530	0 0 0 0	8 8 8	0.74999999999986666	-0.3611111111111111 0.055555555555533327 0.055555555555533327	0.99173117616566564 2.1520610363866111e-15 2.9163707268740664e-15 0.99999999999875688 7.0884741777327702e-15 0.99999999999876177
1530	0 0 0 0	9 9 9	0.74999999999986666	-0.34259259259259256 0.074074074074044441 0.074074074074044441	0.99324948607207497 -1.0697341587160069e-14 -1.6290214051543974e-14 1.0000000000039657 2.4464846641274262e-14 1.0000000000039551
1530	0 0 0 0	10 10 10	0.74999999999986666	-0.32407407407407407 0.092592592592555548 0.092592592592555548	0.99324948616337516 8.4980492282267957e-14 2.1395697306589592e-14 0.99999999999590006 6.2001427712611935e-14 0.99999999999587763
#
#
#
#
#
#
#
#
#
#
#
#
#
#
#
#
#
#
#
#
#
#
#
#
#
#
#
#
#
#
#
#
#
#
#
#
#
#
#
#
#
#
#
#
#

# iteration 1530   time 0.74999999999986666
# time level 0
# refinement level 0   multigrid level 0   map 0   component 1
# column format: 1:it	2:tl	3:rl 4:c 5:ml	6:ix 7:iy 8:iz	9:time	10:x 11:y 12:z	13:data
# data columns: 13:gxx 14:gxy 15:gxz 16:gyy 17:gyz 18:gzz
#
#
#
#
#
#
#
#
#
#
#
#
#
#
#
#
#
#
#
#
#
#
#
#
#
#
#
#
#
#
#
#
#
#
#
#
#
#
#
#
#
#
#
#
#
#
#
#
#
#
#
#
#
#
#
#

# iteration 1530   time 0.74999999999986666
# time level 0
# refinement level 0   multigrid level 0   map 0   component 2
# column format: 1:it	2:tl	3:rl 4:c 5:ml	6:ix 7:iy 8:iz	9:time	10:x 11:y 12:z	13:data
# data columns: 13:gxx 14:gxy 15:gxz 16:gyy 17:gyz 18:gzz
#
#
#
#
#
#
#
#
#
#
#
#
#
#
#
#
#
#
#
#
#
#
#
#
#
#
#
#
#
#
#
#
#
#
#
#
#
#
#
#
#
#
#
#
#
#
#
#
#
#
#
#
#
#
#
#

# iteration 1530   time 0.74999999999986666
# time level 0
# refinement level 0   multigrid level 0   map 0   component 3
# column format: 1:it	2:tl	3:rl 4:c 5:ml	6:ix 7:iy 8:iz	9:time	10:x 11:y 12:z	13:data
# data columns: 13:gxx 14:gxy 15:gxz 16:gyy 17:gyz 18:gzz
#
#
#
#
#
#
#
#
#
#
#
#
#
#
#
#
#
#
#
#
#
#
#
#
#
#
#
#
#
#
#
#
#
#
#
#
#
#
#
#
#
#
#
#
#
#
#
#
#
#
#
#
#
#
#
#


# iteration 2040   time 0.99999999999982214
# time level 0
# refinement level 0   multigrid level 0   map 0   component 0
# column format: 1:it	2:tl	3:rl 4:c 5:ml	6:ix 7:iy 8:iz	9:time	10:x 11:y 12:z	13:data
# data columns: 13:gxx 14:gxy 15:gxz 16:gyy 17:gyz 18:gzz
2040	0 0 0 0	0 0 0	0.99999999999982214	-0.50925925925925919 -0.092592592592555548 -0.092592592592555548	0.99431376452660858 7.1617709033546081e-14 5.3971719009076926e-14 1.0000000000016458 -2.3358517051365456e-14 1.0000000000016527
2040	0 0 0 0	1 1 1	0.99999999999982214	-0.4907407407407407 -0.074074074074044441 -0.074074074074044441	0.99431376457514509 -3.5233973689815824e-14 -2.3676389474134388e-15 0.99999999999829192 -5.9504979142166788e-14 0.99999999999825651
2040	0 0 0 0	2 2 2	0.99999999999982214	-0.47222222222222221 -0.055555555555533327 -0.055555555555533327	0.99313884508415418 -2.2506679477145241e-16 -2.6577297074933881e-15 1.0000000000003928 -5.9148135957396759e-15 1.0000000000003768
2040	0 0 0 0	3 3 3	0.99999999999982214	-0.45370370370370366 -0.03703703703702222 -0.03703703703702222	0.99060721240017457 6.174252763558673e-15 2.092858659452518e-15 1.0000000000000071 -2.1876630682200138e-15 1.0000000000000209
2040	0 0 0 0	4 4 4	0.99999999999982214	-0.43518518518518517 -0.01851851851851111 -0.01851851851851111	0.98727043840048156 3.7955046183688481e-15 1.2315230374048902e-15 0.99999999999964584 5.0563403507136568e-15 0.9999999999996525
2040	0 0 0 0	5 5 5	0.99999999999982214	-0.41666666666666663 0 0	0.9838605055743731 3.6124767067177364e-15 1.0292970353506271e-15 1.0000000000006704 5.2318581976339378e-16 1.0000000000006712
2040	0 0 0 0	6 6 6	0.99999999999982214	-0.39814814814814814 0.01851851851851111 0.01851851851851111	0.98104392511566818 -1.0233722288046206e-15 4.087047560529989e-16 0.99999999999902145 5.1262366639180213e-15 0.99999999999901712
2040	0 0 0 0	7 7 7	0.99999999999982214	-0.37962962962962959 0.03703703703702222 0.03703703703702222	0.97916102706536345 3.6696351007250076e-15 3.2045473774902245e-15 1.0000000000014306 5.0410209109217759e-16 1.0000000000014209
2040	0 0 0 0	8 8 8	0.99999999999982214	-0.3611111111111111 0.055555555555533327 0.055555555555533327	0.97816539389969459 2.467834694148715e-15 2.0202435431844437e-15 0.99999999999784739 -5.2431753742065528e-15 0.99999999999785094
2040	0 0 0 0	9 9 9	0.99999999999982214	-0.34259259259259256 0.074074074074044441 0.074074074074044441	0.97781279867844428 5.5208193718532633e-14 6.3851560529001588e-14 1.0000000000060045 7.383795017657872e-14 1.0000000000061249
2040	0 0 0 0	10 10 10	0.99999999999982214	-0.32407407407407407 0.092592592592555548 0.092592592592555548	0.9778127986242241 2.2215468414560489e-14 3.714310948097073e-14 0.99999999999408651 -9.826031923957745e-14 0.99999999999416789
#
#
#
#
#
#
#
#
#
#
#
#
#
#
#
#
#
#
#
#
#
#
#
#
#
#
#
#
#
#
#
#
#
#
#
#
#
#
#
#
#
#
#
#
#

# iteration 2040   time 0.99999999999982214
# time level 0
# refinement level 0   multigrid level 0   map 0   component 1
# column format: 1:it	2:tl	3:rl 4:c 5:ml	6:ix 7:iy 8:iz	9:time	10:x 11:y 12:z	13:data
# data columns: 13:gxx 14:gxy 15:gxz 16:gyy 17:gyz 18:gzz
#
#
#
#
#
#
#
#
#
#
#
#
#
#
#
#
#
#
#
#
#
#
#
#
#
#
#
#
#
#
#
#
#
#
#
#
#
#
#
#
#
#
#
#
#
#
#
#
#
#
#
#
#
#
#
#

# iteration 2040   time 0.99999999999982214
# time level 0
# refinement level 0   multigrid level 0   map 0   component 2
# column format: 1:it	2:tl	3:rl 4:c 5:ml	6:ix 7:iy 8:iz	9:time	10:x 11:y 12:z	13:data
# data columns: 13:gxx 14:gxy 15:gxz 16:gyy 17:gyz 18:gzz
#
#
#
#
#
#
#
#
#
#
#
#
#
#
#
#
#
#
#
#
#
#
#
#
#
#
#
#
#
#
#
#
#
#
#
#
#
#
#
#
#
#
#
#
#
#
#
#
#
#
#
#
#
#
#
#

# iteration 2040   time 0.99999999999982214
# time level 0
# refinement level 0   multigrid level 0   map 0   component 3
# column format: 1:it	2:tl	3:rl 4:c 5:ml	6:ix 7:iy 8:iz	9:time	10:x 11:y 12:z	13:data
# data columns: 13:gxx 14:gxy 15:gxz 16:gyy 17:gyz 18:gzz
#
#
#
#
#
#
#
#
#
#
#
#
#
#
#
#
#
#
#
#
#
#
#
#
#
#
#
#
#
#
#
#
#
#
#
#
#
#
#
#
#
#
#
#
#
#
#
#
#
#
#
#
#
#
#
#


# iteration 2550   time 1.2499999999997777
# time level 0
# refinement level 0   multigrid level 0   map 0   component 0
# column format: 1:it	2:tl	3:rl 4:c 5:ml	6:ix 7:iy 8:iz	9:time	10:x 11:y 12:z	13:data
# data columns: 13:gxx 14:gxy 15:gxz 16:gyy 17:gyz 18:gzz
2550	0 0 0 0	0 0 0	1.2499999999997777	-0.50925925925925919 -0.092592592592555548 -0.092592592592555548	1.0330183563731017 -5.0238010925790997e-14 3.2161020785496683e-14 1.0000000000013907 -5.3243937717962606e-14 1.0000000000013947
2550	0 0 0 0	1 1 1	1.2499999999997777	-0.4907407407407407 -0.074074074074044441 -0.074074074074044441	1.0330183565866897 3.4991591275359196e-14 8.8555483859712721e-14 0.99999999999787315 -2.9508857151805612e-14 0.99999999999795874
2550	0 0 0 0	2 2 2	1.2499999999997777	-0.47222222222222221 -0.055555555555533327 -0.055555555555533327	1.0330922556718165 -1.9604304967136174e-15 -2.8218044401004518e-15 1.0000000000001497 -7.5542346404140238e-15 1.0000000000001379
2550	0 0 0 0	3 3 3	1.2499999999997777	-0.45370370370370366 -0.03703703703702222 -0.03703703703702222	1.0329163797233014 5.4913566110548064e-15 1.3845433644280879e-15 1.0000000000006681 -3.2187141687872749e-15 1.0000000000006732
2550	0 0 0 0	4 4 4	1.2499999999997777	-0.43518518518518517 -0.01851851851851111 -0.01851851851851111	1.0318747942061866 1.9008910468964423e-15 1.3600937531631757e-15 0.99999999999860245 1.9798035135774985e-15 0.99999999999861955
2550	0 0 0 0	5 5 5	1.2499999999997777	-0.41666666666666663 0 0	1.0295498164077004 -3.969727112095768e-15 2.1097414774021299e-15 1.0000000000019833 6.2853502110783029e-15 1.0000000000019802
2550	0 0 0 0	6 6 6	1.2499999999997777	-0.39814814814814814 0.01851851851851111 0.01851851851851111	1.0261117804299442 5.7624279447433863e-15 1.3236703622938517e-15 0.99999999999762734 1.7889582260468872e-15 0.9999999999976158
2550	0 0 0 0	7 7 7	1.2499999999997777	-0.37962962962962959 0.03703703703702222 0.03703703703702222	1.0223464811034677 3.5240274713592743e-15 2.5161216394845572e-15 1.0000000000026956 2.5169252837382451e-15 1.0000000000026938
2550	0 0 0 0	8 8 8	1.2499999999997777	-0.3611111111111111 0.055555555555533327 0.055555555555533327	1.0192985816043698 -4.7464735695753745e-15 -3.4436309741467453e-15 0.99999999999679068 9.6044246537092981e-15 0.9999999999967667
2550	0 0 0 0	9 9 9	1.2499999999997777	-0.34259259259259256 0.074074074074044441 0.074074074074044441	1.0178372393983657 -9.0362978561737841e-14 2.5678157642741706e-14 1.0000000000078415 -7.3049098188919439e-14 1.0000000000078668
2550	0 0 0 0	10 10 10	1.2499999999997777	-0.32407407407407407 0.092592592592555548 0.092592592592555548	1.0178372392046511 -6.8404782487265915e-14 4.592122017027987e-14 0.99999999999125944 -2.4956699155671832e-14 0.99999999999126332
#
#
#
#
#
#
#
#
#
#
#
#
#
#
#
#
#
#
#
#
#
#
#
#
#
#
#
#
#
#
#
#
#
#
#
#
#
#
#
#
#
#
#
#
#

# iteration 2550   time 1.2499999999997777
# time level 0
# refinement level 0   multigrid level 0   map 0   component 1
# column format: 1:it	2:tl	3:rl 4:c 5:ml	6:ix 7:iy 8:iz	9:time	10:x 11:y 12:z	13:data
# data columns: 13:gxx 14:gxy 15:gxz 16:gyy 17:gyz 18:gzz
#
#
#
#
#
#
#
#
#
#
#
#
#
#
#
#
#
#
#
#
#
#
#
#
#
#
#
#
#
#
#
#
#
#
#
#
#
#
#
#
#
#
#
#
#
#
#
#
#
#
#
#
#
#
#
#

# iteration 2550   time 1.2499999999997777
# time level 0
# refinement level 0   multigrid level 0   map 0   component 2
# column format: 1:it	2:tl	3:rl 4:c 5:ml	6:ix 7:iy 8:iz	9:time	10:x 11:y 12:z	13:data
# data columns: 13:gxx 14:gxy 15:gxz 16:gyy 17:gyz 18:gzz
#
#
#
#
#
#
#
#
#
#
#
#
#
#
#
#
#
#
#
#
#
#
#
#
#
#
#
#
#
#
#
#
#
#
#
#
#
#
#
#
#
#
#
#
#
#
#
#
#
#
#
#
#
#
#
#

# iteration 2550   time 1.2499999999997777
# time level 0
# refinement level 0   multigrid level 0   map 0   component 3
# column format: 1:it	2:tl	3:rl 4:c 5:ml	6:ix 7:iy 8:iz	9:time	10:x 11:y 12:z	13:data
# data columns: 13:gxx 14:gxy 15:gxz 16:gyy 17:gyz 18:gzz
#
#
#
#
#
#
#
#
#
#
#
#
#
#
#
#
#
#
#
#
#
#
#
#
#
#
#
#
#
#
#
#
#
#
#
#
#
#
#
#
#
#
#
#
#
#
#
#
#
#
#
#
#
#
#
#


# iteration 3060   time 1.4999999999997333
# time level 0
# refinement level 0   multigrid level 0   map 0   component 0
# column format: 1:it	2:tl	3:rl 4:c 5:ml	6:ix 7:iy 8:iz	9:time	10:x 11:y 12:z	13:data
# data columns: 13:gxx 14:gxy 15:gxz 16:gyy 17:gyz 18:gzz
3060	0 0 0 0	0 0 0	1.4999999999997333	-0.50925925925925919 -0.092592592592555548 -0.092592592592555548	0.98919781299024423 -1.1456952772819728e-13 -4.6526600929909265e-14 1.0000000000028983 -1.0638157111061703e-13 1.0000000000028499
3060	0 0 0 0	1 1 1	1.4999999999997333	-0.4907407407407407 -0.074074074074044441 -0.074074074074044441	0.98919781268997997 6.318886074728561e-14 1.1210179297079668e-15 0.99999999999727784 5.3979598642086749e-14 0.99999999999726541
3060	0 0 0 0	2 2 2	1.4999999999997333	-0.47222222222222221 -0.055555555555533327 -0.055555555555533327	0.9901020080147267 -1.4325310362569193e-15 -1.2224262433729387e-14 1.000000000000844 8.1766893589403855e-15 1.0000000000008196
3060	0 0 0 0	3 3 3	1.4999999999997333	-0.45370370370370366 -0.03703703703702222 -0.03703703703702222	0.99220544278523515 6.4806069025782285e-15 9.3060980029036884e-16 0.99999999999953981 -5.3221386444394962e-16 0.99999999999953026
3060	0 0 0 0	4 4 4	1.4999999999997333	-0.43518518518518517 -0.01851851851851111 -0.01851851851851111	0.99535799225050092 1.8457699815945104e-15 -1.3278859521777504e-15 1.0000000000001215 2.9695780128138479e-15 1.0000000000001394
3060	0 0 0 0	5 5 5	1.4999999999997333	-0.41666666666666663 0 0	0.99918233806742307 -1.2413078841238955e-15 5.2496359882660646e-15 1.0000000000002667 5.5296537598318633e-15 1.0000000000002629
3060	0 0 0 0	6 6 6	1.4999999999997333	-0.39814814814814814 0.01851851851851111 0.01851851851851111	1.0030792690751493 6.3955085840292758e-16 1.6520892916934508e-15 0.99999999999927169 3.7674684973193236e-15 0.99999999999927436
3060	0 0 0 0	7 7 7	1.4999999999997333	-0.37962962962962959 0.03703703703702222 0.03703703703702222	1.0064058236584486 1.0482342013075109e-14 -5.5846204230602206e-15 1.0000000000013813 6.2362124986992417e-16 1.0000000000013691
3060	0 0 0 0	8 8 8	1.4999999999997333	-0.3611111111111111 0.055555555555533327 0.055555555555533327	1.0086871101888299 -2.9459189166835011e-15 -1.304943884526577e-14 0.99999999999767086 -2.8369130654723463e-15 0.99999999999768385
3060	0 0 0 0	9 9 9	1.4999999999997333	-0.34259259259259256 0.074074074074044441 0.074074074074044441	1.0096839742703083 -3.1414723502412798e-14 3.3366640487729612e-14 1.0000000000074285 9.4546173365372275e-14 1.0000000000073932
3060	0 0 0 0	10 10 10	1.4999999999997333	-0.32407407407407407 0.092592592592555548 0.092592592592555548	1.009683974493907 2.8874146465144101e-14 2.4853099395035664e-14 0.99999999999227707 -7.1362195685055028e-14 0.99999999999225897
#
#
#
#
#
#
#
#
#
#
#
#
#
#
#
#
#
#
#
#
#
#
#
#
#
#
#
#
#
#
#
#
#
#
#
#
#
#
#
#
#
#
#
#
#

# iteration 3060   time 1.4999999999997333
# time level 0
# refinement level 0   multigrid level 0   map 0   component 1
# column format: 1:it	2:tl	3:rl 4:c 5:ml	6:ix 7:iy 8:iz	9:time	10:x 11:y 12:z	13:data
# data columns: 13:gxx 14:gxy 15:gxz 16:gyy 17:gyz 18:gzz
#
#
#
#
#
#
#
#
#
#
#
#
#
#
#
#
#
#
#
#
#
#
#
#
#
#
#
#
#
#
#
#
#
#
#
#
#
#
#
#
#
#
#
#
#
#
#
#
#
#
#
#
#
#
#
#

# iteration 3060   time 1.4999999999997333
# time level 0
# refinement level 0   multigrid level 0   map 0   component 2
# column format: 1:it	2:tl	3:rl 4:c 5:ml	6:ix 7:iy 8:iz	9:time	10:x 11:y 12:z	13:data
# data columns: 13:gxx 14:gxy 15:gxz 16:gyy 17:gyz 18:gzz
#
#
#
#
#
#
#
#
#
#
#
#
#
#
#
#
#
#
#
#
#
#
#
#
#
#
#
#
#
#
#
#
#
#
#
#
#
#
#
#
#
#
#
#
#
#
#
#
#
#
#
#
#
#
#
#

# iteration 3060   time 1.4999999999997333
# time level 0
# refinement level 0   multigrid level 0   map 0   component 3
# column format: 1:it	2:tl	3:rl 4:c 5:ml	6:ix 7:iy 8:iz	9:time	10:x 11:y 12:z	13:data
# data columns: 13:gxx 14:gxy 15:gxz 16:gyy 17:gyz 18:gzz
#
#
#
#
#
#
#
#
#
#
#
#
#
#
#
#
#
#
#
#
#
#
#
#
#
#
#
#
#
#
#
#
#
#
#
#
#
#
#
#
#
#
#
#
#
#
#
#
#
#
#
#
#
#
#
#


# iteration 3570   time 1.7499999999996887
# time level 0
# refinement level 0   multigrid level 0   map 0   component 0
# column format: 1:it	2:tl	3:rl 4:c 5:ml	6:ix 7:iy 8:iz	9:time	10:x 11:y 12:z	13:data
# data columns: 13:gxx 14:gxy 15:gxz 16:gyy 17:gyz 18:gzz
3570	0 0 0 0	0 0 0	1.7499999999996887	-0.50925925925925919 -0.092592592592555548 -0.092592592592555548	0.98345764333972518 -1.6896502171171969e-16 9.9919984225832962e-14 1.0000000000009779 -6.5272651183304636e-15 1.0000000000010354
3570	0 0 0 0	1 1 1	1.7499999999996887	-0.4907407407407407 -0.074074074074044441 -0.074074074074044441	0.98345764339214437 -1.0343113969036324e-13 5.5901409504960997e-14 0.99999999999880829 4.9291922283811505e-15 0.99999999999884381
3570	0 0 0 0	2 2 2	1.7499999999996887	-0.47222222222222221 -0.055555555555533327 -0.055555555555533327	0.98301425659446917 -2.5329127722936642e-15 1.8370058731718939e-14 1.000000000000026 1.4186458108807683e-14 1.0000000000000075
3570	0 0 0 0	3 3 3	1.7499999999996887	-0.45370370370370366 -0.03703703703702222 -0.03703703703702222	0.98219803333731015 -5.255866978691894e-15 3.7250123266334972e-15 1.0000000000005231 8.3337873180540115e-16 1.0000000000005211
3570	0 0 0 0	4 4 4	1.7499999999996887	-0.43518518518518517 -0.01851851851851111 -0.01851851851851111	0.98145201967541973 -2.1063536723536345e-16 -1.2696484440340354e-15 0.99999999999902467 -2.6335679425798752e-15 0.99999999999901701
3570	0 0 0 0	5 5 5	1.7499999999996887	-0.41666666666666663 0 0	0.98119338913977083 -3.8729740172698206e-15 5.5715253170138421e-15 1.0000000000013018 3.0757163964120974e-15 1.000000000001299
3570	0 0 0 0	6 6 6	1.7499999999996887	-0.39814814814814814 0.01851851851851111 0.01851851851851111	0.98158079239160489 6.3109151763357779e-15 7.877484338055891e-17 0.99999999999852329 5.4347868577496582e-15 0.99999999999851819
3570	0 0 0 0	7 7 7	1.7499999999996887	-0.37962962962962959 0.03703703703702222 0.03703703703702222	0.98242226083839546 1.8545641115057007e-15 2.3838222701843979e-15 1.0000000000016438 -3.6630816233657067e-16 1.0000000000016351
3570	0 0 0 0	8 8 8	1.7499999999996887	-0.3611111111111111 0.055555555555533327 0.055555555555533327	0.98329018191134587 -3.2828455554876861e-15 3.8757843098115049e-15 0.99999999999804678 1.6913984385328203e-14 0.99999999999803346
3570	0 0 0 0	9 9 9	1.7499999999996887	-0.34259259259259256 0.074074074074044441 0.074074074074044441	0.98375138980204191 3.2638225716772332e-14 3.2296924759300694e-14 1.0000000000055935 -3.8847948790171837e-14 1.000000000005635
3570	0 0 0 0	10 10 10	1.7499999999996887	-0.32407407407407407 0.092592592592555548 0.092592592592555548	0.98375138987850985 -3.121728576941192e-15 3.6654134186289844e-14 0.99999999999391775 5.7619011018557624e-14 0.99999999999407074
#
#
#
#
#
#
#
#
#
#
#
#
#
#
#
#
#
#
#
#
#
#
#
#
#
#
#
#
#
#
#
#
#
#
#
#
#
#
#
#
#
#
#
#
#

# iteration 3570   time 1.7499999999996887
# time level 0
# refinement level 0   multigrid level 0   map 0   component 1
# column format: 1:it	2:tl	3:rl 4:c 5:ml	6:ix 7:iy 8:iz	9:time	10:x 11:y 12:z	13:data
# data columns: 13:gxx 14:gxy 15:gxz 16:gyy 17:gyz 18:gzz
#
#
#
#
#
#
#
#
#
#
#
#
#
#
#
#
#
#
#
#
#
#
#
#
#
#
#
#
#
#
#
#
#
#
#
#
#
#
#
#
#
#
#
#
#
#
#
#
#
#
#
#
#
#
#
#

# iteration 3570   time 1.7499999999996887
# time level 0
# refinement level 0   multigrid level 0   map 0   component 2
# column format: 1:it	2:tl	3:rl 4:c 5:ml	6:ix 7:iy 8:iz	9:time	10:x 11:y 12:z	13:data
# data columns: 13:gxx 14:gxy 15:gxz 16:gyy 17:gyz 18:gzz
#
#
#
#
#
#
#
#
#
#
#
#
#
#
#
#
#
#
#
#
#
#
#
#
#
#
#
#
#
#
#
#
#
#
#
#
#
#
#
#
#
#
#
#
#
#
#
#
#
#
#
#
#
#
#
#

# iteration 3570   time 1.7499999999996887
# time level 0
# refinement level 0   multigrid level 0   map 0   component 3
# column format: 1:it	2:tl	3:rl 4:c 5:ml	6:ix 7:iy 8:iz	9:time	10:x 11:y 12:z	13:data
# data columns: 13:gxx 14:gxy 15:gxz 16:gyy 17:gyz 18:gzz
#
#
#
#
#
#
#
#
#
#
#
#
#
#
#
#
#
#
#
#
#
#
#
#
#
#
#
#
#
#
#
#
#
#
#
#
#
#
#
#
#
#
#
#
#
#
#
#
#
#
#
#
#
#
#
#


# iteration 4080   time 1.9999999999996443
# time level 0
# refinement level 0   multigrid level 0   map 0   component 0
# column format: 1:it	2:tl	3:rl 4:c 5:ml	6:ix 7:iy 8:iz	9:time	10:x 11:y 12:z	13:data
# data columns: 13:gxx 14:gxy 15:gxz 16:gyy 17:gyz 18:gzz
4080	0 0 0 0	0 0 0	1.9999999999996443	-0.50925925925925919 -0.092592592592555548 -0.092592592592555548	1.0121598260475362 6.3577839293267179e-14 3.8087498611321846e-14 1.0000000000015137 4.3883660871057441e-15 1.0000000000016727
4080	0 0 0 0	1 1 1	1.9999999999996443	-0.4907407407407407 -0.074074074074044441 -0.074074074074044441	1.012159826204801 -1.3015413868880562e-14 -4.3331859242702104e-14 0.99999999999803879 1.6445670037629232e-14 0.99999999999808764
4080	0 0 0 0	2 2 2	1.9999999999996443	-0.47222222222222221 -0.055555555555533327 -0.055555555555533327	1.0119124711425544 -6.9326849675533688e-15 6.7921040519660032e-15 1.0000000000004949 2.009865415400615e-14 1.0000000000004898
4080	0 0 0 0	3 3 3	1.9999999999996443	-0.45370370370370366 -0.03703703703702222 -0.03703703703702222	1.0112427095413572 -1.3950523510558955e-15 1.3527058708530403e-15 0.99999999999994948 8.0449494325266035e-16 0.99999999999994083
4080	0 0 0 0	4 4 4	1.9999999999996443	-0.43518518518518517 -0.01851851851851111 -0.01851851851851111	1.0100344759557194 3.7983802018389747e-16 4.571018327436137e-16 0.99999999999970846 -2.5973534802250329e-15 0.99999999999971256
4080	0 0 0 0	5 5 5	1.9999999999996443	-0.41666666666666663 0 0	1.0083024676095202 -6.8311219829500362e-15 4.4722255514487759e-15 1.0000000000005946 2.7172140128374175e-16 1.0000000000005915
4080	0 0 0 0	6 6 6	1.9999999999996443	-0.39814814814814814 0.01851851851851111 0.01851851851851111	1.0062820036761841 7.0124726728702062e-15 4.2097653937900394e-15 0.99999999999915168 -1.8930980144370987e-15 0.99999999999913747
4080	0 0 0 0	7 7 7	1.9999999999996443	-0.37962962962962959 0.03703703703702222 0.03703703703702222	1.0043651018782223 8.4196661384880255e-15 4.6235272401755982e-15 1.0000000000011622 -2.8637193540883407e-15 1.0000000000011608
4080	0 0 0 0	8 8 8	1.9999999999996443	-0.3611111111111111 0.055555555555533327 0.055555555555533327	1.0029437837748858 2.3300885303651044e-15 -4.6160737965432026e-16 0.99999999999837708 -1.1754483512979058e-15 0.9999999999983743
4080	0 0 0 0	9 9 9	1.9999999999996443	-0.34259259259259256 0.074074074074044441 0.074074074074044441	1.0022928776335978 -8.1312121445440495e-14 -1.0540947948711441e-14 1.000000000004863 6.7089519555670188e-14 1.00000000000477
4080	0 0 0 0	10 10 10	1.9999999999996443	-0.32407407407407407 0.092592592592555548 0.092592592592555548	1.0022928773860573 -3.8806311369472884e-14 1.8843140463184493e-13 0.99999999999422695 -9.1513802730698913e-14 0.99999999999428169
#
#
#
#
#
#
#
#
#
#
#
#
#
#
#
#
#
#
#
#
#
#
#
#
#
#
#
#
#
#
#
#
#
#
#
#
#
#
#
#
#
#
#
#
#

# iteration 4080   time 1.9999999999996443
# time level 0
# refinement level 0   multigrid level 0   map 0   component 1
# column format: 1:it	2:tl	3:rl 4:c 5:ml	6:ix 7:iy 8:iz	9:time	10:x 11:y 12:z	13:data
# data columns: 13:gxx 14:gxy 15:gxz 16:gyy 17:gyz 18:gzz
#
#
#
#
#
#
#
#
#
#
#
#
#
#
#
#
#
#
#
#
#
#
#
#
#
#
#
#
#
#
#
#
#
#
#
#
#
#
#
#
#
#
#
#
#
#
#
#
#
#
#
#
#
#
#
#

# iteration 4080   time 1.9999999999996443
# time level 0
# refinement level 0   multigrid level 0   map 0   component 2
# column format: 1:it	2:tl	3:rl 4:c 5:ml	6:ix 7:iy 8:iz	9:time	10:x 11:y 12:z	13:data
# data columns: 13:gxx 14:gxy 15:gxz 16:gyy 17:gyz 18:gzz
#
#
#
#
#
#
#
#
#
#
#
#
#
#
#
#
#
#
#
#
#
#
#
#
#
#
#
#
#
#
#
#
#
#
#
#
#
#
#
#
#
#
#
#
#
#
#
#
#
#
#
#
#
#
#
#

# iteration 4080   time 1.9999999999996443
# time level 0
# refinement level 0   multigrid level 0   map 0   component 3
# column format: 1:it	2:tl	3:rl 4:c 5:ml	6:ix 7:iy 8:iz	9:time	10:x 11:y 12:z	13:data
# data columns: 13:gxx 14:gxy 15:gxz 16:gyy 17:gyz 18:gzz
#
#
#
#
#
#
#
#
#
#
#
#
#
#
#
#
#
#
#
#
#
#
#
#
#
#
#
#
#
#
#
#
#
#
#
#
#
#
#
#
#
#
#
#
#
#
#
#
#
#
#
#
#
#
#
#


# iteration 4590   time 2.2499999999995999
# time level 0
# refinement level 0   multigrid level 0   map 0   component 0
# column format: 1:it	2:tl	3:rl 4:c 5:ml	6:ix 7:iy 8:iz	9:time	10:x 11:y 12:z	13:data
# data columns: 13:gxx 14:gxy 15:gxz 16:gyy 17:gyz 18:gzz
4590	0 0 0 0	0 0 0	2.2499999999995999	-0.50925925925925919 -0.092592592592555548 -0.092592592592555548	0.99962299873456795 -1.1966771001364533e-13 -2.2023105871589405e-14 1.0000000000024636 -1.6915105670192152e-14 1.0000000000024138
4590	0 0 0 0	1 1 1	2.2499999999995999	-0.4907407407407407 -0.074074074074044441 -0.074074074074044441	0.99962299898085016 2.686529286222725e-14 -1.2333091149837325e-13 0.9999999999972341 1.6622607322191143e-13 0.99999999999720102
4590	0 0 0 0	2 2 2	2.2499999999995999	-0.47222222222222221 -0.055555555555533327 -0.055555555555533327	0.99980149012319086 7.0533538279176315e-15 -1.4994103627834579e-14 1.0000000000008524 -2.556831405262408e-16 1.0000000000008524
4590	0 0 0 0	3 3 3	2.2499999999995999	-0.45370370370370366 -0.03703703703702222 -0.03703703703702222	1.0001998423178575 2.376324128773737e-15 1.0145726992476087e-14 0.99999999999950739 -1.9430469805609192e-15 0.99999999999952416
4590	0 0 0 0	4 4 4	2.2499999999995999	-0.43518518518518517 -0.01851851851851111 -0.01851851851851111	1.00075581423438 5.1936339850483359e-15 5.0266855908378607e-15 1.0000000000002616 1.6986469440348343e-15 1.00000000000026
4590	0 0 0 0	5 5 5	2.2499999999995999	-0.41666666666666663 0 0	1.001367324356651 -1.7752839870234882e-15 2.3009554814154719e-15 0.99999999999990385 7.2773651625386343e-15 0.99999999999989586
4590	0 0 0 0	6 6 6	2.2499999999995999	-0.39814814814814814 0.01851851851851111 0.01851851851851111	1.0019190568762544 9.76409286932945e-15 4.9852491014352769e-15 0.99999999999997025 7.3511973254586876e-15 0.9999999999999718
4590	0 0 0 0	7 7 7	2.2499999999995999	-0.37962962962962959 0.03703703703702222 0.03703703703702222	1.0023293342866952 4.6387234898943289e-15 4.0213175772729639e-15 1.000000000000103 9.929569841975543e-15 1.0000000000001055
4590	0 0 0 0	8 8 8	2.2499999999995999	-0.3611111111111111 0.055555555555533327 0.055555555555533327	1.0025749851818515 4.4118119405357749e-17 9.2991282238297055e-16 0.99999999999975275 1.1861484383800292e-14 0.99999999999977507
4590	0 0 0 0	9 9 9	2.2499999999995999	-0.34259259259259256 0.074074074074044441 0.074074074074044441	1.0026722531634329 -1.6868435574055225e-13 3.4793575590369759e-14 1.0000000000014355 -1.2204205933788676e-13 1.0000000000013787
4590	0 0 0 0	10 10 10	2.2499999999995999	-0.32407407407407407 0.092592592592555548 0.092592592592555548	1.0026722529503171 4.1376513197562949e-14 -6.5483145359257301e-14 0.99999999999759681 1.222316627364849e-13 0.99999999999756461
#
#
#
#
#
#
#
#
#
#
#
#
#
#
#
#
#
#
#
#
#
#
#
#
#
#
#
#
#
#
#
#
#
#
#
#
#
#
#
#
#
#
#
#
#

# iteration 4590   time 2.2499999999995999
# time level 0
# refinement level 0   multigrid level 0   map 0   component 1
# column format: 1:it	2:tl	3:rl 4:c 5:ml	6:ix 7:iy 8:iz	9:time	10:x 11:y 12:z	13:data
# data columns: 13:gxx 14:gxy 15:gxz 16:gyy 17:gyz 18:gzz
#
#
#
#
#
#
#
#
#
#
#
#
#
#
#
#
#
#
#
#
#
#
#
#
#
#
#
#
#
#
#
#
#
#
#
#
#
#
#
#
#
#
#
#
#
#
#
#
#
#
#
#
#
#
#
#

# iteration 4590   time 2.2499999999995999
# time level 0
# refinement level 0   multigrid level 0   map 0   component 2
# column format: 1:it	2:tl	3:rl 4:c 5:ml	6:ix 7:iy 8:iz	9:time	10:x 11:y 12:z	13:data
# data columns: 13:gxx 14:gxy 15:gxz 16:gyy 17:gyz 18:gzz
#
#
#
#
#
#
#
#
#
#
#
#
#
#
#
#
#
#
#
#
#
#
#
#
#
#
#
#
#
#
#
#
#
#
#
#
#
#
#
#
#
#
#
#
#
#
#
#
#
#
#
#
#
#
#
#

# iteration 4590   time 2.2499999999995999
# time level 0
# refinement level 0   multigrid level 0   map 0   component 3
# column format: 1:it	2:tl	3:rl 4:c 5:ml	6:ix 7:iy 8:iz	9:time	10:x 11:y 12:z	13:data
# data columns: 13:gxx 14:gxy 15:gxz 16:gyy 17:gyz 18:gzz
#
#
#
#
#
#
#
#
#
#
#
#
#
#
#
#
#
#
#
#
#
#
#
#
#
#
#
#
#
#
#
#
#
#
#
#
#
#
#
#
#
#
#
#
#
#
#
#
#
#
#
#
#
#
#
#


# iteration 5100   time 2.4999999999995555
# time level 0
# refinement level 0   multigrid level 0   map 0   component 0
# column format: 1:it	2:tl	3:rl 4:c 5:ml	6:ix 7:iy 8:iz	9:time	10:x 11:y 12:z	13:data
# data columns: 13:gxx 14:gxy 15:gxz 16:gyy 17:gyz 18:gzz
5100	0 0 0 0	0 0 0	2.4999999999995555	-0.50925925925925919 -0.092592592592555548 -0.092592592592555548	1.0040985151547039 4.4647146503808586e-14 8.9383577685358353e-14 1.0000000000028555 1.0579850184301596e-14 1.0000000000029026
5100	0 0 0 0	1 1 1	2.4999999999995555	-0.4907407407407407 -0.074074074074044441 -0.074074074074044441	1.0040985148784431 1.7438103038602457e-14 4.0381581511439225e-14 0.99999999999681355 9.5525977181661246e-14 0.99999999999693834
5100	0 0 0 0	2 2 2	2.4999999999995555	-0.47222222222222221 -0.055555555555533327 -0.055555555555533327	1.0039815450070428 -3.5006860282130609e-15 -1.3016271556980821e-15 1.0000000000010107 1.4315127576036355e-14 1.0000000000009741
5100	0 0 0 0	3 3 3	2.4999999999995555	-0.45370370370370366 -0.03703703703702222 -0.03703703703702222	1.0036837826268441 1.2354132756085146e-15 8.0347032891636974e-15 0.99999999999939049 5.7541781539229109e-15 0.99999999999941225
5100	0 0 0 0	4 4 4	2.4999999999995555	-0.43518518518518517 -0.01851851851851111 -0.01851851851851111	1.0031843692669244 2.0264228087974306e-15 2.2463580492242271e-15 1.0000000000003528 1.2719751985060512e-15 1.0000000000003659
5100	0 0 0 0	5 5 5	2.4999999999995555	-0.41666666666666663 0 0	1.0025135830052043 -3.5545065342380906e-15 3.2323819819508316e-15 0.99999999999981259 9.7953711178957911e-15 0.99999999999982081
5100	0 0 0 0	6 6 6	2.4999999999995555	-0.39814814814814814 0.01851851851851111 0.01851851851851111	1.0017715185443017 9.9079131823023398e-16 3.4511669647263779e-15 1.0000000000000588 -8.0778260371663787e-17 1.000000000000054
5100	0 0 0 0	7 7 7	2.4999999999995555	-0.37962962962962959 0.03703703703702222 0.03703703703702222	1.0010954759778188 -1.4972577236631644e-15 -6.2681280771191564e-15 1.0000000000000893 1.1793242477644186e-14 1.00000000000006
5100	0 0 0 0	8 8 8	2.4999999999995555	-0.3611111111111111 0.055555555555533327 0.055555555555533327	1.0006080336872141 -5.2169138553980678e-15 -1.5847253476758607e-14 0.99999999999971745 6.777981788971537e-15 0.99999999999973077
5100	0 0 0 0	9 9 9	2.4999999999995555	-0.34259259259259256 0.074074074074044441 0.074074074074044441	1.0003882065551239 2.1123716117809462e-14 -6.1357059210961673e-14 1.0000000000018374 6.1892090965722262e-14 1.000000000001847
5100	0 0 0 0	10 10 10	2.4999999999995555	-0.32407407407407407 0.092592592592555548 0.092592592592555548	1.0003882067714986 -1.6058493009686184e-13 -2.6406688978991701e-14 0.99999999999754863 -4.0940891195806874e-14 0.99999999999760458
#
#
#
#
#
#
#
#
#
#
#
#
#
#
#
#
#
#
#
#
#
#
#
#
#
#
#
#
#
#
#
#
#
#
#
#
#
#
#
#
#
#
#
#
#

# iteration 5100   time 2.4999999999995555
# time level 0
# refinement level 0   multigrid level 0   map 0   component 1
# column format: 1:it	2:tl	3:rl 4:c 5:ml	6:ix 7:iy 8:iz	9:time	10:x 11:y 12:z	13:data
# data columns: 13:gxx 14:gxy 15:gxz 16:gyy 17:gyz 18:gzz
#
#
#
#
#
#
#
#
#
#
#
#
#
#
#
#
#
#
#
#
#
#
#
#
#
#
#
#
#
#
#
#
#
#
#
#
#
#
#
#
#
#
#
#
#
#
#
#
#
#
#
#
#
#
#
#

# iteration 5100   time 2.4999999999995555
# time level 0
# refinement level 0   multigrid level 0   map 0   component 2
# column format: 1:it	2:tl	3:rl 4:c 5:ml	6:ix 7:iy 8:iz	9:time	10:x 11:y 12:z	13:data
# data columns: 13:gxx 14:gxy 15:gxz 16:gyy 17:gyz 18:gzz
#
#
#
#
#
#
#
#
#
#
#
#
#
#
#
#
#
#
#
#
#
#
#
#
#
#
#
#
#
#
#
#
#
#
#
#
#
#
#
#
#
#
#
#
#
#
#
#
#
#
#
#
#
#
#
#

# iteration 5100   time 2.4999999999995555
# time level 0
# refinement level 0   multigrid level 0   map 0   component 3
# column format: 1:it	2:tl	3:rl 4:c 5:ml	6:ix 7:iy 8:iz	9:time	10:x 11:y 12:z	13:data
# data columns: 13:gxx 14:gxy 15:gxz 16:gyy 17:gyz 18:gzz
#
#
#
#
#
#
#
#
#
#
#
#
#
#
#
#
#
#
#
#
#
#
#
#
#
#
#
#
#
#
#
#
#
#
#
#
#
#
#
#
#
#
#
#
#
#
#
#
#
#
#
#
#
#
#
#


# iteration 5610   time 2.7499999999995111
# time level 0
# refinement level 0   multigrid level 0   map 0   component 0
# column format: 1:it	2:tl	3:rl 4:c 5:ml	6:ix 7:iy 8:iz	9:time	10:x 11:y 12:z	13:data
# data columns: 13:gxx 14:gxy 15:gxz 16:gyy 17:gyz 18:gzz
5610	0 0 0 0	0 0 0	2.7499999999995111	-0.50925925925925919 -0.092592592592555548 -0.092592592592555548	0.99732139412171983 1.2273457761994433e-13 1.5272070909121824e-13 1.0000000000020433 -1.189440885400939e-13 1.0000000000021279
5610	0 0 0 0	1 1 1	2.7499999999995111	-0.4907407407407407 -0.074074074074044441 -0.074074074074044441	0.99732139417048082 1.9357997186924945e-13 9.9694206311901948e-14 0.99999999999755529 8.2038079643082397e-14 0.99999999999758926
5610	0 0 0 0	2 2 2	2.7499999999995111	-0.47222222222222221 -0.055555555555533327 -0.055555555555533327	0.99778794582539676 1.1557469605013575e-14 -2.5430992472017096e-15 1.0000000000006848 2.0072115976664684e-14 1.000000000000667
5610	0 0 0 0	3 3 3	2.7499999999995111	-0.45370370370370366 -0.03703703703702222 -0.03703703703702222	0.9988450062191625 -2.1076471952525013e-15 2.5109743191824181e-15 0.99999999999962441 3.9325735184507932e-15 0.99999999999961686
5610	0 0 0 0	4 4 4	2.7499999999995111	-0.43518518518518517 -0.01851851851851111 -0.01851851851851111	1.0003588054032708 3.0756379332925472e-15 3.8245141452125905e-15 1.0000000000001914 -2.4109730811968594e-16 1.0000000000001916
5610	0 0 0 0	5 5 5	2.7499999999995111	-0.41666666666666663 0 0	1.0020848093118415 -1.1476071668196487e-14 1.0238800448510139e-14 0.99999999999996503 8.4876229423472832e-15 0.99999999999996092
5610	0 0 0 0	6 6 6	2.7499999999995111	-0.39814814814814814 0.01851851851851111 0.01851851851851111	1.0037171469336046 6.2188060034413786e-16 1.2597259221374399e-15 0.99999999999994471 6.0747599966826584e-16 0.99999999999993416
5610	0 0 0 0	7 7 7	2.7499999999995111	-0.37962962962962959 0.03703703703702222 0.03703703703702222	1.0050032693372681 3.5643721148892128e-15 -8.6949307976794466e-15 1.0000000000002431 3.4101598866383929e-15 1.0000000000002158
5610	0 0 0 0	8 8 8	2.7499999999995111	-0.3611111111111111 0.055555555555533327 0.055555555555533327	1.0058226193178701 -4.7209010247782958e-15 5.1276425247764354e-15 0.99999999999951272 -1.0223063916363329e-14 0.99999999999950784
5610	0 0 0 0	9 9 9	2.7499999999995111	-0.34259259259259256 0.074074074074044441 0.074074074074044441	1.0061631027543285 -7.0789308923563201e-14 -9.0258993271365409e-14 1.0000000000025528 -7.9171854964370995e-14 1.0000000000025282
5610	0 0 0 0	10 10 10	2.7499999999995111	-0.32407407407407407 0.092592592592555548 0.092592592592555548	1.0061631028258999 3.5332048129174197e-14 1.695859734991386e-13 0.99999999999721445 4.7820759406273433e-14 0.99999999999718447
#
#
#
#
#
#
#
#
#
#
#
#
#
#
#
#
#
#
#
#
#
#
#
#
#
#
#
#
#
#
#
#
#
#
#
#
#
#
#
#
#
#
#
#
#

# iteration 5610   time 2.7499999999995111
# time level 0
# refinement level 0   multigrid level 0   map 0   component 1
# column format: 1:it	2:tl	3:rl 4:c 5:ml	6:ix 7:iy 8:iz	9:time	10:x 11:y 12:z	13:data
# data columns: 13:gxx 14:gxy 15:gxz 16:gyy 17:gyz 18:gzz
#
#
#
#
#
#
#
#
#
#
#
#
#
#
#
#
#
#
#
#
#
#
#
#
#
#
#
#
#
#
#
#
#
#
#
#
#
#
#
#
#
#
#
#
#
#
#
#
#
#
#
#
#
#
#
#

# iteration 5610   time 2.7499999999995111
# time level 0
# refinement level 0   multigrid level 0   map 0   component 2
# column format: 1:it	2:tl	3:rl 4:c 5:ml	6:ix 7:iy 8:iz	9:time	10:x 11:y 12:z	13:data
# data columns: 13:gxx 14:gxy 15:gxz 16:gyy 17:gyz 18:gzz
#
#
#
#
#
#
#
#
#
#
#
#
#
#
#
#
#
#
#
#
#
#
#
#
#
#
#
#
#
#
#
#
#
#
#
#
#
#
#
#
#
#
#
#
#
#
#
#
#
#
#
#
#
#
#
#

# iteration 5610   time 2.7499999999995111
# time level 0
# refinement level 0   multigrid level 0   map 0   component 3
# column format: 1:it	2:tl	3:rl 4:c 5:ml	6:ix 7:iy 8:iz	9:time	10:x 11:y 12:z	13:data
# data columns: 13:gxx 14:gxy 15:gxz 16:gyy 17:gyz 18:gzz
#
#
#
#
#
#
#
#
#
#
#
#
#
#
#
#
#
#
#
#
#
#
#
#
#
#
#
#
#
#
#
#
#
#
#
#
#
#
#
#
#
#
#
#
#
#
#
#
#
#
#
#
#
#
#
#


# iteration 6120   time 2.9999999999994666
# time level 0
# refinement level 0   multigrid level 0   map 0   component 0
# column format: 1:it	2:tl	3:rl 4:c 5:ml	6:ix 7:iy 8:iz	9:time	10:x 11:y 12:z	13:data
# data columns: 13:gxx 14:gxy 15:gxz 16:gyy 17:gyz 18:gzz
6120	0 0 0 0	0 0 0	2.9999999999994666	-0.50925925925925919 -0.092592592592555548 -0.092592592592555548	0.98626835530209356 -9.1121535331180988e-14 -1.9575566088671118e-14 1.0000000000019433 -8.2362607528830774e-14 1.0000000000019362
6120	0 0 0 0	1 1 1	2.9999999999994666	-0.4907407407407407 -0.074074074074044441 -0.074074074074044441	0.98626835545417768 8.3539285786034195e-14 3.7038753906728819e-14 0.99999999999762157 -3.8924364720732899e-14 0.99999999999762668
6120	0 0 0 0	2 2 2	2.9999999999994666	-0.47222222222222221 -0.055555555555533327 -0.055555555555533327	0.98591812855292593 1.1062054975270373e-14 2.0221317171131327e-14 1.0000000000004776 2.6061808320759756e-14 1.0000000000004723
6120	0 0 0 0	3 3 3	2.9999999999994666	-0.45370370370370366 -0.03703703703702222 -0.03703703703702222	0.98527596166543585 -4.7153558648871788e-15 7.5086846664080555e-15 1.0000000000001203 3.5495455591329873e-15 1.0000000000001354
6120	0 0 0 0	4 4 4	2.9999999999994666	-0.43518518518518517 -0.01851851851851111 -0.01851851851851111	0.98470320320891647 -3.330686941703569e-16 2.0565115555233817e-15 0.99999999999935674 -3.6802828939884107e-15 0.99999999999939027
6120	0 0 0 0	5 5 5	2.9999999999994666	-0.41666666666666663 0 0	0.98455041394577325 -2.2986504707945777e-15 -2.0058832275041498e-15 1.0000000000009928 8.0935666022780111e-15 1.000000000000983
6120	0 0 0 0	6 6 6	2.9999999999994666	-0.39814814814814814 0.01851851851851111 0.01851851851851111	0.98495655883854005 7.3043851385157626e-16 2.5911718558211335e-15 0.99999999999873213 -7.458266934886022e-16 0.99999999999873757
6120	0 0 0 0	7 7 7	2.9999999999994666	-0.37962962962962959 0.03703703703702222 0.03703703703702222	0.9857539832556893 5.7041033138065859e-15 -1.2218156230820079e-14 1.0000000000015776 5.2914249806710613e-15 1.0000000000015794
6120	0 0 0 0	8 8 8	2.9999999999994666	-0.3611111111111111 0.055555555555533327 0.055555555555533327	0.9865604067166942 -5.4755041959924809e-15 -9.0077918798742438e-15 0.99999999999794298 -7.5456540621110678e-16 0.99999999999791822
6120	0 0 0 0	9 9 9	2.9999999999994666	-0.34259259259259256 0.074074074074044441 0.074074074074044441	0.98698614570450849 -1.1283202690638554e-13 -1.0019084467372348e-13 1.0000000000061278 4.0723718114089244e-14 1.0000000000061393
6120	0 0 0 0	10 10 10	2.9999999999994666	-0.32407407407407407 0.092592592592555548 0.092592592592555548	0.98698614547466457 -4.4169205151717087e-14 7.6205332666642182e-15 0.99999999999331224 -7.2878222827163844e-14 0.99999999999329481
#
#
#
#
#
#
#
#
#
#
#
#
#
#
#
#
#
#
#
#
#
#
#
#
#
#
#
#
#
#
#
#
#
#
#
#
#
#
#
#
#
#
#
#
#

# iteration 6120   time 2.9999999999994666
# time level 0
# refinement level 0   multigrid level 0   map 0   component 1
# column format: 1:it	2:tl	3:rl 4:c 5:ml	6:ix 7:iy 8:iz	9:time	10:x 11:y 12:z	13:data
# data columns: 13:gxx 14:gxy 15:gxz 16:gyy 17:gyz 18:gzz
#
#
#
#
#
#
#
#
#
#
#
#
#
#
#
#
#
#
#
#
#
#
#
#
#
#
#
#
#
#
#
#
#
#
#
#
#
#
#
#
#
#
#
#
#
#
#
#
#
#
#
#
#
#
#
#

# iteration 6120   time 2.9999999999994666
# time level 0
# refinement level 0   multigrid level 0   map 0   component 2
# column format: 1:it	2:tl	3:rl 4:c 5:ml	6:ix 7:iy 8:iz	9:time	10:x 11:y 12:z	13:data
# data columns: 13:gxx 14:gxy 15:gxz 16:gyy 17:gyz 18:gzz
#
#
#
#
#
#
#
#
#
#
#
#
#
#
#
#
#
#
#
#
#
#
#
#
#
#
#
#
#
#
#
#
#
#
#
#
#
#
#
#
#
#
#
#
#
#
#
#
#
#
#
#
#
#
#
#

# iteration 6120   time 2.9999999999994666
# time level 0
# refinement level 0   multigrid level 0   map 0   component 3
# column format: 1:it	2:tl	3:rl 4:c 5:ml	6:ix 7:iy 8:iz	9:time	10:x 11:y 12:z	13:data
# data columns: 13:gxx 14:gxy 15:gxz 16:gyy 17:gyz 18:gzz
#
#
#
#
#
#
#
#
#
#
#
#
#
#
#
#
#
#
#
#
#
#
#
#
#
#
#
#
#
#
#
#
#
#
#
#
#
#
#
#
#
#
#
#
#
#
#
#
#
#
#
#
#
#
#
#


# iteration 6630   time 3.2499999999994222
# time level 0
# refinement level 0   multigrid level 0   map 0   component 0
# column format: 1:it	2:tl	3:rl 4:c 5:ml	6:ix 7:iy 8:iz	9:time	10:x 11:y 12:z	13:data
# data columns: 13:gxx 14:gxy 15:gxz 16:gyy 17:gyz 18:gzz
6630	0 0 0 0	0 0 0	3.2499999999994222	-0.50925925925925919 -0.092592592592555548 -0.092592592592555548	1.0178001248799649 -4.4426347070940975e-14 2.0583485474988019e-14 1.0000000000047762 -2.2844527727251029e-14 1.0000000000046541
6630	0 0 0 0	1 1 1	3.2499999999994222	-0.4907407407407407 -0.074074074074044441 -0.074074074074044441	1.0178001250822457 -1.0280105987579342e-13 -6.6301639792258164e-14 0.99999999999475597 2.4828643849124474e-14 0.99999999999472633
6630	0 0 0 0	2 2 2	3.2499999999994222	-0.47222222222222221 -0.055555555555533327 -0.055555555555533327	1.0173596418649853 2.6728969412623627e-15 -8.1265802497479285e-15 1.0000000000018443 -2.6214827943853528e-15 1.0000000000018399
6630	0 0 0 0	3 3 3	3.2499999999994222	-0.45370370370370366 -0.03703703703702222 -0.03703703703702222	1.0162119316736404 2.5411935520471508e-15 1.0367699741653981e-14 0.99999999999889433 3.3965640576715044e-15 0.99999999999890221
6630	0 0 0 0	4 4 4	3.2499999999994222	-0.43518518518518517 -0.01851851851851111 -0.01851851851851111	1.014221509610324 4.0324705378035491e-16 7.3706679911816938e-15 1.0000000000006783 -1.924963615896569e-15 1.0000000000006908
6630	0 0 0 0	5 5 5	3.2499999999994222	-0.41666666666666663 0 0	1.0114459160042339 -3.1873017542615028e-15 -1.990914954246365e-15 0.99999999999970179 -2.8583640258905185e-15 0.99999999999971612
6630	0 0 0 0	6 6 6	3.2499999999994222	-0.39814814814814814 0.01851851851851111 0.01851851851851111	1.0082593372471829 6.251630762213692e-15 -9.2812851271383478e-16 0.99999999999990052 1.8282435924207053e-15 0.99999999999990274
6630	0 0 0 0	7 7 7	3.2499999999994222	-0.37962962962962959 0.03703703703702222 0.03703703703702222	1.0052609955938774 -1.3346671128429809e-15 -1.402385347413345e-14 1.0000000000005265 1.6147062990788005e-14 1.0000000000005285
6630	0 0 0 0	8 8 8	3.2499999999994222	-0.3611111111111111 0.055555555555533327 0.055555555555533327	1.0030470728616867 3.4252805593628246e-15 -1.9603747241024099e-15 0.99999999999896361 4.6795736936457591e-15 0.9999999999989817
6630	0 0 0 0	9 9 9	3.2499999999994222	-0.34259259259259256 0.074074074074044441 0.074074074074044441	1.0020352092193363 -7.6638594924608941e-15 2.8024061603631876e-14 1.0000000000037463 -2.3428044716836174e-13 1.0000000000037979
6630	0 0 0 0	10 10 10	3.2499999999994222	-0.32407407407407407 0.092592592592555548 0.092592592592555548	1.0020352090388984 -2.2093910455647826e-13 -6.7704286740845898e-14 0.99999999999521449 1.3463587243998986e-13 0.99999999999512035
#
#
#
#
#
#
#
#
#
#
#
#
#
#
#
#
#
#
#
#
#
#
#
#
#
#
#
#
#
#
#
#
#
#
#
#
#
#
#
#
#
#
#
#
#

# iteration 6630   time 3.2499999999994222
# time level 0
# refinement level 0   multigrid level 0   map 0   component 1
# column format: 1:it	2:tl	3:rl 4:c 5:ml	6:ix 7:iy 8:iz	9:time	10:x 11:y 12:z	13:data
# data columns: 13:gxx 14:gxy 15:gxz 16:gyy 17:gyz 18:gzz
#
#
#
#
#
#
#
#
#
#
#
#
#
#
#
#
#
#
#
#
#
#
#
#
#
#
#
#
#
#
#
#
#
#
#
#
#
#
#
#
#
#
#
#
#
#
#
#
#
#
#
#
#
#
#
#

# iteration 6630   time 3.2499999999994222
# time level 0
# refinement level 0   multigrid level 0   map 0   component 2
# column format: 1:it	2:tl	3:rl 4:c 5:ml	6:ix 7:iy 8:iz	9:time	10:x 11:y 12:z	13:data
# data columns: 13:gxx 14:gxy 15:gxz 16:gyy 17:gyz 18:gzz
#
#
#
#
#
#
#
#
#
#
#
#
#
#
#
#
#
#
#
#
#
#
#
#
#
#
#
#
#
#
#
#
#
#
#
#
#
#
#
#
#
#
#
#
#
#
#
#
#
#
#
#
#
#
#
#

# iteration 6630   time 3.2499999999994222
# time level 0
# refinement level 0   multigrid level 0   map 0   component 3
# column format: 1:it	2:tl	3:rl 4:c 5:ml	6:ix 7:iy 8:iz	9:time	10:x 11:y 12:z	13:data
# data columns: 13:gxx 14:gxy 15:gxz 16:gyy 17:gyz 18:gzz
#
#
#
#
#
#
#
#
#
#
#
#
#
#
#
#
#
#
#
#
#
#
#
#
#
#
#
#
#
#
#
#
#
#
#
#
#
#
#
#
#
#
#
#
#
#
#
#
#
#
#
#
#
#
#
#


# iteration 7140   time 3.4999999999993774
# time level 0
# refinement level 0   multigrid level 0   map 0   component 0
# column format: 1:it	2:tl	3:rl 4:c 5:ml	6:ix 7:iy 8:iz	9:time	10:x 11:y 12:z	13:data
# data columns: 13:gxx 14:gxy 15:gxz 16:gyy 17:gyz 18:gzz
7140	0 0 0 0	0 0 0	3.4999999999993774	-0.50925925925925919 -0.092592592592555548 -0.092592592592555548	1.0031338364135212 6.7114027001492075e-14 8.6975669064370232e-14 1.0000000000019058 -1.6543685822505081e-13 1.0000000000020099
7140	0 0 0 0	1 1 1	3.4999999999993774	-0.4907407407407407 -0.074074074074044441 -0.074074074074044441	1.0031338362100086 8.8434781541335676e-14 -5.0680381478260536e-14 0.9999999999978898 1.9379078093788305e-13 0.99999999999785871
7140	0 0 0 0	2 2 2	3.4999999999993774	-0.47222222222222221 -0.055555555555533327 -0.055555555555533327	1.0039074872499547 -9.3150529510256289e-15 8.0153923781797538e-16 1.0000000000004774 -8.3049975868059506e-15 1.000000000000467
7140	0 0 0 0	3 3 3	3.4999999999993774	-0.45370370370370366 -0.03703703703702222 -0.03703703703702222	1.0055874044061637 3.3956022318183325e-15 7.4965549928851876e-15 0.999999999999996 1.308575003964557e-14 1.0000000000000084
7140	0 0 0 0	4 4 4	3.4999999999993774	-0.43518518518518517 -0.01851851851851111 -0.01851851851851111	1.0078328998086681 4.1156526056265189e-15 -1.617826267490594e-15 0.99999999999961842 4.0214298270144403e-15 0.99999999999963052
7140	0 0 0 0	5 5 5	3.4999999999993774	-0.41666666666666663 0 0	1.0101750126805118 -5.7425208411868727e-15 -3.1124113521760781e-15 1.0000000000007039 -1.8039808115778503e-16 1.0000000000007088
7140	0 0 0 0	6 6 6	3.4999999999993774	-0.39814814814814814 0.01851851851851111 0.01851851851851111	1.0121626978889802 4.3916351958682793e-15 4.0871564369782089e-15 0.99999999999900291 -4.9067159685304852e-16 0.99999999999900191
7140	0 0 0 0	7 7 7	3.4999999999993774	-0.37962962962962959 0.03703703703702222 0.03703703703702222	1.0135380750504803 2.5738379904659837e-15 -1.7904079559782709e-14 1.000000000001356 2.0466253827513507e-15 1.000000000001352
7140	0 0 0 0	8 8 8	3.4999999999993774	-0.3611111111111111 0.055555555555533327 0.055555555555533327	1.0142961280739762 -2.5902097684784632e-15 -2.2962257458844358e-14 0.99999999999806599 7.5937548958605596e-15 0.99999999999807354
7140	0 0 0 0	9 9 9	3.4999999999993774	-0.34259259259259256 0.074074074074044441 0.074074074074044441	1.0145751390707138 -7.0119350452630375e-14 7.7003396808269592e-14 1.0000000000061042 1.545212932840708e-13 1.0000000000060991
7140	0 0 0 0	10 10 10	3.4999999999993774	-0.32407407407407407 0.092592592592555548 0.092592592592555548	1.014575139289414 -3.5645404616264847e-14 -1.8196547346343441e-13 0.99999999999320555 -2.4699831436416096e-13 0.99999999999325928
#
#
#
#
#
#
#
#
#
#
#
#
#
#
#
#
#
#
#
#
#
#
#
#
#
#
#
#
#
#
#
#
#
#
#
#
#
#
#
#
#
#
#
#
#

# iteration 7140   time 3.4999999999993774
# time level 0
# refinement level 0   multigrid level 0   map 0   component 1
# column format: 1:it	2:tl	3:rl 4:c 5:ml	6:ix 7:iy 8:iz	9:time	10:x 11:y 12:z	13:data
# data columns: 13:gxx 14:gxy 15:gxz 16:gyy 17:gyz 18:gzz
#
#
#
#
#
#
#
#
#
#
#
#
#
#
#
#
#
#
#
#
#
#
#
#
#
#
#
#
#
#
#
#
#
#
#
#
#
#
#
#
#
#
#
#
#
#
#
#
#
#
#
#
#
#
#
#

# iteration 7140   time 3.4999999999993774
# time level 0
# refinement level 0   multigrid level 0   map 0   component 2
# column format: 1:it	2:tl	3:rl 4:c 5:ml	6:ix 7:iy 8:iz	9:time	10:x 11:y 12:z	13:data
# data columns: 13:gxx 14:gxy 15:gxz 16:gyy 17:gyz 18:gzz
#
#
#
#
#
#
#
#
#
#
#
#
#
#
#
#
#
#
#
#
#
#
#
#
#
#
#
#
#
#
#
#
#
#
#
#
#
#
#
#
#
#
#
#
#
#
#
#
#
#
#
#
#
#
#
#

# iteration 7140   time 3.4999999999993774
# time level 0
# refinement level 0   multigrid level 0   map 0   component 3
# column format: 1:it	2:tl	3:rl 4:c 5:ml	6:ix 7:iy 8:iz	9:time	10:x 11:y 12:z	13:data
# data columns: 13:gxx 14:gxy 15:gxz 16:gyy 17:gyz 18:gzz
#
#
#
#
#
#
#
#
#
#
#
#
#
#
#
#
#
#
#
#
#
#
#
#
#
#
#
#
#
#
#
#
#
#
#
#
#
#
#
#
#
#
#
#
#
#
#
#
#
#
#
#
#
#
#
#


# iteration 7650   time 3.749999999999333
# time level 0
# refinement level 0   multigrid level 0   map 0   component 0
# column format: 1:it	2:tl	3:rl 4:c 5:ml	6:ix 7:iy 8:iz	9:time	10:x 11:y 12:z	13:data
# data columns: 13:gxx 14:gxy 15:gxz 16:gyy 17:gyz 18:gzz
7650	0 0 0 0	0 0 0	3.749999999999333	-0.50925925925925919 -0.092592592592555548 -0.092592592592555548	0.98013247792347891 -4.8395526088509839e-14 4.3675401828037661e-14 1.0000000000023275 2.5690922327618112e-13 1.0000000000023741
7650	0 0 0 0	1 1 1	3.749999999999333	-0.4907407407407407 -0.074074074074044441 -0.074074074074044441	0.98013247801640435 2.1110909069627374e-14 -2.0756530362976247e-14 0.99999999999749323 -2.3816632817652331e-14 0.99999999999745337
7650	0 0 0 0	2 2 2	3.749999999999333	-0.47222222222222221 -0.055555555555533327 -0.055555555555533327	0.97998830222985345 -2.2155136832995888e-16 1.6788974621131834e-14 1.0000000000004574 3.4531051681739356e-15 1.000000000000445
7650	0 0 0 0	3 3 3	3.749999999999333	-0.45370370370370366 -0.03703703703702222 -0.03703703703702222	0.97985902801267499 -6.6858253603991061e-15 5.6573162607379676e-15 1.0000000000002671 5.750775079715861e-15 1.0000000000002667
7650	0 0 0 0	4 4 4	3.749999999999333	-0.43518518518518517 -0.01851851851851111 -0.01851851851851111	0.98012257887876886 2.9565719627003851e-15 -6.7028156460887234e-16 0.9999999999991328 -3.6753096808781763e-16 0.99999999999913258
7650	0 0 0 0	5 5 5	3.749999999999333	-0.41666666666666663 0 0	0.98106356445537923 -1.3638343186317649e-14 5.8703507271497315e-15 1.0000000000013736 7.6512958071455631e-15 1.0000000000013942
7650	0 0 0 0	6 6 6	3.749999999999333	-0.39814814814814814 0.01851851851851111 0.01851851851851111	0.98265289462313299 3.8212327451019069e-15 -2.9616765311949636e-15 0.99999999999823508 3.8880995732115711e-16 0.99999999999824707
7650	0 0 0 0	7 7 7	3.749999999999333	-0.37962962962962959 0.03703703703702222 0.03703703703702222	0.9845098085366385 9.7571596058065285e-15 -1.8242850036905227e-14 1.0000000000021945 7.4731237713431488e-15 1.0000000000021698
7650	0 0 0 0	8 8 8	3.749999999999333	-0.3611111111111111 0.055555555555533327 0.055555555555533327	0.98607123823903475 -8.5559407084903543e-16 -6.9042718079508085e-15 0.99999999999715805 4.3397958483740504e-15 0.99999999999711897
7650	0 0 0 0	9 9 9	3.749999999999333	-0.34259259259259256 0.074074074074044441 0.074074074074044441	0.98683531952013614 -6.9435631327956795e-14 2.5803303525987927e-14 1.0000000000082634 -1.4163021076914875e-13 1.0000000000084452
7650	0 0 0 0	10 10 10	3.749999999999333	-0.32407407407407407 0.092592592592555548 0.092592592592555548	0.98683531949342529 -4.8741443468371062e-14 3.9315208414021802e-14 0.99999999999157274 2.1971305384026882e-13 0.99999999999162814
#
#
#
#
#
#
#
#
#
#
#
#
#
#
#
#
#
#
#
#
#
#
#
#
#
#
#
#
#
#
#
#
#
#
#
#
#
#
#
#
#
#
#
#
#

# iteration 7650   time 3.749999999999333
# time level 0
# refinement level 0   multigrid level 0   map 0   component 1
# column format: 1:it	2:tl	3:rl 4:c 5:ml	6:ix 7:iy 8:iz	9:time	10:x 11:y 12:z	13:data
# data columns: 13:gxx 14:gxy 15:gxz 16:gyy 17:gyz 18:gzz
#
#
#
#
#
#
#
#
#
#
#
#
#
#
#
#
#
#
#
#
#
#
#
#
#
#
#
#
#
#
#
#
#
#
#
#
#
#
#
#
#
#
#
#
#
#
#
#
#
#
#
#
#
#
#
#

# iteration 7650   time 3.749999999999333
# time level 0
# refinement level 0   multigrid level 0   map 0   component 2
# column format: 1:it	2:tl	3:rl 4:c 5:ml	6:ix 7:iy 8:iz	9:time	10:x 11:y 12:z	13:data
# data columns: 13:gxx 14:gxy 15:gxz 16:gyy 17:gyz 18:gzz
#
#
#
#
#
#
#
#
#
#
#
#
#
#
#
#
#
#
#
#
#
#
#
#
#
#
#
#
#
#
#
#
#
#
#
#
#
#
#
#
#
#
#
#
#
#
#
#
#
#
#
#
#
#
#
#

# iteration 7650   time 3.749999999999333
# time level 0
# refinement level 0   multigrid level 0   map 0   component 3
# column format: 1:it	2:tl	3:rl 4:c 5:ml	6:ix 7:iy 8:iz	9:time	10:x 11:y 12:z	13:data
# data columns: 13:gxx 14:gxy 15:gxz 16:gyy 17:gyz 18:gzz
#
#
#
#
#
#
#
#
#
#
#
#
#
#
#
#
#
#
#
#
#
#
#
#
#
#
#
#
#
#
#
#
#
#
#
#
#
#
#
#
#
#
#
#
#
#
#
#
#
#
#
#
#
#
#
#


# iteration 8160   time 3.9999999999992886
# time level 0
# refinement level 0   multigrid level 0   map 0   component 0
# column format: 1:it	2:tl	3:rl 4:c 5:ml	6:ix 7:iy 8:iz	9:time	10:x 11:y 12:z	13:data
# data columns: 13:gxx 14:gxy 15:gxz 16:gyy 17:gyz 18:gzz
8160	0 0 0 0	0 0 0	3.9999999999992886	-0.50925925925925919 -0.092592592592555548 -0.092592592592555548	1.0123524114815787 5.4235369683776907e-14 -5.1992638510509485e-14 1.000000000004885 2.3656743931806075e-13 1.0000000000049041
8160	0 0 0 0	1 1 1	3.9999999999992886	-0.4907407407407407 -0.074074074074044441 -0.074074074074044441	1.0123524116673093 -1.7949101243278221e-14 5.2289142856891664e-14 0.99999999999473888 -7.5358973166696276e-14 0.99999999999477907
8160	0 0 0 0	2 2 2	3.9999999999992886	-0.47222222222222221 -0.055555555555533327 -0.055555555555533327	1.0118176753184795 -1.7210395332209618e-14 1.0062627430719323e-14 1.0000000000018414 1.5901138942485512e-14 1.0000000000018239
8160	0 0 0 0	3 3 3	3.9999999999992886	-0.45370370370370366 -0.03703703703702222 -0.03703703703702222	1.0105151499691676 6.5159127406592401e-15 3.9500474677515603e-15 0.9999999999988729 2.2004522330789723e-15 0.9999999999988739
8160	0 0 0 0	4 4 4	3.9999999999992886	-0.43518518518518517 -0.01851851851851111 -0.01851851851851111	1.0084421413539804 -1.3022758097298486e-15 -1.9093399848040252e-15 1.0000000000006535 -6.8196370625013042e-16 1.0000000000006526
8160	0 0 0 0	5 5 5	3.9999999999992886	-0.41666666666666663 0 0	1.0057812578635452 -4.3801083337202353e-15 -4.4904165986266814e-15 0.99999999999977018 4.5999723315780784e-15 0.99999999999978495
8160	0 0 0 0	6 6 6	3.9999999999992886	-0.39814814814814814 0.01851851851851111 0.01851851851851111	1.0029405166154421 6.0862614865528744e-15 1.713010233021709e-15 0.99999999999974776 2.0001573903372319e-15 0.99999999999972899
8160	0 0 0 0	7 7 7	3.9999999999992886	-0.37962962962962959 0.03703703703702222 0.03703703703702222	1.0004232221575302 -5.2576225036202633e-15 -8.6508086178433467e-15 1.0000000000008276 1.3847286660291022e-14 1.0000000000008515
8160	0 0 0 0	8 8 8	3.9999999999992886	-0.3611111111111111 0.055555555555533327 0.055555555555533327	0.99864582007299207 2.0726629758807323e-14 2.2144926342252776e-15 0.99999999999845257 1.6534333693197787e-14 0.99999999999845701
8160	0 0 0 0	9 9 9	3.9999999999992886	-0.34259259259259256 0.074074074074044441 0.074074074074044441	0.99785454701156528 -1.3709636041351831e-14 1.9909810079859841e-14 1.0000000000053224 -5.957190782816104e-15 1.000000000005304
8160	0 0 0 0	10 10 10	3.9999999999992886	-0.32407407407407407 0.092592592592555548 0.092592592592555548	0.99785454674691387 5.0600751754354183e-14 1.5371391295467196e-13 0.99999999999354594 4.9163855150557571e-14 0.9999999999937268
#
#
#
#
#
#
#
#
#
#
#
#
#
#
#
#
#
#
#
#
#
#
#
#
#
#
#
#
#
#
#
#
#
#
#
#
#
#
#
#
#
#
#
#
#

# iteration 8160   time 3.9999999999992886
# time level 0
# refinement level 0   multigrid level 0   map 0   component 1
# column format: 1:it	2:tl	3:rl 4:c 5:ml	6:ix 7:iy 8:iz	9:time	10:x 11:y 12:z	13:data
# data columns: 13:gxx 14:gxy 15:gxz 16:gyy 17:gyz 18:gzz
#
#
#
#
#
#
#
#
#
#
#
#
#
#
#
#
#
#
#
#
#
#
#
#
#
#
#
#
#
#
#
#
#
#
#
#
#
#
#
#
#
#
#
#
#
#
#
#
#
#
#
#
#
#
#
#

# iteration 8160   time 3.9999999999992886
# time level 0
# refinement level 0   multigrid level 0   map 0   component 2
# column format: 1:it	2:tl	3:rl 4:c 5:ml	6:ix 7:iy 8:iz	9:time	10:x 11:y 12:z	13:data
# data columns: 13:gxx 14:gxy 15:gxz 16:gyy 17:gyz 18:gzz
#
#
#
#
#
#
#
#
#
#
#
#
#
#
#
#
#
#
#
#
#
#
#
#
#
#
#
#
#
#
#
#
#
#
#
#
#
#
#
#
#
#
#
#
#
#
#
#
#
#
#
#
#
#
#
#

# iteration 8160   time 3.9999999999992886
# time level 0
# refinement level 0   multigrid level 0   map 0   component 3
# column format: 1:it	2:tl	3:rl 4:c 5:ml	6:ix 7:iy 8:iz	9:time	10:x 11:y 12:z	13:data
# data columns: 13:gxx 14:gxy 15:gxz 16:gyy 17:gyz 18:gzz
#
#
#
#
#
#
#
#
#
#
#
#
#
#
#
#
#
#
#
#
#
#
#
#
#
#
#
#
#
#
#
#
#
#
#
#
#
#
#
#
#
#
#
#
#
#
#
#
#
#
#
#
#
#
#
#


# iteration 8670   time 4.2499999999992442
# time level 0
# refinement level 0   multigrid level 0   map 0   component 0
# column format: 1:it	2:tl	3:rl 4:c 5:ml	6:ix 7:iy 8:iz	9:time	10:x 11:y 12:z	13:data
# data columns: 13:gxx 14:gxy 15:gxz 16:gyy 17:gyz 18:gzz
8670	0 0 0 0	0 0 0	4.2499999999992442	-0.50925925925925919 -0.092592592592555548 -0.092592592592555548	1.0038563448277533 -7.3061058560052234e-14 -4.7552972688980359e-14 1.0000000000026845 -8.2315529983540871e-14 1.0000000000027671
8670	0 0 0 0	1 1 1	4.2499999999992442	-0.4907407407407407 -0.074074074074044441 -0.074074074074044441	1.0038563450795197 1.6562855288196811e-13 -2.62024608825387e-14 0.99999999999689093 -8.6042939420284655e-14 0.99999999999705247
8670	0 0 0 0	2 2 2	4.2499999999992442	-0.47222222222222221 -0.055555555555533327 -0.055555555555533327	1.0043707164179538 -6.6579171210637817e-15 -1.4157998884182663e-15 1.0000000000008282 -1.1181553733481136e-14 1.0000000000008031
8670	0 0 0 0	3 3 3	4.2499999999992442	-0.45370370370370366 -0.03703703703702222 -0.03703703703702222	1.0054714595263297 2.6866790792816032e-15 5.3973764579429458e-15 0.99999999999968547 1.1776842244913719e-14 0.99999999999967892
8670	0 0 0 0	4 4 4	4.2499999999992442	-0.43518518518518517 -0.01851851851851111 -0.01851851851851111	1.0069010849212237 -7.8509239839782485e-16 4.2115686665500882e-15 0.99999999999998224 7.2964931595855054e-17 0.9999999999999879
8670	0 0 0 0	5 5 5	4.2499999999992442	-0.41666666666666663 0 0	1.0083217457792624 -8.4294550898572087e-15 -6.7863201735824637e-15 1.0000000000002871 1.1646258497740317e-14 1.00000000000031
8670	0 0 0 0	6 6 6	4.2499999999992442	-0.39814814814814814 0.01851851851851111 0.01851851851851111	1.009436122746759 2.6737476583647096e-15 -1.3726446101961271e-15 0.999999999999445 1.240395973990812e-15 0.99999999999943445
8670	0 0 0 0	7 7 7	4.2499999999992442	-0.37962962962962959 0.03703703703702222 0.03703703703702222	1.0101151635810546 8.6073702503416675e-15 -1.9944210867295074e-14 1.0000000000008067 -1.2593104938201076e-14 1.0000000000007732
8670	0 0 0 0	8 8 8	4.2499999999992442	-0.3611111111111111 0.055555555555533327 0.055555555555533327	1.0104227931347787 -2.2063583645793692e-15 -2.9234718360574595e-14 0.99999999999883082 4.9118475865789524e-15 0.99999999999882461
8670	0 0 0 0	9 9 9	4.2499999999992442	-0.34259259259259256 0.074074074074044441 0.074074074074044441	1.0105125163798074 6.648414680139917e-14 -6.6100463919988332e-15 1.0000000000040479 -2.2336501538327801e-13 1.0000000000041864
8670	0 0 0 0	10 10 10	4.2499999999992442	-0.32407407407407407 0.092592592592555548 0.092592592592555548	1.0105125161983048 -5.5028544484905847e-14 -1.0571701685871137e-13 0.99999999999490363 3.1708265436301455e-14 0.99999999999502909
#
#
#
#
#
#
#
#
#
#
#
#
#
#
#
#
#
#
#
#
#
#
#
#
#
#
#
#
#
#
#
#
#
#
#
#
#
#
#
#
#
#
#
#
#

# iteration 8670   time 4.2499999999992442
# time level 0
# refinement level 0   multigrid level 0   map 0   component 1
# column format: 1:it	2:tl	3:rl 4:c 5:ml	6:ix 7:iy 8:iz	9:time	10:x 11:y 12:z	13:data
# data columns: 13:gxx 14:gxy 15:gxz 16:gyy 17:gyz 18:gzz
#
#
#
#
#
#
#
#
#
#
#
#
#
#
#
#
#
#
#
#
#
#
#
#
#
#
#
#
#
#
#
#
#
#
#
#
#
#
#
#
#
#
#
#
#
#
#
#
#
#
#
#
#
#
#
#

# iteration 8670   time 4.2499999999992442
# time level 0
# refinement level 0   multigrid level 0   map 0   component 2
# column format: 1:it	2:tl	3:rl 4:c 5:ml	6:ix 7:iy 8:iz	9:time	10:x 11:y 12:z	13:data
# data columns: 13:gxx 14:gxy 15:gxz 16:gyy 17:gyz 18:gzz
#
#
#
#
#
#
#
#
#
#
#
#
#
#
#
#
#
#
#
#
#
#
#
#
#
#
#
#
#
#
#
#
#
#
#
#
#
#
#
#
#
#
#
#
#
#
#
#
#
#
#
#
#
#
#
#

# iteration 8670   time 4.2499999999992442
# time level 0
# refinement level 0   multigrid level 0   map 0   component 3
# column format: 1:it	2:tl	3:rl 4:c 5:ml	6:ix 7:iy 8:iz	9:time	10:x 11:y 12:z	13:data
# data columns: 13:gxx 14:gxy 15:gxz 16:gyy 17:gyz 18:gzz
#
#
#
#
#
#
#
#
#
#
#
#
#
#
#
#
#
#
#
#
#
#
#
#
#
#
#
#
#
#
#
#
#
#
#
#
#
#
#
#
#
#
#
#
#
#
#
#
#
#
#
#
#
#
#
#


# iteration 9180   time 4.4999999999991998
# time level 0
# refinement level 0   multigrid level 0   map 0   component 0
# column format: 1:it	2:tl	3:rl 4:c 5:ml	6:ix 7:iy 8:iz	9:time	10:x 11:y 12:z	13:data
# data columns: 13:gxx 14:gxy 15:gxz 16:gyy 17:gyz 18:gzz
9180	0 0 0 0	0 0 0	4.4999999999991998	-0.50925925925925919 -0.092592592592555548 -0.092592592592555548	0.99038457785866596 7.2695323424661065e-14 1.9828695978030354e-14 1.0000000000022395 -1.9860583912303849e-13 1.000000000002212
9180	0 0 0 0	1 1 1	4.4999999999991998	-0.4907407407407407 -0.074074074074044441 -0.074074074074044441	0.99038457776017896 -4.5943951945551936e-14 -1.4560889177082197e-13 0.99999999999745559 5.305487220684189e-14 0.99999999999739031
9180	0 0 0 0	2 2 2	4.4999999999991998	-0.47222222222222221 -0.055555555555533327 -0.055555555555533327	0.99021644480570326 -5.4819975007376181e-15 -5.3524487704287024e-15 1.0000000000006006 1.1674666535259549e-14 1.0000000000005518
9180	0 0 0 0	3 3 3	4.4999999999991998	-0.45370370370370366 -0.03703703703702222 -0.03703703703702222	0.98993812626300248 -4.629376013670002e-15 6.2325250913141772e-15 1.0000000000000204 9.4623503601332823e-15 1.000000000000026
9180	0 0 0 0	4 4 4	4.4999999999991998	-0.43518518518518517 -0.01851851851851111 -0.01851851851851111	0.98977393959605131 8.2019478813929835e-16 1.6210021727866566e-15 0.99999999999956546 -8.7482922481332447e-15 0.99999999999957301
9180	0 0 0 0	5 5 5	4.4999999999991998	-0.41666666666666663 0 0	0.98992292115333091 -3.380928691881416e-15 -5.4336962679089749e-15 1.0000000000007951 1.3114464018660691e-14 1.0000000000007936
9180	0 0 0 0	6 6 6	4.4999999999991998	-0.39814814814814814 0.01851851851851111 0.01851851851851111	0.99043170690403781 5.2526580978670376e-15 3.6115903130401768e-15 0.99999999999894751 3.5109409602225409e-15 0.99999999999894618
9180	0 0 0 0	7 7 7	4.4999999999991998	-0.37962962962962959 0.03703703703702222 0.03703703703702222	0.99115024336788948 8.1501930850256437e-15 -7.8299418829232038e-15 1.000000000001332 6.3069495956715547e-15 1.00000000000134
9180	0 0 0 0	8 8 8	4.4999999999991998	-0.3611111111111111 0.055555555555533327 0.055555555555533327	0.99180620554490362 -6.616756221131474e-15 -6.1606776739369281e-15 0.99999999999821532 1.6887699070972521e-14 0.99999999999819866
9180	0 0 0 0	9 9 9	4.4999999999991998	-0.34259259259259256 0.074074074074044441 0.074074074074044441	0.99213896834518445 7.6832504789629511e-14 -7.1373020613416235e-14 1.0000000000057596 -5.2059563393527836e-14 1.0000000000057283
9180	0 0 0 0	10 10 10	4.4999999999991998	-0.32407407407407407 0.092592592592555548 0.092592592592555548	0.99213896842751881 -1.4744609774105844e-13 3.2379231587529798e-16 0.99999999999365985 -1.2897594270034239e-13 0.99999999999375055
#
#
#
#
#
#
#
#
#
#
#
#
#
#
#
#
#
#
#
#
#
#
#
#
#
#
#
#
#
#
#
#
#
#
#
#
#
#
#
#
#
#
#
#
#

# iteration 9180   time 4.4999999999991998
# time level 0
# refinement level 0   multigrid level 0   map 0   component 1
# column format: 1:it	2:tl	3:rl 4:c 5:ml	6:ix 7:iy 8:iz	9:time	10:x 11:y 12:z	13:data
# data columns: 13:gxx 14:gxy 15:gxz 16:gyy 17:gyz 18:gzz
#
#
#
#
#
#
#
#
#
#
#
#
#
#
#
#
#
#
#
#
#
#
#
#
#
#
#
#
#
#
#
#
#
#
#
#
#
#
#
#
#
#
#
#
#
#
#
#
#
#
#
#
#
#
#
#

# iteration 9180   time 4.4999999999991998
# time level 0
# refinement level 0   multigrid level 0   map 0   component 2
# column format: 1:it	2:tl	3:rl 4:c 5:ml	6:ix 7:iy 8:iz	9:time	10:x 11:y 12:z	13:data
# data columns: 13:gxx 14:gxy 15:gxz 16:gyy 17:gyz 18:gzz
#
#
#
#
#
#
#
#
#
#
#
#
#
#
#
#
#
#
#
#
#
#
#
#
#
#
#
#
#
#
#
#
#
#
#
#
#
#
#
#
#
#
#
#
#
#
#
#
#
#
#
#
#
#
#
#

# iteration 9180   time 4.4999999999991998
# time level 0
# refinement level 0   multigrid level 0   map 0   component 3
# column format: 1:it	2:tl	3:rl 4:c 5:ml	6:ix 7:iy 8:iz	9:time	10:x 11:y 12:z	13:data
# data columns: 13:gxx 14:gxy 15:gxz 16:gyy 17:gyz 18:gzz
#
#
#
#
#
#
#
#
#
#
#
#
#
#
#
#
#
#
#
#
#
#
#
#
#
#
#
#
#
#
#
#
#
#
#
#
#
#
#
#
#
#
#
#
#
#
#
#
#
#
#
#
#
#
#
#


# iteration 9690   time 4.7499999999991553
# time level 0
# refinement level 0   multigrid level 0   map 0   component 0
# column format: 1:it	2:tl	3:rl 4:c 5:ml	6:ix 7:iy 8:iz	9:time	10:x 11:y 12:z	13:data
# data columns: 13:gxx 14:gxy 15:gxz 16:gyy 17:gyz 18:gzz
9690	0 0 0 0	0 0 0	4.7499999999991553	-0.50925925925925919 -0.092592592592555548 -0.092592592592555548	1.008933711644969 -1.2826449946579877e-13 -1.0192495337744592e-13 1.0000000000027751 3.7089639271432282e-13 1.0000000000026685
9690	0 0 0 0	1 1 1	4.7499999999991553	-0.4907407407407407 -0.074074074074044441 -0.074074074074044441	1.0089337116869284 3.89655002556484e-14 2.142734332421116e-13 0.99999999999689648 -4.24002190710654e-13 0.99999999999692468
9690	0 0 0 0	2 2 2	4.7499999999991553	-0.47222222222222221 -0.055555555555533327 -0.055555555555533327	1.0088769577842551 -9.3632202755820633e-15 5.4305358919651614e-15 1.0000000000008127 -5.582368709017388e-15 1.0000000000008498
9690	0 0 0 0	3 3 3	4.7499999999991553	-0.45370370370370366 -0.03703703703702222 -0.03703703703702222	1.0086613297286753 1.5274023532587976e-14 9.1653161948586522e-15 0.99999999999973621 6.5306642348692861e-15 0.99999999999975553
9690	0 0 0 0	4 4 4	4.7499999999991553	-0.43518518518518517 -0.01851851851851111 -0.01851851851851111	1.0081513707967888 8.0585465525230286e-15 6.6936455928101365e-15 0.99999999999984768 -8.100650292653218e-15 0.99999999999985234
9690	0 0 0 0	5 5 5	4.7499999999991553	-0.41666666666666663 0 0	1.0072781000808182 -8.6444872675737525e-15 -3.0015640839348006e-15 1.0000000000005091 7.9364298668328413e-15 1.0000000000005242
9690	0 0 0 0	6 6 6	4.7499999999991553	-0.39814814814814814 0.01851851851851111 0.01851851851851111	1.0061315462277409 7.3426977990756447e-15 2.7651041787991107e-15 0.99999999999919309 -5.2121982571809339e-15 0.99999999999919265
9690	0 0 0 0	7 7 7	4.7499999999991553	-0.37962962962962959 0.03703703703702222 0.03703703703702222	1.0049526595644809 1.5568989695939003e-14 -1.1829735761928985e-14 1.0000000000011817 4.1497573283789464e-15 1.0000000000011664
9690	0 0 0 0	8 8 8	4.7499999999991553	-0.3611111111111111 0.055555555555533327 0.055555555555533327	1.0040313906196401 -1.5413518119577742e-15 -1.2397839950816675e-14 0.99999999999837363 1.6813750858190182e-14 0.99999999999836287
9690	0 0 0 0	9 9 9	4.7499999999991553	-0.34259259259259256 0.074074074074044441 0.074074074074044441	1.0035973148794728 2.2305833929757954e-14 1.3505679729987157e-13 1.0000000000053635 -7.3847080967866563e-14 1.000000000005419
9690	0 0 0 0	10 10 10	4.7499999999991553	-0.32407407407407407 0.092592592592555548 0.092592592592555548	1.0035973148567701 -1.1178896647921354e-13 6.3257787686373486e-14 0.99999999999389311 4.3761340154783515e-14 0.99999999999385669
#
#
#
#
#
#
#
#
#
#
#
#
#
#
#
#
#
#
#
#
#
#
#
#
#
#
#
#
#
#
#
#
#
#
#
#
#
#
#
#
#
#
#
#
#

# iteration 9690   time 4.7499999999991553
# time level 0
# refinement level 0   multigrid level 0   map 0   component 1
# column format: 1:it	2:tl	3:rl 4:c 5:ml	6:ix 7:iy 8:iz	9:time	10:x 11:y 12:z	13:data
# data columns: 13:gxx 14:gxy 15:gxz 16:gyy 17:gyz 18:gzz
#
#
#
#
#
#
#
#
#
#
#
#
#
#
#
#
#
#
#
#
#
#
#
#
#
#
#
#
#
#
#
#
#
#
#
#
#
#
#
#
#
#
#
#
#
#
#
#
#
#
#
#
#
#
#
#

# iteration 9690   time 4.7499999999991553
# time level 0
# refinement level 0   multigrid level 0   map 0   component 2
# column format: 1:it	2:tl	3:rl 4:c 5:ml	6:ix 7:iy 8:iz	9:time	10:x 11:y 12:z	13:data
# data columns: 13:gxx 14:gxy 15:gxz 16:gyy 17:gyz 18:gzz
#
#
#
#
#
#
#
#
#
#
#
#
#
#
#
#
#
#
#
#
#
#
#
#
#
#
#
#
#
#
#
#
#
#
#
#
#
#
#
#
#
#
#
#
#
#
#
#
#
#
#
#
#
#
#
#

# iteration 9690   time 4.7499999999991553
# time level 0
# refinement level 0   multigrid level 0   map 0   component 3
# column format: 1:it	2:tl	3:rl 4:c 5:ml	6:ix 7:iy 8:iz	9:time	10:x 11:y 12:z	13:data
# data columns: 13:gxx 14:gxy 15:gxz 16:gyy 17:gyz 18:gzz
#
#
#
#
#
#
#
#
#
#
#
#
#
#
#
#
#
#
#
#
#
#
#
#
#
#
#
#
#
#
#
#
#
#
#
#
#
#
#
#
#
#
#
#
#
#
#
#
#
#
#
#
#
#
#
#


# iteration 10200   time 4.9999999999991109
# time level 0
# refinement level 0   multigrid level 0   map 0   component 0
# column format: 1:it	2:tl	3:rl 4:c 5:ml	6:ix 7:iy 8:iz	9:time	10:x 11:y 12:z	13:data
# data columns: 13:gxx 14:gxy 15:gxz 16:gyy 17:gyz 18:gzz
10200	0 0 0 0	0 0 0	4.9999999999991109	-0.50925925925925919 -0.092592592592555548 -0.092592592592555548	0.99284999712409694 -4.132661475982793e-14 1.0277478246453885e-13 1.0000000000025666 -1.7122579035259445e-13 1.0000000000025051
10200	0 0 0 0	1 1 1	4.9999999999991109	-0.4907407407407407 -0.074074074074044441 -0.074074074074044441	0.99284999728809498 1.4884648979980094e-13 1.4151171694387305e-13 0.99999999999700329 4.1506332098089298e-13 0.99999999999709988
10200	0 0 0 0	2 2 2	4.9999999999991109	-0.47222222222222221 -0.055555555555533327 -0.055555555555533327	0.99312574724158476 -1.3451028032255642e-14 -9.6033303685707352e-15 1.0000000000008642 6.6511147331619076e-15 1.0000000000008546
10200	0 0 0 0	3 3 3	4.9999999999991109	-0.45370370370370366 -0.03703703703702222 -0.03703703703702222	0.99380517467356899 3.2468210452724895e-15 4.9479235551229656e-15 0.99999999999967248 6.4416316028352673e-15 0.99999999999967604
10200	0 0 0 0	4 4 4	4.9999999999991109	-0.43518518518518517 -0.01851851851851111 -0.01851851851851111	0.99490947227650772 1.9320166670533257e-15 4.523367946411465e-15 1.0000000000000007 9.8656031957666918e-16 0.99999999999999201
10200	0 0 0 0	5 5 5	4.9999999999991109	-0.41666666666666663 0 0	0.99636892359352547 -1.6902075755612447e-15 1.2718369073671203e-15 1.000000000000272 5.687592638237998e-15 1.0000000000002887
10200	0 0 0 0	6 6 6	4.9999999999991109	-0.39814814814814814 0.01851851851851111 0.01851851851851111	0.99797978903299878 2.575219010451941e-15 -2.9265717305983737e-15 0.99999999999937916 1.0625465398778911e-14 0.99999999999937983
10200	0 0 0 0	7 7 7	4.9999999999991109	-0.37962962962962959 0.03703703703702222 0.03703703703702222	0.99945303101826444 1.0231108121546898e-14 -1.4761990006525776e-14 1.0000000000010341 -1.7025376027867515e-14 1.0000000000010332
10200	0 0 0 0	8 8 8	4.9999999999991109	-0.3611111111111111 0.055555555555533327 0.055555555555533327	1.0005190776132216 -6.6854545689525763e-15 -2.6173350701528661e-14 0.99999999999846734 -1.0039319506301107e-14 0.99999999999843492
10200	0 0 0 0	9 9 9	4.9999999999991109	-0.34259259259259256 0.074074074074044441 0.074074074074044441	1.0010004818592024 1.4886927260655975e-13 1.3931250571637269e-14 1.0000000000054161 -2.7810507930319872e-13 1.0000000000054796
10200	0 0 0 0	10 10 10	4.9999999999991109	-0.32407407407407407 0.092592592592555548 0.092592592592555548	1.0010004816798799 -1.1311230127031496e-13 1.6944005680342608e-13 0.99999999999399303 1.5702346594898899e-13 0.99999999999398348
#
#
#
#
#
#
#
#
#
#
#
#
#
#
#
#
#
#
#
#
#
#
#
#
#
#
#
#
#
#
#
#
#
#
#
#
#
#
#
#
#
#
#
#
#

# iteration 10200   time 4.9999999999991109
# time level 0
# refinement level 0   multigrid level 0   map 0   component 1
# column format: 1:it	2:tl	3:rl 4:c 5:ml	6:ix 7:iy 8:iz	9:time	10:x 11:y 12:z	13:data
# data columns: 13:gxx 14:gxy 15:gxz 16:gyy 17:gyz 18:gzz
#
#
#
#
#
#
#
#
#
#
#
#
#
#
#
#
#
#
#
#
#
#
#
#
#
#
#
#
#
#
#
#
#
#
#
#
#
#
#
#
#
#
#
#
#
#
#
#
#
#
#
#
#
#
#
#

# iteration 10200   time 4.9999999999991109
# time level 0
# refinement level 0   multigrid level 0   map 0   component 2
# column format: 1:it	2:tl	3:rl 4:c 5:ml	6:ix 7:iy 8:iz	9:time	10:x 11:y 12:z	13:data
# data columns: 13:gxx 14:gxy 15:gxz 16:gyy 17:gyz 18:gzz
#
#
#
#
#
#
#
#
#
#
#
#
#
#
#
#
#
#
#
#
#
#
#
#
#
#
#
#
#
#
#
#
#
#
#
#
#
#
#
#
#
#
#
#
#
#
#
#
#
#
#
#
#
#
#
#

# iteration 10200   time 4.9999999999991109
# time level 0
# refinement level 0   multigrid level 0   map 0   component 3
# column format: 1:it	2:tl	3:rl 4:c 5:ml	6:ix 7:iy 8:iz	9:time	10:x 11:y 12:z	13:data
# data columns: 13:gxx 14:gxy 15:gxz 16:gyy 17:gyz 18:gzz
#
#
#
#
#
#
#
#
#
#
#
#
#
#
#
#
#
#
#
#
#
#
#
#
#
#
#
#
#
#
#
#
#
#
#
#
#
#
#
#
#
#
#
#
#
#
#
#
#
#
#
#
#
#
#
#


