# Scalar ASCII output created by CarpetIOScalar
# created on oort1 by jmiller on Mar 21 2016 at 17:26:37-0400
# parameter filename: "/home/jmiller/simulations/wavetoy_so_dg8_sinex_rho_4/output-0000/wavetoy_so_dg8_sinex.par"
# Build ID: build-dgfe2-oort1-jmiller-2016.03.18-21.11.27-11190
# Simulation ID: run-wavetoy_so_dg8_sinex-oort1-jmiller-2016.03.21-21.26.34-3669
# Run ID: run-wavetoy_so_dg8_sinex-oort1-jmiller-2016.03.21-21.26.34-3669
#
# ML_WAVETOY_DG8::energy (ml_wavetoy_dg8-wt_energy)
# 1:iteration 2:time 3:data
# data columns: 3:energy
0 0 24.175494745438797
4 0.050000000000000003 24.175494745711255
8 0.10000000000000001 24.175494746118151
12 0.15000000000000002 24.175494746087857
16 0.20000000000000001 24.175494745781425
20 0.25 24.175494745858575
24 0.30000000000000004 24.17549474635528
28 0.35000000000000003 24.17549474640813
32 0.40000000000000002 24.175494745508743
36 0.45000000000000001 24.175494744535861
40 0.5 24.175494744935385
44 0.55000000000000004 24.175494746737936
48 0.60000000000000009 24.175494748090287
52 0.65000000000000002 24.175494747254749
56 0.70000000000000007 24.175494744769011
60 0.75 24.175494743151017
64 0.80000000000000004 24.17549474419398
68 0.85000000000000009 24.175494746936806
72 0.90000000000000002 24.175494748721682
76 0.95000000000000007 24.175494747939833
80 1 24.175494745485985
