# Scalar ASCII output created by CarpetIOScalar
# created on nid25132 by miller1 on Mar 13 2016 at 10:07:40-0500
# parameter filename: "/scratch/sciteam/miller1/simulations/trunc_rho_bssn_dg4_gauge_wave_rho_64/output-0000/gauge_wave.par"
# Build ID: build-dgfe2-h2ologin1.ncsa.illinois.edu-miller1-2016.02.08-01.00.23-31758
# Simulation ID: run-gauge_wave-nid25132-miller1-2016.03.13-15.07.36-29518
# Run ID: run-gauge_wave-nid25132-miller1-2016.03.13-15.07.36-29518
#
# ADMBASE::alp (admbase-lapse)
# 1:iteration 2:time 3:data
# data columns: 3:alp
0 0 1.00498756211209
3200 0.25 1.00498756211276
6400 0.5 1.00498756211213
9600 0.75 1.00498756211288
12800 1 1.00498756211213
16000 1.25 1.00498756211275
19200 1.5 1.00498756211213
22400 1.75 1.00498756211299
25600 2 1.00498756211214
28800 2.25 1.00498756211284
32000 2.5 1.00498756211215
35200 2.75 1.00498756211307
38400 3 1.00498756211212
41600 3.25 1.00498756211286
44800 3.5 1.00498756211216
48000 3.75 1.00498756211305
51200 4 1.00498756211213
54400 4.25 1.00498756211283
57600 4.5 1.00498756211214
60800 4.75 1.00498756211296
