# Scalar ASCII output created by CarpetIOScalar
# created on compute by jmiller on Jan 28 2016 at 15:25:04-0500
# parameter filename: "/xfs1/jmiller/simulations/trunc_rho_bssn_dg4_shifted_gauge_wave_1plulog_rho_32/output-0000/shifted_gauge_wave_1_plus_log.par"
# Build ID: build-dgfe2-compute-jmiller-2015.12.16-04.26.30-10022
# Simulation ID: run-shifted_gauge_wave_1_plus_log-compute-jmiller-2016.01.28-20.25.00-31386
# Run ID: run-shifted_gauge_wave_1_plus_log-compute-jmiller-2016.01.28-20.25.00-31386
#
# ADMBASE::gxx (admbase-metric)
# 1:iteration 2:time 3:data
# data columns: 3:gxx 4:gxy 5:gxz 6:gyy 7:gyz 8:gzz
0 0 1.00002499968751 0 0 1 0 1
1600 0.25 1.00011392447918 5.97717788707016e-15 6.08956614564539e-15 0.999999999999999 5.43876524907499e-15 0.999999999999999
3200 0.5 1.00013624802185 1.1439988848678e-14 1.02769022864134e-14 0.999999999999998 9.25262179745648e-15 0.999999999999999
4800 0.75 1.00032969809705 1.61224509094801e-14 1.83457968525927e-14 1 1.39995040689119e-14 1
6400 1 1.00019125169386 2.08698474783388e-14 2.46313003165732e-14 0.999999999999999 1.70298884421632e-14 0.999999999999999
8000 1.25 1.0003888295207 2.47071586132118e-14 3.25001246136526e-14 0.999999999999998 2.11608246921242e-14 0.999999999999998
9600 1.5 1.00015454977714 3.45401840954406e-14 3.10691056527148e-14 0.999999999999998 2.30442698577837e-14 0.999999999999998
11200 1.75 1.00012519748564 3.70471530226058e-14 3.76431908416242e-14 0.999999999999997 2.66043446857992e-14 0.999999999999997
12800 2 1.00005206822774 4.0540126111435e-14 4.31324566606854e-14 0.999999999999995 2.83295953262616e-14 0.999999999999995
14400 2.25 0.999996357425458 5.04471631290849e-14 4.03927460755748e-14 0.999999999999992 2.93280714339859e-14 0.999999999999993
16000 2.5 0.999995151957882 5.08304667145802e-14 5.22652050149584e-14 0.99999999999999 3.113802999563e-14 0.999999999999991
17600 2.75 1.00001855615364 5.41778483123561e-14 5.90810458476275e-14 0.99999999999999 3.59289728513623e-14 0.99999999999999
19200 3 1.00008392579721 7.12485538812919e-14 7.39530859995139e-14 0.999999999999988 4.60667583301066e-14 0.999999999999988
20800 3.25 1.0001303102771 7.66645807066746e-14 7.67885183812549e-14 0.999999999999985 4.46203442905083e-14 0.999999999999986
22400 3.5 1.00007601970875 7.84641030641756e-14 8.11249832120078e-14 0.999999999999984 4.22435089053959e-14 0.999999999999985
24000 3.75 1.00015014325036 7.84888899022354e-14 9.06589270921938e-14 0.999999999999982 4.69127278877506e-14 0.999999999999982
25600 4 1.00007961460281 8.45171918014128e-14 1.03780342789455e-13 0.999999999999978 6.01844623679202e-14 0.999999999999979
27200 4.25 1.00002800782022 9.8518272290936e-14 1.20998892603583e-13 0.999999999999975 6.73550811385882e-14 0.999999999999976
28800 4.5 1.00003069670416 1.04318512905646e-13 1.16165894394356e-13 0.999999999999972 6.18239560614007e-14 0.999999999999973
30400 4.75 1.0000233399102 1.02687595015192e-13 1.08088381216888e-13 0.999999999999969 5.47801849896996e-14 0.99999999999997
32000 5 1.0000191987163 1.1725406920058e-13 1.22198916934767e-13 0.999999999999966 5.3920403471026e-14 0.999999999999966
