# 1D ASCII output created by CarpetIOASCII
# created on compute by jmiller on Jan 28 2016 at 15:25:04-0500
# parameter filename: "/xfs1/jmiller/simulations/trunc_rho_bssn_dg4_shifted_gauge_wave_1plulog_rho_32/output-0000/shifted_gauge_wave_1_plus_log.par"
# Build ID: build-dgfe2-compute-jmiller-2015.12.16-04.26.30-10022
# Simulation ID: run-shifted_gauge_wave_1_plus_log-compute-jmiller-2016.01.28-20.25.00-31386
# Run ID: run-shifted_gauge_wave_1_plus_log-compute-jmiller-2016.01.28-20.25.00-31386
#
# ADMBASE::METRIC y (admbase-metric)
#
# iteration 0   time 0
# time level 0
# refinement level 0   multigrid level 0   map 0   component 0
# column format: 1:it	2:tl	3:rl 4:c 5:ml	6:ix 7:iy 8:iz	9:time	10:x 11:y 12:z	13:data
# data columns: 13:gxx 14:gxy 15:gxz 16:gyy 17:gyz 18:gzz
0	0	0 0 0	161 0 3	0	0.0015625000000000001 -0.0093750000000000031 0	1 0 0 1 0 1
0	0	0 0 0	161 1 3	0	0.0015625000000000001 -0.0062500000000000021 0	1 0 0 1 0 1
0	0	0 0 0	161 2 3	0	0.0015625000000000001 -0.003125000000000001 0	1 0 0 1 0 1
0	0	0 0 0	161 3 3	0	0.0015625000000000001 0 0	1 0 0 1 0 1
0	0	0 0 0	161 4 3	0	0.0015625000000000001 0.003125000000000001 0	1 0 0 1 0 1
0	0	0 0 0	161 5 3	0	0.0015625000000000001 0.0062500000000000021 0	1 0 0 1 0 1
0	0	0 0 0	161 6 3	0	0.0015625000000000001 0.0093750000000000031 0	1 0 0 1 0 1

# iteration 0   time 0
# time level 0
# refinement level 0   multigrid level 0   map 0   component 1
# column format: 1:it	2:tl	3:rl 4:c 5:ml	6:ix 7:iy 8:iz	9:time	10:x 11:y 12:z	13:data
# data columns: 13:gxx 14:gxy 15:gxz 16:gyy 17:gyz 18:gzz
0	0	0 1 0	161 0 3	0	0.0015625000000000001 -0.0093750000000000031 0	1 0 0 1 0 1
0	0	0 1 0	161 1 3	0	0.0015625000000000001 -0.0062500000000000021 0	1 0 0 1 0 1
0	0	0 1 0	161 2 3	0	0.0015625000000000001 -0.003125000000000001 0	1 0 0 1 0 1
0	0	0 1 0	161 3 3	0	0.0015625000000000001 0 0	1 0 0 1 0 1
0	0	0 1 0	161 4 3	0	0.0015625000000000001 0.003125000000000001 0	1 0 0 1 0 1
0	0	0 1 0	161 5 3	0	0.0015625000000000001 0.0062500000000000021 0	1 0 0 1 0 1
0	0	0 1 0	161 6 3	0	0.0015625000000000001 0.0093750000000000031 0	1 0 0 1 0 1


# iteration 1600   time 0.25000000000000006
# time level 0
# refinement level 0   multigrid level 0   map 0   component 0
# column format: 1:it	2:tl	3:rl 4:c 5:ml	6:ix 7:iy 8:iz	9:time	10:x 11:y 12:z	13:data
# data columns: 13:gxx 14:gxy 15:gxz 16:gyy 17:gyz 18:gzz
1600	0	0 0 0	161 0 3	0.25000000000000006	0.0015625000000000001 -0.0093750000000000031 0	0.98329270634577137 -5.713320618648287e-15 -4.7032054365816624e-15 1.0000000000003073 1.7242344567784809e-14 1.0000000000003555
1600	0	0 0 0	161 1 3	0.25000000000000006	0.0015625000000000001 -0.0062500000000000021 0	0.98329270634573418 -3.3723988546599256e-14 -1.2156085474376995e-14 1.0000000000002709 -2.3926104939190269e-14 1.0000000000003131
1600	0	0 0 0	161 2 3	0.25000000000000006	0.0015625000000000001 -0.003125000000000001 0	0.98329270634582178 -5.59973136290065e-15 1.0842322337407812e-14 1.0000000000003737 -3.7967838322645572e-15 1.0000000000003835
1600	0	0 0 0	161 3 3	0.25000000000000006	0.0015625000000000001 0 0	0.98329270634577215 1.4817158352560689e-14 9.3973746891903063e-16 1.00000000000033 1.5224107352458072e-15 1.0000000000003344
1600	0	0 0 0	161 4 3	0.25000000000000006	0.0015625000000000001 0.003125000000000001 0	0.98329270634578303 -6.330817122651772e-15 -1.9098347954105464e-14 1.0000000000003426 2.9906562605851907e-15 1.0000000000003295
1600	0	0 0 0	161 5 3	0.25000000000000006	0.0015625000000000001 0.0062500000000000021 0	0.98329270634577137 -5.713320618648287e-15 -4.7032054365816624e-15 1.0000000000003073 1.7242344567784809e-14 1.0000000000003555
1600	0	0 0 0	161 6 3	0.25000000000000006	0.0015625000000000001 0.0093750000000000031 0	0.98329270634573418 -3.3723988546599256e-14 -1.2156085474376995e-14 1.0000000000002709 -2.3926104939190269e-14 1.0000000000003131

# iteration 1600   time 0.25000000000000006
# time level 0
# refinement level 0   multigrid level 0   map 0   component 1
# column format: 1:it	2:tl	3:rl 4:c 5:ml	6:ix 7:iy 8:iz	9:time	10:x 11:y 12:z	13:data
# data columns: 13:gxx 14:gxy 15:gxz 16:gyy 17:gyz 18:gzz
1600	0	0 1 0	161 0 3	0.25000000000000006	0.0015625000000000001 -0.0093750000000000031 0	0.98329270634577137 -5.713320618648287e-15 -4.7032054365816624e-15 1.0000000000003073 1.7242344567784809e-14 1.0000000000003555
1600	0	0 1 0	161 1 3	0.25000000000000006	0.0015625000000000001 -0.0062500000000000021 0	0.98329270634573418 -3.3723988546599256e-14 -1.2156085474376995e-14 1.0000000000002709 -2.3926104939190269e-14 1.0000000000003131
1600	0	0 1 0	161 2 3	0.25000000000000006	0.0015625000000000001 -0.003125000000000001 0	0.98329270634582178 -5.59973136290065e-15 1.0842322337407812e-14 1.0000000000003737 -3.7967838322645572e-15 1.0000000000003835
1600	0	0 1 0	161 3 3	0.25000000000000006	0.0015625000000000001 0 0	0.98329270634577215 1.4817158352560689e-14 9.3973746891903063e-16 1.00000000000033 1.5224107352458072e-15 1.0000000000003344
1600	0	0 1 0	161 4 3	0.25000000000000006	0.0015625000000000001 0.003125000000000001 0	0.98329270634578303 -6.330817122651772e-15 -1.9098347954105464e-14 1.0000000000003426 2.9906562605851907e-15 1.0000000000003295
1600	0	0 1 0	161 5 3	0.25000000000000006	0.0015625000000000001 0.0062500000000000021 0	0.98329270634577137 -5.713320618648287e-15 -4.7032054365816624e-15 1.0000000000003073 1.7242344567784809e-14 1.0000000000003555
1600	0	0 1 0	161 6 3	0.25000000000000006	0.0015625000000000001 0.0093750000000000031 0	0.98329270634573418 -3.3723988546599256e-14 -1.2156085474376995e-14 1.0000000000002709 -2.3926104939190269e-14 1.0000000000003131


# iteration 3200   time 0.50000000000000011
# time level 0
# refinement level 0   multigrid level 0   map 0   component 0
# column format: 1:it	2:tl	3:rl 4:c 5:ml	6:ix 7:iy 8:iz	9:time	10:x 11:y 12:z	13:data
# data columns: 13:gxx 14:gxy 15:gxz 16:gyy 17:gyz 18:gzz
3200	0	0 0 0	161 0 3	0.50000000000000011	0.0015625000000000001 -0.0093750000000000031 0	0.98723283102135695 4.0369258937766558e-14 1.5631392719134308e-14 0.99999999999951228 1.4341673966717927e-14 0.9999999999994893
3200	0	0 0 0	161 1 3	0.50000000000000011	0.0015625000000000001 -0.0062500000000000021 0	0.98723283102138049 -4.0469967833620321e-14 6.7530765261171331e-15 0.99999999999951117 -6.9133855539310644e-15 0.99999999999951894
3200	0	0 0 0	161 2 3	0.50000000000000011	0.0015625000000000001 -0.003125000000000001 0	0.98723283102137915 5.5191698372220399e-15 2.6395956217360568e-14 0.99999999999953437 -3.5129606620229116e-15 0.99999999999957345
3200	0	0 0 0	161 3 3	0.50000000000000011	0.0015625000000000001 0 0	0.98723283102138093 -2.8987513628169885e-15 7.2676076993422448e-15 0.99999999999950495 -3.7827556490219103e-16 0.99999999999949585
3200	0	0 0 0	161 4 3	0.50000000000000011	0.0015625000000000001 0.003125000000000001 0	0.98723283102138715 -1.9767377002899575e-15 5.483630729736334e-17 0.99999999999949207 2.8985194110478934e-15 0.99999999999948064
3200	0	0 0 0	161 5 3	0.50000000000000011	0.0015625000000000001 0.0062500000000000021 0	0.98723283102135695 4.0369258937766558e-14 1.5631392719134308e-14 0.99999999999951228 1.4341673966717927e-14 0.9999999999994893
3200	0	0 0 0	161 6 3	0.50000000000000011	0.0015625000000000001 0.0093750000000000031 0	0.98723283102138049 -4.0469967833620321e-14 6.7530765261171331e-15 0.99999999999951117 -6.9133855539310644e-15 0.99999999999951894

# iteration 3200   time 0.50000000000000011
# time level 0
# refinement level 0   multigrid level 0   map 0   component 1
# column format: 1:it	2:tl	3:rl 4:c 5:ml	6:ix 7:iy 8:iz	9:time	10:x 11:y 12:z	13:data
# data columns: 13:gxx 14:gxy 15:gxz 16:gyy 17:gyz 18:gzz
3200	0	0 1 0	161 0 3	0.50000000000000011	0.0015625000000000001 -0.0093750000000000031 0	0.98723283102135695 4.0369258937766558e-14 1.5631392719134308e-14 0.99999999999951228 1.4341673966717927e-14 0.9999999999994893
3200	0	0 1 0	161 1 3	0.50000000000000011	0.0015625000000000001 -0.0062500000000000021 0	0.98723283102138049 -4.0469967833620321e-14 6.7530765261171331e-15 0.99999999999951117 -6.9133855539310644e-15 0.99999999999951894
3200	0	0 1 0	161 2 3	0.50000000000000011	0.0015625000000000001 -0.003125000000000001 0	0.98723283102137915 5.5191698372220399e-15 2.6395956217360568e-14 0.99999999999953437 -3.5129606620229116e-15 0.99999999999957345
3200	0	0 1 0	161 3 3	0.50000000000000011	0.0015625000000000001 0 0	0.98723283102138093 -2.8987513628169885e-15 7.2676076993422448e-15 0.99999999999950495 -3.7827556490219103e-16 0.99999999999949585
3200	0	0 1 0	161 4 3	0.50000000000000011	0.0015625000000000001 0.003125000000000001 0	0.98723283102138715 -1.9767377002899575e-15 5.483630729736334e-17 0.99999999999949207 2.8985194110478934e-15 0.99999999999948064
3200	0	0 1 0	161 5 3	0.50000000000000011	0.0015625000000000001 0.0062500000000000021 0	0.98723283102135695 4.0369258937766558e-14 1.5631392719134308e-14 0.99999999999951228 1.4341673966717927e-14 0.9999999999994893
3200	0	0 1 0	161 6 3	0.50000000000000011	0.0015625000000000001 0.0093750000000000031 0	0.98723283102138049 -4.0469967833620321e-14 6.7530765261171331e-15 0.99999999999951117 -6.9133855539310644e-15 0.99999999999951894


# iteration 4800   time 0.75000000000000011
# time level 0
# refinement level 0   multigrid level 0   map 0   component 0
# column format: 1:it	2:tl	3:rl 4:c 5:ml	6:ix 7:iy 8:iz	9:time	10:x 11:y 12:z	13:data
# data columns: 13:gxx 14:gxy 15:gxz 16:gyy 17:gyz 18:gzz
4800	0	0 0 0	161 0 3	0.75000000000000011	0.0015625000000000001 -0.0093750000000000031 0	1.0291468128911219 -1.2387378673035819e-13 -2.0216266392067616e-15 0.99999999999872513 -6.8432133228149409e-15 0.99999999999876277
4800	0	0 0 0	161 1 3	0.75000000000000011	0.0015625000000000001 -0.0062500000000000021 0	1.0291468128911501 4.792254302481455e-14 1.0900721283277371e-14 0.99999999999876255 -1.343088840287416e-16 0.99999999999876121
4800	0	0 0 0	161 2 3	0.75000000000000011	0.0015625000000000001 -0.003125000000000001 0	1.0291468128912038 -6.494716169196011e-16 7.9556152511775648e-15 0.99999999999881162 -9.1738417794737127e-16 0.99999999999883504
4800	0	0 0 0	161 3 3	0.75000000000000011	0.0015625000000000001 0 0	1.0291468128911685 3.2457213988073216e-14 4.0679327054764808e-15 0.99999999999874345 3.4778016974987796e-15 0.99999999999875444
4800	0	0 0 0	161 4 3	0.75000000000000011	0.0015625000000000001 0.003125000000000001 0	1.0291468128912076 -2.7562504810697713e-14 2.811995283874454e-15 0.999999999998745 -2.8464487444608587e-15 0.99999999999873002
4800	0	0 0 0	161 5 3	0.75000000000000011	0.0015625000000000001 0.0062500000000000021 0	1.0291468128911219 -1.2387378673035819e-13 -2.0216266392067616e-15 0.99999999999872513 -6.8432133228149409e-15 0.99999999999876277
4800	0	0 0 0	161 6 3	0.75000000000000011	0.0015625000000000001 0.0093750000000000031 0	1.0291468128911501 4.792254302481455e-14 1.0900721283277371e-14 0.99999999999876255 -1.343088840287416e-16 0.99999999999876121

# iteration 4800   time 0.75000000000000011
# time level 0
# refinement level 0   multigrid level 0   map 0   component 1
# column format: 1:it	2:tl	3:rl 4:c 5:ml	6:ix 7:iy 8:iz	9:time	10:x 11:y 12:z	13:data
# data columns: 13:gxx 14:gxy 15:gxz 16:gyy 17:gyz 18:gzz
4800	0	0 1 0	161 0 3	0.75000000000000011	0.0015625000000000001 -0.0093750000000000031 0	1.0291468128911219 -1.2387378673035819e-13 -2.0216266392067616e-15 0.99999999999872513 -6.8432133228149409e-15 0.99999999999876277
4800	0	0 1 0	161 1 3	0.75000000000000011	0.0015625000000000001 -0.0062500000000000021 0	1.0291468128911501 4.792254302481455e-14 1.0900721283277371e-14 0.99999999999876255 -1.343088840287416e-16 0.99999999999876121
4800	0	0 1 0	161 2 3	0.75000000000000011	0.0015625000000000001 -0.003125000000000001 0	1.0291468128912038 -6.494716169196011e-16 7.9556152511775648e-15 0.99999999999881162 -9.1738417794737127e-16 0.99999999999883504
4800	0	0 1 0	161 3 3	0.75000000000000011	0.0015625000000000001 0 0	1.0291468128911685 3.2457213988073216e-14 4.0679327054764808e-15 0.99999999999874345 3.4778016974987796e-15 0.99999999999875444
4800	0	0 1 0	161 4 3	0.75000000000000011	0.0015625000000000001 0.003125000000000001 0	1.0291468128912076 -2.7562504810697713e-14 2.811995283874454e-15 0.999999999998745 -2.8464487444608587e-15 0.99999999999873002
4800	0	0 1 0	161 5 3	0.75000000000000011	0.0015625000000000001 0.0062500000000000021 0	1.0291468128911219 -1.2387378673035819e-13 -2.0216266392067616e-15 0.99999999999872513 -6.8432133228149409e-15 0.99999999999876277
4800	0	0 1 0	161 6 3	0.75000000000000011	0.0015625000000000001 0.0093750000000000031 0	1.0291468128911501 4.792254302481455e-14 1.0900721283277371e-14 0.99999999999876255 -1.343088840287416e-16 0.99999999999876121


# iteration 6400   time 1.0000000000000002
# time level 0
# refinement level 0   multigrid level 0   map 0   component 0
# column format: 1:it	2:tl	3:rl 4:c 5:ml	6:ix 7:iy 8:iz	9:time	10:x 11:y 12:z	13:data
# data columns: 13:gxx 14:gxy 15:gxz 16:gyy 17:gyz 18:gzz
6400	0	0 0 0	161 0 3	1.0000000000000002	0.0015625000000000001 -0.0093750000000000031 0	1.0054887529429255 -5.1759712201478912e-14 -4.5631462086747335e-14 1.0000000000009066 1.3070320394274169e-14 1.0000000000009839
6400	0	0 0 0	161 1 3	1.0000000000000002	0.0015625000000000001 -0.0062500000000000021 0	1.005488752942935 1.7185070331876774e-13 -1.7505734700699307e-14 1.0000000000008791 -3.8774034063294559e-14 1.0000000000009481
6400	0	0 0 0	161 2 3	1.0000000000000002	0.0015625000000000001 -0.003125000000000001 0	1.005488752942876 2.4801348655546542e-14 -4.4303260691163434e-14 1.0000000000009439 -1.2811750399932098e-14 1.0000000000009368
6400	0	0 0 0	161 3 3	1.0000000000000002	0.0015625000000000001 0 0	1.0054887529429188 -3.8781273232117188e-14 -4.5123146451632362e-14 1.0000000000009659 1.2667880698931497e-14 1.0000000000009728
6400	0	0 0 0	161 4 3	1.0000000000000002	0.0015625000000000001 0.003125000000000001 0	1.0054887529429732 3.1136117254634394e-15 -1.1887294274225447e-14 1.000000000000983 1.4174586995485759e-15 1.0000000000009446
6400	0	0 0 0	161 5 3	1.0000000000000002	0.0015625000000000001 0.0062500000000000021 0	1.0054887529429255 -5.1759712201478912e-14 -4.5631462086747335e-14 1.0000000000009066 1.3070320394274169e-14 1.0000000000009839
6400	0	0 0 0	161 6 3	1.0000000000000002	0.0015625000000000001 0.0093750000000000031 0	1.005488752942935 1.7185070331876774e-13 -1.7505734700699307e-14 1.0000000000008791 -3.8774034063294559e-14 1.0000000000009481

# iteration 6400   time 1.0000000000000002
# time level 0
# refinement level 0   multigrid level 0   map 0   component 1
# column format: 1:it	2:tl	3:rl 4:c 5:ml	6:ix 7:iy 8:iz	9:time	10:x 11:y 12:z	13:data
# data columns: 13:gxx 14:gxy 15:gxz 16:gyy 17:gyz 18:gzz
6400	0	0 1 0	161 0 3	1.0000000000000002	0.0015625000000000001 -0.0093750000000000031 0	1.0054887529429255 -5.1759712201478912e-14 -4.5631462086747335e-14 1.0000000000009066 1.3070320394274169e-14 1.0000000000009839
6400	0	0 1 0	161 1 3	1.0000000000000002	0.0015625000000000001 -0.0062500000000000021 0	1.005488752942935 1.7185070331876774e-13 -1.7505734700699307e-14 1.0000000000008791 -3.8774034063294559e-14 1.0000000000009481
6400	0	0 1 0	161 2 3	1.0000000000000002	0.0015625000000000001 -0.003125000000000001 0	1.005488752942876 2.4801348655546542e-14 -4.4303260691163434e-14 1.0000000000009439 -1.2811750399932098e-14 1.0000000000009368
6400	0	0 1 0	161 3 3	1.0000000000000002	0.0015625000000000001 0 0	1.0054887529429188 -3.8781273232117188e-14 -4.5123146451632362e-14 1.0000000000009659 1.2667880698931497e-14 1.0000000000009728
6400	0	0 1 0	161 4 3	1.0000000000000002	0.0015625000000000001 0.003125000000000001 0	1.0054887529429732 3.1136117254634394e-15 -1.1887294274225447e-14 1.000000000000983 1.4174586995485759e-15 1.0000000000009446
6400	0	0 1 0	161 5 3	1.0000000000000002	0.0015625000000000001 0.0062500000000000021 0	1.0054887529429255 -5.1759712201478912e-14 -4.5631462086747335e-14 1.0000000000009066 1.3070320394274169e-14 1.0000000000009839
6400	0	0 1 0	161 6 3	1.0000000000000002	0.0015625000000000001 0.0093750000000000031 0	1.005488752942935 1.7185070331876774e-13 -1.7505734700699307e-14 1.0000000000008791 -3.8774034063294559e-14 1.0000000000009481


# iteration 8000   time 1.2500000000000002
# time level 0
# refinement level 0   multigrid level 0   map 0   component 0
# column format: 1:it	2:tl	3:rl 4:c 5:ml	6:ix 7:iy 8:iz	9:time	10:x 11:y 12:z	13:data
# data columns: 13:gxx 14:gxy 15:gxz 16:gyy 17:gyz 18:gzz
8000	0	0 0 0	161 0 3	1.2500000000000002	0.0015625000000000001 -0.0093750000000000031 0	0.96817981316647395 5.4035098807167686e-15 -9.497222473555253e-15 0.99999999999817679 -1.7325909003262115e-14 0.99999999999810207
8000	0	0 0 0	161 1 3	1.2500000000000002	0.0015625000000000001 -0.0062500000000000021 0	0.96817981316647406 -3.9287109941820586e-14 5.1735051964456815e-15 0.99999999999817113 -6.3866099620866466e-15 0.99999999999811906
8000	0	0 0 0	161 2 3	1.2500000000000002	0.0015625000000000001 -0.003125000000000001 0	0.96817981316648627 -8.6006490671177508e-15 1.6678258584051362e-14 0.99999999999819322 1.3762200105990228e-15 0.99999999999824296
8000	0	0 0 0	161 3 3	1.2500000000000002	0.0015625000000000001 0 0	0.96817981316648138 7.4203591820221439e-15 2.1655375237272872e-14 0.99999999999810285 1.1127609550818243e-14 0.99999999999813183
8000	0	0 0 0	161 4 3	1.2500000000000002	0.0015625000000000001 0.003125000000000001 0	0.9681798131664584 5.4022276169358961e-15 5.0823400393874413e-15 0.9999999999981074 -1.148636996109581e-14 0.99999999999810252
8000	0	0 0 0	161 5 3	1.2500000000000002	0.0015625000000000001 0.0062500000000000021 0	0.96817981316647395 5.4035098807167686e-15 -9.497222473555253e-15 0.99999999999817679 -1.7325909003262115e-14 0.99999999999810207
8000	0	0 0 0	161 6 3	1.2500000000000002	0.0015625000000000001 0.0093750000000000031 0	0.96817981316647406 -3.9287109941820586e-14 5.1735051964456815e-15 0.99999999999817113 -6.3866099620866466e-15 0.99999999999811906

# iteration 8000   time 1.2500000000000002
# time level 0
# refinement level 0   multigrid level 0   map 0   component 1
# column format: 1:it	2:tl	3:rl 4:c 5:ml	6:ix 7:iy 8:iz	9:time	10:x 11:y 12:z	13:data
# data columns: 13:gxx 14:gxy 15:gxz 16:gyy 17:gyz 18:gzz
8000	0	0 1 0	161 0 3	1.2500000000000002	0.0015625000000000001 -0.0093750000000000031 0	0.96817981316647395 5.4035098807167686e-15 -9.497222473555253e-15 0.99999999999817679 -1.7325909003262115e-14 0.99999999999810207
8000	0	0 1 0	161 1 3	1.2500000000000002	0.0015625000000000001 -0.0062500000000000021 0	0.96817981316647406 -3.9287109941820586e-14 5.1735051964456815e-15 0.99999999999817113 -6.3866099620866466e-15 0.99999999999811906
8000	0	0 1 0	161 2 3	1.2500000000000002	0.0015625000000000001 -0.003125000000000001 0	0.96817981316648627 -8.6006490671177508e-15 1.6678258584051362e-14 0.99999999999819322 1.3762200105990228e-15 0.99999999999824296
8000	0	0 1 0	161 3 3	1.2500000000000002	0.0015625000000000001 0 0	0.96817981316648138 7.4203591820221439e-15 2.1655375237272872e-14 0.99999999999810285 1.1127609550818243e-14 0.99999999999813183
8000	0	0 1 0	161 4 3	1.2500000000000002	0.0015625000000000001 0.003125000000000001 0	0.9681798131664584 5.4022276169358961e-15 5.0823400393874413e-15 0.9999999999981074 -1.148636996109581e-14 0.99999999999810252
8000	0	0 1 0	161 5 3	1.2500000000000002	0.0015625000000000001 0.0062500000000000021 0	0.96817981316647395 5.4035098807167686e-15 -9.497222473555253e-15 0.99999999999817679 -1.7325909003262115e-14 0.99999999999810207
8000	0	0 1 0	161 6 3	1.2500000000000002	0.0015625000000000001 0.0093750000000000031 0	0.96817981316647406 -3.9287109941820586e-14 5.1735051964456815e-15 0.99999999999817113 -6.3866099620866466e-15 0.99999999999811906


# iteration 9600   time 1.5000000000000002
# time level 0
# refinement level 0   multigrid level 0   map 0   component 0
# column format: 1:it	2:tl	3:rl 4:c 5:ml	6:ix 7:iy 8:iz	9:time	10:x 11:y 12:z	13:data
# data columns: 13:gxx 14:gxy 15:gxz 16:gyy 17:gyz 18:gzz
9600	0	0 0 0	161 0 3	1.5000000000000002	0.0015625000000000001 -0.0093750000000000031 0	1.0108985872744398 -1.4717163588771627e-13 4.4805924337091437e-14 0.99999999999685407 -1.0085354319557237e-13 0.99999999999689082
9600	0	0 0 0	161 1 3	1.5000000000000002	0.0015625000000000001 -0.0062500000000000021 0	1.010898587274397 2.1087826353261908e-14 -2.0012944137721808e-15 0.99999999999688671 1.295212635714992e-13 0.99999999999692135
9600	0	0 0 0	161 2 3	1.5000000000000002	0.0015625000000000001 -0.003125000000000001 0	1.0108985872745055 -7.9326488807799912e-15 5.8734646638510557e-14 0.99999999999698674 9.6287779630099333e-15 0.9999999999970175
9600	0	0 0 0	161 3 3	1.5000000000000002	0.0015625000000000001 0 0	1.0108985872744407 3.3574528206185333e-14 1.6421052802120951e-14 0.99999999999689526 -1.1241850847483162e-14 0.9999999999968967
9600	0	0 0 0	161 4 3	1.5000000000000002	0.0015625000000000001 0.003125000000000001 0	1.0108985872744438 -1.2787170079912436e-14 -8.1955111811601836e-14 0.99999999999689981 -2.0491109302349033e-16 0.99999999999691869
9600	0	0 0 0	161 5 3	1.5000000000000002	0.0015625000000000001 0.0062500000000000021 0	1.0108985872744398 -1.4717163588771627e-13 4.4805924337091437e-14 0.99999999999685407 -1.0085354319557237e-13 0.99999999999689082
9600	0	0 0 0	161 6 3	1.5000000000000002	0.0015625000000000001 0.0093750000000000031 0	1.010898587274397 2.1087826353261908e-14 -2.0012944137721808e-15 0.99999999999688671 1.295212635714992e-13 0.99999999999692135

# iteration 9600   time 1.5000000000000002
# time level 0
# refinement level 0   multigrid level 0   map 0   component 1
# column format: 1:it	2:tl	3:rl 4:c 5:ml	6:ix 7:iy 8:iz	9:time	10:x 11:y 12:z	13:data
# data columns: 13:gxx 14:gxy 15:gxz 16:gyy 17:gyz 18:gzz
9600	0	0 1 0	161 0 3	1.5000000000000002	0.0015625000000000001 -0.0093750000000000031 0	1.0108985872744398 -1.4717163588771627e-13 4.4805924337091437e-14 0.99999999999685407 -1.0085354319557237e-13 0.99999999999689082
9600	0	0 1 0	161 1 3	1.5000000000000002	0.0015625000000000001 -0.0062500000000000021 0	1.010898587274397 2.1087826353261908e-14 -2.0012944137721808e-15 0.99999999999688671 1.295212635714992e-13 0.99999999999692135
9600	0	0 1 0	161 2 3	1.5000000000000002	0.0015625000000000001 -0.003125000000000001 0	1.0108985872745055 -7.9326488807799912e-15 5.8734646638510557e-14 0.99999999999698674 9.6287779630099333e-15 0.9999999999970175
9600	0	0 1 0	161 3 3	1.5000000000000002	0.0015625000000000001 0 0	1.0108985872744407 3.3574528206185333e-14 1.6421052802120951e-14 0.99999999999689526 -1.1241850847483162e-14 0.9999999999968967
9600	0	0 1 0	161 4 3	1.5000000000000002	0.0015625000000000001 0.003125000000000001 0	1.0108985872744438 -1.2787170079912436e-14 -8.1955111811601836e-14 0.99999999999689981 -2.0491109302349033e-16 0.99999999999691869
9600	0	0 1 0	161 5 3	1.5000000000000002	0.0015625000000000001 0.0062500000000000021 0	1.0108985872744398 -1.4717163588771627e-13 4.4805924337091437e-14 0.99999999999685407 -1.0085354319557237e-13 0.99999999999689082
9600	0	0 1 0	161 6 3	1.5000000000000002	0.0015625000000000001 0.0093750000000000031 0	1.010898587274397 2.1087826353261908e-14 -2.0012944137721808e-15 0.99999999999688671 1.295212635714992e-13 0.99999999999692135


# iteration 11200   time 1.7500000000000004
# time level 0
# refinement level 0   multigrid level 0   map 0   component 0
# column format: 1:it	2:tl	3:rl 4:c 5:ml	6:ix 7:iy 8:iz	9:time	10:x 11:y 12:z	13:data
# data columns: 13:gxx 14:gxy 15:gxz 16:gyy 17:gyz 18:gzz
11200	0	0 0 0	161 0 3	1.7500000000000004	0.0015625000000000001 -0.0093750000000000031 0	1.0165082335013078 -2.7211114011464089e-14 2.9007815423576764e-14 0.99999999999781697 -6.5075811923027959e-14 0.99999999999778422
11200	0	0 0 0	161 1 3	1.7500000000000004	0.0015625000000000001 -0.0062500000000000021 0	1.0165082335011046 7.3096959476299104e-14 9.6013891520396771e-14 0.99999999999780964 3.5374998626466953e-14 0.99999999999780953
11200	0	0 0 0	161 2 3	1.7500000000000004	0.0015625000000000001 -0.003125000000000001 0	1.0165082335013775 -2.6121023040819947e-14 -1.7857727877561162e-14 0.99999999999790179 5.3126622976871784e-15 0.99999999999785993
11200	0	0 0 0	161 3 3	1.7500000000000004	0.0015625000000000001 0 0	1.0165082335011542 -1.5621815691075072e-15 4.2110374413125376e-14 0.99999999999778055 9.0980705550006309e-15 0.99999999999781219
11200	0	0 0 0	161 4 3	1.7500000000000004	0.0015625000000000001 0.003125000000000001 0	1.0165082335010864 1.9096793401814972e-14 6.3767185313483969e-14 0.99999999999786016 -1.2050115291178293e-14 0.9999999999978656
11200	0	0 0 0	161 5 3	1.7500000000000004	0.0015625000000000001 0.0062500000000000021 0	1.0165082335013078 -2.7211114011464089e-14 2.9007815423576764e-14 0.99999999999781697 -6.5075811923027959e-14 0.99999999999778422
11200	0	0 0 0	161 6 3	1.7500000000000004	0.0015625000000000001 0.0093750000000000031 0	1.0165082335011046 7.3096959476299104e-14 9.6013891520396771e-14 0.99999999999780964 3.5374998626466953e-14 0.99999999999780953

# iteration 11200   time 1.7500000000000004
# time level 0
# refinement level 0   multigrid level 0   map 0   component 1
# column format: 1:it	2:tl	3:rl 4:c 5:ml	6:ix 7:iy 8:iz	9:time	10:x 11:y 12:z	13:data
# data columns: 13:gxx 14:gxy 15:gxz 16:gyy 17:gyz 18:gzz
11200	0	0 1 0	161 0 3	1.7500000000000004	0.0015625000000000001 -0.0093750000000000031 0	1.0165082335013078 -2.7211114011464089e-14 2.9007815423576764e-14 0.99999999999781697 -6.5075811923027959e-14 0.99999999999778422
11200	0	0 1 0	161 1 3	1.7500000000000004	0.0015625000000000001 -0.0062500000000000021 0	1.0165082335011046 7.3096959476299104e-14 9.6013891520396771e-14 0.99999999999780964 3.5374998626466953e-14 0.99999999999780953
11200	0	0 1 0	161 2 3	1.7500000000000004	0.0015625000000000001 -0.003125000000000001 0	1.0165082335013775 -2.6121023040819947e-14 -1.7857727877561162e-14 0.99999999999790179 5.3126622976871784e-15 0.99999999999785993
11200	0	0 1 0	161 3 3	1.7500000000000004	0.0015625000000000001 0 0	1.0165082335011542 -1.5621815691075072e-15 4.2110374413125376e-14 0.99999999999778055 9.0980705550006309e-15 0.99999999999781219
11200	0	0 1 0	161 4 3	1.7500000000000004	0.0015625000000000001 0.003125000000000001 0	1.0165082335010864 1.9096793401814972e-14 6.3767185313483969e-14 0.99999999999786016 -1.2050115291178293e-14 0.9999999999978656
11200	0	0 1 0	161 5 3	1.7500000000000004	0.0015625000000000001 0.0062500000000000021 0	1.0165082335013078 -2.7211114011464089e-14 2.9007815423576764e-14 0.99999999999781697 -6.5075811923027959e-14 0.99999999999778422
11200	0	0 1 0	161 6 3	1.7500000000000004	0.0015625000000000001 0.0093750000000000031 0	1.0165082335011046 7.3096959476299104e-14 9.6013891520396771e-14 0.99999999999780964 3.5374998626466953e-14 0.99999999999780953


# iteration 12800   time 2.0000000000000004
# time level 0
# refinement level 0   multigrid level 0   map 0   component 0
# column format: 1:it	2:tl	3:rl 4:c 5:ml	6:ix 7:iy 8:iz	9:time	10:x 11:y 12:z	13:data
# data columns: 13:gxx 14:gxy 15:gxz 16:gyy 17:gyz 18:gzz
12800	0	0 0 0	161 0 3	2.0000000000000004	0.0015625000000000001 -0.0093750000000000031 0	0.9882061715069399 1.84239026836436e-13 -5.3584457298937814e-14 0.99999999999813405 -1.8742152936822826e-14 0.99999999999805356
12800	0	0 0 0	161 1 3	2.0000000000000004	0.0015625000000000001 -0.0062500000000000021 0	0.98820617150694112 1.5274636135048921e-13 -7.8771991307473977e-14 0.99999999999819034 1.7999409339081878e-14 0.99999999999807443
12800	0	0 0 0	161 2 3	2.0000000000000004	0.0015625000000000001 -0.003125000000000001 0	0.98820617150678269 5.2527256859062186e-14 -7.6112583182981313e-15 0.99999999999808797 -1.1229590746192425e-14 0.99999999999813105
12800	0	0 0 0	161 3 3	2.0000000000000004	0.0015625000000000001 0 0	0.9882061715069046 -9.2580472908580442e-14 -5.7752988606584759e-14 0.99999999999808864 2.4220552149088466e-15 0.99999999999810363
12800	0	0 0 0	161 4 3	2.0000000000000004	0.0015625000000000001 0.003125000000000001 0	0.98820617150692236 5.8247092622442139e-15 -1.0795261192905766e-13 0.99999999999812228 8.3330577650598463e-15 0.99999999999810485
12800	0	0 0 0	161 5 3	2.0000000000000004	0.0015625000000000001 0.0062500000000000021 0	0.9882061715069399 1.84239026836436e-13 -5.3584457298937814e-14 0.99999999999813405 -1.8742152936822826e-14 0.99999999999805356
12800	0	0 0 0	161 6 3	2.0000000000000004	0.0015625000000000001 0.0093750000000000031 0	0.98820617150694112 1.5274636135048921e-13 -7.8771991307473977e-14 0.99999999999819034 1.7999409339081878e-14 0.99999999999807443

# iteration 12800   time 2.0000000000000004
# time level 0
# refinement level 0   multigrid level 0   map 0   component 1
# column format: 1:it	2:tl	3:rl 4:c 5:ml	6:ix 7:iy 8:iz	9:time	10:x 11:y 12:z	13:data
# data columns: 13:gxx 14:gxy 15:gxz 16:gyy 17:gyz 18:gzz
12800	0	0 1 0	161 0 3	2.0000000000000004	0.0015625000000000001 -0.0093750000000000031 0	0.9882061715069399 1.84239026836436e-13 -5.3584457298937814e-14 0.99999999999813405 -1.8742152936822826e-14 0.99999999999805356
12800	0	0 1 0	161 1 3	2.0000000000000004	0.0015625000000000001 -0.0062500000000000021 0	0.98820617150694112 1.5274636135048921e-13 -7.8771991307473977e-14 0.99999999999819034 1.7999409339081878e-14 0.99999999999807443
12800	0	0 1 0	161 2 3	2.0000000000000004	0.0015625000000000001 -0.003125000000000001 0	0.98820617150678269 5.2527256859062186e-14 -7.6112583182981313e-15 0.99999999999808797 -1.1229590746192425e-14 0.99999999999813105
12800	0	0 1 0	161 3 3	2.0000000000000004	0.0015625000000000001 0 0	0.9882061715069046 -9.2580472908580442e-14 -5.7752988606584759e-14 0.99999999999808864 2.4220552149088466e-15 0.99999999999810363
12800	0	0 1 0	161 4 3	2.0000000000000004	0.0015625000000000001 0.003125000000000001 0	0.98820617150692236 5.8247092622442139e-15 -1.0795261192905766e-13 0.99999999999812228 8.3330577650598463e-15 0.99999999999810485
12800	0	0 1 0	161 5 3	2.0000000000000004	0.0015625000000000001 0.0062500000000000021 0	0.9882061715069399 1.84239026836436e-13 -5.3584457298937814e-14 0.99999999999813405 -1.8742152936822826e-14 0.99999999999805356
12800	0	0 1 0	161 6 3	2.0000000000000004	0.0015625000000000001 0.0093750000000000031 0	0.98820617150694112 1.5274636135048921e-13 -7.8771991307473977e-14 0.99999999999819034 1.7999409339081878e-14 0.99999999999807443


# iteration 14400   time 2.2500000000000004
# time level 0
# refinement level 0   multigrid level 0   map 0   component 0
# column format: 1:it	2:tl	3:rl 4:c 5:ml	6:ix 7:iy 8:iz	9:time	10:x 11:y 12:z	13:data
# data columns: 13:gxx 14:gxy 15:gxz 16:gyy 17:gyz 18:gzz
14400	0	0 0 0	161 0 3	2.2500000000000004	0.0015625000000000001 -0.0093750000000000031 0	1.000294757830108 2.5708107244278625e-13 8.1403678716612334e-14 0.99999999999679789 -1.1845407194031423e-14 0.99999999999674349
14400	0	0 0 0	161 1 3	2.2500000000000004	0.0015625000000000001 -0.0062500000000000021 0	1.0002947578299692 -5.1717597128059353e-14 1.798300593215305e-14 0.9999999999967436 1.3999299730413396e-14 0.99999999999675482
14400	0	0 0 0	161 2 3	2.2500000000000004	0.0015625000000000001 -0.003125000000000001 0	1.0002947578301715 9.5254556467901494e-15 1.5770129837272169e-13 0.99999999999686962 6.0455152776584799e-15 0.99999999999680456
14400	0	0 0 0	161 3 3	2.2500000000000004	0.0015625000000000001 0 0	1.0002947578300567 -5.9701436664902339e-14 3.119092404616269e-14 0.99999999999678979 -9.9814995848146866e-15 0.99999999999678302
14400	0	0 0 0	161 4 3	2.2500000000000004	0.0015625000000000001 0.003125000000000001 0	1.0002947578299508 3.1129668548422569e-14 -7.6727170261006567e-14 0.99999999999673006 5.9091026059307486e-15 0.99999999999674949
14400	0	0 0 0	161 5 3	2.2500000000000004	0.0015625000000000001 0.0062500000000000021 0	1.000294757830108 2.5708107244278625e-13 8.1403678716612334e-14 0.99999999999679789 -1.1845407194031423e-14 0.99999999999674349
14400	0	0 0 0	161 6 3	2.2500000000000004	0.0015625000000000001 0.0093750000000000031 0	1.0002947578299692 -5.1717597128059353e-14 1.798300593215305e-14 0.9999999999967436 1.3999299730413396e-14 0.99999999999675482

# iteration 14400   time 2.2500000000000004
# time level 0
# refinement level 0   multigrid level 0   map 0   component 1
# column format: 1:it	2:tl	3:rl 4:c 5:ml	6:ix 7:iy 8:iz	9:time	10:x 11:y 12:z	13:data
# data columns: 13:gxx 14:gxy 15:gxz 16:gyy 17:gyz 18:gzz
14400	0	0 1 0	161 0 3	2.2500000000000004	0.0015625000000000001 -0.0093750000000000031 0	1.000294757830108 2.5708107244278625e-13 8.1403678716612334e-14 0.99999999999679789 -1.1845407194031423e-14 0.99999999999674349
14400	0	0 1 0	161 1 3	2.2500000000000004	0.0015625000000000001 -0.0062500000000000021 0	1.0002947578299692 -5.1717597128059353e-14 1.798300593215305e-14 0.9999999999967436 1.3999299730413396e-14 0.99999999999675482
14400	0	0 1 0	161 2 3	2.2500000000000004	0.0015625000000000001 -0.003125000000000001 0	1.0002947578301715 9.5254556467901494e-15 1.5770129837272169e-13 0.99999999999686962 6.0455152776584799e-15 0.99999999999680456
14400	0	0 1 0	161 3 3	2.2500000000000004	0.0015625000000000001 0 0	1.0002947578300567 -5.9701436664902339e-14 3.119092404616269e-14 0.99999999999678979 -9.9814995848146866e-15 0.99999999999678302
14400	0	0 1 0	161 4 3	2.2500000000000004	0.0015625000000000001 0.003125000000000001 0	1.0002947578299508 3.1129668548422569e-14 -7.6727170261006567e-14 0.99999999999673006 5.9091026059307486e-15 0.99999999999674949
14400	0	0 1 0	161 5 3	2.2500000000000004	0.0015625000000000001 0.0062500000000000021 0	1.000294757830108 2.5708107244278625e-13 8.1403678716612334e-14 0.99999999999679789 -1.1845407194031423e-14 0.99999999999674349
14400	0	0 1 0	161 6 3	2.2500000000000004	0.0015625000000000001 0.0093750000000000031 0	1.0002947578299692 -5.1717597128059353e-14 1.798300593215305e-14 0.9999999999967436 1.3999299730413396e-14 0.99999999999675482


# iteration 16000   time 2.5000000000000004
# time level 0
# refinement level 0   multigrid level 0   map 0   component 0
# column format: 1:it	2:tl	3:rl 4:c 5:ml	6:ix 7:iy 8:iz	9:time	10:x 11:y 12:z	13:data
# data columns: 13:gxx 14:gxy 15:gxz 16:gyy 17:gyz 18:gzz
16000	0	0 0 0	161 0 3	2.5000000000000004	0.0015625000000000001 -0.0093750000000000031 0	0.99591617786581998 9.1301870306606711e-14 6.9982381544226571e-14 0.99999999999648603 1.0514549019000215e-13 0.99999999999646871
16000	0	0 0 0	161 1 3	2.5000000000000004	0.0015625000000000001 -0.0062500000000000021 0	0.99591617786583653 -1.5094384374814648e-13 6.450637374166694e-14 0.99999999999648548 -1.1548869632480539e-13 0.99999999999646771
16000	0	0 0 0	161 2 3	2.5000000000000004	0.0015625000000000001 -0.003125000000000001 0	0.99591617786576081 -2.0050341262585263e-14 1.5492342476216295e-14 0.99999999999655265 -2.2499202099420926e-14 0.99999999999656963
16000	0	0 0 0	161 3 3	2.5000000000000004	0.0015625000000000001 0 0	0.99591617786582387 3.3340999102737606e-14 1.7535894031905547e-14 0.99999999999647671 1.4326561383685891e-15 0.99999999999652212
16000	0	0 0 0	161 4 3	2.5000000000000004	0.0015625000000000001 0.003125000000000001 0	0.99591617786595388 -1.1189585668764918e-14 -2.6553963165238381e-14 0.99999999999649181 2.2142331602042112e-14 0.99999999999649114
16000	0	0 0 0	161 5 3	2.5000000000000004	0.0015625000000000001 0.0062500000000000021 0	0.99591617786581998 9.1301870306606711e-14 6.9982381544226571e-14 0.99999999999648603 1.0514549019000215e-13 0.99999999999646871
16000	0	0 0 0	161 6 3	2.5000000000000004	0.0015625000000000001 0.0093750000000000031 0	0.99591617786583653 -1.5094384374814648e-13 6.450637374166694e-14 0.99999999999648548 -1.1548869632480539e-13 0.99999999999646771

# iteration 16000   time 2.5000000000000004
# time level 0
# refinement level 0   multigrid level 0   map 0   component 1
# column format: 1:it	2:tl	3:rl 4:c 5:ml	6:ix 7:iy 8:iz	9:time	10:x 11:y 12:z	13:data
# data columns: 13:gxx 14:gxy 15:gxz 16:gyy 17:gyz 18:gzz
16000	0	0 1 0	161 0 3	2.5000000000000004	0.0015625000000000001 -0.0093750000000000031 0	0.99591617786581998 9.1301870306606711e-14 6.9982381544226571e-14 0.99999999999648603 1.0514549019000215e-13 0.99999999999646871
16000	0	0 1 0	161 1 3	2.5000000000000004	0.0015625000000000001 -0.0062500000000000021 0	0.99591617786583653 -1.5094384374814648e-13 6.450637374166694e-14 0.99999999999648548 -1.1548869632480539e-13 0.99999999999646771
16000	0	0 1 0	161 2 3	2.5000000000000004	0.0015625000000000001 -0.003125000000000001 0	0.99591617786576081 -2.0050341262585263e-14 1.5492342476216295e-14 0.99999999999655265 -2.2499202099420926e-14 0.99999999999656963
16000	0	0 1 0	161 3 3	2.5000000000000004	0.0015625000000000001 0 0	0.99591617786582387 3.3340999102737606e-14 1.7535894031905547e-14 0.99999999999647671 1.4326561383685891e-15 0.99999999999652212
16000	0	0 1 0	161 4 3	2.5000000000000004	0.0015625000000000001 0.003125000000000001 0	0.99591617786595388 -1.1189585668764918e-14 -2.6553963165238381e-14 0.99999999999649181 2.2142331602042112e-14 0.99999999999649114
16000	0	0 1 0	161 5 3	2.5000000000000004	0.0015625000000000001 0.0062500000000000021 0	0.99591617786581998 9.1301870306606711e-14 6.9982381544226571e-14 0.99999999999648603 1.0514549019000215e-13 0.99999999999646871
16000	0	0 1 0	161 6 3	2.5000000000000004	0.0015625000000000001 0.0093750000000000031 0	0.99591617786583653 -1.5094384374814648e-13 6.450637374166694e-14 0.99999999999648548 -1.1548869632480539e-13 0.99999999999646771


# iteration 17600   time 2.7500000000000004
# time level 0
# refinement level 0   multigrid level 0   map 0   component 0
# column format: 1:it	2:tl	3:rl 4:c 5:ml	6:ix 7:iy 8:iz	9:time	10:x 11:y 12:z	13:data
# data columns: 13:gxx 14:gxy 15:gxz 16:gyy 17:gyz 18:gzz
17600	0	0 0 0	161 0 3	2.7500000000000004	0.0015625000000000001 -0.0093750000000000031 0	1.0024902128071016 -6.4367341292026197e-14 1.1061055078172272e-14 0.99999999999647715 1.0633647393010086e-13 0.9999999999964676
17600	0	0 0 0	161 1 3	2.7500000000000004	0.0015625000000000001 -0.0062500000000000021 0	1.002490212806894 2.3064218226440026e-13 1.0334452251033824e-13 0.99999999999643696 -1.0872833147721869e-13 0.99999999999643996
17600	0	0 0 0	161 2 3	2.7500000000000004	0.0015625000000000001 -0.003125000000000001 0	1.0024902128071347 -5.4156784384212787e-15 -6.0184752338786822e-14 0.99999999999654243 -1.3875411107862013e-14 0.9999999999965532
17600	0	0 0 0	161 3 3	2.7500000000000004	0.0015625000000000001 0 0	1.0024902128070146 -4.5340869734324294e-14 -2.7673350250184911e-16 0.99999999999645117 6.4758920595312573e-15 0.99999999999647293
17600	0	0 0 0	161 4 3	2.7500000000000004	0.0015625000000000001 0.003125000000000001 0	1.0024902128069331 3.3266961438216737e-14 7.3275143317333058e-14 0.99999999999645972 6.1284561590277677e-15 0.99999999999649014
17600	0	0 0 0	161 5 3	2.7500000000000004	0.0015625000000000001 0.0062500000000000021 0	1.0024902128071016 -6.4367341292026197e-14 1.1061055078172272e-14 0.99999999999647715 1.0633647393010086e-13 0.9999999999964676
17600	0	0 0 0	161 6 3	2.7500000000000004	0.0015625000000000001 0.0093750000000000031 0	1.002490212806894 2.3064218226440026e-13 1.0334452251033824e-13 0.99999999999643696 -1.0872833147721869e-13 0.99999999999643996

# iteration 17600   time 2.7500000000000004
# time level 0
# refinement level 0   multigrid level 0   map 0   component 1
# column format: 1:it	2:tl	3:rl 4:c 5:ml	6:ix 7:iy 8:iz	9:time	10:x 11:y 12:z	13:data
# data columns: 13:gxx 14:gxy 15:gxz 16:gyy 17:gyz 18:gzz
17600	0	0 1 0	161 0 3	2.7500000000000004	0.0015625000000000001 -0.0093750000000000031 0	1.0024902128071016 -6.4367341292026197e-14 1.1061055078172272e-14 0.99999999999647715 1.0633647393010086e-13 0.9999999999964676
17600	0	0 1 0	161 1 3	2.7500000000000004	0.0015625000000000001 -0.0062500000000000021 0	1.002490212806894 2.3064218226440026e-13 1.0334452251033824e-13 0.99999999999643696 -1.0872833147721869e-13 0.99999999999643996
17600	0	0 1 0	161 2 3	2.7500000000000004	0.0015625000000000001 -0.003125000000000001 0	1.0024902128071347 -5.4156784384212787e-15 -6.0184752338786822e-14 0.99999999999654243 -1.3875411107862013e-14 0.9999999999965532
17600	0	0 1 0	161 3 3	2.7500000000000004	0.0015625000000000001 0 0	1.0024902128070146 -4.5340869734324294e-14 -2.7673350250184911e-16 0.99999999999645117 6.4758920595312573e-15 0.99999999999647293
17600	0	0 1 0	161 4 3	2.7500000000000004	0.0015625000000000001 0.003125000000000001 0	1.0024902128069331 3.3266961438216737e-14 7.3275143317333058e-14 0.99999999999645972 6.1284561590277677e-15 0.99999999999649014
17600	0	0 1 0	161 5 3	2.7500000000000004	0.0015625000000000001 0.0062500000000000021 0	1.0024902128071016 -6.4367341292026197e-14 1.1061055078172272e-14 0.99999999999647715 1.0633647393010086e-13 0.9999999999964676
17600	0	0 1 0	161 6 3	2.7500000000000004	0.0015625000000000001 0.0093750000000000031 0	1.002490212806894 2.3064218226440026e-13 1.0334452251033824e-13 0.99999999999643696 -1.0872833147721869e-13 0.99999999999643996


# iteration 19200   time 3.0000000000000004
# time level 0
# refinement level 0   multigrid level 0   map 0   component 0
# column format: 1:it	2:tl	3:rl 4:c 5:ml	6:ix 7:iy 8:iz	9:time	10:x 11:y 12:z	13:data
# data columns: 13:gxx 14:gxy 15:gxz 16:gyy 17:gyz 18:gzz
19200	0	0 0 0	161 0 3	3.0000000000000004	0.0015625000000000001 -0.0093750000000000031 0	1.014131299621152 4.6454371912520439e-14 1.2584466517831148e-13 0.99999999999786116 2.7017510190455677e-13 0.99999999999800016
19200	0	0 0 0	161 1 3	3.0000000000000004	0.0015625000000000001 -0.0062500000000000021 0	1.0141312996209213 1.4455810034189891e-13 -6.6533085535062795e-14 0.99999999999784195 -2.4747285939133226e-13 0.99999999999796751
19200	0	0 0 0	161 2 3	3.0000000000000004	0.0015625000000000001 -0.003125000000000001 0	1.0141312996214298 2.1168895722104873e-14 2.6113369802020781e-13 0.99999999999814082 -2.1857167778896579e-14 0.99999999999811851
19200	0	0 0 0	161 3 3	3.0000000000000004	0.0015625000000000001 0 0	1.0141312996212013 -6.5894702087327555e-14 1.1797275126480821e-14 0.99999999999801537 -3.152667635067448e-15 0.99999999999808353
19200	0	0 0 0	161 4 3	3.0000000000000004	0.0015625000000000001 0.003125000000000001 0	1.0141312996210308 2.7735885343369247e-14 -2.2190297391797318e-13 0.99999999999802081 2.1498917640505665e-14 0.99999999999798572
19200	0	0 0 0	161 5 3	3.0000000000000004	0.0015625000000000001 0.0062500000000000021 0	1.014131299621152 4.6454371912520439e-14 1.2584466517831148e-13 0.99999999999786116 2.7017510190455677e-13 0.99999999999800016
19200	0	0 0 0	161 6 3	3.0000000000000004	0.0015625000000000001 0.0093750000000000031 0	1.0141312996209213 1.4455810034189891e-13 -6.6533085535062795e-14 0.99999999999784195 -2.4747285939133226e-13 0.99999999999796751

# iteration 19200   time 3.0000000000000004
# time level 0
# refinement level 0   multigrid level 0   map 0   component 1
# column format: 1:it	2:tl	3:rl 4:c 5:ml	6:ix 7:iy 8:iz	9:time	10:x 11:y 12:z	13:data
# data columns: 13:gxx 14:gxy 15:gxz 16:gyy 17:gyz 18:gzz
19200	0	0 1 0	161 0 3	3.0000000000000004	0.0015625000000000001 -0.0093750000000000031 0	1.014131299621152 4.6454371912520439e-14 1.2584466517831148e-13 0.99999999999786116 2.7017510190455677e-13 0.99999999999800016
19200	0	0 1 0	161 1 3	3.0000000000000004	0.0015625000000000001 -0.0062500000000000021 0	1.0141312996209213 1.4455810034189891e-13 -6.6533085535062795e-14 0.99999999999784195 -2.4747285939133226e-13 0.99999999999796751
19200	0	0 1 0	161 2 3	3.0000000000000004	0.0015625000000000001 -0.003125000000000001 0	1.0141312996214298 2.1168895722104873e-14 2.6113369802020781e-13 0.99999999999814082 -2.1857167778896579e-14 0.99999999999811851
19200	0	0 1 0	161 3 3	3.0000000000000004	0.0015625000000000001 0 0	1.0141312996212013 -6.5894702087327555e-14 1.1797275126480821e-14 0.99999999999801537 -3.152667635067448e-15 0.99999999999808353
19200	0	0 1 0	161 4 3	3.0000000000000004	0.0015625000000000001 0.003125000000000001 0	1.0141312996210308 2.7735885343369247e-14 -2.2190297391797318e-13 0.99999999999802081 2.1498917640505665e-14 0.99999999999798572
19200	0	0 1 0	161 5 3	3.0000000000000004	0.0015625000000000001 0.0062500000000000021 0	1.014131299621152 4.6454371912520439e-14 1.2584466517831148e-13 0.99999999999786116 2.7017510190455677e-13 0.99999999999800016
19200	0	0 1 0	161 6 3	3.0000000000000004	0.0015625000000000001 0.0093750000000000031 0	1.0141312996209213 1.4455810034189891e-13 -6.6533085535062795e-14 0.99999999999784195 -2.4747285939133226e-13 0.99999999999796751


# iteration 20800   time 3.2500000000000004
# time level 0
# refinement level 0   multigrid level 0   map 0   component 0
# column format: 1:it	2:tl	3:rl 4:c 5:ml	6:ix 7:iy 8:iz	9:time	10:x 11:y 12:z	13:data
# data columns: 13:gxx 14:gxy 15:gxz 16:gyy 17:gyz 18:gzz
20800	0	0 0 0	161 0 3	3.2500000000000004	0.0015625000000000001 -0.0093750000000000031 0	0.98239471359101804 -1.5304945115146959e-13 2.3768268216991422e-14 0.99999999999727218 2.2003968921830739e-13 0.99999999999736289
20800	0	0 0 0	161 1 3	3.2500000000000004	0.0015625000000000001 -0.0062500000000000021 0	0.98239471359102448 2.0198615489911135e-13 -6.2722838838503334e-16 0.99999999999731182 -1.9236687909875393e-13 0.99999999999734346
20800	0	0 0 0	161 2 3	3.2500000000000004	0.0015625000000000001 -0.003125000000000001 0	0.98239471359102037 -1.5202108186622088e-15 1.2990184253182379e-13 0.99999999999742628 -2.4606460270224841e-14 0.99999999999743094
20800	0	0 0 0	161 3 3	3.2500000000000004	0.0015625000000000001 0 0	0.98239471359104324 1.1879452872732357e-14 3.6301116417932716e-14 0.99999999999741063 -9.4992946531482446e-16 0.99999999999740352
20800	0	0 0 0	161 4 3	3.2500000000000004	0.0015625000000000001 0.003125000000000001 0	0.98239471359113073 -2.1619162580737891e-14 -1.2298449629789811e-14 0.9999999999973731 2.1139808697645126e-14 0.99999999999734701
20800	0	0 0 0	161 5 3	3.2500000000000004	0.0015625000000000001 0.0062500000000000021 0	0.98239471359101804 -1.5304945115146959e-13 2.3768268216991422e-14 0.99999999999727218 2.2003968921830739e-13 0.99999999999736289
20800	0	0 0 0	161 6 3	3.2500000000000004	0.0015625000000000001 0.0093750000000000031 0	0.98239471359102448 2.0198615489911135e-13 -6.2722838838503334e-16 0.99999999999731182 -1.9236687909875393e-13 0.99999999999734346

# iteration 20800   time 3.2500000000000004
# time level 0
# refinement level 0   multigrid level 0   map 0   component 1
# column format: 1:it	2:tl	3:rl 4:c 5:ml	6:ix 7:iy 8:iz	9:time	10:x 11:y 12:z	13:data
# data columns: 13:gxx 14:gxy 15:gxz 16:gyy 17:gyz 18:gzz
20800	0	0 1 0	161 0 3	3.2500000000000004	0.0015625000000000001 -0.0093750000000000031 0	0.98239471359101804 -1.5304945115146959e-13 2.3768268216991422e-14 0.99999999999727218 2.2003968921830739e-13 0.99999999999736289
20800	0	0 1 0	161 1 3	3.2500000000000004	0.0015625000000000001 -0.0062500000000000021 0	0.98239471359102448 2.0198615489911135e-13 -6.2722838838503334e-16 0.99999999999731182 -1.9236687909875393e-13 0.99999999999734346
20800	0	0 1 0	161 2 3	3.2500000000000004	0.0015625000000000001 -0.003125000000000001 0	0.98239471359102037 -1.5202108186622088e-15 1.2990184253182379e-13 0.99999999999742628 -2.4606460270224841e-14 0.99999999999743094
20800	0	0 1 0	161 3 3	3.2500000000000004	0.0015625000000000001 0 0	0.98239471359104324 1.1879452872732357e-14 3.6301116417932716e-14 0.99999999999741063 -9.4992946531482446e-16 0.99999999999740352
20800	0	0 1 0	161 4 3	3.2500000000000004	0.0015625000000000001 0.003125000000000001 0	0.98239471359113073 -2.1619162580737891e-14 -1.2298449629789811e-14 0.9999999999973731 2.1139808697645126e-14 0.99999999999734701
20800	0	0 1 0	161 5 3	3.2500000000000004	0.0015625000000000001 0.0062500000000000021 0	0.98239471359101804 -1.5304945115146959e-13 2.3768268216991422e-14 0.99999999999727218 2.2003968921830739e-13 0.99999999999736289
20800	0	0 1 0	161 6 3	3.2500000000000004	0.0015625000000000001 0.0093750000000000031 0	0.98239471359102448 2.0198615489911135e-13 -6.2722838838503334e-16 0.99999999999731182 -1.9236687909875393e-13 0.99999999999734346


# iteration 22400   time 3.5000000000000009
# time level 0
# refinement level 0   multigrid level 0   map 0   component 0
# column format: 1:it	2:tl	3:rl 4:c 5:ml	6:ix 7:iy 8:iz	9:time	10:x 11:y 12:z	13:data
# data columns: 13:gxx 14:gxy 15:gxz 16:gyy 17:gyz 18:gzz
22400	0	0 0 0	161 0 3	3.5000000000000009	0.0015625000000000001 -0.0093750000000000031 0	0.9966973097271784 2.551425338401502e-13 -1.1048864383314135e-13 0.99999999999595124 -5.7324191230376504e-15 0.99999999999610978
22400	0	0 0 0	161 1 3	3.5000000000000009	0.0015625000000000001 -0.0062500000000000021 0	0.99669730972713066 2.2553467343162445e-14 9.4134631363590489e-14 0.99999999999600409 2.6733116440366152e-14 0.99999999999605627
22400	0	0 0 0	161 2 3	3.5000000000000009	0.0015625000000000001 -0.003125000000000001 0	0.99669730972731985 3.6445958095265803e-14 -2.2408720898711743e-13 0.99999999999618483 -1.7396813772663716e-14 0.9999999999961956
22400	0	0 0 0	161 3 3	3.5000000000000009	0.0015625000000000001 0 0	0.99669730972719928 -1.1371652386134235e-13 -9.8629013426847571e-15 0.99999999999599432 -4.1982298926999447e-15 0.99999999999599298
22400	0	0 0 0	161 4 3	3.5000000000000009	0.0015625000000000001 0.003125000000000001 0	0.99669730972730963 6.2177904746378302e-14 2.1288535772437736e-13 0.9999999999960848 1.9470646232356163e-14 0.99999999999607614
22400	0	0 0 0	161 5 3	3.5000000000000009	0.0015625000000000001 0.0062500000000000021 0	0.9966973097271784 2.551425338401502e-13 -1.1048864383314135e-13 0.99999999999595124 -5.7324191230376504e-15 0.99999999999610978
22400	0	0 0 0	161 6 3	3.5000000000000009	0.0015625000000000001 0.0093750000000000031 0	0.99669730972713066 2.2553467343162445e-14 9.4134631363590489e-14 0.99999999999600409 2.6733116440366152e-14 0.99999999999605627

# iteration 22400   time 3.5000000000000009
# time level 0
# refinement level 0   multigrid level 0   map 0   component 1
# column format: 1:it	2:tl	3:rl 4:c 5:ml	6:ix 7:iy 8:iz	9:time	10:x 11:y 12:z	13:data
# data columns: 13:gxx 14:gxy 15:gxz 16:gyy 17:gyz 18:gzz
22400	0	0 1 0	161 0 3	3.5000000000000009	0.0015625000000000001 -0.0093750000000000031 0	0.9966973097271784 2.551425338401502e-13 -1.1048864383314135e-13 0.99999999999595124 -5.7324191230376504e-15 0.99999999999610978
22400	0	0 1 0	161 1 3	3.5000000000000009	0.0015625000000000001 -0.0062500000000000021 0	0.99669730972713066 2.2553467343162445e-14 9.4134631363590489e-14 0.99999999999600409 2.6733116440366152e-14 0.99999999999605627
22400	0	0 1 0	161 2 3	3.5000000000000009	0.0015625000000000001 -0.003125000000000001 0	0.99669730972731985 3.6445958095265803e-14 -2.2408720898711743e-13 0.99999999999618483 -1.7396813772663716e-14 0.9999999999961956
22400	0	0 1 0	161 3 3	3.5000000000000009	0.0015625000000000001 0 0	0.99669730972719928 -1.1371652386134235e-13 -9.8629013426847571e-15 0.99999999999599432 -4.1982298926999447e-15 0.99999999999599298
22400	0	0 1 0	161 4 3	3.5000000000000009	0.0015625000000000001 0.003125000000000001 0	0.99669730972730963 6.2177904746378302e-14 2.1288535772437736e-13 0.9999999999960848 1.9470646232356163e-14 0.99999999999607614
22400	0	0 1 0	161 5 3	3.5000000000000009	0.0015625000000000001 0.0062500000000000021 0	0.9966973097271784 2.551425338401502e-13 -1.1048864383314135e-13 0.99999999999595124 -5.7324191230376504e-15 0.99999999999610978
22400	0	0 1 0	161 6 3	3.5000000000000009	0.0015625000000000001 0.0093750000000000031 0	0.99669730972713066 2.2553467343162445e-14 9.4134631363590489e-14 0.99999999999600409 2.6733116440366152e-14 0.99999999999605627


# iteration 24000   time 3.7500000000000009
# time level 0
# refinement level 0   multigrid level 0   map 0   component 0
# column format: 1:it	2:tl	3:rl 4:c 5:ml	6:ix 7:iy 8:iz	9:time	10:x 11:y 12:z	13:data
# data columns: 13:gxx 14:gxy 15:gxz 16:gyy 17:gyz 18:gzz
24000	0	0 0 0	161 0 3	3.7500000000000009	0.0015625000000000001 -0.0093750000000000031 0	1.0203356399072685 -1.0789766047598748e-13 1.2179026656315313e-13 0.99999999999667999 5.9696183211682956e-15 0.99999999999653755
24000	0	0 0 0	161 1 3	3.7500000000000009	0.0015625000000000001 -0.0062500000000000021 0	1.0203356399072121 -2.6926724734775985e-14 -1.2991535572491584e-13 0.99999999999666622 -1.5896424343076069e-14 0.99999999999655464
24000	0	0 0 0	161 2 3	3.7500000000000009	0.0015625000000000001 -0.003125000000000001 0	1.0203356399071237 -4.891193720181731e-14 2.9439749207213618e-13 0.99999999999662692 -1.9927588349739632e-14 0.99999999999665778
24000	0	0 0 0	161 3 3	3.7500000000000009	0.0015625000000000001 0 0	1.0203356399071386 4.8030906636710089e-14 8.1959521970051485e-15 0.99999999999658629 5.1841387894123019e-15 0.99999999999663991
24000	0	0 0 0	161 4 3	3.7500000000000009	0.0015625000000000001 0.003125000000000001 0	1.0203356399072043 1.1313128900972946e-14 -3.0092902108584668e-13 0.99999999999654809 1.4499736602329025e-14 0.99999999999662326
24000	0	0 0 0	161 5 3	3.7500000000000009	0.0015625000000000001 0.0062500000000000021 0	1.0203356399072685 -1.0789766047598748e-13 1.2179026656315313e-13 0.99999999999667999 5.9696183211682956e-15 0.99999999999653755
24000	0	0 0 0	161 6 3	3.7500000000000009	0.0015625000000000001 0.0093750000000000031 0	1.0203356399072121 -2.6926724734775985e-14 -1.2991535572491584e-13 0.99999999999666622 -1.5896424343076069e-14 0.99999999999655464

# iteration 24000   time 3.7500000000000009
# time level 0
# refinement level 0   multigrid level 0   map 0   component 1
# column format: 1:it	2:tl	3:rl 4:c 5:ml	6:ix 7:iy 8:iz	9:time	10:x 11:y 12:z	13:data
# data columns: 13:gxx 14:gxy 15:gxz 16:gyy 17:gyz 18:gzz
24000	0	0 1 0	161 0 3	3.7500000000000009	0.0015625000000000001 -0.0093750000000000031 0	1.0203356399072685 -1.0789766047598748e-13 1.2179026656315313e-13 0.99999999999667999 5.9696183211682956e-15 0.99999999999653755
24000	0	0 1 0	161 1 3	3.7500000000000009	0.0015625000000000001 -0.0062500000000000021 0	1.0203356399072121 -2.6926724734775985e-14 -1.2991535572491584e-13 0.99999999999666622 -1.5896424343076069e-14 0.99999999999655464
24000	0	0 1 0	161 2 3	3.7500000000000009	0.0015625000000000001 -0.003125000000000001 0	1.0203356399071237 -4.891193720181731e-14 2.9439749207213618e-13 0.99999999999662692 -1.9927588349739632e-14 0.99999999999665778
24000	0	0 1 0	161 3 3	3.7500000000000009	0.0015625000000000001 0 0	1.0203356399071386 4.8030906636710089e-14 8.1959521970051485e-15 0.99999999999658629 5.1841387894123019e-15 0.99999999999663991
24000	0	0 1 0	161 4 3	3.7500000000000009	0.0015625000000000001 0.003125000000000001 0	1.0203356399072043 1.1313128900972946e-14 -3.0092902108584668e-13 0.99999999999654809 1.4499736602329025e-14 0.99999999999662326
24000	0	0 1 0	161 5 3	3.7500000000000009	0.0015625000000000001 0.0062500000000000021 0	1.0203356399072685 -1.0789766047598748e-13 1.2179026656315313e-13 0.99999999999667999 5.9696183211682956e-15 0.99999999999653755
24000	0	0 1 0	161 6 3	3.7500000000000009	0.0015625000000000001 0.0093750000000000031 0	1.0203356399072121 -2.6926724734775985e-14 -1.2991535572491584e-13 0.99999999999666622 -1.5896424343076069e-14 0.99999999999655464


# iteration 25600   time 4.0000000000000009
# time level 0
# refinement level 0   multigrid level 0   map 0   component 0
# column format: 1:it	2:tl	3:rl 4:c 5:ml	6:ix 7:iy 8:iz	9:time	10:x 11:y 12:z	13:data
# data columns: 13:gxx 14:gxy 15:gxz 16:gyy 17:gyz 18:gzz
25600	0	0 0 0	161 0 3	4.0000000000000009	0.0015625000000000001 -0.0093750000000000031 0	0.9878850018797608 1.7095437377005437e-13 9.5791926493080701e-15 0.99999999999772793 -7.1259019955865912e-14 0.99999999999752076
25600	0	0 0 0	161 1 3	4.0000000000000009	0.0015625000000000001 -0.0062500000000000021 0	0.98788500187966743 -3.0612833747917607e-13 1.0467491582938884e-13 0.99999999999768685 8.3947626943971567e-14 0.99999999999755862
25600	0	0 0 0	161 2 3	4.0000000000000009	0.0015625000000000001 -0.003125000000000001 0	0.98788500187961292 -1.5336377039709614e-14 -4.2918262422544287e-14 0.99999999999761091 1.340219321843294e-15 0.99999999999759526
25600	0	0 0 0	161 3 3	4.0000000000000009	0.0015625000000000001 0 0	0.98788500187966499 6.6493716280765014e-14 3.8571605959199705e-14 0.99999999999762068 -6.4343085278770496e-15 0.99999999999765621
25600	0	0 0 0	161 4 3	4.0000000000000009	0.0015625000000000001 0.003125000000000001 0	0.98788500187959283 -4.9678087413041322e-14 9.462864539208989e-14 0.99999999999749178 4.3254758474641658e-15 0.99999999999757916
25600	0	0 0 0	161 5 3	4.0000000000000009	0.0015625000000000001 0.0062500000000000021 0	0.9878850018797608 1.7095437377005437e-13 9.5791926493080701e-15 0.99999999999772793 -7.1259019955865912e-14 0.99999999999752076
25600	0	0 0 0	161 6 3	4.0000000000000009	0.0015625000000000001 0.0093750000000000031 0	0.98788500187966743 -3.0612833747917607e-13 1.0467491582938884e-13 0.99999999999768685 8.3947626943971567e-14 0.99999999999755862

# iteration 25600   time 4.0000000000000009
# time level 0
# refinement level 0   multigrid level 0   map 0   component 1
# column format: 1:it	2:tl	3:rl 4:c 5:ml	6:ix 7:iy 8:iz	9:time	10:x 11:y 12:z	13:data
# data columns: 13:gxx 14:gxy 15:gxz 16:gyy 17:gyz 18:gzz
25600	0	0 1 0	161 0 3	4.0000000000000009	0.0015625000000000001 -0.0093750000000000031 0	0.9878850018797608 1.7095437377005437e-13 9.5791926493080701e-15 0.99999999999772793 -7.1259019955865912e-14 0.99999999999752076
25600	0	0 1 0	161 1 3	4.0000000000000009	0.0015625000000000001 -0.0062500000000000021 0	0.98788500187966743 -3.0612833747917607e-13 1.0467491582938884e-13 0.99999999999768685 8.3947626943971567e-14 0.99999999999755862
25600	0	0 1 0	161 2 3	4.0000000000000009	0.0015625000000000001 -0.003125000000000001 0	0.98788500187961292 -1.5336377039709614e-14 -4.2918262422544287e-14 0.99999999999761091 1.340219321843294e-15 0.99999999999759526
25600	0	0 1 0	161 3 3	4.0000000000000009	0.0015625000000000001 0 0	0.98788500187966499 6.6493716280765014e-14 3.8571605959199705e-14 0.99999999999762068 -6.4343085278770496e-15 0.99999999999765621
25600	0	0 1 0	161 4 3	4.0000000000000009	0.0015625000000000001 0.003125000000000001 0	0.98788500187959283 -4.9678087413041322e-14 9.462864539208989e-14 0.99999999999749178 4.3254758474641658e-15 0.99999999999757916
25600	0	0 1 0	161 5 3	4.0000000000000009	0.0015625000000000001 0.0062500000000000021 0	0.9878850018797608 1.7095437377005437e-13 9.5791926493080701e-15 0.99999999999772793 -7.1259019955865912e-14 0.99999999999752076
25600	0	0 1 0	161 6 3	4.0000000000000009	0.0015625000000000001 0.0093750000000000031 0	0.98788500187966743 -3.0612833747917607e-13 1.0467491582938884e-13 0.99999999999768685 8.3947626943971567e-14 0.99999999999755862


# iteration 27200   time 4.2500000000000009
# time level 0
# refinement level 0   multigrid level 0   map 0   component 0
# column format: 1:it	2:tl	3:rl 4:c 5:ml	6:ix 7:iy 8:iz	9:time	10:x 11:y 12:z	13:data
# data columns: 13:gxx 14:gxy 15:gxz 16:gyy 17:gyz 18:gzz
27200	0	0 0 0	161 0 3	4.2500000000000009	0.0015625000000000001 -0.0093750000000000031 0	0.99588998429111208 -2.7744927701809451e-15 -9.0099125506512405e-14 0.999999999995697 -6.2603843177936238e-14 0.99999999999557299
27200	0	0 0 0	161 1 3	4.2500000000000009	0.0015625000000000001 -0.0062500000000000021 0	0.9958899842912956 -2.7212326534006367e-13 1.2597556712103106e-13 0.99999999999573985 7.3309613987846682e-14 0.9999999999955882
27200	0	0 0 0	161 2 3	4.2500000000000009	0.0015625000000000001 -0.003125000000000001 0	0.9958899842910458 -9.6884190529910197e-14 -1.8825695763974283e-13 0.99999999999569178 -2.5342689804563343e-14 0.99999999999571887
27200	0	0 0 0	161 3 3	4.2500000000000009	0.0015625000000000001 0 0	0.99588998429112308 1.0207191706481186e-13 1.3852291396246899e-14 0.99999999999559575 1.409214026865171e-14 0.99999999999563105
27200	0	0 0 0	161 4 3	4.2500000000000009	0.0015625000000000001 0.003125000000000001 0	0.99588998429129083 1.4215970295626844e-14 2.4080971539800243e-13 0.99999999999561606 5.8490939002836435e-15 0.99999999999561273
27200	0	0 0 0	161 5 3	4.2500000000000009	0.0015625000000000001 0.0062500000000000021 0	0.99588998429111208 -2.7744927701809451e-15 -9.0099125506512405e-14 0.999999999995697 -6.2603843177936238e-14 0.99999999999557299
27200	0	0 0 0	161 6 3	4.2500000000000009	0.0015625000000000001 0.0093750000000000031 0	0.9958899842912956 -2.7212326534006367e-13 1.2597556712103106e-13 0.99999999999573985 7.3309613987846682e-14 0.9999999999955882

# iteration 27200   time 4.2500000000000009
# time level 0
# refinement level 0   multigrid level 0   map 0   component 1
# column format: 1:it	2:tl	3:rl 4:c 5:ml	6:ix 7:iy 8:iz	9:time	10:x 11:y 12:z	13:data
# data columns: 13:gxx 14:gxy 15:gxz 16:gyy 17:gyz 18:gzz
27200	0	0 1 0	161 0 3	4.2500000000000009	0.0015625000000000001 -0.0093750000000000031 0	0.99588998429111208 -2.7744927701809451e-15 -9.0099125506512405e-14 0.999999999995697 -6.2603843177936238e-14 0.99999999999557299
27200	0	0 1 0	161 1 3	4.2500000000000009	0.0015625000000000001 -0.0062500000000000021 0	0.9958899842912956 -2.7212326534006367e-13 1.2597556712103106e-13 0.99999999999573985 7.3309613987846682e-14 0.9999999999955882
27200	0	0 1 0	161 2 3	4.2500000000000009	0.0015625000000000001 -0.003125000000000001 0	0.9958899842910458 -9.6884190529910197e-14 -1.8825695763974283e-13 0.99999999999569178 -2.5342689804563343e-14 0.99999999999571887
27200	0	0 1 0	161 3 3	4.2500000000000009	0.0015625000000000001 0 0	0.99588998429112308 1.0207191706481186e-13 1.3852291396246899e-14 0.99999999999559575 1.409214026865171e-14 0.99999999999563105
27200	0	0 1 0	161 4 3	4.2500000000000009	0.0015625000000000001 0.003125000000000001 0	0.99588998429129083 1.4215970295626844e-14 2.4080971539800243e-13 0.99999999999561606 5.8490939002836435e-15 0.99999999999561273
27200	0	0 1 0	161 5 3	4.2500000000000009	0.0015625000000000001 0.0062500000000000021 0	0.99588998429111208 -2.7744927701809451e-15 -9.0099125506512405e-14 0.999999999995697 -6.2603843177936238e-14 0.99999999999557299
27200	0	0 1 0	161 6 3	4.2500000000000009	0.0015625000000000001 0.0093750000000000031 0	0.9958899842912956 -2.7212326534006367e-13 1.2597556712103106e-13 0.99999999999573985 7.3309613987846682e-14 0.9999999999955882


# iteration 28800   time 4.5000000000000009
# time level 0
# refinement level 0   multigrid level 0   map 0   component 0
# column format: 1:it	2:tl	3:rl 4:c 5:ml	6:ix 7:iy 8:iz	9:time	10:x 11:y 12:z	13:data
# data columns: 13:gxx 14:gxy 15:gxz 16:gyy 17:gyz 18:gzz
28800	0	0 0 0	161 0 3	4.5000000000000009	0.0015625000000000001 -0.0093750000000000031 0	1.0097775152538218 1.2649103074888512e-13 1.6623145074898023e-13 0.99999999999645361 -1.9325215330350321e-13 0.99999999999629585
28800	0	0 0 0	161 1 3	4.5000000000000009	0.0015625000000000001 -0.0062500000000000021 0	1.0097775152537782 -5.1058353675727042e-14 -3.0473781968042401e-14 0.99999999999637967 2.3537762145585474e-13 0.99999999999641498
28800	0	0 0 0	161 2 3	4.5000000000000009	0.0015625000000000001 -0.003125000000000001 0	1.0097775152538813 -1.3953755088752769e-14 3.0890576925526768e-13 0.99999999999647715 1.2891927199736515e-14 0.99999999999644928
28800	0	0 0 0	161 3 3	4.5000000000000009	0.0015625000000000001 0 0	1.0097775152538244 -9.7201157543344056e-15 4.3834371847078269e-14 0.99999999999634948 -6.6682992476796982e-15 0.99999999999642253
28800	0	0 0 0	161 4 3	4.5000000000000009	0.0015625000000000001 0.003125000000000001 0	1.0097775152538351 1.2463164979022961e-14 -2.0862597173928973e-13 0.99999999999637235 -1.072877508415564e-14 0.99999999999642997
28800	0	0 0 0	161 5 3	4.5000000000000009	0.0015625000000000001 0.0062500000000000021 0	1.0097775152538218 1.2649103074888512e-13 1.6623145074898023e-13 0.99999999999645361 -1.9325215330350321e-13 0.99999999999629585
28800	0	0 0 0	161 6 3	4.5000000000000009	0.0015625000000000001 0.0093750000000000031 0	1.0097775152537782 -5.1058353675727042e-14 -3.0473781968042401e-14 0.99999999999637967 2.3537762145585474e-13 0.99999999999641498

# iteration 28800   time 4.5000000000000009
# time level 0
# refinement level 0   multigrid level 0   map 0   component 1
# column format: 1:it	2:tl	3:rl 4:c 5:ml	6:ix 7:iy 8:iz	9:time	10:x 11:y 12:z	13:data
# data columns: 13:gxx 14:gxy 15:gxz 16:gyy 17:gyz 18:gzz
28800	0	0 1 0	161 0 3	4.5000000000000009	0.0015625000000000001 -0.0093750000000000031 0	1.0097775152538218 1.2649103074888512e-13 1.6623145074898023e-13 0.99999999999645361 -1.9325215330350321e-13 0.99999999999629585
28800	0	0 1 0	161 1 3	4.5000000000000009	0.0015625000000000001 -0.0062500000000000021 0	1.0097775152537782 -5.1058353675727042e-14 -3.0473781968042401e-14 0.99999999999637967 2.3537762145585474e-13 0.99999999999641498
28800	0	0 1 0	161 2 3	4.5000000000000009	0.0015625000000000001 -0.003125000000000001 0	1.0097775152538813 -1.3953755088752769e-14 3.0890576925526768e-13 0.99999999999647715 1.2891927199736515e-14 0.99999999999644928
28800	0	0 1 0	161 3 3	4.5000000000000009	0.0015625000000000001 0 0	1.0097775152538244 -9.7201157543344056e-15 4.3834371847078269e-14 0.99999999999634948 -6.6682992476796982e-15 0.99999999999642253
28800	0	0 1 0	161 4 3	4.5000000000000009	0.0015625000000000001 0.003125000000000001 0	1.0097775152538351 1.2463164979022961e-14 -2.0862597173928973e-13 0.99999999999637235 -1.072877508415564e-14 0.99999999999642997
28800	0	0 1 0	161 5 3	4.5000000000000009	0.0015625000000000001 0.0062500000000000021 0	1.0097775152538218 1.2649103074888512e-13 1.6623145074898023e-13 0.99999999999645361 -1.9325215330350321e-13 0.99999999999629585
28800	0	0 1 0	161 6 3	4.5000000000000009	0.0015625000000000001 0.0093750000000000031 0	1.0097775152537782 -5.1058353675727042e-14 -3.0473781968042401e-14 0.99999999999637967 2.3537762145585474e-13 0.99999999999641498


# iteration 30400   time 4.7500000000000009
# time level 0
# refinement level 0   multigrid level 0   map 0   component 0
# column format: 1:it	2:tl	3:rl 4:c 5:ml	6:ix 7:iy 8:iz	9:time	10:x 11:y 12:z	13:data
# data columns: 13:gxx 14:gxy 15:gxz 16:gyy 17:gyz 18:gzz
30400	0	0 0 0	161 0 3	4.7500000000000009	0.0015625000000000001 -0.0093750000000000031 0	0.99119551921928928 -3.5698461702610143e-13 -2.9067048186722421e-14 0.9999999999960818 -1.2207588483671824e-13 0.99999999999608202
30400	0	0 0 0	161 1 3	4.7500000000000009	0.0015625000000000001 -0.0062500000000000021 0	0.99119551921912752 2.0261922852619316e-13 5.187358074798881e-15 0.99999999999600209 7.8843166847979637e-14 0.99999999999608336
30400	0	0 0 0	161 2 3	4.7500000000000009	0.0015625000000000001 -0.003125000000000001 0	0.99119551921943583 1.7622979805256778e-14 -5.4713421518157256e-14 0.99999999999632694 -1.5897624179524392e-14 0.99999999999624634
30400	0	0 0 0	161 3 3	4.7500000000000009	0.0015625000000000001 0 0	0.99119551921928484 3.5044587339859651e-14 -4.1363138992591482e-14 0.99999999999607647 1.55793514169646e-14 0.9999999999961332
30400	0	0 0 0	161 4 3	4.7500000000000009	0.0015625000000000001 0.003125000000000001 0	0.99119551921922489 -3.4252423860385887e-14 -6.3996575403155238e-14 0.99999999999610401 3.4883372003270376e-15 0.99999999999613232
30400	0	0 0 0	161 5 3	4.7500000000000009	0.0015625000000000001 0.0062500000000000021 0	0.99119551921928928 -3.5698461702610143e-13 -2.9067048186722421e-14 0.9999999999960818 -1.2207588483671824e-13 0.99999999999608202
30400	0	0 0 0	161 6 3	4.7500000000000009	0.0015625000000000001 0.0093750000000000031 0	0.99119551921912752 2.0261922852619316e-13 5.187358074798881e-15 0.99999999999600209 7.8843166847979637e-14 0.99999999999608336

# iteration 30400   time 4.7500000000000009
# time level 0
# refinement level 0   multigrid level 0   map 0   component 1
# column format: 1:it	2:tl	3:rl 4:c 5:ml	6:ix 7:iy 8:iz	9:time	10:x 11:y 12:z	13:data
# data columns: 13:gxx 14:gxy 15:gxz 16:gyy 17:gyz 18:gzz
30400	0	0 1 0	161 0 3	4.7500000000000009	0.0015625000000000001 -0.0093750000000000031 0	0.99119551921928928 -3.5698461702610143e-13 -2.9067048186722421e-14 0.9999999999960818 -1.2207588483671824e-13 0.99999999999608202
30400	0	0 1 0	161 1 3	4.7500000000000009	0.0015625000000000001 -0.0062500000000000021 0	0.99119551921912752 2.0261922852619316e-13 5.187358074798881e-15 0.99999999999600209 7.8843166847979637e-14 0.99999999999608336
30400	0	0 1 0	161 2 3	4.7500000000000009	0.0015625000000000001 -0.003125000000000001 0	0.99119551921943583 1.7622979805256778e-14 -5.4713421518157256e-14 0.99999999999632694 -1.5897624179524392e-14 0.99999999999624634
30400	0	0 1 0	161 3 3	4.7500000000000009	0.0015625000000000001 0 0	0.99119551921928484 3.5044587339859651e-14 -4.1363138992591482e-14 0.99999999999607647 1.55793514169646e-14 0.9999999999961332
30400	0	0 1 0	161 4 3	4.7500000000000009	0.0015625000000000001 0.003125000000000001 0	0.99119551921922489 -3.4252423860385887e-14 -6.3996575403155238e-14 0.99999999999610401 3.4883372003270376e-15 0.99999999999613232
30400	0	0 1 0	161 5 3	4.7500000000000009	0.0015625000000000001 0.0062500000000000021 0	0.99119551921928928 -3.5698461702610143e-13 -2.9067048186722421e-14 0.9999999999960818 -1.2207588483671824e-13 0.99999999999608202
30400	0	0 1 0	161 6 3	4.7500000000000009	0.0015625000000000001 0.0093750000000000031 0	0.99119551921912752 2.0261922852619316e-13 5.187358074798881e-15 0.99999999999600209 7.8843166847979637e-14 0.99999999999608336


# iteration 32000   time 5.0000000000000009
# time level 0
# refinement level 0   multigrid level 0   map 0   component 0
# column format: 1:it	2:tl	3:rl 4:c 5:ml	6:ix 7:iy 8:iz	9:time	10:x 11:y 12:z	13:data
# data columns: 13:gxx 14:gxy 15:gxz 16:gyy 17:gyz 18:gzz
32000	0	0 0 0	161 0 3	5.0000000000000009	0.0015625000000000001 -0.0093750000000000031 0	1.0071481851758834 -4.4540625369621337e-13 -1.5949003891992167e-13 0.9999999999959911 2.6315952810948675e-14 0.99999999999596734
32000	0	0 0 0	161 1 3	5.0000000000000009	0.0015625000000000001 -0.0062500000000000021 0	1.0071481851758233 3.9692967279609572e-13 -5.0726950956489432e-14 0.99999999999594358 -5.6161616583366527e-15 0.99999999999593392
32000	0	0 0 0	161 2 3	5.0000000000000009	0.0015625000000000001 -0.003125000000000001 0	1.0071481851759883 1.727352942358892e-14 -1.6727160790260568e-13 0.99999999999615685 -6.6831876451879146e-15 0.99999999999616662
32000	0	0 0 0	161 3 3	5.0000000000000009	0.0015625000000000001 0 0	1.007148185175871 2.8764289613824017e-14 -6.799206695819837e-14 0.99999999999596523 -8.652644062294776e-15 0.99999999999603406
32000	0	0 0 0	161 4 3	5.0000000000000009	0.0015625000000000001 0.003125000000000001 0	1.0071481851759401 -4.4724393315079025e-14 7.0858727450990274e-14 0.99999999999594535 1.3760855108231152e-14 0.99999999999598732
32000	0	0 0 0	161 5 3	5.0000000000000009	0.0015625000000000001 0.0062500000000000021 0	1.0071481851758834 -4.4540625369621337e-13 -1.5949003891992167e-13 0.9999999999959911 2.6315952810948675e-14 0.99999999999596734
32000	0	0 0 0	161 6 3	5.0000000000000009	0.0015625000000000001 0.0093750000000000031 0	1.0071481851758233 3.9692967279609572e-13 -5.0726950956489432e-14 0.99999999999594358 -5.6161616583366527e-15 0.99999999999593392

# iteration 32000   time 5.0000000000000009
# time level 0
# refinement level 0   multigrid level 0   map 0   component 1
# column format: 1:it	2:tl	3:rl 4:c 5:ml	6:ix 7:iy 8:iz	9:time	10:x 11:y 12:z	13:data
# data columns: 13:gxx 14:gxy 15:gxz 16:gyy 17:gyz 18:gzz
32000	0	0 1 0	161 0 3	5.0000000000000009	0.0015625000000000001 -0.0093750000000000031 0	1.0071481851758834 -4.4540625369621337e-13 -1.5949003891992167e-13 0.9999999999959911 2.6315952810948675e-14 0.99999999999596734
32000	0	0 1 0	161 1 3	5.0000000000000009	0.0015625000000000001 -0.0062500000000000021 0	1.0071481851758233 3.9692967279609572e-13 -5.0726950956489432e-14 0.99999999999594358 -5.6161616583366527e-15 0.99999999999593392
32000	0	0 1 0	161 2 3	5.0000000000000009	0.0015625000000000001 -0.003125000000000001 0	1.0071481851759883 1.727352942358892e-14 -1.6727160790260568e-13 0.99999999999615685 -6.6831876451879146e-15 0.99999999999616662
32000	0	0 1 0	161 3 3	5.0000000000000009	0.0015625000000000001 0 0	1.007148185175871 2.8764289613824017e-14 -6.799206695819837e-14 0.99999999999596523 -8.652644062294776e-15 0.99999999999603406
32000	0	0 1 0	161 4 3	5.0000000000000009	0.0015625000000000001 0.003125000000000001 0	1.0071481851759401 -4.4724393315079025e-14 7.0858727450990274e-14 0.99999999999594535 1.3760855108231152e-14 0.99999999999598732
32000	0	0 1 0	161 5 3	5.0000000000000009	0.0015625000000000001 0.0062500000000000021 0	1.0071481851758834 -4.4540625369621337e-13 -1.5949003891992167e-13 0.9999999999959911 2.6315952810948675e-14 0.99999999999596734
32000	0	0 1 0	161 6 3	5.0000000000000009	0.0015625000000000001 0.0093750000000000031 0	1.0071481851758233 3.9692967279609572e-13 -5.0726950956489432e-14 0.99999999999594358 -5.6161616583366527e-15 0.99999999999593392


