# 1D ASCII output created by CarpetIOASCII
# created on compute by jmiller on Jan 28 2016 at 15:25:04-0500
# parameter filename: "/xfs1/jmiller/simulations/trunc_rho_bssn_dg4_shifted_gauge_wave_1plulog_rho_32/output-0000/shifted_gauge_wave_1_plus_log.par"
# Build ID: build-dgfe2-compute-jmiller-2015.12.16-04.26.30-10022
# Simulation ID: run-shifted_gauge_wave_1_plus_log-compute-jmiller-2016.01.28-20.25.00-31386
# Run ID: run-shifted_gauge_wave_1_plus_log-compute-jmiller-2016.01.28-20.25.00-31386
#
# CARPETREDUCE::WEIGHT z (carpetreduce-weight)
#
# iteration 0   time 0
# time level 0
# refinement level 0   multigrid level 0   map 0   component 0
# column format: 1:it	2:tl	3:rl 4:c 5:ml	6:ix 7:iy 8:iz	9:time	10:x 11:y 12:z	13:data
# data columns: 13:weight
0	0	0 0 0	161 3 0	0	0.0015625000000000001 0 -0.0093750000000000031	0
0	0	0 0 0	161 3 1	0	0.0015625000000000001 0 -0.0062500000000000021	0
0	0	0 0 0	161 3 2	0	0.0015625000000000001 0 -0.003125000000000001	0
0	0	0 0 0	161 3 3	0	0.0015625000000000001 0 0	0
0	0	0 0 0	161 3 4	0	0.0015625000000000001 0 0.003125000000000001	0
0	0	0 0 0	161 3 5	0	0.0015625000000000001 0 0.0062500000000000021	0
0	0	0 0 0	161 3 6	0	0.0015625000000000001 0 0.0093750000000000031	0

# iteration 0   time 0
# time level 0
# refinement level 0   multigrid level 0   map 0   component 1
# column format: 1:it	2:tl	3:rl 4:c 5:ml	6:ix 7:iy 8:iz	9:time	10:x 11:y 12:z	13:data
# data columns: 13:weight
0	0	0 1 0	161 3 0	0	0.0015625000000000001 0 -0.0093750000000000031	0
0	0	0 1 0	161 3 1	0	0.0015625000000000001 0 -0.0062500000000000021	0.056888888888888892
0	0	0 1 0	161 3 2	0	0.0015625000000000001 0 -0.003125000000000001	0.30972839506172839
0	0	0 1 0	161 3 3	0	0.0015625000000000001 0 0	0.40454320987654324
0	0	0 1 0	161 3 4	0	0.0015625000000000001 0 0.003125000000000001	0.30972839506172839
0	0	0 1 0	161 3 5	0	0.0015625000000000001 0 0.0062500000000000021	0.056888888888888892
0	0	0 1 0	161 3 6	0	0.0015625000000000001 0 0.0093750000000000031	0


# iteration 1600   time 0.25000000000000006
# time level 0
# refinement level 0   multigrid level 0   map 0   component 0
# column format: 1:it	2:tl	3:rl 4:c 5:ml	6:ix 7:iy 8:iz	9:time	10:x 11:y 12:z	13:data
# data columns: 13:weight
1600	0	0 0 0	161 3 0	0.25000000000000006	0.0015625000000000001 0 -0.0093750000000000031	0
1600	0	0 0 0	161 3 1	0.25000000000000006	0.0015625000000000001 0 -0.0062500000000000021	0
1600	0	0 0 0	161 3 2	0.25000000000000006	0.0015625000000000001 0 -0.003125000000000001	0
1600	0	0 0 0	161 3 3	0.25000000000000006	0.0015625000000000001 0 0	0
1600	0	0 0 0	161 3 4	0.25000000000000006	0.0015625000000000001 0 0.003125000000000001	0
1600	0	0 0 0	161 3 5	0.25000000000000006	0.0015625000000000001 0 0.0062500000000000021	0
1600	0	0 0 0	161 3 6	0.25000000000000006	0.0015625000000000001 0 0.0093750000000000031	0

# iteration 1600   time 0.25000000000000006
# time level 0
# refinement level 0   multigrid level 0   map 0   component 1
# column format: 1:it	2:tl	3:rl 4:c 5:ml	6:ix 7:iy 8:iz	9:time	10:x 11:y 12:z	13:data
# data columns: 13:weight
1600	0	0 1 0	161 3 0	0.25000000000000006	0.0015625000000000001 0 -0.0093750000000000031	0
1600	0	0 1 0	161 3 1	0.25000000000000006	0.0015625000000000001 0 -0.0062500000000000021	0.056888888888888892
1600	0	0 1 0	161 3 2	0.25000000000000006	0.0015625000000000001 0 -0.003125000000000001	0.30972839506172839
1600	0	0 1 0	161 3 3	0.25000000000000006	0.0015625000000000001 0 0	0.40454320987654324
1600	0	0 1 0	161 3 4	0.25000000000000006	0.0015625000000000001 0 0.003125000000000001	0.30972839506172839
1600	0	0 1 0	161 3 5	0.25000000000000006	0.0015625000000000001 0 0.0062500000000000021	0.056888888888888892
1600	0	0 1 0	161 3 6	0.25000000000000006	0.0015625000000000001 0 0.0093750000000000031	0


# iteration 3200   time 0.50000000000000011
# time level 0
# refinement level 0   multigrid level 0   map 0   component 0
# column format: 1:it	2:tl	3:rl 4:c 5:ml	6:ix 7:iy 8:iz	9:time	10:x 11:y 12:z	13:data
# data columns: 13:weight
3200	0	0 0 0	161 3 0	0.50000000000000011	0.0015625000000000001 0 -0.0093750000000000031	0
3200	0	0 0 0	161 3 1	0.50000000000000011	0.0015625000000000001 0 -0.0062500000000000021	0
3200	0	0 0 0	161 3 2	0.50000000000000011	0.0015625000000000001 0 -0.003125000000000001	0
3200	0	0 0 0	161 3 3	0.50000000000000011	0.0015625000000000001 0 0	0
3200	0	0 0 0	161 3 4	0.50000000000000011	0.0015625000000000001 0 0.003125000000000001	0
3200	0	0 0 0	161 3 5	0.50000000000000011	0.0015625000000000001 0 0.0062500000000000021	0
3200	0	0 0 0	161 3 6	0.50000000000000011	0.0015625000000000001 0 0.0093750000000000031	0

# iteration 3200   time 0.50000000000000011
# time level 0
# refinement level 0   multigrid level 0   map 0   component 1
# column format: 1:it	2:tl	3:rl 4:c 5:ml	6:ix 7:iy 8:iz	9:time	10:x 11:y 12:z	13:data
# data columns: 13:weight
3200	0	0 1 0	161 3 0	0.50000000000000011	0.0015625000000000001 0 -0.0093750000000000031	0
3200	0	0 1 0	161 3 1	0.50000000000000011	0.0015625000000000001 0 -0.0062500000000000021	0.056888888888888892
3200	0	0 1 0	161 3 2	0.50000000000000011	0.0015625000000000001 0 -0.003125000000000001	0.30972839506172839
3200	0	0 1 0	161 3 3	0.50000000000000011	0.0015625000000000001 0 0	0.40454320987654324
3200	0	0 1 0	161 3 4	0.50000000000000011	0.0015625000000000001 0 0.003125000000000001	0.30972839506172839
3200	0	0 1 0	161 3 5	0.50000000000000011	0.0015625000000000001 0 0.0062500000000000021	0.056888888888888892
3200	0	0 1 0	161 3 6	0.50000000000000011	0.0015625000000000001 0 0.0093750000000000031	0


# iteration 4800   time 0.75000000000000011
# time level 0
# refinement level 0   multigrid level 0   map 0   component 0
# column format: 1:it	2:tl	3:rl 4:c 5:ml	6:ix 7:iy 8:iz	9:time	10:x 11:y 12:z	13:data
# data columns: 13:weight
4800	0	0 0 0	161 3 0	0.75000000000000011	0.0015625000000000001 0 -0.0093750000000000031	0
4800	0	0 0 0	161 3 1	0.75000000000000011	0.0015625000000000001 0 -0.0062500000000000021	0
4800	0	0 0 0	161 3 2	0.75000000000000011	0.0015625000000000001 0 -0.003125000000000001	0
4800	0	0 0 0	161 3 3	0.75000000000000011	0.0015625000000000001 0 0	0
4800	0	0 0 0	161 3 4	0.75000000000000011	0.0015625000000000001 0 0.003125000000000001	0
4800	0	0 0 0	161 3 5	0.75000000000000011	0.0015625000000000001 0 0.0062500000000000021	0
4800	0	0 0 0	161 3 6	0.75000000000000011	0.0015625000000000001 0 0.0093750000000000031	0

# iteration 4800   time 0.75000000000000011
# time level 0
# refinement level 0   multigrid level 0   map 0   component 1
# column format: 1:it	2:tl	3:rl 4:c 5:ml	6:ix 7:iy 8:iz	9:time	10:x 11:y 12:z	13:data
# data columns: 13:weight
4800	0	0 1 0	161 3 0	0.75000000000000011	0.0015625000000000001 0 -0.0093750000000000031	0
4800	0	0 1 0	161 3 1	0.75000000000000011	0.0015625000000000001 0 -0.0062500000000000021	0.056888888888888892
4800	0	0 1 0	161 3 2	0.75000000000000011	0.0015625000000000001 0 -0.003125000000000001	0.30972839506172839
4800	0	0 1 0	161 3 3	0.75000000000000011	0.0015625000000000001 0 0	0.40454320987654324
4800	0	0 1 0	161 3 4	0.75000000000000011	0.0015625000000000001 0 0.003125000000000001	0.30972839506172839
4800	0	0 1 0	161 3 5	0.75000000000000011	0.0015625000000000001 0 0.0062500000000000021	0.056888888888888892
4800	0	0 1 0	161 3 6	0.75000000000000011	0.0015625000000000001 0 0.0093750000000000031	0


# iteration 6400   time 1.0000000000000002
# time level 0
# refinement level 0   multigrid level 0   map 0   component 0
# column format: 1:it	2:tl	3:rl 4:c 5:ml	6:ix 7:iy 8:iz	9:time	10:x 11:y 12:z	13:data
# data columns: 13:weight
6400	0	0 0 0	161 3 0	1.0000000000000002	0.0015625000000000001 0 -0.0093750000000000031	0
6400	0	0 0 0	161 3 1	1.0000000000000002	0.0015625000000000001 0 -0.0062500000000000021	0
6400	0	0 0 0	161 3 2	1.0000000000000002	0.0015625000000000001 0 -0.003125000000000001	0
6400	0	0 0 0	161 3 3	1.0000000000000002	0.0015625000000000001 0 0	0
6400	0	0 0 0	161 3 4	1.0000000000000002	0.0015625000000000001 0 0.003125000000000001	0
6400	0	0 0 0	161 3 5	1.0000000000000002	0.0015625000000000001 0 0.0062500000000000021	0
6400	0	0 0 0	161 3 6	1.0000000000000002	0.0015625000000000001 0 0.0093750000000000031	0

# iteration 6400   time 1.0000000000000002
# time level 0
# refinement level 0   multigrid level 0   map 0   component 1
# column format: 1:it	2:tl	3:rl 4:c 5:ml	6:ix 7:iy 8:iz	9:time	10:x 11:y 12:z	13:data
# data columns: 13:weight
6400	0	0 1 0	161 3 0	1.0000000000000002	0.0015625000000000001 0 -0.0093750000000000031	0
6400	0	0 1 0	161 3 1	1.0000000000000002	0.0015625000000000001 0 -0.0062500000000000021	0.056888888888888892
6400	0	0 1 0	161 3 2	1.0000000000000002	0.0015625000000000001 0 -0.003125000000000001	0.30972839506172839
6400	0	0 1 0	161 3 3	1.0000000000000002	0.0015625000000000001 0 0	0.40454320987654324
6400	0	0 1 0	161 3 4	1.0000000000000002	0.0015625000000000001 0 0.003125000000000001	0.30972839506172839
6400	0	0 1 0	161 3 5	1.0000000000000002	0.0015625000000000001 0 0.0062500000000000021	0.056888888888888892
6400	0	0 1 0	161 3 6	1.0000000000000002	0.0015625000000000001 0 0.0093750000000000031	0


# iteration 8000   time 1.2500000000000002
# time level 0
# refinement level 0   multigrid level 0   map 0   component 0
# column format: 1:it	2:tl	3:rl 4:c 5:ml	6:ix 7:iy 8:iz	9:time	10:x 11:y 12:z	13:data
# data columns: 13:weight
8000	0	0 0 0	161 3 0	1.2500000000000002	0.0015625000000000001 0 -0.0093750000000000031	0
8000	0	0 0 0	161 3 1	1.2500000000000002	0.0015625000000000001 0 -0.0062500000000000021	0
8000	0	0 0 0	161 3 2	1.2500000000000002	0.0015625000000000001 0 -0.003125000000000001	0
8000	0	0 0 0	161 3 3	1.2500000000000002	0.0015625000000000001 0 0	0
8000	0	0 0 0	161 3 4	1.2500000000000002	0.0015625000000000001 0 0.003125000000000001	0
8000	0	0 0 0	161 3 5	1.2500000000000002	0.0015625000000000001 0 0.0062500000000000021	0
8000	0	0 0 0	161 3 6	1.2500000000000002	0.0015625000000000001 0 0.0093750000000000031	0

# iteration 8000   time 1.2500000000000002
# time level 0
# refinement level 0   multigrid level 0   map 0   component 1
# column format: 1:it	2:tl	3:rl 4:c 5:ml	6:ix 7:iy 8:iz	9:time	10:x 11:y 12:z	13:data
# data columns: 13:weight
8000	0	0 1 0	161 3 0	1.2500000000000002	0.0015625000000000001 0 -0.0093750000000000031	0
8000	0	0 1 0	161 3 1	1.2500000000000002	0.0015625000000000001 0 -0.0062500000000000021	0.056888888888888892
8000	0	0 1 0	161 3 2	1.2500000000000002	0.0015625000000000001 0 -0.003125000000000001	0.30972839506172839
8000	0	0 1 0	161 3 3	1.2500000000000002	0.0015625000000000001 0 0	0.40454320987654324
8000	0	0 1 0	161 3 4	1.2500000000000002	0.0015625000000000001 0 0.003125000000000001	0.30972839506172839
8000	0	0 1 0	161 3 5	1.2500000000000002	0.0015625000000000001 0 0.0062500000000000021	0.056888888888888892
8000	0	0 1 0	161 3 6	1.2500000000000002	0.0015625000000000001 0 0.0093750000000000031	0


# iteration 9600   time 1.5000000000000002
# time level 0
# refinement level 0   multigrid level 0   map 0   component 0
# column format: 1:it	2:tl	3:rl 4:c 5:ml	6:ix 7:iy 8:iz	9:time	10:x 11:y 12:z	13:data
# data columns: 13:weight
9600	0	0 0 0	161 3 0	1.5000000000000002	0.0015625000000000001 0 -0.0093750000000000031	0
9600	0	0 0 0	161 3 1	1.5000000000000002	0.0015625000000000001 0 -0.0062500000000000021	0
9600	0	0 0 0	161 3 2	1.5000000000000002	0.0015625000000000001 0 -0.003125000000000001	0
9600	0	0 0 0	161 3 3	1.5000000000000002	0.0015625000000000001 0 0	0
9600	0	0 0 0	161 3 4	1.5000000000000002	0.0015625000000000001 0 0.003125000000000001	0
9600	0	0 0 0	161 3 5	1.5000000000000002	0.0015625000000000001 0 0.0062500000000000021	0
9600	0	0 0 0	161 3 6	1.5000000000000002	0.0015625000000000001 0 0.0093750000000000031	0

# iteration 9600   time 1.5000000000000002
# time level 0
# refinement level 0   multigrid level 0   map 0   component 1
# column format: 1:it	2:tl	3:rl 4:c 5:ml	6:ix 7:iy 8:iz	9:time	10:x 11:y 12:z	13:data
# data columns: 13:weight
9600	0	0 1 0	161 3 0	1.5000000000000002	0.0015625000000000001 0 -0.0093750000000000031	0
9600	0	0 1 0	161 3 1	1.5000000000000002	0.0015625000000000001 0 -0.0062500000000000021	0.056888888888888892
9600	0	0 1 0	161 3 2	1.5000000000000002	0.0015625000000000001 0 -0.003125000000000001	0.30972839506172839
9600	0	0 1 0	161 3 3	1.5000000000000002	0.0015625000000000001 0 0	0.40454320987654324
9600	0	0 1 0	161 3 4	1.5000000000000002	0.0015625000000000001 0 0.003125000000000001	0.30972839506172839
9600	0	0 1 0	161 3 5	1.5000000000000002	0.0015625000000000001 0 0.0062500000000000021	0.056888888888888892
9600	0	0 1 0	161 3 6	1.5000000000000002	0.0015625000000000001 0 0.0093750000000000031	0


# iteration 11200   time 1.7500000000000004
# time level 0
# refinement level 0   multigrid level 0   map 0   component 0
# column format: 1:it	2:tl	3:rl 4:c 5:ml	6:ix 7:iy 8:iz	9:time	10:x 11:y 12:z	13:data
# data columns: 13:weight
11200	0	0 0 0	161 3 0	1.7500000000000004	0.0015625000000000001 0 -0.0093750000000000031	0
11200	0	0 0 0	161 3 1	1.7500000000000004	0.0015625000000000001 0 -0.0062500000000000021	0
11200	0	0 0 0	161 3 2	1.7500000000000004	0.0015625000000000001 0 -0.003125000000000001	0
11200	0	0 0 0	161 3 3	1.7500000000000004	0.0015625000000000001 0 0	0
11200	0	0 0 0	161 3 4	1.7500000000000004	0.0015625000000000001 0 0.003125000000000001	0
11200	0	0 0 0	161 3 5	1.7500000000000004	0.0015625000000000001 0 0.0062500000000000021	0
11200	0	0 0 0	161 3 6	1.7500000000000004	0.0015625000000000001 0 0.0093750000000000031	0

# iteration 11200   time 1.7500000000000004
# time level 0
# refinement level 0   multigrid level 0   map 0   component 1
# column format: 1:it	2:tl	3:rl 4:c 5:ml	6:ix 7:iy 8:iz	9:time	10:x 11:y 12:z	13:data
# data columns: 13:weight
11200	0	0 1 0	161 3 0	1.7500000000000004	0.0015625000000000001 0 -0.0093750000000000031	0
11200	0	0 1 0	161 3 1	1.7500000000000004	0.0015625000000000001 0 -0.0062500000000000021	0.056888888888888892
11200	0	0 1 0	161 3 2	1.7500000000000004	0.0015625000000000001 0 -0.003125000000000001	0.30972839506172839
11200	0	0 1 0	161 3 3	1.7500000000000004	0.0015625000000000001 0 0	0.40454320987654324
11200	0	0 1 0	161 3 4	1.7500000000000004	0.0015625000000000001 0 0.003125000000000001	0.30972839506172839
11200	0	0 1 0	161 3 5	1.7500000000000004	0.0015625000000000001 0 0.0062500000000000021	0.056888888888888892
11200	0	0 1 0	161 3 6	1.7500000000000004	0.0015625000000000001 0 0.0093750000000000031	0


# iteration 12800   time 2.0000000000000004
# time level 0
# refinement level 0   multigrid level 0   map 0   component 0
# column format: 1:it	2:tl	3:rl 4:c 5:ml	6:ix 7:iy 8:iz	9:time	10:x 11:y 12:z	13:data
# data columns: 13:weight
12800	0	0 0 0	161 3 0	2.0000000000000004	0.0015625000000000001 0 -0.0093750000000000031	0
12800	0	0 0 0	161 3 1	2.0000000000000004	0.0015625000000000001 0 -0.0062500000000000021	0
12800	0	0 0 0	161 3 2	2.0000000000000004	0.0015625000000000001 0 -0.003125000000000001	0
12800	0	0 0 0	161 3 3	2.0000000000000004	0.0015625000000000001 0 0	0
12800	0	0 0 0	161 3 4	2.0000000000000004	0.0015625000000000001 0 0.003125000000000001	0
12800	0	0 0 0	161 3 5	2.0000000000000004	0.0015625000000000001 0 0.0062500000000000021	0
12800	0	0 0 0	161 3 6	2.0000000000000004	0.0015625000000000001 0 0.0093750000000000031	0

# iteration 12800   time 2.0000000000000004
# time level 0
# refinement level 0   multigrid level 0   map 0   component 1
# column format: 1:it	2:tl	3:rl 4:c 5:ml	6:ix 7:iy 8:iz	9:time	10:x 11:y 12:z	13:data
# data columns: 13:weight
12800	0	0 1 0	161 3 0	2.0000000000000004	0.0015625000000000001 0 -0.0093750000000000031	0
12800	0	0 1 0	161 3 1	2.0000000000000004	0.0015625000000000001 0 -0.0062500000000000021	0.056888888888888892
12800	0	0 1 0	161 3 2	2.0000000000000004	0.0015625000000000001 0 -0.003125000000000001	0.30972839506172839
12800	0	0 1 0	161 3 3	2.0000000000000004	0.0015625000000000001 0 0	0.40454320987654324
12800	0	0 1 0	161 3 4	2.0000000000000004	0.0015625000000000001 0 0.003125000000000001	0.30972839506172839
12800	0	0 1 0	161 3 5	2.0000000000000004	0.0015625000000000001 0 0.0062500000000000021	0.056888888888888892
12800	0	0 1 0	161 3 6	2.0000000000000004	0.0015625000000000001 0 0.0093750000000000031	0


# iteration 14400   time 2.2500000000000004
# time level 0
# refinement level 0   multigrid level 0   map 0   component 0
# column format: 1:it	2:tl	3:rl 4:c 5:ml	6:ix 7:iy 8:iz	9:time	10:x 11:y 12:z	13:data
# data columns: 13:weight
14400	0	0 0 0	161 3 0	2.2500000000000004	0.0015625000000000001 0 -0.0093750000000000031	0
14400	0	0 0 0	161 3 1	2.2500000000000004	0.0015625000000000001 0 -0.0062500000000000021	0
14400	0	0 0 0	161 3 2	2.2500000000000004	0.0015625000000000001 0 -0.003125000000000001	0
14400	0	0 0 0	161 3 3	2.2500000000000004	0.0015625000000000001 0 0	0
14400	0	0 0 0	161 3 4	2.2500000000000004	0.0015625000000000001 0 0.003125000000000001	0
14400	0	0 0 0	161 3 5	2.2500000000000004	0.0015625000000000001 0 0.0062500000000000021	0
14400	0	0 0 0	161 3 6	2.2500000000000004	0.0015625000000000001 0 0.0093750000000000031	0

# iteration 14400   time 2.2500000000000004
# time level 0
# refinement level 0   multigrid level 0   map 0   component 1
# column format: 1:it	2:tl	3:rl 4:c 5:ml	6:ix 7:iy 8:iz	9:time	10:x 11:y 12:z	13:data
# data columns: 13:weight
14400	0	0 1 0	161 3 0	2.2500000000000004	0.0015625000000000001 0 -0.0093750000000000031	0
14400	0	0 1 0	161 3 1	2.2500000000000004	0.0015625000000000001 0 -0.0062500000000000021	0.056888888888888892
14400	0	0 1 0	161 3 2	2.2500000000000004	0.0015625000000000001 0 -0.003125000000000001	0.30972839506172839
14400	0	0 1 0	161 3 3	2.2500000000000004	0.0015625000000000001 0 0	0.40454320987654324
14400	0	0 1 0	161 3 4	2.2500000000000004	0.0015625000000000001 0 0.003125000000000001	0.30972839506172839
14400	0	0 1 0	161 3 5	2.2500000000000004	0.0015625000000000001 0 0.0062500000000000021	0.056888888888888892
14400	0	0 1 0	161 3 6	2.2500000000000004	0.0015625000000000001 0 0.0093750000000000031	0


# iteration 16000   time 2.5000000000000004
# time level 0
# refinement level 0   multigrid level 0   map 0   component 0
# column format: 1:it	2:tl	3:rl 4:c 5:ml	6:ix 7:iy 8:iz	9:time	10:x 11:y 12:z	13:data
# data columns: 13:weight
16000	0	0 0 0	161 3 0	2.5000000000000004	0.0015625000000000001 0 -0.0093750000000000031	0
16000	0	0 0 0	161 3 1	2.5000000000000004	0.0015625000000000001 0 -0.0062500000000000021	0
16000	0	0 0 0	161 3 2	2.5000000000000004	0.0015625000000000001 0 -0.003125000000000001	0
16000	0	0 0 0	161 3 3	2.5000000000000004	0.0015625000000000001 0 0	0
16000	0	0 0 0	161 3 4	2.5000000000000004	0.0015625000000000001 0 0.003125000000000001	0
16000	0	0 0 0	161 3 5	2.5000000000000004	0.0015625000000000001 0 0.0062500000000000021	0
16000	0	0 0 0	161 3 6	2.5000000000000004	0.0015625000000000001 0 0.0093750000000000031	0

# iteration 16000   time 2.5000000000000004
# time level 0
# refinement level 0   multigrid level 0   map 0   component 1
# column format: 1:it	2:tl	3:rl 4:c 5:ml	6:ix 7:iy 8:iz	9:time	10:x 11:y 12:z	13:data
# data columns: 13:weight
16000	0	0 1 0	161 3 0	2.5000000000000004	0.0015625000000000001 0 -0.0093750000000000031	0
16000	0	0 1 0	161 3 1	2.5000000000000004	0.0015625000000000001 0 -0.0062500000000000021	0.056888888888888892
16000	0	0 1 0	161 3 2	2.5000000000000004	0.0015625000000000001 0 -0.003125000000000001	0.30972839506172839
16000	0	0 1 0	161 3 3	2.5000000000000004	0.0015625000000000001 0 0	0.40454320987654324
16000	0	0 1 0	161 3 4	2.5000000000000004	0.0015625000000000001 0 0.003125000000000001	0.30972839506172839
16000	0	0 1 0	161 3 5	2.5000000000000004	0.0015625000000000001 0 0.0062500000000000021	0.056888888888888892
16000	0	0 1 0	161 3 6	2.5000000000000004	0.0015625000000000001 0 0.0093750000000000031	0


# iteration 17600   time 2.7500000000000004
# time level 0
# refinement level 0   multigrid level 0   map 0   component 0
# column format: 1:it	2:tl	3:rl 4:c 5:ml	6:ix 7:iy 8:iz	9:time	10:x 11:y 12:z	13:data
# data columns: 13:weight
17600	0	0 0 0	161 3 0	2.7500000000000004	0.0015625000000000001 0 -0.0093750000000000031	0
17600	0	0 0 0	161 3 1	2.7500000000000004	0.0015625000000000001 0 -0.0062500000000000021	0
17600	0	0 0 0	161 3 2	2.7500000000000004	0.0015625000000000001 0 -0.003125000000000001	0
17600	0	0 0 0	161 3 3	2.7500000000000004	0.0015625000000000001 0 0	0
17600	0	0 0 0	161 3 4	2.7500000000000004	0.0015625000000000001 0 0.003125000000000001	0
17600	0	0 0 0	161 3 5	2.7500000000000004	0.0015625000000000001 0 0.0062500000000000021	0
17600	0	0 0 0	161 3 6	2.7500000000000004	0.0015625000000000001 0 0.0093750000000000031	0

# iteration 17600   time 2.7500000000000004
# time level 0
# refinement level 0   multigrid level 0   map 0   component 1
# column format: 1:it	2:tl	3:rl 4:c 5:ml	6:ix 7:iy 8:iz	9:time	10:x 11:y 12:z	13:data
# data columns: 13:weight
17600	0	0 1 0	161 3 0	2.7500000000000004	0.0015625000000000001 0 -0.0093750000000000031	0
17600	0	0 1 0	161 3 1	2.7500000000000004	0.0015625000000000001 0 -0.0062500000000000021	0.056888888888888892
17600	0	0 1 0	161 3 2	2.7500000000000004	0.0015625000000000001 0 -0.003125000000000001	0.30972839506172839
17600	0	0 1 0	161 3 3	2.7500000000000004	0.0015625000000000001 0 0	0.40454320987654324
17600	0	0 1 0	161 3 4	2.7500000000000004	0.0015625000000000001 0 0.003125000000000001	0.30972839506172839
17600	0	0 1 0	161 3 5	2.7500000000000004	0.0015625000000000001 0 0.0062500000000000021	0.056888888888888892
17600	0	0 1 0	161 3 6	2.7500000000000004	0.0015625000000000001 0 0.0093750000000000031	0


# iteration 19200   time 3.0000000000000004
# time level 0
# refinement level 0   multigrid level 0   map 0   component 0
# column format: 1:it	2:tl	3:rl 4:c 5:ml	6:ix 7:iy 8:iz	9:time	10:x 11:y 12:z	13:data
# data columns: 13:weight
19200	0	0 0 0	161 3 0	3.0000000000000004	0.0015625000000000001 0 -0.0093750000000000031	0
19200	0	0 0 0	161 3 1	3.0000000000000004	0.0015625000000000001 0 -0.0062500000000000021	0
19200	0	0 0 0	161 3 2	3.0000000000000004	0.0015625000000000001 0 -0.003125000000000001	0
19200	0	0 0 0	161 3 3	3.0000000000000004	0.0015625000000000001 0 0	0
19200	0	0 0 0	161 3 4	3.0000000000000004	0.0015625000000000001 0 0.003125000000000001	0
19200	0	0 0 0	161 3 5	3.0000000000000004	0.0015625000000000001 0 0.0062500000000000021	0
19200	0	0 0 0	161 3 6	3.0000000000000004	0.0015625000000000001 0 0.0093750000000000031	0

# iteration 19200   time 3.0000000000000004
# time level 0
# refinement level 0   multigrid level 0   map 0   component 1
# column format: 1:it	2:tl	3:rl 4:c 5:ml	6:ix 7:iy 8:iz	9:time	10:x 11:y 12:z	13:data
# data columns: 13:weight
19200	0	0 1 0	161 3 0	3.0000000000000004	0.0015625000000000001 0 -0.0093750000000000031	0
19200	0	0 1 0	161 3 1	3.0000000000000004	0.0015625000000000001 0 -0.0062500000000000021	0.056888888888888892
19200	0	0 1 0	161 3 2	3.0000000000000004	0.0015625000000000001 0 -0.003125000000000001	0.30972839506172839
19200	0	0 1 0	161 3 3	3.0000000000000004	0.0015625000000000001 0 0	0.40454320987654324
19200	0	0 1 0	161 3 4	3.0000000000000004	0.0015625000000000001 0 0.003125000000000001	0.30972839506172839
19200	0	0 1 0	161 3 5	3.0000000000000004	0.0015625000000000001 0 0.0062500000000000021	0.056888888888888892
19200	0	0 1 0	161 3 6	3.0000000000000004	0.0015625000000000001 0 0.0093750000000000031	0


# iteration 20800   time 3.2500000000000004
# time level 0
# refinement level 0   multigrid level 0   map 0   component 0
# column format: 1:it	2:tl	3:rl 4:c 5:ml	6:ix 7:iy 8:iz	9:time	10:x 11:y 12:z	13:data
# data columns: 13:weight
20800	0	0 0 0	161 3 0	3.2500000000000004	0.0015625000000000001 0 -0.0093750000000000031	0
20800	0	0 0 0	161 3 1	3.2500000000000004	0.0015625000000000001 0 -0.0062500000000000021	0
20800	0	0 0 0	161 3 2	3.2500000000000004	0.0015625000000000001 0 -0.003125000000000001	0
20800	0	0 0 0	161 3 3	3.2500000000000004	0.0015625000000000001 0 0	0
20800	0	0 0 0	161 3 4	3.2500000000000004	0.0015625000000000001 0 0.003125000000000001	0
20800	0	0 0 0	161 3 5	3.2500000000000004	0.0015625000000000001 0 0.0062500000000000021	0
20800	0	0 0 0	161 3 6	3.2500000000000004	0.0015625000000000001 0 0.0093750000000000031	0

# iteration 20800   time 3.2500000000000004
# time level 0
# refinement level 0   multigrid level 0   map 0   component 1
# column format: 1:it	2:tl	3:rl 4:c 5:ml	6:ix 7:iy 8:iz	9:time	10:x 11:y 12:z	13:data
# data columns: 13:weight
20800	0	0 1 0	161 3 0	3.2500000000000004	0.0015625000000000001 0 -0.0093750000000000031	0
20800	0	0 1 0	161 3 1	3.2500000000000004	0.0015625000000000001 0 -0.0062500000000000021	0.056888888888888892
20800	0	0 1 0	161 3 2	3.2500000000000004	0.0015625000000000001 0 -0.003125000000000001	0.30972839506172839
20800	0	0 1 0	161 3 3	3.2500000000000004	0.0015625000000000001 0 0	0.40454320987654324
20800	0	0 1 0	161 3 4	3.2500000000000004	0.0015625000000000001 0 0.003125000000000001	0.30972839506172839
20800	0	0 1 0	161 3 5	3.2500000000000004	0.0015625000000000001 0 0.0062500000000000021	0.056888888888888892
20800	0	0 1 0	161 3 6	3.2500000000000004	0.0015625000000000001 0 0.0093750000000000031	0


# iteration 22400   time 3.5000000000000009
# time level 0
# refinement level 0   multigrid level 0   map 0   component 0
# column format: 1:it	2:tl	3:rl 4:c 5:ml	6:ix 7:iy 8:iz	9:time	10:x 11:y 12:z	13:data
# data columns: 13:weight
22400	0	0 0 0	161 3 0	3.5000000000000009	0.0015625000000000001 0 -0.0093750000000000031	0
22400	0	0 0 0	161 3 1	3.5000000000000009	0.0015625000000000001 0 -0.0062500000000000021	0
22400	0	0 0 0	161 3 2	3.5000000000000009	0.0015625000000000001 0 -0.003125000000000001	0
22400	0	0 0 0	161 3 3	3.5000000000000009	0.0015625000000000001 0 0	0
22400	0	0 0 0	161 3 4	3.5000000000000009	0.0015625000000000001 0 0.003125000000000001	0
22400	0	0 0 0	161 3 5	3.5000000000000009	0.0015625000000000001 0 0.0062500000000000021	0
22400	0	0 0 0	161 3 6	3.5000000000000009	0.0015625000000000001 0 0.0093750000000000031	0

# iteration 22400   time 3.5000000000000009
# time level 0
# refinement level 0   multigrid level 0   map 0   component 1
# column format: 1:it	2:tl	3:rl 4:c 5:ml	6:ix 7:iy 8:iz	9:time	10:x 11:y 12:z	13:data
# data columns: 13:weight
22400	0	0 1 0	161 3 0	3.5000000000000009	0.0015625000000000001 0 -0.0093750000000000031	0
22400	0	0 1 0	161 3 1	3.5000000000000009	0.0015625000000000001 0 -0.0062500000000000021	0.056888888888888892
22400	0	0 1 0	161 3 2	3.5000000000000009	0.0015625000000000001 0 -0.003125000000000001	0.30972839506172839
22400	0	0 1 0	161 3 3	3.5000000000000009	0.0015625000000000001 0 0	0.40454320987654324
22400	0	0 1 0	161 3 4	3.5000000000000009	0.0015625000000000001 0 0.003125000000000001	0.30972839506172839
22400	0	0 1 0	161 3 5	3.5000000000000009	0.0015625000000000001 0 0.0062500000000000021	0.056888888888888892
22400	0	0 1 0	161 3 6	3.5000000000000009	0.0015625000000000001 0 0.0093750000000000031	0


# iteration 24000   time 3.7500000000000009
# time level 0
# refinement level 0   multigrid level 0   map 0   component 0
# column format: 1:it	2:tl	3:rl 4:c 5:ml	6:ix 7:iy 8:iz	9:time	10:x 11:y 12:z	13:data
# data columns: 13:weight
24000	0	0 0 0	161 3 0	3.7500000000000009	0.0015625000000000001 0 -0.0093750000000000031	0
24000	0	0 0 0	161 3 1	3.7500000000000009	0.0015625000000000001 0 -0.0062500000000000021	0
24000	0	0 0 0	161 3 2	3.7500000000000009	0.0015625000000000001 0 -0.003125000000000001	0
24000	0	0 0 0	161 3 3	3.7500000000000009	0.0015625000000000001 0 0	0
24000	0	0 0 0	161 3 4	3.7500000000000009	0.0015625000000000001 0 0.003125000000000001	0
24000	0	0 0 0	161 3 5	3.7500000000000009	0.0015625000000000001 0 0.0062500000000000021	0
24000	0	0 0 0	161 3 6	3.7500000000000009	0.0015625000000000001 0 0.0093750000000000031	0

# iteration 24000   time 3.7500000000000009
# time level 0
# refinement level 0   multigrid level 0   map 0   component 1
# column format: 1:it	2:tl	3:rl 4:c 5:ml	6:ix 7:iy 8:iz	9:time	10:x 11:y 12:z	13:data
# data columns: 13:weight
24000	0	0 1 0	161 3 0	3.7500000000000009	0.0015625000000000001 0 -0.0093750000000000031	0
24000	0	0 1 0	161 3 1	3.7500000000000009	0.0015625000000000001 0 -0.0062500000000000021	0.056888888888888892
24000	0	0 1 0	161 3 2	3.7500000000000009	0.0015625000000000001 0 -0.003125000000000001	0.30972839506172839
24000	0	0 1 0	161 3 3	3.7500000000000009	0.0015625000000000001 0 0	0.40454320987654324
24000	0	0 1 0	161 3 4	3.7500000000000009	0.0015625000000000001 0 0.003125000000000001	0.30972839506172839
24000	0	0 1 0	161 3 5	3.7500000000000009	0.0015625000000000001 0 0.0062500000000000021	0.056888888888888892
24000	0	0 1 0	161 3 6	3.7500000000000009	0.0015625000000000001 0 0.0093750000000000031	0


# iteration 25600   time 4.0000000000000009
# time level 0
# refinement level 0   multigrid level 0   map 0   component 0
# column format: 1:it	2:tl	3:rl 4:c 5:ml	6:ix 7:iy 8:iz	9:time	10:x 11:y 12:z	13:data
# data columns: 13:weight
25600	0	0 0 0	161 3 0	4.0000000000000009	0.0015625000000000001 0 -0.0093750000000000031	0
25600	0	0 0 0	161 3 1	4.0000000000000009	0.0015625000000000001 0 -0.0062500000000000021	0
25600	0	0 0 0	161 3 2	4.0000000000000009	0.0015625000000000001 0 -0.003125000000000001	0
25600	0	0 0 0	161 3 3	4.0000000000000009	0.0015625000000000001 0 0	0
25600	0	0 0 0	161 3 4	4.0000000000000009	0.0015625000000000001 0 0.003125000000000001	0
25600	0	0 0 0	161 3 5	4.0000000000000009	0.0015625000000000001 0 0.0062500000000000021	0
25600	0	0 0 0	161 3 6	4.0000000000000009	0.0015625000000000001 0 0.0093750000000000031	0

# iteration 25600   time 4.0000000000000009
# time level 0
# refinement level 0   multigrid level 0   map 0   component 1
# column format: 1:it	2:tl	3:rl 4:c 5:ml	6:ix 7:iy 8:iz	9:time	10:x 11:y 12:z	13:data
# data columns: 13:weight
25600	0	0 1 0	161 3 0	4.0000000000000009	0.0015625000000000001 0 -0.0093750000000000031	0
25600	0	0 1 0	161 3 1	4.0000000000000009	0.0015625000000000001 0 -0.0062500000000000021	0.056888888888888892
25600	0	0 1 0	161 3 2	4.0000000000000009	0.0015625000000000001 0 -0.003125000000000001	0.30972839506172839
25600	0	0 1 0	161 3 3	4.0000000000000009	0.0015625000000000001 0 0	0.40454320987654324
25600	0	0 1 0	161 3 4	4.0000000000000009	0.0015625000000000001 0 0.003125000000000001	0.30972839506172839
25600	0	0 1 0	161 3 5	4.0000000000000009	0.0015625000000000001 0 0.0062500000000000021	0.056888888888888892
25600	0	0 1 0	161 3 6	4.0000000000000009	0.0015625000000000001 0 0.0093750000000000031	0


# iteration 27200   time 4.2500000000000009
# time level 0
# refinement level 0   multigrid level 0   map 0   component 0
# column format: 1:it	2:tl	3:rl 4:c 5:ml	6:ix 7:iy 8:iz	9:time	10:x 11:y 12:z	13:data
# data columns: 13:weight
27200	0	0 0 0	161 3 0	4.2500000000000009	0.0015625000000000001 0 -0.0093750000000000031	0
27200	0	0 0 0	161 3 1	4.2500000000000009	0.0015625000000000001 0 -0.0062500000000000021	0
27200	0	0 0 0	161 3 2	4.2500000000000009	0.0015625000000000001 0 -0.003125000000000001	0
27200	0	0 0 0	161 3 3	4.2500000000000009	0.0015625000000000001 0 0	0
27200	0	0 0 0	161 3 4	4.2500000000000009	0.0015625000000000001 0 0.003125000000000001	0
27200	0	0 0 0	161 3 5	4.2500000000000009	0.0015625000000000001 0 0.0062500000000000021	0
27200	0	0 0 0	161 3 6	4.2500000000000009	0.0015625000000000001 0 0.0093750000000000031	0

# iteration 27200   time 4.2500000000000009
# time level 0
# refinement level 0   multigrid level 0   map 0   component 1
# column format: 1:it	2:tl	3:rl 4:c 5:ml	6:ix 7:iy 8:iz	9:time	10:x 11:y 12:z	13:data
# data columns: 13:weight
27200	0	0 1 0	161 3 0	4.2500000000000009	0.0015625000000000001 0 -0.0093750000000000031	0
27200	0	0 1 0	161 3 1	4.2500000000000009	0.0015625000000000001 0 -0.0062500000000000021	0.056888888888888892
27200	0	0 1 0	161 3 2	4.2500000000000009	0.0015625000000000001 0 -0.003125000000000001	0.30972839506172839
27200	0	0 1 0	161 3 3	4.2500000000000009	0.0015625000000000001 0 0	0.40454320987654324
27200	0	0 1 0	161 3 4	4.2500000000000009	0.0015625000000000001 0 0.003125000000000001	0.30972839506172839
27200	0	0 1 0	161 3 5	4.2500000000000009	0.0015625000000000001 0 0.0062500000000000021	0.056888888888888892
27200	0	0 1 0	161 3 6	4.2500000000000009	0.0015625000000000001 0 0.0093750000000000031	0


# iteration 28800   time 4.5000000000000009
# time level 0
# refinement level 0   multigrid level 0   map 0   component 0
# column format: 1:it	2:tl	3:rl 4:c 5:ml	6:ix 7:iy 8:iz	9:time	10:x 11:y 12:z	13:data
# data columns: 13:weight
28800	0	0 0 0	161 3 0	4.5000000000000009	0.0015625000000000001 0 -0.0093750000000000031	0
28800	0	0 0 0	161 3 1	4.5000000000000009	0.0015625000000000001 0 -0.0062500000000000021	0
28800	0	0 0 0	161 3 2	4.5000000000000009	0.0015625000000000001 0 -0.003125000000000001	0
28800	0	0 0 0	161 3 3	4.5000000000000009	0.0015625000000000001 0 0	0
28800	0	0 0 0	161 3 4	4.5000000000000009	0.0015625000000000001 0 0.003125000000000001	0
28800	0	0 0 0	161 3 5	4.5000000000000009	0.0015625000000000001 0 0.0062500000000000021	0
28800	0	0 0 0	161 3 6	4.5000000000000009	0.0015625000000000001 0 0.0093750000000000031	0

# iteration 28800   time 4.5000000000000009
# time level 0
# refinement level 0   multigrid level 0   map 0   component 1
# column format: 1:it	2:tl	3:rl 4:c 5:ml	6:ix 7:iy 8:iz	9:time	10:x 11:y 12:z	13:data
# data columns: 13:weight
28800	0	0 1 0	161 3 0	4.5000000000000009	0.0015625000000000001 0 -0.0093750000000000031	0
28800	0	0 1 0	161 3 1	4.5000000000000009	0.0015625000000000001 0 -0.0062500000000000021	0.056888888888888892
28800	0	0 1 0	161 3 2	4.5000000000000009	0.0015625000000000001 0 -0.003125000000000001	0.30972839506172839
28800	0	0 1 0	161 3 3	4.5000000000000009	0.0015625000000000001 0 0	0.40454320987654324
28800	0	0 1 0	161 3 4	4.5000000000000009	0.0015625000000000001 0 0.003125000000000001	0.30972839506172839
28800	0	0 1 0	161 3 5	4.5000000000000009	0.0015625000000000001 0 0.0062500000000000021	0.056888888888888892
28800	0	0 1 0	161 3 6	4.5000000000000009	0.0015625000000000001 0 0.0093750000000000031	0


# iteration 30400   time 4.7500000000000009
# time level 0
# refinement level 0   multigrid level 0   map 0   component 0
# column format: 1:it	2:tl	3:rl 4:c 5:ml	6:ix 7:iy 8:iz	9:time	10:x 11:y 12:z	13:data
# data columns: 13:weight
30400	0	0 0 0	161 3 0	4.7500000000000009	0.0015625000000000001 0 -0.0093750000000000031	0
30400	0	0 0 0	161 3 1	4.7500000000000009	0.0015625000000000001 0 -0.0062500000000000021	0
30400	0	0 0 0	161 3 2	4.7500000000000009	0.0015625000000000001 0 -0.003125000000000001	0
30400	0	0 0 0	161 3 3	4.7500000000000009	0.0015625000000000001 0 0	0
30400	0	0 0 0	161 3 4	4.7500000000000009	0.0015625000000000001 0 0.003125000000000001	0
30400	0	0 0 0	161 3 5	4.7500000000000009	0.0015625000000000001 0 0.0062500000000000021	0
30400	0	0 0 0	161 3 6	4.7500000000000009	0.0015625000000000001 0 0.0093750000000000031	0

# iteration 30400   time 4.7500000000000009
# time level 0
# refinement level 0   multigrid level 0   map 0   component 1
# column format: 1:it	2:tl	3:rl 4:c 5:ml	6:ix 7:iy 8:iz	9:time	10:x 11:y 12:z	13:data
# data columns: 13:weight
30400	0	0 1 0	161 3 0	4.7500000000000009	0.0015625000000000001 0 -0.0093750000000000031	0
30400	0	0 1 0	161 3 1	4.7500000000000009	0.0015625000000000001 0 -0.0062500000000000021	0.056888888888888892
30400	0	0 1 0	161 3 2	4.7500000000000009	0.0015625000000000001 0 -0.003125000000000001	0.30972839506172839
30400	0	0 1 0	161 3 3	4.7500000000000009	0.0015625000000000001 0 0	0.40454320987654324
30400	0	0 1 0	161 3 4	4.7500000000000009	0.0015625000000000001 0 0.003125000000000001	0.30972839506172839
30400	0	0 1 0	161 3 5	4.7500000000000009	0.0015625000000000001 0 0.0062500000000000021	0.056888888888888892
30400	0	0 1 0	161 3 6	4.7500000000000009	0.0015625000000000001 0 0.0093750000000000031	0


# iteration 32000   time 5.0000000000000009
# time level 0
# refinement level 0   multigrid level 0   map 0   component 0
# column format: 1:it	2:tl	3:rl 4:c 5:ml	6:ix 7:iy 8:iz	9:time	10:x 11:y 12:z	13:data
# data columns: 13:weight
32000	0	0 0 0	161 3 0	5.0000000000000009	0.0015625000000000001 0 -0.0093750000000000031	0
32000	0	0 0 0	161 3 1	5.0000000000000009	0.0015625000000000001 0 -0.0062500000000000021	0
32000	0	0 0 0	161 3 2	5.0000000000000009	0.0015625000000000001 0 -0.003125000000000001	0
32000	0	0 0 0	161 3 3	5.0000000000000009	0.0015625000000000001 0 0	0
32000	0	0 0 0	161 3 4	5.0000000000000009	0.0015625000000000001 0 0.003125000000000001	0
32000	0	0 0 0	161 3 5	5.0000000000000009	0.0015625000000000001 0 0.0062500000000000021	0
32000	0	0 0 0	161 3 6	5.0000000000000009	0.0015625000000000001 0 0.0093750000000000031	0

# iteration 32000   time 5.0000000000000009
# time level 0
# refinement level 0   multigrid level 0   map 0   component 1
# column format: 1:it	2:tl	3:rl 4:c 5:ml	6:ix 7:iy 8:iz	9:time	10:x 11:y 12:z	13:data
# data columns: 13:weight
32000	0	0 1 0	161 3 0	5.0000000000000009	0.0015625000000000001 0 -0.0093750000000000031	0
32000	0	0 1 0	161 3 1	5.0000000000000009	0.0015625000000000001 0 -0.0062500000000000021	0.056888888888888892
32000	0	0 1 0	161 3 2	5.0000000000000009	0.0015625000000000001 0 -0.003125000000000001	0.30972839506172839
32000	0	0 1 0	161 3 3	5.0000000000000009	0.0015625000000000001 0 0	0.40454320987654324
32000	0	0 1 0	161 3 4	5.0000000000000009	0.0015625000000000001 0 0.003125000000000001	0.30972839506172839
32000	0	0 1 0	161 3 5	5.0000000000000009	0.0015625000000000001 0 0.0062500000000000021	0.056888888888888892
32000	0	0 1 0	161 3 6	5.0000000000000009	0.0015625000000000001 0 0.0093750000000000031	0


