# Scalar ASCII output created by CarpetIOScalar
# created on nid11322 by miller1 on Feb 17 2016 at 15:52:32-0600
# parameter filename: "/scratch/sciteam/miller1/simulations/trunc_rho_bssn_dg8_gauge_wave_3D_rho_2/output-0000/gauge_wave.par"
# Build ID: build-dgfe2-h2ologin1.ncsa.illinois.edu-miller1-2016.02.08-01.00.23-31758
# Simulation ID: run-gauge_wave-nid11322-miller1-2016.02.17-21.52.29-7712
# Run ID: run-gauge_wave-nid11322-miller1-2016.02.17-21.52.29-7712
#
# ADMBASE::gxx (admbase-metric)
# 1:iteration 2:time 3:data
# data columns: 3:gxx 4:gxy 5:gxz 6:gyy 7:gyz 8:gzz
0 0 1.00000277777392 0.00235702260395626 0.00235702260394014 1.00000277777392 0.00235702260396908 1.00000277777392
340 0.250000000000056 1.00000277777392 0.00235702260395829 0.00235702260396093 1.00000277777392 0.00235702260395619 1.00000277777392
680 0.500000000000111 1.00000277777392 0.0023570226039555 0.00235702260393699 1.00000277777392 0.00235702260397021 1.00000277777392
1020 0.750000000000167 1.00000277777392 0.0023570226039559 0.00235702260394403 1.00000277777392 0.00235702260396534 1.00000277777392
1360 1.00000000000022 1.00000277777392 0.0023570226039555 0.00235702260394073 1.00000277777392 0.00235702260396724 1.00000277777392
1700 1.25000000000028 1.00000277777391 0.00235702260395563 0.00235702260393683 1.00000277777392 0.00235702260397059 1.00000277777392
2040 1.50000000000033 1.00000277777391 0.00235702260395846 0.00235702260395826 1.00000277777393 0.0023570226039586 1.00000277777392
2380 1.75000000000039 1.00000277777391 0.00235702260395717 0.00235702260394084 1.00000277777393 0.00235702260397014 1.00000277777392
2720 2.00000000000044 1.00000277777391 0.00235702260395999 0.00235702260396455 1.00000277777393 0.00235702260395635 1.00000277777392
3060 2.2500000000005 1.0000027777739 0.0023570226039566 0.00235702260393875 1.00000277777393 0.0023570226039708 1.00000277777392
3400 2.50000000000056 1.0000027777739 0.00235702260395756 0.00235702260394913 1.00000277777393 0.00235702260396427 1.00000277777392
3740 2.75000000000061 1.0000027777739 0.00235702260395607 0.00235702260393913 1.00000277777394 0.00235702260396953 1.00000277777391
4080 3.00000000000067 1.00000277777389 0.00235702260395624 0.00235702260393773 1.00000277777394 0.00235702260397095 1.00000277777391
4420 3.25000000000072 1.00000277777389 0.00235702260395882 0.00235702260395519 1.00000277777394 0.0023570226039617 1.00000277777391
4760 3.50000000000078 1.00000277777388 0.00235702260395753 0.00235702260394066 1.00000277777395 0.00235702260397095 1.00000277777391
5100 3.75000000000083 1.00000277777387 0.00235702260396096 0.00235702260396632 1.00000277777395 0.00235702260395669 1.00000277777391
5440 4.00000000000089 1.00000277777387 0.00235702260395741 0.00235702260394033 1.00000277777395 0.002357022603971 1.00000277777391
5780 4.25000000000094 1.00000277777386 0.0023570226039588 0.00235702260395404 1.00000277777396 0.00235702260396259 1.0000027777739
6120 4.500000000001 1.00000277777385 0.00235702260395657 0.00235702260393831 1.00000277777396 0.00235702260397109 1.0000027777739
6460 4.75000000000106 1.00000277777385 0.00235702260395665 0.00235702260393921 1.00000277777397 0.00235702260397051 1.0000027777739
6800 5.00000000000111 1.00000277777384 0.0023570226039585 0.00235702260395119 1.00000277777397 0.0023570226039643 1.0000027777739
