# Scalar ASCII output created by CarpetIOScalar
# created on nid11322 by miller1 on Feb 17 2016 at 15:52:32-0600
# parameter filename: "/scratch/sciteam/miller1/simulations/trunc_rho_bssn_dg8_gauge_wave_3D_rho_2/output-0000/gauge_wave.par"
# Build ID: build-dgfe2-h2ologin1.ncsa.illinois.edu-miller1-2016.02.08-01.00.23-31758
# Simulation ID: run-gauge_wave-nid11322-miller1-2016.02.17-21.52.29-7712
# Run ID: run-gauge_wave-nid11322-miller1-2016.02.17-21.52.29-7712
#
# ADMBASE::gxx (admbase-metric)
# 1:iteration 2:time 3:data
# data columns: 3:gxx 4:gxy 5:gxz 6:gyy 7:gyz 8:gzz
0 0 0.996666666666706 -0.00333333333333491 -0.00333333333331221 0.996666666666624 -0.00333333333335306 0.99666666666667
340 0.250000000000056 0.99666666697235 -0.00333333323851878 -0.00333333323853913 0.996666666972495 -0.0033333329983823 0.99666666697245
680 0.500000000000111 0.996666811050149 -0.00333318876027401 -0.00333318876020896 0.996666811050201 -0.00333318890953123 0.996666811050182
1020 0.750000000000167 0.996666793435693 -0.00333320632355139 -0.00333320632352462 0.996666793435541 -0.00333320652286267 0.996666793435645
1360 1.00000000000022 0.996667131707109 -0.00333286823071328 -0.00333286823068903 0.99666713170705 -0.00333286827893027 0.996667131707091
1700 1.25000000000028 0.996666672087212 -0.00333332790992196 -0.00333332790989335 0.996666672087158 -0.00333332790074503 0.996666672087215
2040 1.50000000000033 0.996666719923927 -0.00333327991202695 -0.0033332799119992 0.996666719923941 -0.00333328005603887 0.996666719923975
2380 1.75000000000039 0.996666872995056 -0.00333312708147091 -0.00333312708143185 0.996666872995002 -0.00333312700996627 0.996666872995073
2720 2.00000000000044 0.9966668517136 -0.00333314822766214 -0.00333314822767827 0.996666851713622 -0.00333314827248535 0.996666851713608
3060 2.2500000000005 0.996666678294384 -0.00333332148691428 -0.00333332148684928 0.996666678294386 -0.00333332165583407 0.996666678294412
3400 2.50000000000056 0.996666683633304 -0.00333331654287103 -0.00333331654284801 0.996666683633337 -0.00333331632430565 0.996666683633342
3740 2.75000000000061 0.996666690644624 -0.00333330917678391 -0.0033333091767358 0.996666690644273 -0.00333330929359174 0.996666690644599
4080 3.00000000000067 0.996666698662938 -0.00333330092306781 -0.00333330092299198 0.996666698662979 -0.00333330128349296 0.996666698663014
4420 3.25000000000072 0.996666670212002 -0.00333332964523973 -0.00333332964524354 0.996666670212068 -0.00333332977608589 0.99666667021201
4760 3.50000000000078 0.996667354828207 -0.00333264503148669 -0.00333264503140099 0.996667354828287 -0.00333264515181294 0.996667354828247
5100 3.75000000000083 0.996666670216345 -0.00333332976470667 -0.00333332976467517 0.99666667021647 -0.00333332977033418 0.996666670216389
5440 4.00000000000089 0.996666673530606 -0.00333332655316051 -0.00333332655309295 0.996666673530536 -0.00333332647556811 0.996666673530576
5780 4.25000000000094 0.996666770196354 -0.00333323003491567 -0.0033332300348404 0.996666770196447 -0.00333322974983423 0.996666770196386
6120 4.500000000001 0.996666667535516 -0.00333333297285351 -0.00333333297278391 0.996666667535597 -0.00333333252604559 0.996666667535575
6460 4.75000000000106 0.996667015134751 -0.00333298475067034 -0.00333298475059092 0.996667015134698 -0.00333298484923283 0.996667015134735
6800 5.00000000000111 0.99666666694864 -0.00333333321920616 -0.00333333321915254 0.996666666948606 -0.00333333305984185 0.996666666948624
