# Scalar ASCII output created by CarpetIOScalar
# created on nid11322 by miller1 on Feb 17 2016 at 15:52:32-0600
# parameter filename: "/scratch/sciteam/miller1/simulations/trunc_rho_bssn_dg8_gauge_wave_3D_rho_2/output-0000/gauge_wave.par"
# Build ID: build-dgfe2-h2ologin1.ncsa.illinois.edu-miller1-2016.02.08-01.00.23-31758
# Simulation ID: run-gauge_wave-nid11322-miller1-2016.02.17-21.52.29-7712
# Run ID: run-gauge_wave-nid11322-miller1-2016.02.17-21.52.29-7712
#
# GAUGEWAVE::kExact11 (gaugewave-curv_exact)
# 1:iteration 2:time 3:data
# data columns: 3:kExact11 4:kExact12 5:kExact13 6:kExact22 7:kExact23 8:kExact33
0 0 0.012825658627202 0.0128256586273594 0.0128256586272717 0.0128256586275169 0.0128256586274292 0.0128256586273415
340 0.250000000000056 0.012825658627202 0.0128256586273594 0.0128256586272717 0.0128256586275169 0.0128256586274292 0.0128256586273415
680 0.500000000000111 0.012825658627202 0.0128256586273594 0.0128256586272717 0.0128256586275169 0.0128256586274292 0.0128256586273415
1020 0.750000000000167 0.012825658627202 0.0128256586273594 0.0128256586272717 0.0128256586275169 0.0128256586274292 0.0128256586273415
1360 1.00000000000022 0.012825658627202 0.0128256586273594 0.0128256586272717 0.0128256586275169 0.0128256586274292 0.0128256586273415
1700 1.25000000000028 0.012825658627202 0.0128256586273594 0.0128256586272717 0.0128256586275169 0.0128256586274292 0.0128256586273415
2040 1.50000000000033 0.012825658627202 0.0128256586273594 0.0128256586272717 0.0128256586275169 0.0128256586274292 0.0128256586273415
2380 1.75000000000039 0.012825658627202 0.0128256586273594 0.0128256586272717 0.0128256586275169 0.0128256586274292 0.0128256586273415
2720 2.00000000000044 0.012825658627202 0.0128256586273594 0.0128256586272717 0.0128256586275169 0.0128256586274292 0.0128256586273415
3060 2.2500000000005 0.012825658627202 0.0128256586273594 0.0128256586272717 0.0128256586275169 0.0128256586274292 0.0128256586273415
3400 2.50000000000056 0.012825658627202 0.0128256586273594 0.0128256586272717 0.0128256586275169 0.0128256586274292 0.0128256586273415
3740 2.75000000000061 0.012825658627202 0.0128256586273594 0.0128256586272717 0.0128256586275169 0.0128256586274292 0.0128256586273415
4080 3.00000000000067 0.012825658627202 0.0128256586273594 0.0128256586272717 0.0128256586275169 0.0128256586274292 0.0128256586273415
4420 3.25000000000072 0.012825658627202 0.0128256586273594 0.0128256586272717 0.0128256586275169 0.0128256586274292 0.0128256586273415
4760 3.50000000000078 0.012825658627202 0.0128256586273594 0.0128256586272717 0.0128256586275169 0.0128256586274292 0.0128256586273415
5100 3.75000000000083 0.012825658627202 0.0128256586273594 0.0128256586272717 0.0128256586275169 0.0128256586274292 0.0128256586273415
5440 4.00000000000089 0.012825658627202 0.0128256586273594 0.0128256586272717 0.0128256586275169 0.0128256586274292 0.0128256586273415
5780 4.25000000000094 0.012825658627202 0.0128256586273594 0.0128256586272717 0.0128256586275169 0.0128256586274292 0.0128256586273415
6120 4.500000000001 0.012825658627202 0.0128256586273594 0.0128256586272717 0.0128256586275169 0.0128256586274292 0.0128256586273415
6460 4.75000000000106 0.012825658627202 0.0128256586273594 0.0128256586272717 0.0128256586275169 0.0128256586274292 0.0128256586273415
6800 5.00000000000111 0.012825658627202 0.0128256586273594 0.0128256586272717 0.0128256586275169 0.0128256586274292 0.0128256586273415
