# Scalar ASCII output created by CarpetIOScalar
# created on nid11322 by miller1 on Feb 17 2016 at 15:52:32-0600
# parameter filename: "/scratch/sciteam/miller1/simulations/trunc_rho_bssn_dg8_gauge_wave_3D_rho_2/output-0000/gauge_wave.par"
# Build ID: build-dgfe2-h2ologin1.ncsa.illinois.edu-miller1-2016.02.08-01.00.23-31758
# Simulation ID: run-gauge_wave-nid11322-miller1-2016.02.17-21.52.29-7712
# Run ID: run-gauge_wave-nid11322-miller1-2016.02.17-21.52.29-7712
#
# GAUGEWAVE::gExact11 (gaugewave-metric_exact)
# 1:iteration 2:time 3:data
# data columns: 3:gExact11 4:gExact12 5:gExact13 6:gExact22 7:gExact23 8:gExact33
0 0 1.00000277777392 0.00235702260395626 0.00235702260394014 1.00000277777392 0.00235702260396908 1.00000277777392
340 0.250000000000056 1.00000277777392 0.00235702260395626 0.00235702260394014 1.00000277777392 0.00235702260396908 1.00000277777392
680 0.500000000000111 1.00000277777392 0.00235702260395626 0.00235702260394014 1.00000277777392 0.00235702260396908 1.00000277777392
1020 0.750000000000167 1.00000277777392 0.00235702260395626 0.00235702260394014 1.00000277777392 0.00235702260396908 1.00000277777392
1360 1.00000000000022 1.00000277777392 0.00235702260395626 0.00235702260394014 1.00000277777392 0.00235702260396908 1.00000277777392
1700 1.25000000000028 1.00000277777392 0.00235702260395626 0.00235702260394014 1.00000277777392 0.00235702260396908 1.00000277777392
2040 1.50000000000033 1.00000277777392 0.00235702260395626 0.00235702260394014 1.00000277777392 0.00235702260396908 1.00000277777392
2380 1.75000000000039 1.00000277777392 0.00235702260395626 0.00235702260394014 1.00000277777392 0.00235702260396908 1.00000277777392
2720 2.00000000000044 1.00000277777392 0.00235702260395626 0.00235702260394014 1.00000277777392 0.00235702260396908 1.00000277777392
3060 2.2500000000005 1.00000277777392 0.00235702260395626 0.00235702260394014 1.00000277777392 0.00235702260396908 1.00000277777392
3400 2.50000000000056 1.00000277777392 0.00235702260395626 0.00235702260394014 1.00000277777392 0.00235702260396908 1.00000277777392
3740 2.75000000000061 1.00000277777392 0.00235702260395626 0.00235702260394014 1.00000277777392 0.00235702260396908 1.00000277777392
4080 3.00000000000067 1.00000277777392 0.00235702260395626 0.00235702260394014 1.00000277777392 0.00235702260396908 1.00000277777392
4420 3.25000000000072 1.00000277777392 0.00235702260395626 0.00235702260394014 1.00000277777392 0.00235702260396908 1.00000277777392
4760 3.50000000000078 1.00000277777392 0.00235702260395626 0.00235702260394014 1.00000277777392 0.00235702260396908 1.00000277777392
5100 3.75000000000083 1.00000277777392 0.00235702260395626 0.00235702260394014 1.00000277777392 0.00235702260396908 1.00000277777392
5440 4.00000000000089 1.00000277777392 0.00235702260395626 0.00235702260394014 1.00000277777392 0.00235702260396908 1.00000277777392
5780 4.25000000000094 1.00000277777392 0.00235702260395626 0.00235702260394014 1.00000277777392 0.00235702260396908 1.00000277777392
6120 4.500000000001 1.00000277777392 0.00235702260395626 0.00235702260394014 1.00000277777392 0.00235702260396908 1.00000277777392
6460 4.75000000000106 1.00000277777392 0.00235702260395626 0.00235702260394014 1.00000277777392 0.00235702260396908 1.00000277777392
6800 5.00000000000111 1.00000277777392 0.00235702260395626 0.00235702260394014 1.00000277777392 0.00235702260396908 1.00000277777392
