# Scalar ASCII output created by CarpetIOScalar
# created on compute2 by jmiller on Dec 15 2015 at 23:33:27-0500
# parameter filename: "/xfs1/jmiller/simulations/trunc_rho_bssn_dg2_robust_stability_rho_8/output-0000/robust_stability.par"
# Build ID: build-dgfe2-compute-jmiller-2015.12.16-04.26.30-10022
# Simulation ID: run-robust_stability-compute2-jmiller-2015.12.16-04.33.24-28458
# Run ID: run-robust_stability-compute2-jmiller-2015.12.16-04.33.24-28458
#
# ADMBASE::gxy (admbase-metric)
# 1:iteration 2:time 3:data
# data columns: 3:gxx 4:gxy 5:gxz 6:gyy 7:gyz 8:gzz
0 0 0.999999999999931 1.81337663061766e-12 1.81763658819703e-12 1.00000000000006 1.80971619398991e-12 1
50 0.104166666666667 0.999999999999929 5.99611839356657e-12 5.8935307981456e-12 1.00000000000006 5.99842908207767e-12 1.00000000000001
100 0.208333333333333 0.999999999999927 1.15104126583574e-11 1.13345066417484e-11 1.00000000000006 1.15238603034453e-11 1.00000000000001
150 0.3125 0.999999999999924 1.71203104016128e-11 1.68533130505602e-11 1.00000000000006 1.71242402610384e-11 1.00000000000002
200 0.416666666666667 0.999999999999922 2.27730902020624e-11 2.23857833225378e-11 1.00000000000006 2.27578032092214e-11 1.00000000000002
250 0.520833333333333 0.99999999999992 2.84243236514554e-11 2.79427513669858e-11 1.00000000000006 2.84121339572103e-11 1.00000000000003
300 0.625 0.999999999999918 3.4083796825518e-11 3.35130736179191e-11 1.00000000000005 3.40735549652316e-11 1.00000000000003
350 0.729166666666667 0.999999999999916 3.97259355985273e-11 3.90889549880165e-11 1.00000000000005 3.97358790737131e-11 1.00000000000004
400 0.833333333333333 0.999999999999913 4.53818049785945e-11 4.46465154067492e-11 1.00000000000005 4.53779599839283e-11 1.00000000000004
450 0.9375 0.999999999999911 5.1050656544118e-11 5.02119086516592e-11 1.00000000000005 5.10345874889349e-11 1.00000000000005
500 1.04166666666667 0.999999999999909 5.67163544792559e-11 5.57839908882263e-11 1.00000000000005 5.67108270905994e-11 1.00000000000005
550 1.14583333333333 0.999999999999906 6.23888330710629e-11 6.13593265627769e-11 1.00000000000005 6.23874983313425e-11 1.00000000000006
600 1.25 0.999999999999905 6.80571329245785e-11 6.69345719824402e-11 1.00000000000005 6.80477902631823e-11 1.00000000000006
650 1.35416666666667 0.999999999999902 7.37202504097977e-11 7.25013435085137e-11 1.00000000000005 7.37106708868827e-11 1.00000000000007
700 1.45833333333333 0.9999999999999 7.93872243595043e-11 7.80794453704764e-11 1.00000000000005 7.93612035735694e-11 1.00000000000007
750 1.5625 0.999999999999898 8.50562662117306e-11 8.36515551360163e-11 1.00000000000005 8.50231954617134e-11 1.00000000000008
800 1.66666666666667 0.999999999999895 9.07196640212194e-11 8.92223643059255e-11 1.00000000000005 9.06992153310373e-11 1.00000000000008
850 1.77083333333333 0.999999999999894 9.63886226126667e-11 9.47949178135081e-11 1.00000000000005 9.63678599772582e-11 1.00000000000009
900 1.875 0.999999999999891 1.02052452945449e-10 1.00366147042681e-10 1.00000000000005 1.02030790072056e-10 1.00000000000009
950 1.97916666666667 0.999999999999889 1.0771853057825e-10 1.05946294797095e-10 1.00000000000005 1.07695766241094e-10 1.0000000000001
1000 2.08333333333333 0.999999999999887 1.13389771191384e-10 1.11518851154262e-10 1.00000000000005 1.13357792726375e-10 1.0000000000001
1050 2.1875 0.999999999999885 1.19060159638972e-10 1.17078072183356e-10 1.00000000000005 1.19023903725029e-10 1.00000000000011
1100 2.29166666666667 0.999999999999882 1.2472445856398e-10 1.22643412411299e-10 1.00000000000005 1.24690739436054e-10 1.00000000000011
1150 2.39583333333333 0.99999999999988 1.30377195441908e-10 1.28221261946671e-10 1.00000000000004 1.30358663009016e-10 1.00000000000012
1200 2.5 0.999999999999878 1.36048482884957e-10 1.33798746830338e-10 1.00000000000004 1.36020448730403e-10 1.00000000000012
1250 2.60416666666667 0.999999999999876 1.41739126886094e-10 1.39371956849577e-10 1.00000000000004 1.4168926565428e-10 1.00000000000013
1300 2.70833333333333 0.999999999999873 1.47404994615335e-10 1.4494920313525e-10 1.00000000000004 1.47359937898387e-10 1.00000000000014
1350 2.8125 0.999999999999871 1.53066961987067e-10 1.50523937701806e-10 1.00000000000004 1.5302389809643e-10 1.00000000000014
1400 2.91666666666667 0.999999999999869 1.58735073541124e-10 1.56098924805912e-10 1.00000000000004 1.58686659148927e-10 1.00000000000014
1450 3.02083333333333 0.999999999999867 1.64406758485231e-10 1.61680092877835e-10 1.00000000000004 1.64354823792129e-10 1.00000000000015
1500 3.125 0.999999999999864 1.70073815533859e-10 1.67259245847426e-10 1.00000000000004 1.7002242442655e-10 1.00000000000016
1550 3.22916666666667 0.999999999999862 1.75734048190134e-10 1.72828989071386e-10 1.00000000000004 1.75687234931616e-10 1.00000000000016
1600 3.33333333333333 0.99999999999986 1.81405213503716e-10 1.78399627580963e-10 1.00000000000004 1.81358797551186e-10 1.00000000000017
1650 3.4375 0.999999999999857 1.87072863473847e-10 1.83973197549067e-10 1.00000000000004 1.87027866212076e-10 1.00000000000017
1700 3.54166666666667 0.999999999999855 1.92740148455683e-10 1.89542659953923e-10 1.00000000000004 1.92691434072552e-10 1.00000000000018
1750 3.64583333333333 0.999999999999854 1.98409029528042e-10 1.95116383509102e-10 1.00000000000004 1.98361022324128e-10 1.00000000000018
1800 3.75 0.999999999999851 2.04068709159415e-10 2.0069967806829e-10 1.00000000000004 2.04029349760739e-10 1.00000000000019
1850 3.85416666666667 0.999999999999849 2.09735235976929e-10 2.06276626942216e-10 1.00000000000004 2.09680306617594e-10 1.00000000000019
1900 3.95833333333333 0.999999999999847 2.15411965093371e-10 2.11842110351179e-10 1.00000000000004 2.1534176373177e-10 1.0000000000002
1950 4.0625 0.999999999999844 2.21096225090506e-10 2.17411320734943e-10 1.00000000000004 2.21018555452815e-10 1.0000000000002
2000 4.16666666666667 0.999999999999842 2.26764611433605e-10 2.22993418117936e-10 1.00000000000004 2.26690884212489e-10 1.00000000000021
2050 4.27083333333333 0.99999999999984 2.32423442057957e-10 2.28566305966316e-10 1.00000000000003 2.32358044984126e-10 1.00000000000021
2100 4.375 0.999999999999838 2.38086903580968e-10 2.34131680856352e-10 1.00000000000003 2.38027018805049e-10 1.00000000000022
2150 4.47916666666667 0.999999999999836 2.43762796762428e-10 2.39702228610587e-10 1.00000000000003 2.43681770801308e-10 1.00000000000022
2200 4.58333333333333 0.999999999999834 2.49434465579426e-10 2.4528163467682e-10 1.00000000000003 2.49352420598541e-10 1.00000000000023
2250 4.6875 0.999999999999831 2.55094535798255e-10 2.50866493673848e-10 1.00000000000003 2.55026099363647e-10 1.00000000000023
2300 4.79166666666667 0.999999999999829 2.60755841772025e-10 2.5644493961628e-10 1.00000000000003 2.60690508541143e-10 1.00000000000024
2350 4.89583333333333 0.999999999999827 2.66427180408803e-10 2.62008411045151e-10 1.00000000000003 2.66351619762413e-10 1.00000000000024
2400 5 0.999999999999824 2.72106728064937e-10 2.67572466313381e-10 1.00000000000003 2.72015556411837e-10 1.00000000000025
2450 5.10416666666667 0.999999999999823 2.77777082084624e-10 2.7315320680913e-10 1.00000000000003 2.77689115634726e-10 1.00000000000025
2500 5.20833333333333 0.99999999999982 2.83440411198922e-10 2.7873325328148e-10 1.00000000000003 2.83356309060672e-10 1.00000000000026
2550 5.3125 0.999999999999818 2.8910880754562e-10 2.84299860635426e-10 1.00000000000003 2.89020039142696e-10 1.00000000000026
2600 5.41666666666667 0.999999999999816 2.94772165194041e-10 2.898711656741e-10 1.00000000000003 2.94681674853742e-10 1.00000000000027
2650 5.52083333333333 0.999999999999814 3.00449924615097e-10 2.95455401584438e-10 1.00000000000003 3.00344067497126e-10 1.00000000000027
2700 5.625 0.999999999999812 3.06130798681114e-10 3.01042115627529e-10 1.00000000000003 3.06011264494827e-10 1.00000000000028
2750 5.72916666666667 0.999999999999809 3.11800377923365e-10 3.06614703862825e-10 1.00000000000003 3.11680692586494e-10 1.00000000000028
2800 5.83333333333333 0.999999999999807 3.17457440753348e-10 3.12180065592047e-10 1.00000000000003 3.17348331805573e-10 1.00000000000029
2850 5.9375 0.999999999999805 3.23108471026949e-10 3.1775289388445e-10 1.00000000000003 3.23019985778151e-10 1.00000000000029
2900 6.04166666666667 0.999999999999803 3.28779660455347e-10 3.23330883364276e-10 1.00000000000002 3.28691142791727e-10 1.0000000000003
2950 6.14583333333333 0.9999999999998 3.3445742400899e-10 3.28898268250126e-10 1.00000000000002 3.34357343746275e-10 1.0000000000003
3000 6.25 0.999999999999798 3.40128847979226e-10 3.34470055333276e-10 1.00000000000002 3.40022385395612e-10 1.00000000000031
3050 6.35416666666667 0.999999999999796 3.4579629668993e-10 3.40044421811199e-10 1.00000000000002 3.45681854440482e-10 1.00000000000031
3100 6.45833333333333 0.999999999999794 3.51461523761695e-10 3.45624545363778e-10 1.00000000000002 3.51342684742467e-10 1.00000000000032
3150 6.5625 0.999999999999791 3.5713433713226e-10 3.51200273096097e-10 1.00000000000002 3.57012205527312e-10 1.00000000000032
3200 6.66666666666667 0.99999999999979 3.62799111358382e-10 3.56778884863705e-10 1.00000000000002 3.62678386162603e-10 1.00000000000033
3250 6.77083333333333 0.999999999999788 3.68461441994341e-10 3.62353344473876e-10 1.00000000000002 3.68343167158402e-10 1.00000000000033
3300 6.875 0.999999999999785 3.74133379952816e-10 3.67922379576336e-10 1.00000000000002 3.74015467471004e-10 1.00000000000034
3350 6.97916666666667 0.999999999999783 3.79800603436366e-10 3.73503078744029e-10 1.00000000000002 3.79689506514259e-10 1.00000000000034
3400 7.08333333333333 0.999999999999781 3.85469462183308e-10 3.79076390888112e-10 1.00000000000002 3.8536231821444e-10 1.00000000000035
3450 7.1875 0.999999999999779 3.91134066147699e-10 3.84641441149666e-10 1.00000000000002 3.91028657829833e-10 1.00000000000035
3500 7.29166666666667 0.999999999999776 3.96793826903061e-10 3.90208588312968e-10 1.00000000000002 3.96691173681343e-10 1.00000000000036
3550 7.39583333333333 0.999999999999774 4.02468094456471e-10 3.95789619397066e-10 1.00000000000002 4.02352385936588e-10 1.00000000000036
3600 7.5 0.999999999999772 4.08149646048821e-10 4.0137644142932e-10 1.00000000000002 4.08016970064685e-10 1.00000000000037
3650 7.60416666666667 0.99999999999977 4.138307428936e-10 4.06945485003398e-10 1.00000000000002 4.13688967646782e-10 1.00000000000037
3700 7.70833333333333 0.999999999999767 4.19499800426719e-10 4.12512541133302e-10 1.00000000000001 4.19351676702104e-10 1.00000000000038
3750 7.8125 0.999999999999765 4.2515490052244e-10 4.18096076307764e-10 1.00000000000001 4.25011003635503e-10 1.00000000000039
3800 7.91666666666667 0.999999999999763 4.30818627510683e-10 4.23674139705924e-10 1.00000000000001 4.30686452161018e-10 1.00000000000039
3850 8.02083333333333 0.99999999999976 4.36497503591515e-10 4.29239558226963e-10 1.00000000000001 4.36352336789166e-10 1.0000000000004
3900 8.125 0.999999999999758 4.42166689628042e-10 4.34808576534746e-10 1.00000000000001 4.4201571023998e-10 1.0000000000004
3950 8.22916666666667 0.999999999999756 4.47819501337154e-10 4.4038531225716e-10 1.00000000000001 4.47690534279478e-10 1.0000000000004
4000 8.33333333333333 0.999999999999754 4.53489632048359e-10 4.45961780266439e-10 1.00000000000001 4.53364696424274e-10 1.00000000000041
4050 8.4375 0.999999999999752 4.59164343546559e-10 4.51536066504968e-10 1.00000000000001 4.5903057654581e-10 1.00000000000042
4100 8.54166666666667 0.99999999999975 4.64841069392697e-10 4.57123641411928e-10 1.00000000000001 4.64692953526464e-10 1.00000000000042
4150 8.64583333333333 0.999999999999747 4.70511674773975e-10 4.62705886964016e-10 1.00000000000001 4.70351821591095e-10 1.00000000000043
4200 8.75 0.999999999999745 4.76170374927486e-10 4.68269831131463e-10 1.00000000000001 4.76014115374989e-10 1.00000000000043
4250 8.85416666666667 0.999999999999743 4.81836552232696e-10 4.73836238342216e-10 1.00000000000001 4.81686727808788e-10 1.00000000000044
4300 8.95833333333333 0.999999999999741 4.87503568530621e-10 4.7940023591477e-10 1.00000000000001 4.87360278709935e-10 1.00000000000044
4350 9.0625 0.999999999999739 4.93177857291707e-10 4.8497562057901e-10 1.00000000000001 4.93031162344839e-10 1.00000000000045
4400 9.16666666666667 0.999999999999736 4.98852893527351e-10 4.90552793141217e-10 1.00000000000001 4.98694777276008e-10 1.00000000000045
4450 9.27083333333333 0.999999999999734 5.04517396159303e-10 4.96129683009905e-10 1.00000000000001 5.04361475222298e-10 1.00000000000046
4500 9.375 0.999999999999732 5.10173463854369e-10 5.01703860854137e-10 1.00000000000001 5.10019364083386e-10 1.00000000000046
4550 9.47916666666667 0.99999999999973 5.15838375485847e-10 5.07281482893255e-10 1 5.15688732086161e-10 1.00000000000047
4600 9.58333333333333 0.999999999999728 5.21518613782052e-10 5.12859905109301e-10 1 5.21361161525178e-10 1.00000000000047
4650 9.6875 0.999999999999726 5.27191916531251e-10 5.18436599595326e-10 1 5.27021694999535e-10 1.00000000000048
4700 9.79166666666667 0.999999999999724 5.32861122929153e-10 5.24005606255314e-10 1 5.32684136495041e-10 1.00000000000048
4750 9.89583333333333 0.999999999999721 5.38527218346967e-10 5.29572502842381e-10 1 5.38345023732557e-10 1.00000000000049
4800 10 0.999999999999718 5.44191600166539e-10 5.35143229243139e-10 1 5.4400707045621e-10 1.00000000000049
4850 10.1041666666667 0.999999999999717 5.49855391646884e-10 5.40724656996975e-10 1 5.49676240249378e-10 1.0000000000005
4900 10.2083333333333 0.999999999999715 5.55526747363528e-10 5.46303398689355e-10 1 5.5535253459382e-10 1.0000000000005
4950 10.3125 0.999999999999712 5.61200749928063e-10 5.51878762676157e-10 1 5.61023897616409e-10 1.00000000000051
5000 10.4166666666667 0.99999999999971 5.66877383923673e-10 5.57459092279763e-10 1 5.66683459578053e-10 1.00000000000051
5050 10.5208333333333 0.999999999999708 5.72547585944271e-10 5.63031709484532e-10 0.999999999999999 5.72356367230856e-10 1.00000000000052
5100 10.625 0.999999999999706 5.78209969302301e-10 5.68600319639185e-10 0.999999999999998 5.7802032952001e-10 1.00000000000052
5150 10.7291666666667 0.999999999999703 5.83871990411094e-10 5.74177604306184e-10 0.999999999999998 5.83679210196103e-10 1.00000000000053
5200 10.8333333333333 0.999999999999701 5.8953663380851e-10 5.7974688063969e-10 0.999999999999997 5.89346024003378e-10 1.00000000000053
5250 10.9375 0.999999999999699 5.95209280067225e-10 5.85314460929576e-10 0.999999999999997 5.9501378263218e-10 1.00000000000054
5300 11.0416666666667 0.999999999999697 6.00886893785077e-10 5.90892984670355e-10 0.999999999999996 6.00680105613827e-10 1.00000000000054
5350 11.1458333333333 0.999999999999694 6.06560657368805e-10 5.96471603123944e-10 0.999999999999995 6.06350820752112e-10 1.00000000000055
5400 11.25 0.999999999999692 6.12228130854485e-10 6.02039048076648e-10 0.999999999999995 6.1201786815851e-10 1.00000000000055
5450 11.3541666666667 0.99999999999969 6.17887827254883e-10 6.07616280301589e-10 0.999999999999994 6.176832752986e-10 1.00000000000056
5500 11.4583333333333 0.999999999999688 6.23550610074862e-10 6.13200265340979e-10 0.999999999999994 6.23352332665371e-10 1.00000000000056
5550 11.5625 0.999999999999685 6.29230388936483e-10 6.18773593337792e-10 0.999999999999993 6.29022968137296e-10 1.00000000000057
5600 11.6666666666667 0.999999999999683 6.34899632443214e-10 6.24339482153594e-10 0.999999999999992 6.34684754602168e-10 1.00000000000057
5650 11.7708333333333 0.999999999999681 6.40553760580308e-10 6.2990871578596e-10 0.999999999999991 6.40341522019787e-10 1.00000000000058
5700 11.875 0.999999999999679 6.46217106936668e-10 6.35493083762859e-10 0.999999999999991 6.46018044096409e-10 1.00000000000058
5750 11.9791666666667 0.999999999999676 6.51887480836053e-10 6.41069838576549e-10 0.99999999999999 6.51702610685588e-10 1.00000000000059
5800 12.0833333333333 0.999999999999674 6.57565441004768e-10 6.46640939856116e-10 0.99999999999999 6.57369937807064e-10 1.00000000000059
5850 12.1875 0.999999999999672 6.63234845811239e-10 6.52216994248489e-10 0.999999999999989 6.63022182791536e-10 1.0000000000006
5900 12.2916666666667 0.99999999999967 6.68908912034786e-10 6.57791200579376e-10 0.999999999999989 6.68678875128434e-10 1.0000000000006
5950 12.3958333333333 0.999999999999667 6.74579652973288e-10 6.63372808623426e-10 0.999999999999988 6.74342921355649e-10 1.00000000000061
6000 12.5 0.999999999999665 6.80241101742656e-10 6.68955368505892e-10 0.999999999999987 6.80012706877422e-10 1.00000000000061
6050 12.6041666666667 0.999999999999663 6.85917279681974e-10 6.74516451450943e-10 0.999999999999987 6.85682674178336e-10 1.00000000000062
6100 12.7083333333333 0.999999999999661 6.91583078214343e-10 6.8007860809074e-10 0.999999999999986 6.91345334343961e-10 1.00000000000062
6150 12.8125 0.999999999999658 6.97244466033262e-10 6.8564850900232e-10 0.999999999999985 6.97014622424601e-10 1.00000000000063
6200 12.9166666666667 0.999999999999656 7.02909196804024e-10 6.91225087545561e-10 0.999999999999985 7.02689768401612e-10 1.00000000000063
6250 13.0208333333333 0.999999999999654 7.08585489349563e-10 6.96809763431417e-10 0.999999999999984 7.08364628020181e-10 1.00000000000064
6300 13.125 0.999999999999652 7.14257341432646e-10 7.02384026634512e-10 0.999999999999984 7.14032643844475e-10 1.00000000000064
6350 13.2291666666667 0.99999999999965 7.1992262209313e-10 7.07956011722734e-10 0.999999999999983 7.19694518093103e-10 1.00000000000065
6400 13.3333333333333 0.999999999999647 7.2559371835342e-10 7.13531183342173e-10 0.999999999999982 7.2535585012622e-10 1.00000000000065
6450 13.4375 0.999999999999645 7.31262178360359e-10 7.19106665234789e-10 0.999999999999982 7.31022870741916e-10 1.00000000000066
6500 13.5416666666667 0.999999999999643 7.36929327660055e-10 7.24690533362674e-10 0.999999999999981 7.36690529700449e-10 1.00000000000066
6550 13.6458333333333 0.999999999999641 7.42600612541406e-10 7.3026433132948e-10 0.99999999999998 7.42353136901159e-10 1.00000000000067
6600 13.75 0.999999999999638 7.48273997227147e-10 7.35836239428038e-10 0.99999999999998 7.48018705001743e-10 1.00000000000067
6650 13.8541666666667 0.999999999999636 7.53948617036485e-10 7.41409258673963e-10 0.99999999999998 7.53692285879708e-10 1.00000000000068
6700 13.9583333333333 0.999999999999634 7.59612760625957e-10 7.46980914796234e-10 0.999999999999979 7.59369232791561e-10 1.00000000000069
6750 14.0625 0.999999999999632 7.65271176110456e-10 7.52551940598963e-10 0.999999999999979 7.65030424207824e-10 1.00000000000069
6800 14.1666666666667 0.999999999999629 7.70930221169119e-10 7.58129421513333e-10 0.999999999999978 7.70682577865027e-10 1.0000000000007
6850 14.2708333333333 0.999999999999627 7.76598983329488e-10 7.63710186134796e-10 0.999999999999977 7.76346941609609e-10 1.0000000000007
6900 14.375 0.999999999999625 7.82271398044851e-10 7.69281621309518e-10 0.999999999999977 7.82019469039351e-10 1.0000000000007
6950 14.4791666666667 0.999999999999622 7.8794658735198e-10 7.74850178637493e-10 0.999999999999975 7.8768389356806e-10 1.00000000000071
7000 14.5833333333333 0.99999999999962 7.93615881966181e-10 7.80426854211869e-10 0.999999999999975 7.93350638356629e-10 1.00000000000071
7050 14.6875 0.999999999999618 7.99282068268098e-10 7.86009203211113e-10 0.999999999999974 7.99025238830948e-10 1.00000000000072
7100 14.7916666666667 0.999999999999616 8.04954455843131e-10 7.91584805235225e-10 0.999999999999974 8.04688159905846e-10 1.00000000000073
7150 14.8958333333333 0.999999999999614 8.10629276421421e-10 7.97154147020915e-10 0.999999999999974 8.1035316906512e-10 1.00000000000073
7200 15 0.999999999999612 8.16290955373768e-10 8.02726666022723e-10 0.999999999999973 8.16030414990163e-10 1.00000000000074
7250 15.1041666666667 0.99999999999961 8.21949252373949e-10 8.08307434157169e-10 0.999999999999972 8.21687369789603e-10 1.00000000000074
7300 15.2083333333333 0.999999999999607 8.27618814058127e-10 8.13876296364017e-10 0.999999999999972 8.27344920751931e-10 1.00000000000075
7350 15.3125 0.999999999999605 8.33292936567224e-10 8.19447352658339e-10 0.999999999999971 8.33017403850759e-10 1.00000000000075
7400 15.4166666666667 0.999999999999603 8.38961158151052e-10 8.25030442524169e-10 0.999999999999971 8.38686794510777e-10 1.00000000000076
7450 15.5208333333333 0.999999999999601 8.44626846186749e-10 8.30596700606029e-10 0.99999999999997 8.44357737797253e-10 1.00000000000076
7500 15.625 0.999999999999598 8.50294989981923e-10 8.36166298708281e-10 0.999999999999969 8.50031129952195e-10 1.00000000000077
7550 15.7291666666667 0.999999999999596 8.55967825309818e-10 8.41741604040725e-10 0.999999999999969 8.55685594864828e-10 1.00000000000077
7600 15.8333333333333 0.999999999999594 8.61638754984847e-10 8.47318160339045e-10 0.999999999999968 8.61348522925154e-10 1.00000000000078
7650 15.9375 0.999999999999591 8.67308855977815e-10 8.52895211841962e-10 0.999999999999968 8.67022761316393e-10 1.00000000000078
7700 16.0416666666667 0.999999999999589 8.7297963139017e-10 8.58475393907053e-10 0.999999999999967 8.72697600668807e-10 1.00000000000079
7750 16.1458333333333 0.999999999999587 8.78648944233841e-10 8.64046914508739e-10 0.999999999999966 8.78359519813137e-10 1.00000000000079
7800 16.25 0.999999999999585 8.8432187795725e-10 8.69612109313598e-10 0.999999999999965 8.84018686224242e-10 1.0000000000008
7850 16.3541666666667 0.999999999999583 8.8999021804636e-10 8.75190733469264e-10 0.999999999999965 8.89689198615811e-10 1.0000000000008
7900 16.4583333333333 0.999999999999581 8.95649724956454e-10 8.80771811163975e-10 0.999999999999964 8.95352971663126e-10 1.00000000000081
7950 16.5625 0.999999999999578 9.01315958537032e-10 8.86342803760302e-10 0.999999999999964 9.01021855427273e-10 1.00000000000081
8000 16.6666666666667 0.999999999999576 9.06986703320877e-10 8.91908256599002e-10 0.999999999999963 9.06694408172125e-10 1.00000000000082
8050 16.7708333333333 0.999999999999574 9.12661997336206e-10 8.97476112006813e-10 0.999999999999963 9.12358207810397e-10 1.00000000000082
8100 16.875 0.999999999999572 9.18333224609182e-10 9.03057694853689e-10 0.999999999999962 9.18022514503785e-10 1.00000000000083
8150 16.9791666666667 0.999999999999569 9.23996872008934e-10 9.08646213439371e-10 0.999999999999962 9.23693580790064e-10 1.00000000000083
8200 17.0833333333333 0.999999999999567 9.2966245004014e-10 9.14221250842671e-10 0.999999999999961 9.29361335048612e-10 1.00000000000084
8250 17.1875 0.999999999999565 9.35329671639032e-10 9.19787610850777e-10 0.99999999999996 9.35014552879033e-10 1.00000000000084
8300 17.2916666666667 0.999999999999563 9.41001726065521e-10 9.25365019479453e-10 0.99999999999996 9.40680252109774e-10 1.00000000000085
8350 17.3958333333333 0.99999999999956 9.46660650568905e-10 9.30943843141252e-10 0.999999999999959 9.4636631168502e-10 1.00000000000085
8400 17.5 0.999999999999559 9.52333827276823e-10 9.36517201874776e-10 0.999999999999959 9.52034415776328e-10 1.00000000000086
8450 17.6041666666667 0.999999999999556 9.58007030064006e-10 9.42083357892414e-10 0.999999999999958 9.5769040228581e-10 1.00000000000086
8500 17.7083333333333 0.999999999999554 9.63667423084768e-10 9.47656694175711e-10 0.999999999999957 9.63348330340483e-10 1.00000000000087
8550 17.8125 0.999999999999552 9.693418133523e-10 9.53227371709182e-10 0.999999999999957 9.69012976992053e-10 1.00000000000087
8600 17.9166666666667 0.99999999999955 9.75015413873718e-10 9.58804010350279e-10 0.999999999999957 9.74692803383665e-10 1.00000000000088
8650 18.0208333333333 0.999999999999547 9.8068109530604e-10 9.64381280108455e-10 0.999999999999955 9.80365168017337e-10 1.00000000000088
8700 18.125 0.999999999999545 9.86343292359143e-10 9.69952055478923e-10 0.999999999999955 9.86021309351454e-10 1.00000000000089
8750 18.2291666666667 0.999999999999543 9.92013629175236e-10 9.75536035229006e-10 0.999999999999954 9.91680247702801e-10 1.00000000000089
8800 18.3333333333333 0.99999999999954 9.97702602154953e-10 9.81111842230851e-10 0.999999999999954 9.97353837099072e-10 1.0000000000009
8850 18.4375 0.999999999999539 1.00337835546572e-09 9.86683518684145e-10 0.999999999999953 1.00302271731773e-09 1.0000000000009
8900 18.5416666666667 0.999999999999536 1.0090304291073e-09 9.92252612801908e-10 0.999999999999953 1.00868832843978e-09 1.00000000000091
8950 18.6458333333333 0.999999999999534 1.01468552600511e-09 9.97826040240171e-10 0.999999999999952 1.01435851488789e-09 1.00000000000091
9000 18.75 0.999999999999531 1.02036183308756e-09 1.00340452881792e-09 0.999999999999951 1.02001989860314e-09 1.00000000000092
9050 18.8541666666667 0.99999999999953 1.02603866778185e-09 1.00897983957228e-09 0.999999999999951 1.0256886126587e-09 1.00000000000092
9100 18.9583333333333 0.999999999999527 1.03171064091925e-09 1.01454713240012e-09 0.99999999999995 1.03135926432077e-09 1.00000000000093
9150 19.0625 0.999999999999524 1.03736955288832e-09 1.02012633114705e-09 0.99999999999995 1.03701934007719e-09 1.00000000000093
9200 19.1666666666667 0.999999999999522 1.04302596036678e-09 1.02570122856461e-09 0.999999999999949 1.04268886323731e-09 1.00000000000094
9250 19.2708333333333 0.99999999999952 1.04869267360815e-09 1.03127021540811e-09 0.999999999999948 1.04836062622279e-09 1.00000000000094
9300 19.375 0.999999999999519 1.054374463e-09 1.03684335454911e-09 0.999999999999948 1.0540252812299e-09 1.00000000000095
9350 19.4791666666667 0.999999999999516 1.06004960572634e-09 1.04242381667244e-09 0.999999999999947 1.05969234056435e-09 1.00000000000095
9400 19.5833333333333 0.999999999999514 1.06571366307558e-09 1.04800033973628e-09 0.999999999999946 1.06535616780211e-09 1.00000000000096
9450 19.6875 0.999999999999512 1.07137869004422e-09 1.05357021593012e-09 0.999999999999946 1.07101949565593e-09 1.00000000000097
9500 19.7916666666667 0.99999999999951 1.07704781972667e-09 1.05915004584302e-09 0.999999999999946 1.07668815126828e-09 1.00000000000097
9550 19.8958333333333 0.999999999999507 1.08272059706028e-09 1.06472723456757e-09 0.999999999999945 1.08235594032782e-09 1.00000000000097
9600 20 0.999999999999505 1.08838169428116e-09 1.07029575948919e-09 0.999999999999944 1.08801690235752e-09 1.00000000000098
9650 20.1041666666667 0.999999999999503 1.09403780490994e-09 1.07587899624119e-09 0.999999999999944 1.09368238179458e-09 1.00000000000098
9700 20.2083333333333 0.999999999999501 1.09971971032531e-09 1.08145423465571e-09 0.999999999999943 1.09935820534512e-09 1.00000000000099
9750 20.3125 0.999999999999499 1.1054020766262e-09 1.0870249112149e-09 0.999999999999943 1.10502815905155e-09 1.00000000000099
9800 20.4166666666667 0.999999999999496 1.11105698237537e-09 1.09259629392891e-09 0.999999999999942 1.11069483575121e-09 1.000000000001
9850 20.5208333333333 0.999999999999494 1.1167171196772e-09 1.09817044910358e-09 0.999999999999942 1.11636497531743e-09 1.00000000000101
9900 20.625 0.999999999999492 1.12239156685634e-09 1.10374416807077e-09 0.999999999999941 1.12202452365431e-09 1.00000000000101
9950 20.7291666666667 0.99999999999949 1.12806875513955e-09 1.10931389950402e-09 0.99999999999994 1.12768573064823e-09 1.00000000000102
10000 20.8333333333333 0.999999999999488 1.1337422600746e-09 1.11489811869492e-09 0.99999999999994 1.13335320299676e-09 1.00000000000102
10050 20.9375 0.999999999999486 1.13940677467027e-09 1.12048084167553e-09 0.999999999999939 1.13902063958191e-09 1.00000000000103
10100 21.0416666666667 0.999999999999483 1.14507410549366e-09 1.12604724244117e-09 0.999999999999939 1.14468697409095e-09 1.00000000000103
10150 21.1458333333333 0.999999999999481 1.1507395870917e-09 1.13161673111727e-09 0.999999999999938 1.15035271927755e-09 1.00000000000104
10200 21.25 0.999999999999478 1.15641235164612e-09 1.13718678633324e-09 0.999999999999937 1.15602415718125e-09 1.00000000000104
10250 21.3541666666667 0.999999999999476 1.16208109732069e-09 1.14276624872034e-09 0.999999999999937 1.16169171641251e-09 1.00000000000105
10300 21.4583333333333 0.999999999999474 1.16774479853786e-09 1.14834132776506e-09 0.999999999999936 1.16736601881089e-09 1.00000000000105
10350 21.5625 0.999999999999472 1.17340803040684e-09 1.15389686942221e-09 0.999999999999935 1.17304323226704e-09 1.00000000000106
10400 21.6666666666667 0.99999999999947 1.17907308623105e-09 1.15946995468648e-09 0.999999999999935 1.17870127526787e-09 1.00000000000106
10450 21.7708333333333 0.999999999999467 1.18475355897928e-09 1.16505241054505e-09 0.999999999999934 1.18436248443563e-09 1.00000000000107
10500 21.875 0.999999999999465 1.19043050818248e-09 1.17063660501575e-09 0.999999999999934 1.19003114640148e-09 1.00000000000107
10550 21.9791666666667 0.999999999999463 1.1960997998613e-09 1.17621915881054e-09 0.999999999999933 1.19568522472092e-09 1.00000000000108
10600 22.0833333333333 0.999999999999461 1.20176453344644e-09 1.181796331202e-09 0.999999999999933 1.20134209102593e-09 1.00000000000108
10650 22.1875 0.999999999999458 1.20742810278998e-09 1.18736425672927e-09 0.999999999999932 1.20701894664878e-09 1.00000000000109
10700 22.2916666666667 0.999999999999456 1.21309622819962e-09 1.1929338745972e-09 0.999999999999931 1.21269473180922e-09 1.00000000000109
10750 22.3958333333333 0.999999999999454 1.21876636804563e-09 1.19850327659979e-09 0.999999999999931 1.21836080345464e-09 1.0000000000011
10800 22.5 0.999999999999452 1.2244375861335e-09 1.2040798123196e-09 0.99999999999993 1.22403382706016e-09 1.0000000000011
10850 22.6041666666667 0.99999999999945 1.23009531880707e-09 1.20965561976582e-09 0.99999999999993 1.2297039443042e-09 1.00000000000111
10900 22.7083333333333 0.999999999999447 1.23575099904455e-09 1.21523208495767e-09 0.999999999999929 1.23535803783422e-09 1.00000000000111
10950 22.8125 0.999999999999445 1.24142685824321e-09 1.22081365743251e-09 0.999999999999928 1.24101736335546e-09 1.00000000000112
11000 22.9166666666667 0.999999999999443 1.24710928652514e-09 1.22639594455146e-09 0.999999999999928 1.24668459907289e-09 1.00000000000112
11050 23.0208333333333 0.999999999999441 1.25278799607316e-09 1.23196249904981e-09 0.999999999999927 1.25234883054209e-09 1.00000000000113
11100 23.125 0.999999999999438 1.25845109840044e-09 1.23752986669127e-09 0.999999999999926 1.25801584156487e-09 1.00000000000113
11150 23.2291666666667 0.999999999999436 1.26411038279104e-09 1.24310315638056e-09 0.999999999999926 1.26368639622179e-09 1.00000000000114
11200 23.3333333333333 0.999999999999434 1.26978072445051e-09 1.24866874255685e-09 0.999999999999925 1.26935710136634e-09 1.00000000000114
11250 23.4375 0.999999999999432 1.27545351902305e-09 1.25424432339903e-09 0.999999999999925 1.27502565931234e-09 1.00000000000115
11300 23.5416666666667 0.999999999999429 1.28111819294516e-09 1.25982199641754e-09 0.999999999999924 1.28069108132097e-09 1.00000000000115
11350 23.6458333333333 0.999999999999427 1.28678579639315e-09 1.2654017754932e-09 0.999999999999923 1.28635581042866e-09 1.00000000000116
11400 23.75 0.999999999999425 1.29246304261929e-09 1.27098364120696e-09 0.999999999999923 1.29202480243235e-09 1.00000000000116
11450 23.8541666666667 0.999999999999423 1.29813929565264e-09 1.2765571397379e-09 0.999999999999923 1.29769681982222e-09 1.00000000000117
11500 23.9583333333333 0.99999999999942 1.3037938391724e-09 1.28212966992902e-09 0.999999999999922 1.3033613428343e-09 1.00000000000117
11550 24.0625 0.999999999999418 1.30945454685249e-09 1.28770194099093e-09 0.999999999999921 1.30901778738279e-09 1.00000000000118
11600 24.1666666666667 0.999999999999416 1.31512155538619e-09 1.29327905526982e-09 0.999999999999921 1.31469102251951e-09 1.00000000000118
11650 24.2708333333333 0.999999999999414 1.3208006498077e-09 1.29885345883788e-09 0.999999999999921 1.32036581256771e-09 1.00000000000119
11700 24.375 0.999999999999412 1.32647548370382e-09 1.30441922713148e-09 0.99999999999992 1.32602699651949e-09 1.00000000000119
11750 24.4791666666667 0.999999999999409 1.3321346509393e-09 1.30998828985735e-09 0.999999999999919 1.33169364336438e-09 1.0000000000012
11800 24.5833333333333 0.999999999999407 1.33780163402389e-09 1.31556568585411e-09 0.999999999999919 1.3373579625858e-09 1.0000000000012
11850 24.6875 0.999999999999405 1.34347490686438e-09 1.32114904182549e-09 0.999999999999918 1.34302209700608e-09 1.00000000000121
11900 24.7916666666667 0.999999999999403 1.34915024433848e-09 1.32673454902796e-09 0.999999999999917 1.34868491201367e-09 1.00000000000121
11950 24.8958333333333 0.9999999999994 1.35481960794219e-09 1.33230659618703e-09 0.999999999999916 1.35434820317403e-09 1.00000000000122
12000 25 0.999999999999399 1.36047770502791e-09 1.33787773969798e-09 0.999999999999916 1.36001976312473e-09 1.00000000000122
12050 25.1041666666667 0.999999999999396 1.36613735771207e-09 1.34344782848337e-09 0.999999999999915 1.36568873321405e-09 1.00000000000123
12100 25.2083333333333 0.999999999999394 1.37181171777627e-09 1.34901296025827e-09 0.999999999999915 1.37136416415703e-09 1.00000000000123
12150 25.3125 0.999999999999392 1.37748900870339e-09 1.35459447309565e-09 0.999999999999914 1.37703718148362e-09 1.00000000000124
12200 25.4166666666667 0.99999999999939 1.38315498368561e-09 1.36017146665272e-09 0.999999999999914 1.38269950151349e-09 1.00000000000124
12250 25.5208333333333 0.999999999999387 1.38882246321481e-09 1.36573890353883e-09 0.999999999999913 1.38835464549381e-09 1.00000000000125
12300 25.625 0.999999999999385 1.39449104023575e-09 1.37130762297301e-09 0.999999999999913 1.39401700437556e-09 1.00000000000125
12350 25.7291666666667 0.999999999999383 1.40015571410448e-09 1.3768907563272e-09 0.999999999999912 1.39969348513794e-09 1.00000000000126
12400 25.8333333333333 0.999999999999381 1.40582807968819e-09 1.38248016857187e-09 0.999999999999912 1.40536523273643e-09 1.00000000000126
12450 25.9375 0.999999999999379 1.41150268927888e-09 1.38804554260477e-09 0.99999999999991 1.4110279737401e-09 1.00000000000127
12500 26.0416666666667 0.999999999999376 1.41716819705052e-09 1.39361611733835e-09 0.99999999999991 1.41669157976265e-09 1.00000000000127
12550 26.1458333333333 0.999999999999374 1.42282872346734e-09 1.39918697736607e-09 0.99999999999991 1.42236146371937e-09 1.00000000000128
12600 26.25 0.999999999999372 1.42849923615437e-09 1.40475037577868e-09 0.999999999999909 1.42804499616329e-09 1.00000000000128
12650 26.3541666666667 0.999999999999369 1.43416090424909e-09 1.41032683603937e-09 0.999999999999908 1.43370662539036e-09 1.00000000000129
12700 26.4583333333333 0.999999999999368 1.43983812652397e-09 1.41590728776899e-09 0.999999999999908 1.43936322881033e-09 1.00000000000129
12750 26.5625 0.999999999999365 1.44552172977562e-09 1.42148216698948e-09 0.999999999999907 1.44502847048358e-09 1.0000000000013
12800 26.6666666666667 0.999999999999363 1.45118991544266e-09 1.42706590668442e-09 0.999999999999906 1.45068871741449e-09 1.00000000000131
12850 26.7708333333333 0.999999999999361 1.45685416863343e-09 1.43264293593741e-09 0.999999999999906 1.45634935225119e-09 1.00000000000131
12900 26.875 0.999999999999358 1.46251691433102e-09 1.43821338909454e-09 0.999999999999905 1.4620160212625e-09 1.00000000000132
12950 26.9791666666667 0.999999999999356 1.4681918910495e-09 1.44378450547513e-09 0.999999999999904 1.46769236063287e-09 1.00000000000132
13000 27.0833333333333 0.999999999999354 1.47386232937656e-09 1.44935561988792e-09 0.999999999999904 1.47336471099677e-09 1.00000000000132
13050 27.1875 0.999999999999352 1.47952475800324e-09 1.45492940451167e-09 0.999999999999903 1.47902444070276e-09 1.00000000000133
13100 27.2916666666667 0.99999999999935 1.48519403159228e-09 1.46050390950752e-09 0.999999999999903 1.48469494294755e-09 1.00000000000134
13150 27.3958333333333 0.999999999999347 1.49085766353902e-09 1.46608471284507e-09 0.999999999999902 1.49036663311094e-09 1.00000000000134
13200 27.5 0.999999999999345 1.49652282955399e-09 1.47166042582335e-09 0.999999999999901 1.49602464176576e-09 1.00000000000134
13250 27.6041666666667 0.999999999999343 1.50219401385738e-09 1.47723937617672e-09 0.999999999999901 1.50169009054093e-09 1.00000000000135
13300 27.7083333333333 0.99999999999934 1.50786482373729e-09 1.48281959012504e-09 0.999999999999901 1.50735635308459e-09 1.00000000000136
13350 27.8125 0.999999999999338 1.51354282115716e-09 1.48839113406372e-09 0.9999999999999 1.51302218589117e-09 1.00000000000136
13400 27.9166666666667 0.999999999999336 1.519213134452e-09 1.49395636020018e-09 0.999999999999899 1.51868470591175e-09 1.00000000000137
13450 28.0208333333333 0.999999999999334 1.52487875115496e-09 1.49952418010172e-09 0.999999999999899 1.52435073051227e-09 1.00000000000137
13500 28.125 0.999999999999332 1.53054305855698e-09 1.50509700522812e-09 0.999999999999898 1.53001878176327e-09 1.00000000000138
13550 28.2291666666667 0.99999999999933 1.53620065137629e-09 1.51067348933578e-09 0.999999999999897 1.53568906261844e-09 1.00000000000138
13600 28.3333333333333 0.999999999999327 1.54186915909765e-09 1.51624198001523e-09 0.999999999999897 1.54136337533993e-09 1.00000000000139
13650 28.4375 0.999999999999325 1.54753742563484e-09 1.52181214926956e-09 0.999999999999896 1.54702589881634e-09 1.00000000000139
13700 28.5416666666667 0.999999999999323 1.5532073103856e-09 1.52739255748767e-09 0.999999999999896 1.55268399878395e-09 1.0000000000014
13750 28.6458333333333 0.999999999999321 1.55887677468394e-09 1.53297802458164e-09 0.999999999999895 1.55836092806994e-09 1.0000000000014
13800 28.75 0.999999999999318 1.56455060116188e-09 1.53855139319303e-09 0.999999999999894 1.56403104607782e-09 1.00000000000141
13850 28.8541666666667 0.999999999999316 1.57022473861986e-09 1.544123670053e-09 0.999999999999894 1.56969832314687e-09 1.00000000000141
13900 28.9583333333333 0.999999999999314 1.57588661512129e-09 1.54969619937857e-09 0.999999999999893 1.57535861658891e-09 1.00000000000142
13950 29.0625 0.999999999999312 1.58155378247923e-09 1.55526976548662e-09 0.999999999999893 1.58101286957466e-09 1.00000000000142
14000 29.1666666666667 0.99999999999931 1.58722340627937e-09 1.56084347348507e-09 0.999999999999892 1.58667546902106e-09 1.00000000000143
14050 29.2708333333333 0.999999999999308 1.5928970826749e-09 1.56642997841454e-09 0.999999999999892 1.59236110947149e-09 1.00000000000143
14100 29.375 0.999999999999306 1.59856876065991e-09 1.57200638186733e-09 0.999999999999891 1.59803715803062e-09 1.00000000000144
14150 29.4791666666667 0.999999999999303 1.60423614733796e-09 1.57757491584169e-09 0.99999999999989 1.60369281041425e-09 1.00000000000144
14200 29.5833333333333 0.999999999999301 1.60990304295443e-09 1.58314853281483e-09 0.999999999999889 1.60935749073398e-09 1.00000000000145
14250 29.6875 0.999999999999298 1.61557000824337e-09 1.5887250335991e-09 0.999999999999889 1.61503090850597e-09 1.00000000000145
14300 29.7916666666667 0.999999999999297 1.62123672214818e-09 1.59430035866087e-09 0.999999999999889 1.62070245510859e-09 1.00000000000146
14350 29.8958333333333 0.999999999999295 1.62689802868935e-09 1.59986829431775e-09 0.999999999999888 1.62636549313857e-09 1.00000000000146
14400 30 0.999999999999292 1.63257072047138e-09 1.60543976152326e-09 0.999999999999887 1.63202154773263e-09 1.00000000000147
14450 30.1041666666667 0.99999999999929 1.63824405265123e-09 1.61101412061931e-09 0.999999999999887 1.63768911367691e-09 1.00000000000147
14500 30.2083333333333 0.999999999999288 1.64392125619637e-09 1.61658625940584e-09 0.999999999999886 1.64336830799192e-09 1.00000000000148
14550 30.3125 0.999999999999286 1.64958900639436e-09 1.62216438912895e-09 0.999999999999886 1.64903524820035e-09 1.00000000000148
14600 30.4166666666667 0.999999999999284 1.65524565595015e-09 1.62774324742789e-09 0.999999999999885 1.65469118127605e-09 1.00000000000149
14650 30.5208333333333 0.999999999999281 1.66091879445045e-09 1.63331662806474e-09 0.999999999999885 1.66035551020289e-09 1.00000000000149
14700 30.625 0.999999999999279 1.66659409872416e-09 1.63888594093009e-09 0.999999999999884 1.66603175218749e-09 1.0000000000015
14750 30.7291666666667 0.999999999999276 1.67225696551214e-09 1.64446061279427e-09 0.999999999999883 1.67170545718975e-09 1.0000000000015
14800 30.8333333333333 0.999999999999274 1.67791288727421e-09 1.65003821113082e-09 0.999999999999883 1.67736663678336e-09 1.00000000000151
14850 30.9375 0.999999999999272 1.68358440665353e-09 1.65560579577883e-09 0.999999999999882 1.68303343608762e-09 1.00000000000151
14900 31.0416666666667 0.99999999999927 1.68925973786962e-09 1.66118263054664e-09 0.999999999999882 1.68869989413056e-09 1.00000000000152
14950 31.1458333333333 0.999999999999268 1.69493679429903e-09 1.6667623008589e-09 0.999999999999881 1.6943618413521e-09 1.00000000000152
15000 31.25 0.999999999999265 1.70060672584143e-09 1.67233842439041e-09 0.999999999999881 1.70003297184307e-09 1.00000000000153
15050 31.3541666666667 0.999999999999264 1.70626643887048e-09 1.67791820280831e-09 0.99999999999988 1.70570103549482e-09 1.00000000000153
15100 31.4583333333333 0.999999999999261 1.71193174656257e-09 1.68349359738654e-09 0.999999999999879 1.71135848304635e-09 1.00000000000154
15150 31.5625 0.999999999999259 1.71760645899039e-09 1.68906724236307e-09 0.999999999999878 1.71702030327061e-09 1.00000000000154
15200 31.6666666666667 0.999999999999256 1.72328145309138e-09 1.69464055931234e-09 0.999999999999878 1.7226931674814e-09 1.00000000000155
15250 31.7708333333333 0.999999999999254 1.72894885796316e-09 1.70021327347428e-09 0.999999999999877 1.72836148745005e-09 1.00000000000155
15300 31.875 0.999999999999252 1.73460784411638e-09 1.70579071335508e-09 0.999999999999877 1.73402304271856e-09 1.00000000000156
15350 31.9791666666667 0.99999999999925 1.74027221681811e-09 1.71135249872818e-09 0.999999999999876 1.7396876742815e-09 1.00000000000156
15400 32.0833333333333 0.999999999999248 1.74595077195617e-09 1.7169260650263e-09 0.999999999999875 1.74536107412109e-09 1.00000000000157
15450 32.1875 0.999999999999246 1.75162623718538e-09 1.72250700461626e-09 0.999999999999875 1.75103399065128e-09 1.00000000000157
15500 32.2916666666667 0.999999999999243 1.75728300365457e-09 1.72807828674751e-09 0.999999999999874 1.75670074598774e-09 1.00000000000158
15550 32.3958333333333 0.999999999999241 1.7629437796979e-09 1.73365635341735e-09 0.999999999999874 1.76235636662091e-09 1.00000000000158
15600 32.5 0.999999999999239 1.76862092214794e-09 1.73922843043018e-09 0.999999999999874 1.7680195111853e-09 1.00000000000159
15650 32.6041666666667 0.999999999999237 1.77429520471525e-09 1.7448112034797e-09 0.999999999999872 1.77368899449176e-09 1.00000000000159
15700 32.7083333333333 0.999999999999235 1.77996612911164e-09 1.75038660545029e-09 0.999999999999872 1.77935191588639e-09 1.0000000000016
15750 32.8125 0.999999999999233 1.78563622977011e-09 1.75594864227634e-09 0.999999999999872 1.78503265252204e-09 1.0000000000016
15800 32.9166666666667 0.999999999999231 1.79130359550489e-09 1.76152376847449e-09 0.999999999999871 1.79070181099351e-09 1.00000000000161
15850 33.0208333333333 0.999999999999228 1.79697434223029e-09 1.7671023537198e-09 0.99999999999987 1.79635864709859e-09 1.00000000000162
15900 33.125 0.999999999999226 1.80263333069845e-09 1.77267539710636e-09 0.99999999999987 1.80202358559527e-09 1.00000000000162
15950 33.2291666666667 0.999999999999224 1.80830127345882e-09 1.77824769215444e-09 0.999999999999869 1.80768570070685e-09 1.00000000000162
16000 33.3333333333333 0.999999999999221 1.81397048260123e-09 1.78382185389813e-09 0.999999999999869 1.81334981984928e-09 1.00000000000163
16050 33.4375 0.999999999999219 1.81963102888152e-09 1.78939175883599e-09 0.999999999999868 1.81901948798425e-09 1.00000000000163
16100 33.5416666666667 0.999999999999217 1.82530245329631e-09 1.79496567203369e-09 0.999999999999868 1.82469108121472e-09 1.00000000000164
16150 33.6458333333333 0.999999999999215 1.83097756662946e-09 1.80054688146123e-09 0.999999999999867 1.83036011581411e-09 1.00000000000165
16200 33.75 0.999999999999213 1.83665026862484e-09 1.80613076122892e-09 0.999999999999866 1.83603112372394e-09 1.00000000000165
16250 33.8541666666667 0.999999999999211 1.84231895367095e-09 1.81170038149815e-09 0.999999999999866 1.84169825614683e-09 1.00000000000166
16300 33.9583333333333 0.999999999999208 1.84798260954302e-09 1.81727056611883e-09 0.999999999999865 1.84735574257156e-09 1.00000000000166
16350 34.0625 0.999999999999207 1.85365482963932e-09 1.82284703018583e-09 0.999999999999864 1.85302492361516e-09 1.00000000000167
16400 34.1666666666667 0.999999999999204 1.8593246684607e-09 1.82842988633926e-09 0.999999999999864 1.85870179715089e-09 1.00000000000167
16450 34.2708333333333 0.999999999999202 1.86498628108882e-09 1.83400189917423e-09 0.999999999999863 1.86436316977167e-09 1.00000000000168
16500 34.375 0.999999999999199 1.87064787463173e-09 1.83957105367988e-09 0.999999999999863 1.87002153965941e-09 1.00000000000168
16550 34.4791666666667 0.999999999999197 1.87632121751385e-09 1.84515087368883e-09 0.999999999999862 1.8756884499536e-09 1.00000000000169
16600 34.5833333333333 0.999999999999195 1.88199809936245e-09 1.85071947599552e-09 0.999999999999861 1.88136162589951e-09 1.00000000000169
16650 34.6875 0.999999999999193 1.88766750272729e-09 1.85628756129121e-09 0.999999999999861 1.88703756114213e-09 1.0000000000017
16700 34.7916666666667 0.99999999999919 1.89333304423805e-09 1.86186664248222e-09 0.99999999999986 1.8927083701005e-09 1.0000000000017
16750 34.8958333333333 0.999999999999188 1.89900088016299e-09 1.86743727588068e-09 0.99999999999986 1.89837587625784e-09 1.00000000000171
16800 35 0.999999999999186 1.90466665841707e-09 1.8730013028087e-09 0.999999999999859 1.90403057549144e-09 1.00000000000171
16850 35.1041666666667 0.999999999999183 1.91034797878639e-09 1.87858195798568e-09 0.999999999999858 1.90968569464423e-09 1.00000000000172
16900 35.2083333333333 0.999999999999182 1.91603054162695e-09 1.88416411984634e-09 0.999999999999858 1.91535937658618e-09 1.00000000000172
16950 35.3125 0.999999999999179 1.9216862502088e-09 1.88973346873858e-09 0.999999999999857 1.92102445510923e-09 1.00000000000173
17000 35.4166666666667 0.999999999999177 1.92733483732181e-09 1.89531110156208e-09 0.999999999999857 1.92669148264213e-09 1.00000000000173
17050 35.5208333333333 0.999999999999175 1.93299961485024e-09 1.90088527734444e-09 0.999999999999856 1.93236273680882e-09 1.00000000000174
17100 35.625 0.999999999999173 1.93868946702515e-09 1.90645702530186e-09 0.999999999999855 1.93803275539448e-09 1.00000000000174
17150 35.7291666666667 0.99999999999917 1.94436707935002e-09 1.91203325563928e-09 0.999999999999855 1.94370135627916e-09 1.00000000000175
17200 35.8333333333333 0.999999999999168 1.95001625683609e-09 1.91761248916063e-09 0.999999999999854 1.94936964856513e-09 1.00000000000175
17250 35.9375 0.999999999999166 1.95567855838996e-09 1.92318321346264e-09 0.999999999999854 1.95503161395097e-09 1.00000000000176
17300 36.0416666666667 0.999999999999164 1.9613561147607e-09 1.9287580168831e-09 0.999999999999853 1.96069074831482e-09 1.00000000000176
17350 36.1458333333333 0.999999999999161 1.96702757263532e-09 1.93433575143282e-09 0.999999999999852 1.96636097429804e-09 1.00000000000177
17400 36.25 0.999999999999159 1.97270224751974e-09 1.93991562294556e-09 0.999999999999852 1.97202461149903e-09 1.00000000000177
17450 36.3541666666667 0.999999999999157 1.97837023749056e-09 1.94549744048186e-09 0.999999999999851 1.97768375854299e-09 1.00000000000178
17500 36.4583333333333 0.999999999999155 1.98403963739466e-09 1.9510709307852e-09 0.999999999999851 1.98336384468145e-09 1.00000000000178
17550 36.5625 0.999999999999153 1.98970081866804e-09 1.95664747027434e-09 0.99999999999985 1.98903932743433e-09 1.00000000000179
17600 36.6666666666667 0.99999999999915 1.9953619494245e-09 1.96221513831556e-09 0.999999999999849 1.99470257558005e-09 1.00000000000179
17650 36.7708333333333 0.999999999999149 2.00102783035079e-09 1.96778479519331e-09 0.999999999999849 2.00036383248815e-09 1.0000000000018
17700 36.875 0.999999999999146 2.00669427270671e-09 1.973353113996e-09 0.999999999999848 2.00602742417037e-09 1.0000000000018
17750 36.9791666666667 0.999999999999144 2.01236636063369e-09 1.97892602497762e-09 0.999999999999848 2.01169416021927e-09 1.00000000000181
17800 37.0833333333333 0.999999999999142 2.0180443848883e-09 1.98451183876594e-09 0.999999999999847 2.01736169469657e-09 1.00000000000181
17850 37.1875 0.999999999999139 2.02371342895892e-09 1.99008531103062e-09 0.999999999999846 2.02303208283111e-09 1.00000000000182
17900 37.2916666666667 0.999999999999137 2.02937630575874e-09 1.99565259221935e-09 0.999999999999846 2.0286974814461e-09 1.00000000000182
17950 37.3958333333333 0.999999999999135 2.03504366134739e-09 2.00122759155459e-09 0.999999999999845 2.0343562844388e-09 1.00000000000183
18000 37.5 0.999999999999133 2.04072182747868e-09 2.00680475878227e-09 0.999999999999845 2.04002721515404e-09 1.00000000000183
18050 37.6041666666667 0.999999999999131 2.04639460853306e-09 2.01238824739731e-09 0.999999999999844 2.04569539309331e-09 1.00000000000184
18100 37.7083333333333 0.999999999999128 2.0520584936332e-09 2.01796189230356e-09 0.999999999999844 2.05136373143329e-09 1.00000000000184
18150 37.8125 0.999999999999126 2.05772273307043e-09 2.02351982883987e-09 0.999999999999843 2.05702885280688e-09 1.00000000000185
18200 37.9166666666667 0.999999999999124 2.06339403097296e-09 2.02908572199463e-09 0.999999999999842 2.06269844186675e-09 1.00000000000185
18250 38.0208333333333 0.999999999999122 2.06906398849446e-09 2.03466811900324e-09 0.999999999999841 2.06837387625512e-09 1.00000000000186
18300 38.125 0.999999999999119 2.07472648869185e-09 2.04025292430138e-09 0.999999999999841 2.07403677768233e-09 1.00000000000186
18350 38.2291666666667 0.999999999999117 2.0803927594948e-09 2.04582725307232e-09 0.999999999999841 2.07970215148412e-09 1.00000000000187
18400 38.3333333333333 0.999999999999115 2.08606046448895e-09 2.05139650403811e-09 0.99999999999984 2.08536681115137e-09 1.00000000000187
18450 38.4375 0.999999999999112 2.09173235671359e-09 2.05697299983854e-09 0.99999999999984 2.09103519610967e-09 1.00000000000188
18500 38.5416666666667 0.99999999999911 2.09740852856351e-09 2.0625456525059e-09 0.999999999999839 2.09670416989791e-09 1.00000000000188
18550 38.6458333333333 0.999999999999109 2.10308088477225e-09 2.06812189407218e-09 0.999999999999839 2.1023685369878e-09 1.00000000000189
18600 38.75 0.999999999999106 2.10875115031057e-09 2.07369047411851e-09 0.999999999999838 2.10802430643428e-09 1.0000000000019
18650 38.8541666666667 0.999999999999104 2.11441074802035e-09 2.07926275018638e-09 0.999999999999837 2.11369138203258e-09 1.0000000000019
18700 38.9583333333333 0.999999999999102 2.12006943404106e-09 2.08484400418409e-09 0.999999999999837 2.11936472748375e-09 1.00000000000191
18750 39.0625 0.999999999999099 2.12574008223324e-09 2.09042239827241e-09 0.999999999999836 2.12503247848282e-09 1.00000000000191
18800 39.1666666666667 0.999999999999098 2.13142348967455e-09 2.09599777614332e-09 0.999999999999835 2.13069635334423e-09 1.00000000000192
18850 39.2708333333333 0.999999999999096 2.13709960694675e-09 2.10157815966368e-09 0.999999999999835 2.13636910971427e-09 1.00000000000192
18900 39.375 0.999999999999093 2.14275636876014e-09 2.10715593089069e-09 0.999999999999835 2.14203906021609e-09 1.00000000000193
18950 39.4791666666667 0.999999999999091 2.14841289479365e-09 2.11272502671936e-09 0.999999999999834 2.14769658686609e-09 1.00000000000193
19000 39.5833333333333 0.999999999999088 2.15407987131441e-09 2.11828776882094e-09 0.999999999999833 2.1533676408664e-09 1.00000000000194
19050 39.6875 0.999999999999086 2.15975320364405e-09 2.1238573442152e-09 0.999999999999832 2.15904309461429e-09 1.00000000000194
19100 39.7916666666667 0.999999999999084 2.16542901275294e-09 2.1294318197013e-09 0.999999999999831 2.16469647950978e-09 1.00000000000195
19150 39.8958333333333 0.999999999999082 2.17109753528001e-09 2.13500967838495e-09 0.999999999999831 2.17036103576294e-09 1.00000000000195
19200 40 0.99999999999908 2.17676861725489e-09 2.14058944748402e-09 0.999999999999831 2.17603155967823e-09 1.00000000000196
19250 40.1041666666667 0.999999999999078 2.18244119437138e-09 2.14616798935372e-09 0.99999999999983 2.18169335296963e-09 1.00000000000196
19300 40.2083333333333 0.999999999999076 2.18811138374057e-09 2.15173919997183e-09 0.999999999999829 2.18735630497012e-09 1.00000000000197
19350 40.3125 0.999999999999073 2.19378066815116e-09 2.15731348702325e-09 0.999999999999829 2.19302126479722e-09 1.00000000000197
19400 40.4166666666667 0.999999999999071 2.19944912019761e-09 2.16288863249291e-09 0.999999999999828 2.19869416183967e-09 1.00000000000198
19450 40.5208333333333 0.999999999999069 2.20511950083543e-09 2.16845620171316e-09 0.999999999999828 2.20436712862448e-09 1.00000000000198
19500 40.625 0.999999999999066 2.21078618434574e-09 2.1740257889021e-09 0.999999999999827 2.21003865455895e-09 1.00000000000199
19550 40.7291666666667 0.999999999999064 2.21644496870673e-09 2.17960015243397e-09 0.999999999999826 2.21570621823442e-09 1.00000000000199
19600 40.8333333333333 0.999999999999062 2.2221065392703e-09 2.18518118616005e-09 0.999999999999826 2.2213646332437e-09 1.000000000002
19650 40.9375 0.99999999999906 2.22778330883461e-09 2.19075894824546e-09 0.999999999999825 2.22702618341753e-09 1.000000000002
19700 41.0416666666667 0.999999999999058 2.23345870930296e-09 2.1963392529714e-09 0.999999999999825 2.23269118781098e-09 1.00000000000201
19750 41.1458333333333 0.999999999999056 2.23912803495707e-09 2.20191353056409e-09 0.999999999999824 2.23835352745694e-09 1.00000000000201
19800 41.25 0.999999999999053 2.24479793644321e-09 2.20748584867051e-09 0.999999999999823 2.24402694286527e-09 1.00000000000202
19850 41.3541666666667 0.999999999999051 2.25045968905944e-09 2.21305800988616e-09 0.999999999999823 2.24969286286262e-09 1.00000000000202
19900 41.4583333333333 0.999999999999049 2.25612131596347e-09 2.21863166737794e-09 0.999999999999822 2.2553570349591e-09 1.00000000000203
19950 41.5625 0.999999999999046 2.26178748158482e-09 2.22420787008636e-09 0.999999999999822 2.26103255480857e-09 1.00000000000203
20000 41.6666666666667 0.999999999999044 2.2674554696825e-09 2.2297862152205e-09 0.999999999999821 2.26670565555962e-09 1.00000000000204
20050 41.7708333333333 0.999999999999042 2.2731203794287e-09 2.23535375268412e-09 0.999999999999821 2.27236293063046e-09 1.00000000000204
20100 41.875 0.99999999999904 2.27879059565803e-09 2.24091763072745e-09 0.99999999999982 2.27802773875599e-09 1.00000000000205
20150 41.9791666666667 0.999999999999038 2.28447546590938e-09 2.24649826113757e-09 0.999999999999819 2.28370882297051e-09 1.00000000000205
20200 42.0833333333333 0.999999999999035 2.29014154047791e-09 2.25208900334393e-09 0.999999999999819 2.28937358300643e-09 1.00000000000206
20250 42.1875 0.999999999999034 2.29580836552192e-09 2.25766020409441e-09 0.999999999999818 2.29502228226658e-09 1.00000000000206
20300 42.2916666666667 0.999999999999031 2.3014751498832e-09 2.26322840727078e-09 0.999999999999818 2.30068186260735e-09 1.00000000000207
20350 42.3958333333333 0.999999999999029 2.30713934589996e-09 2.26880011670458e-09 0.999999999999817 2.30635353282218e-09 1.00000000000207
20400 42.5 0.999999999999026 2.31281010727517e-09 2.27437353126437e-09 0.999999999999817 2.31203490400656e-09 1.00000000000208
20450 42.6041666666667 0.999999999999025 2.31847458002764e-09 2.27994645286241e-09 0.999999999999816 2.31771711307506e-09 1.00000000000208
20500 42.7083333333333 0.999999999999022 2.32414742030449e-09 2.28551713240036e-09 0.999999999999815 2.32338292959802e-09 1.00000000000209
20550 42.8125 0.99999999999902 2.32982890831821e-09 2.29109125833467e-09 0.999999999999814 2.32903522257792e-09 1.00000000000209
20600 42.9166666666667 0.999999999999018 2.33549351687608e-09 2.29667248063012e-09 0.999999999999814 2.33469866989277e-09 1.0000000000021
20650 43.0208333333333 0.999999999999016 2.34115241290379e-09 2.30225497990393e-09 0.999999999999813 2.34037004580342e-09 1.0000000000021
20700 43.125 0.999999999999014 2.34681920262451e-09 2.30783124043051e-09 0.999999999999813 2.34603243116919e-09 1.00000000000211
20750 43.2291666666667 0.999999999999011 2.35249501181011e-09 2.31340078630257e-09 0.999999999999813 2.35169658985822e-09 1.00000000000211
20800 43.3333333333333 0.999999999999009 2.35816995455841e-09 2.31897139542256e-09 0.999999999999812 2.35736102011263e-09 1.00000000000212
20850 43.4375 0.999999999999006 2.36384166678504e-09 2.32454646247912e-09 0.999999999999811 2.36302493848604e-09 1.00000000000212
20900 43.5416666666667 0.999999999999005 2.36950762156485e-09 2.33011953311947e-09 0.999999999999811 2.36870252776249e-09 1.00000000000213
20950 43.6458333333333 0.999999999999002 2.37517324188353e-09 2.33569208021002e-09 0.99999999999981 2.37437280405965e-09 1.00000000000213
21000 43.75 0.999999999999 2.3808430166257e-09 2.34125686816573e-09 0.999999999999809 2.38003849515021e-09 1.00000000000214
21050 43.8541666666667 0.999999999998997 2.38651122740473e-09 2.34683713194707e-09 0.999999999999809 2.38570571684267e-09 1.00000000000215
21100 43.9583333333333 0.999999999998995 2.39218213191929e-09 2.35242256325745e-09 0.999999999999808 2.39137106578363e-09 1.00000000000215
21150 44.0625 0.999999999998993 2.39784569131465e-09 2.35799659885856e-09 0.999999999999807 2.39703790090975e-09 1.00000000000215
21200 44.1666666666667 0.999999999998991 2.4035041525961e-09 2.36357101258632e-09 0.999999999999807 2.40270095700596e-09 1.00000000000216
21250 44.2708333333333 0.999999999998989 2.40917563903542e-09 2.36914077729961e-09 0.999999999999806 2.40836766288385e-09 1.00000000000217
21300 44.375 0.999999999998987 2.41485199761548e-09 2.37471307138777e-09 0.999999999999806 2.41403609861612e-09 1.00000000000217
21350 44.4791666666667 0.999999999998984 2.42052239642966e-09 2.38028612415503e-09 0.999999999999806 2.4197037120276e-09 1.00000000000218
21400 44.5833333333333 0.999999999998982 2.42618783201054e-09 2.38586009378162e-09 0.999999999999805 2.42536782749098e-09 1.00000000000218
21450 44.6875 0.999999999998981 2.43185429732873e-09 2.39143910438786e-09 0.999999999999804 2.43102434917989e-09 1.00000000000219
21500 44.7916666666667 0.999999999998978 2.43752003371783e-09 2.39701949877814e-09 0.999999999999804 2.43669475718216e-09 1.00000000000219
21550 44.8958333333333 0.999999999998976 2.44318893582288e-09 2.40259599567435e-09 0.999999999999803 2.44237274685389e-09 1.0000000000022
21600 45 0.999999999998973 2.44886024925145e-09 2.40816970316014e-09 0.999999999999803 2.4480437202654e-09 1.0000000000022
21650 45.1041666666667 0.999999999998971 2.45452644135114e-09 2.41373452567381e-09 0.999999999999802 2.45371045859981e-09 1.00000000000221
21700 45.2083333333333 0.999999999998969 2.46019850687305e-09 2.41930965892059e-09 0.999999999999801 2.45937223609577e-09 1.00000000000221
21750 45.3125 0.999999999998967 2.4658677699552e-09 2.42488750389779e-09 0.999999999999801 2.4650315903682e-09 1.00000000000222
21800 45.4166666666667 0.999999999998965 2.47153970263294e-09 2.43046326484648e-09 0.9999999999998 2.47069307474259e-09 1.00000000000222
21850 45.5208333333333 0.999999999998963 2.47721751122877e-09 2.43603553458563e-09 0.999999999999799 2.47636727220563e-09 1.00000000000223
21900 45.625 0.99999999999896 2.48288236868447e-09 2.44160232011279e-09 0.999999999999799 2.48204278558063e-09 1.00000000000223
21950 45.7291666666667 0.999999999998958 2.48853950425155e-09 2.44717994784871e-09 0.999999999999798 2.48769933682276e-09 1.00000000000224
22000 45.8333333333333 0.999999999998956 2.49421220921594e-09 2.45276117077989e-09 0.999999999999798 2.49335962436082e-09 1.00000000000224
22050 45.9375 0.999999999998953 2.49989674421125e-09 2.45832776970638e-09 0.999999999999797 2.49902800440126e-09 1.00000000000225
22100 46.0416666666667 0.999999999998951 2.50556649920888e-09 2.46390770775479e-09 0.999999999999796 2.50469943303963e-09 1.00000000000225
22150 46.1458333333333 0.999999999998949 2.51121957641674e-09 2.46948809936023e-09 0.999999999999796 2.5103729983091e-09 1.00000000000226
22200 46.25 0.999999999998947 2.51688086615808e-09 2.47505018613743e-09 0.999999999999795 2.51603397251251e-09 1.00000000000226
22250 46.3541666666667 0.999999999998945 2.52255134565538e-09 2.48062441487267e-09 0.999999999999795 2.52169016234865e-09 1.00000000000227
22300 46.4583333333333 0.999999999998943 2.52821880049859e-09 2.4862083467652e-09 0.999999999999794 2.52736474106095e-09 1.00000000000227
22350 46.5625 0.999999999998941 2.5338787011718e-09 2.49178413810923e-09 0.999999999999794 2.53303992646745e-09 1.00000000000228
22400 46.6666666666667 0.999999999998938 2.53955024483981e-09 2.49735253052637e-09 0.999999999999793 2.53870339974295e-09 1.00000000000228
22450 46.7708333333333 0.999999999998936 2.54522935489274e-09 2.50292798257526e-09 0.999999999999792 2.54437283258769e-09 1.00000000000229
22500 46.875 0.999999999998934 2.55090686434534e-09 2.50850697802096e-09 0.999999999999792 2.55004290765605e-09 1.00000000000229
22550 46.9791666666667 0.999999999998931 2.55657607278821e-09 2.51408641928684e-09 0.999999999999792 2.55571013785066e-09 1.0000000000023
22600 47.0833333333333 0.999999999998929 2.56223792285573e-09 2.51965760811996e-09 0.999999999999791 2.56137447887257e-09 1.0000000000023
22650 47.1875 0.999999999998927 2.56790654645752e-09 2.52523065947644e-09 0.99999999999979 2.56703363027944e-09 1.00000000000231
22700 47.2916666666667 0.999999999998925 2.5735670244321e-09 2.53080088499273e-09 0.99999999999979 2.57269061532449e-09 1.00000000000231
22750 47.3958333333333 0.999999999998922 2.57923665399298e-09 2.53636766008501e-09 0.999999999999789 2.57836154257906e-09 1.00000000000232
22800 47.5 0.99999999999892 2.58491462860016e-09 2.54194194791578e-09 0.999999999999789 2.58404156102326e-09 1.00000000000232
22850 47.6041666666667 0.999999999998918 2.59057094447822e-09 2.5475237567012e-09 0.999999999999788 2.58970954227744e-09 1.00000000000233
22900 47.7083333333333 0.999999999998915 2.59623317828688e-09 2.55309087990381e-09 0.999999999999787 2.59537284897099e-09 1.00000000000233
22950 47.8125 0.999999999998913 2.60190881812677e-09 2.55865917126036e-09 0.999999999999786 2.60104006141121e-09 1.00000000000234
23000 47.9166666666667 0.999999999998911 2.60758769853665e-09 2.56423567866111e-09 0.999999999999786 2.60670607424388e-09 1.00000000000234
23050 48.0208333333333 0.999999999998909 2.61325234413528e-09 2.5698241271664e-09 0.999999999999785 2.61237408137272e-09 1.00000000000235
23100 48.125 0.999999999998907 2.61891204324124e-09 2.57540291596967e-09 0.999999999999784 2.61803775910746e-09 1.00000000000235
23150 48.2291666666667 0.999999999998905 2.62458742002955e-09 2.58097029016347e-09 0.999999999999784 2.62369791068146e-09 1.00000000000236
23200 48.3333333333333 0.999999999998903 2.6302722224598e-09 2.58654456931601e-09 0.999999999999783 2.62936565018944e-09 1.00000000000236
23250 48.4375 0.9999999999989 2.63594959090532e-09 2.5921254206992e-09 0.999999999999783 2.63504229278726e-09 1.00000000000237
23300 48.5416666666667 0.999999999998898 2.64161045485446e-09 2.59769292187548e-09 0.999999999999782 2.64071324118731e-09 1.00000000000237
23350 48.6458333333333 0.999999999998895 2.64726504441566e-09 2.60326255749341e-09 0.999999999999782 2.64637526669292e-09 1.00000000000238
23400 48.75 0.999999999998894 2.6529247093534e-09 2.60884020597119e-09 0.999999999999781 2.65203443019282e-09 1.00000000000238
23450 48.8541666666667 0.999999999998891 2.65859815636658e-09 2.6144164994876e-09 0.99999999999978 2.65770721265683e-09 1.00000000000239
23500 48.9583333333333 0.999999999998889 2.66427312437777e-09 2.61998661467976e-09 0.99999999999978 2.66337567246298e-09 1.00000000000239
23550 49.0625 0.999999999998887 2.66994831125087e-09 2.62556265677049e-09 0.999999999999779 2.66903579194332e-09 1.0000000000024
23600 49.1666666666667 0.999999999998884 2.67560947258842e-09 2.63113528287762e-09 0.999999999999778 2.67470554396426e-09 1.0000000000024
23650 49.2708333333333 0.999999999998882 2.68127226284108e-09 2.6367107331072e-09 0.999999999999778 2.68037102550614e-09 1.00000000000241
23700 49.375 0.99999999999888 2.68694660435267e-09 2.64229844717134e-09 0.999999999999777 2.68602918530432e-09 1.00000000000241
23750 49.4791666666667 0.999999999998878 2.692621859604e-09 2.64786843381002e-09 0.999999999999777 2.69170346068467e-09 1.00000000000242
23800 49.5833333333333 0.999999999998875 2.69829053322642e-09 2.65343294925864e-09 0.999999999999776 2.697374004888e-09 1.00000000000242
23850 49.6875 0.999999999998873 2.70394874493997e-09 2.65900788962738e-09 0.999999999999776 2.70303759714103e-09 1.00000000000243
23900 49.7916666666667 0.999999999998871 2.70961358318835e-09 2.66459381063059e-09 0.999999999999775 2.70870650366774e-09 1.00000000000243
23950 49.8958333333333 0.999999999998869 2.71528939259699e-09 2.67017042141788e-09 0.999999999999774 2.71437509579929e-09 1.00000000000244
24000 50 0.999999999998866 2.72095672622355e-09 2.67573787967361e-09 0.999999999999774 2.72003375727692e-09 1.00000000000244
