# Scalar ASCII output created by CarpetIOScalar
# created on compute2 by jmiller on Dec 15 2015 at 23:33:27-0500
# parameter filename: "/xfs1/jmiller/simulations/trunc_rho_bssn_dg2_robust_stability_rho_8/output-0000/robust_stability.par"
# Build ID: build-dgfe2-compute-jmiller-2015.12.16-04.26.30-10022
# Simulation ID: run-robust_stability-compute2-jmiller-2015.12.16-04.33.24-28458
# Run ID: run-robust_stability-compute2-jmiller-2015.12.16-04.33.24-28458
#
# ADMBASE::alp (admbase-lapse)
# 1:iteration 2:time 3:data
# data columns: 3:alp
0 0 1.00000000000003
50 0.104166666666667 1.00000000000003
100 0.208333333333333 1.00000000000003
150 0.3125 1.00000000000003
200 0.416666666666667 1.00000000000004
250 0.520833333333333 1.00000000000004
300 0.625 1.00000000000004
350 0.729166666666667 1.00000000000004
400 0.833333333333333 1.00000000000005
450 0.9375 1.00000000000005
500 1.04166666666667 1.00000000000005
550 1.14583333333333 1.00000000000005
600 1.25 1.00000000000005
650 1.35416666666667 1.00000000000006
700 1.45833333333333 1.00000000000006
750 1.5625 1.00000000000006
800 1.66666666666667 1.00000000000006
850 1.77083333333333 1.00000000000007
900 1.875 1.00000000000007
950 1.97916666666667 1.00000000000007
1000 2.08333333333333 1.00000000000007
1050 2.1875 1.00000000000007
1100 2.29166666666667 1.00000000000008
1150 2.39583333333333 1.00000000000008
1200 2.5 1.00000000000008
1250 2.60416666666667 1.00000000000008
1300 2.70833333333333 1.00000000000009
1350 2.8125 1.00000000000009
1400 2.91666666666667 1.00000000000009
1450 3.02083333333333 1.00000000000009
1500 3.125 1.0000000000001
1550 3.22916666666667 1.0000000000001
1600 3.33333333333333 1.0000000000001
1650 3.4375 1.0000000000001
1700 3.54166666666667 1.0000000000001
1750 3.64583333333333 1.00000000000011
1800 3.75 1.00000000000011
1850 3.85416666666667 1.00000000000011
1900 3.95833333333333 1.00000000000011
1950 4.0625 1.00000000000012
2000 4.16666666666667 1.00000000000012
2050 4.27083333333333 1.00000000000012
2100 4.375 1.00000000000012
2150 4.47916666666667 1.00000000000012
2200 4.58333333333333 1.00000000000013
2250 4.6875 1.00000000000013
2300 4.79166666666667 1.00000000000013
2350 4.89583333333333 1.00000000000013
2400 5 1.00000000000014
2450 5.10416666666667 1.00000000000014
2500 5.20833333333333 1.00000000000014
2550 5.3125 1.00000000000014
2600 5.41666666666667 1.00000000000015
2650 5.52083333333333 1.00000000000015
2700 5.625 1.00000000000015
2750 5.72916666666667 1.00000000000015
2800 5.83333333333333 1.00000000000015
2850 5.9375 1.00000000000016
2900 6.04166666666667 1.00000000000016
2950 6.14583333333333 1.00000000000016
3000 6.25 1.00000000000016
3050 6.35416666666667 1.00000000000017
3100 6.45833333333333 1.00000000000017
3150 6.5625 1.00000000000017
3200 6.66666666666667 1.00000000000017
3250 6.77083333333333 1.00000000000017
3300 6.875 1.00000000000018
3350 6.97916666666667 1.00000000000018
3400 7.08333333333333 1.00000000000018
3450 7.1875 1.00000000000018
3500 7.29166666666667 1.00000000000019
3550 7.39583333333333 1.00000000000019
3600 7.5 1.00000000000019
3650 7.60416666666667 1.00000000000019
3700 7.70833333333333 1.00000000000019
3750 7.8125 1.0000000000002
3800 7.91666666666667 1.0000000000002
3850 8.02083333333333 1.0000000000002
3900 8.125 1.0000000000002
3950 8.22916666666667 1.00000000000021
4000 8.33333333333333 1.00000000000021
4050 8.4375 1.00000000000021
4100 8.54166666666667 1.00000000000021
4150 8.64583333333333 1.00000000000022
4200 8.75 1.00000000000022
4250 8.85416666666667 1.00000000000022
4300 8.95833333333333 1.00000000000022
4350 9.0625 1.00000000000022
4400 9.16666666666667 1.00000000000023
4450 9.27083333333333 1.00000000000023
4500 9.375 1.00000000000023
4550 9.47916666666667 1.00000000000023
4600 9.58333333333333 1.00000000000024
4650 9.6875 1.00000000000024
4700 9.79166666666667 1.00000000000024
4750 9.89583333333333 1.00000000000024
4800 10 1.00000000000024
4850 10.1041666666667 1.00000000000025
4900 10.2083333333333 1.00000000000025
4950 10.3125 1.00000000000025
5000 10.4166666666667 1.00000000000025
5050 10.5208333333333 1.00000000000026
5100 10.625 1.00000000000026
5150 10.7291666666667 1.00000000000026
5200 10.8333333333333 1.00000000000026
5250 10.9375 1.00000000000026
5300 11.0416666666667 1.00000000000027
5350 11.1458333333333 1.00000000000027
5400 11.25 1.00000000000027
5450 11.3541666666667 1.00000000000027
5500 11.4583333333333 1.00000000000028
5550 11.5625 1.00000000000028
5600 11.6666666666667 1.00000000000028
5650 11.7708333333333 1.00000000000028
5700 11.875 1.00000000000029
5750 11.9791666666667 1.00000000000029
5800 12.0833333333333 1.00000000000029
5850 12.1875 1.00000000000029
5900 12.2916666666667 1.00000000000029
5950 12.3958333333333 1.0000000000003
6000 12.5 1.0000000000003
6050 12.6041666666667 1.0000000000003
6100 12.7083333333333 1.0000000000003
6150 12.8125 1.00000000000031
6200 12.9166666666667 1.00000000000031
6250 13.0208333333333 1.00000000000031
6300 13.125 1.00000000000031
6350 13.2291666666667 1.00000000000032
6400 13.3333333333333 1.00000000000032
6450 13.4375 1.00000000000032
6500 13.5416666666667 1.00000000000032
6550 13.6458333333333 1.00000000000032
6600 13.75 1.00000000000033
6650 13.8541666666667 1.00000000000033
6700 13.9583333333333 1.00000000000033
6750 14.0625 1.00000000000033
6800 14.1666666666667 1.00000000000034
6850 14.2708333333333 1.00000000000034
6900 14.375 1.00000000000034
6950 14.4791666666667 1.00000000000034
7000 14.5833333333333 1.00000000000034
7050 14.6875 1.00000000000035
7100 14.7916666666667 1.00000000000035
7150 14.8958333333333 1.00000000000035
7200 15 1.00000000000035
7250 15.1041666666667 1.00000000000036
7300 15.2083333333333 1.00000000000036
7350 15.3125 1.00000000000036
7400 15.4166666666667 1.00000000000036
7450 15.5208333333333 1.00000000000037
7500 15.625 1.00000000000037
7550 15.7291666666667 1.00000000000037
7600 15.8333333333333 1.00000000000037
7650 15.9375 1.00000000000037
7700 16.0416666666667 1.00000000000038
7750 16.1458333333333 1.00000000000038
7800 16.25 1.00000000000038
7850 16.3541666666667 1.00000000000038
7900 16.4583333333333 1.00000000000039
7950 16.5625 1.00000000000039
8000 16.6666666666667 1.00000000000039
8050 16.7708333333333 1.00000000000039
8100 16.875 1.00000000000039
8150 16.9791666666667 1.0000000000004
8200 17.0833333333333 1.0000000000004
8250 17.1875 1.0000000000004
8300 17.2916666666667 1.0000000000004
8350 17.3958333333333 1.00000000000041
8400 17.5 1.00000000000041
8450 17.6041666666667 1.00000000000041
8500 17.7083333333333 1.00000000000041
8550 17.8125 1.00000000000042
8600 17.9166666666667 1.00000000000042
8650 18.0208333333333 1.00000000000042
8700 18.125 1.00000000000042
8750 18.2291666666667 1.00000000000042
8800 18.3333333333333 1.00000000000043
8850 18.4375 1.00000000000043
8900 18.5416666666667 1.00000000000043
8950 18.6458333333333 1.00000000000043
9000 18.75 1.00000000000044
9050 18.8541666666667 1.00000000000044
9100 18.9583333333333 1.00000000000044
9150 19.0625 1.00000000000044
9200 19.1666666666667 1.00000000000044
9250 19.2708333333333 1.00000000000045
9300 19.375 1.00000000000045
9350 19.4791666666667 1.00000000000045
9400 19.5833333333333 1.00000000000045
9450 19.6875 1.00000000000046
9500 19.7916666666667 1.00000000000046
9550 19.8958333333333 1.00000000000046
9600 20 1.00000000000046
9650 20.1041666666667 1.00000000000046
9700 20.2083333333333 1.00000000000047
9750 20.3125 1.00000000000047
9800 20.4166666666667 1.00000000000047
9850 20.5208333333333 1.00000000000047
9900 20.625 1.00000000000048
9950 20.7291666666667 1.00000000000048
10000 20.8333333333333 1.00000000000048
10050 20.9375 1.00000000000048
10100 21.0416666666667 1.00000000000049
10150 21.1458333333333 1.00000000000049
10200 21.25 1.00000000000049
10250 21.3541666666667 1.00000000000049
10300 21.4583333333333 1.0000000000005
10350 21.5625 1.0000000000005
10400 21.6666666666667 1.0000000000005
10450 21.7708333333333 1.0000000000005
10500 21.875 1.0000000000005
10550 21.9791666666667 1.00000000000051
10600 22.0833333333333 1.00000000000051
10650 22.1875 1.00000000000051
10700 22.2916666666667 1.00000000000051
10750 22.3958333333333 1.00000000000052
10800 22.5 1.00000000000052
10850 22.6041666666667 1.00000000000052
10900 22.7083333333333 1.00000000000052
10950 22.8125 1.00000000000052
11000 22.9166666666667 1.00000000000053
11050 23.0208333333333 1.00000000000053
11100 23.125 1.00000000000053
11150 23.2291666666667 1.00000000000053
11200 23.3333333333333 1.00000000000054
11250 23.4375 1.00000000000054
11300 23.5416666666667 1.00000000000054
11350 23.6458333333333 1.00000000000054
11400 23.75 1.00000000000055
11450 23.8541666666667 1.00000000000055
11500 23.9583333333333 1.00000000000055
11550 24.0625 1.00000000000055
11600 24.1666666666667 1.00000000000055
11650 24.2708333333333 1.00000000000056
11700 24.375 1.00000000000056
11750 24.4791666666667 1.00000000000056
11800 24.5833333333333 1.00000000000056
11850 24.6875 1.00000000000056
11900 24.7916666666667 1.00000000000057
11950 24.8958333333333 1.00000000000057
12000 25 1.00000000000057
12050 25.1041666666667 1.00000000000057
12100 25.2083333333333 1.00000000000058
12150 25.3125 1.00000000000058
12200 25.4166666666667 1.00000000000058
12250 25.5208333333333 1.00000000000058
12300 25.625 1.00000000000059
12350 25.7291666666667 1.00000000000059
12400 25.8333333333333 1.00000000000059
12450 25.9375 1.00000000000059
12500 26.0416666666667 1.00000000000059
12550 26.1458333333333 1.0000000000006
12600 26.25 1.0000000000006
12650 26.3541666666667 1.0000000000006
12700 26.4583333333333 1.0000000000006
12750 26.5625 1.00000000000061
12800 26.6666666666667 1.00000000000061
12850 26.7708333333333 1.00000000000061
12900 26.875 1.00000000000061
12950 26.9791666666667 1.00000000000061
13000 27.0833333333333 1.00000000000062
13050 27.1875 1.00000000000062
13100 27.2916666666667 1.00000000000062
13150 27.3958333333333 1.00000000000062
13200 27.5 1.00000000000063
13250 27.6041666666667 1.00000000000063
13300 27.7083333333333 1.00000000000063
13350 27.8125 1.00000000000063
13400 27.9166666666667 1.00000000000064
13450 28.0208333333333 1.00000000000064
13500 28.125 1.00000000000064
13550 28.2291666666667 1.00000000000064
13600 28.3333333333333 1.00000000000064
13650 28.4375 1.00000000000065
13700 28.5416666666667 1.00000000000065
13750 28.6458333333333 1.00000000000065
13800 28.75 1.00000000000065
13850 28.8541666666667 1.00000000000066
13900 28.9583333333333 1.00000000000066
13950 29.0625 1.00000000000066
14000 29.1666666666667 1.00000000000066
14050 29.2708333333333 1.00000000000067
14100 29.375 1.00000000000067
14150 29.4791666666667 1.00000000000067
14200 29.5833333333333 1.00000000000067
14250 29.6875 1.00000000000068
14300 29.7916666666667 1.00000000000068
14350 29.8958333333333 1.00000000000068
14400 30 1.00000000000068
14450 30.1041666666667 1.00000000000068
14500 30.2083333333333 1.00000000000069
14550 30.3125 1.00000000000069
14600 30.4166666666667 1.00000000000069
14650 30.5208333333333 1.00000000000069
14700 30.625 1.00000000000069
14750 30.7291666666667 1.0000000000007
14800 30.8333333333333 1.0000000000007
14850 30.9375 1.0000000000007
14900 31.0416666666667 1.0000000000007
14950 31.1458333333333 1.00000000000071
15000 31.25 1.00000000000071
15050 31.3541666666667 1.00000000000071
15100 31.4583333333333 1.00000000000071
15150 31.5625 1.00000000000072
15200 31.6666666666667 1.00000000000072
15250 31.7708333333333 1.00000000000072
15300 31.875 1.00000000000072
15350 31.9791666666667 1.00000000000072
15400 32.0833333333333 1.00000000000073
15450 32.1875 1.00000000000073
15500 32.2916666666667 1.00000000000073
15550 32.3958333333333 1.00000000000073
15600 32.5 1.00000000000074
15650 32.6041666666667 1.00000000000074
15700 32.7083333333333 1.00000000000074
15750 32.8125 1.00000000000074
15800 32.9166666666667 1.00000000000075
15850 33.0208333333333 1.00000000000075
15900 33.125 1.00000000000075
15950 33.2291666666667 1.00000000000075
16000 33.3333333333333 1.00000000000075
16050 33.4375 1.00000000000076
16100 33.5416666666667 1.00000000000076
16150 33.6458333333333 1.00000000000076
16200 33.75 1.00000000000076
16250 33.8541666666667 1.00000000000077
16300 33.9583333333333 1.00000000000077
16350 34.0625 1.00000000000077
16400 34.1666666666667 1.00000000000077
16450 34.2708333333333 1.00000000000077
16500 34.375 1.00000000000078
16550 34.4791666666667 1.00000000000078
16600 34.5833333333333 1.00000000000078
16650 34.6875 1.00000000000078
16700 34.7916666666667 1.00000000000079
16750 34.8958333333333 1.00000000000079
16800 35 1.00000000000079
16850 35.1041666666667 1.00000000000079
16900 35.2083333333333 1.0000000000008
16950 35.3125 1.0000000000008
17000 35.4166666666667 1.0000000000008
17050 35.5208333333333 1.0000000000008
17100 35.625 1.0000000000008
17150 35.7291666666667 1.00000000000081
17200 35.8333333333333 1.00000000000081
17250 35.9375 1.00000000000081
17300 36.0416666666667 1.00000000000081
17350 36.1458333333333 1.00000000000082
17400 36.25 1.00000000000082
17450 36.3541666666667 1.00000000000082
17500 36.4583333333333 1.00000000000082
17550 36.5625 1.00000000000082
17600 36.6666666666667 1.00000000000083
17650 36.7708333333333 1.00000000000083
17700 36.875 1.00000000000083
17750 36.9791666666667 1.00000000000083
17800 37.0833333333333 1.00000000000084
17850 37.1875 1.00000000000084
17900 37.2916666666667 1.00000000000084
17950 37.3958333333333 1.00000000000084
18000 37.5 1.00000000000084
18050 37.6041666666667 1.00000000000085
18100 37.7083333333333 1.00000000000085
18150 37.8125 1.00000000000085
18200 37.9166666666667 1.00000000000085
18250 38.0208333333333 1.00000000000086
18300 38.125 1.00000000000086
18350 38.2291666666667 1.00000000000086
18400 38.3333333333333 1.00000000000086
18450 38.4375 1.00000000000087
18500 38.5416666666667 1.00000000000087
18550 38.6458333333333 1.00000000000087
18600 38.75 1.00000000000087
18650 38.8541666666667 1.00000000000087
18700 38.9583333333333 1.00000000000088
18750 39.0625 1.00000000000088
18800 39.1666666666667 1.00000000000088
18850 39.2708333333333 1.00000000000088
18900 39.375 1.00000000000089
18950 39.4791666666667 1.00000000000089
19000 39.5833333333333 1.00000000000089
19050 39.6875 1.00000000000089
19100 39.7916666666667 1.00000000000089
19150 39.8958333333333 1.0000000000009
19200 40 1.0000000000009
19250 40.1041666666667 1.0000000000009
19300 40.2083333333333 1.0000000000009
19350 40.3125 1.00000000000091
19400 40.4166666666667 1.00000000000091
19450 40.5208333333333 1.00000000000091
19500 40.625 1.00000000000091
19550 40.7291666666667 1.00000000000092
19600 40.8333333333333 1.00000000000092
19650 40.9375 1.00000000000092
19700 41.0416666666667 1.00000000000092
19750 41.1458333333333 1.00000000000092
19800 41.25 1.00000000000093
19850 41.3541666666667 1.00000000000093
19900 41.4583333333333 1.00000000000093
19950 41.5625 1.00000000000093
20000 41.6666666666667 1.00000000000094
20050 41.7708333333333 1.00000000000094
20100 41.875 1.00000000000094
20150 41.9791666666667 1.00000000000094
20200 42.0833333333333 1.00000000000095
20250 42.1875 1.00000000000095
20300 42.2916666666667 1.00000000000095
20350 42.3958333333333 1.00000000000095
20400 42.5 1.00000000000095
20450 42.6041666666667 1.00000000000096
20500 42.7083333333333 1.00000000000096
20550 42.8125 1.00000000000096
20600 42.9166666666667 1.00000000000096
20650 43.0208333333333 1.00000000000097
20700 43.125 1.00000000000097
20750 43.2291666666667 1.00000000000097
20800 43.3333333333333 1.00000000000097
20850 43.4375 1.00000000000097
20900 43.5416666666667 1.00000000000098
20950 43.6458333333333 1.00000000000098
21000 43.75 1.00000000000098
21050 43.8541666666667 1.00000000000098
21100 43.9583333333333 1.00000000000099
21150 44.0625 1.00000000000099
21200 44.1666666666667 1.00000000000099
21250 44.2708333333333 1.00000000000099
21300 44.375 1.00000000000099
21350 44.4791666666667 1.000000000001
21400 44.5833333333333 1.000000000001
21450 44.6875 1.000000000001
21500 44.7916666666667 1.000000000001
21550 44.8958333333333 1.00000000000101
21600 45 1.00000000000101
21650 45.1041666666667 1.00000000000101
21700 45.2083333333333 1.00000000000101
21750 45.3125 1.00000000000102
21800 45.4166666666667 1.00000000000102
21850 45.5208333333333 1.00000000000102
21900 45.625 1.00000000000102
21950 45.7291666666667 1.00000000000102
22000 45.8333333333333 1.00000000000103
22050 45.9375 1.00000000000103
22100 46.0416666666667 1.00000000000103
22150 46.1458333333333 1.00000000000103
22200 46.25 1.00000000000104
22250 46.3541666666667 1.00000000000104
22300 46.4583333333333 1.00000000000104
22350 46.5625 1.00000000000104
22400 46.6666666666667 1.00000000000105
22450 46.7708333333333 1.00000000000105
22500 46.875 1.00000000000105
22550 46.9791666666667 1.00000000000105
22600 47.0833333333333 1.00000000000105
22650 47.1875 1.00000000000106
22700 47.2916666666667 1.00000000000106
22750 47.3958333333333 1.00000000000106
22800 47.5 1.00000000000106
22850 47.6041666666667 1.00000000000107
22900 47.7083333333333 1.00000000000107
22950 47.8125 1.00000000000107
23000 47.9166666666667 1.00000000000107
23050 48.0208333333333 1.00000000000107
23100 48.125 1.00000000000108
23150 48.2291666666667 1.00000000000108
23200 48.3333333333333 1.00000000000108
23250 48.4375 1.00000000000108
23300 48.5416666666667 1.00000000000109
23350 48.6458333333333 1.00000000000109
23400 48.75 1.00000000000109
23450 48.8541666666667 1.00000000000109
23500 48.9583333333333 1.00000000000109
23550 49.0625 1.0000000000011
23600 49.1666666666667 1.0000000000011
23650 49.2708333333333 1.0000000000011
23700 49.375 1.0000000000011
23750 49.4791666666667 1.00000000000111
23800 49.5833333333333 1.00000000000111
23850 49.6875 1.00000000000111
23900 49.7916666666667 1.00000000000111
23950 49.8958333333333 1.00000000000111
24000 50 1.00000000000112
