# Scalar ASCII output created by CarpetIOScalar
# created on nid25572 by miller1 on Mar 13 2016 at 10:07:48-0500
# parameter filename: "/scratch/sciteam/miller1/simulations/trunc_rho_bssn_dg4_gauge_wave_rho_32/output-0000/gauge_wave.par"
# Build ID: build-dgfe2-h2ologin1.ncsa.illinois.edu-miller1-2016.02.08-01.00.23-31758
# Simulation ID: run-gauge_wave-nid25572-miller1-2016.03.13-15.07.46-22102
# Run ID: run-gauge_wave-nid25572-miller1-2016.03.13-15.07.46-22102
#
# ADMBASE::kxx (admbase-curv)
# 1:iteration 2:time 3:data
# data columns: 3:kxx 4:kxy 5:kxz 6:kyy 7:kyz 8:kzz
0 0 0.0314159248236988 0 0 1.48606314663737e-11 0 1.48606314663737e-11
1600 0.25 0.0314159265004661 1.18153426157844e-11 1.44305088212858e-11 2.64153201680902e-11 1.38057595559342e-11 2.86600044197207e-11
3200 0.5 0.0314159256539477 2.42914353483683e-11 2.44398626937957e-11 2.62149127444093e-11 2.00206105114846e-11 2.58891482170829e-11
4800 0.75 0.0314159265939759 2.19922003094759e-11 2.2731157217306e-11 3.14960002832168e-11 2.55793361486399e-11 3.40095575617298e-11
6400 1 0.0314159262843363 2.56604947404444e-11 2.95697124612355e-11 3.937295779748e-11 2.57058429082892e-11 3.11058980807671e-11
8000 1.25 0.031415926627136 3.09464555942348e-11 3.39231870270578e-11 4.56399225857584e-11 3.94571937530693e-11 5.32234914644731e-11
9600 1.5 0.0314159268730486 3.75998112989409e-11 3.96650794226412e-11 4.42661722000002e-11 3.31278239758338e-11 4.85907390528629e-11
11200 1.75 0.0314159264972307 3.97915893824806e-11 5.67998948494715e-11 5.83154406417681e-11 4.45807203226235e-11 5.6610701497102e-11
12800 2 0.0314159280199791 4.05934365122858e-11 4.39675376067819e-11 7.47659805070364e-11 4.29089358140135e-11 6.75024858331867e-11
14400 2.25 0.0314159266013362 4.46645199829817e-11 5.3651870876619e-11 5.3611559230347e-11 4.1878491399432e-11 5.27784271438957e-11
16000 2.5 0.0314159291216481 4.2919361794967e-11 4.95436337880329e-11 7.00278431885586e-11 4.88247460017228e-11 5.65976861026565e-11
17600 2.75 0.0314159266289607 5.15037318273249e-11 4.84427755627526e-11 6.47048057692286e-11 5.24367909884611e-11 5.90845618142775e-11
19200 3 0.0314159298646376 4.19436988341855e-11 6.00278654896458e-11 7.13337732481323e-11 5.55041703365741e-11 6.14877653201619e-11
20800 3.25 0.0314159266559087 5.88769261577411e-11 5.16047382542899e-11 6.19781989992273e-11 4.91278582201958e-11 6.43338960579195e-11
22400 3.5 0.0314159301242994 4.12881343430155e-11 5.41487673958225e-11 7.43010654970996e-11 4.90404307291792e-11 7.13527155454798e-11
24000 3.75 0.0314159264984043 4.88679313054389e-11 5.17722231619947e-11 6.85825162809172e-11 6.61647366786321e-11 7.77723003752124e-11
25600 4 0.0314159304932673 6.13221983049964e-11 5.63418248694527e-11 6.96565781588685e-11 4.65417400776354e-11 7.90297253368559e-11
27200 4.25 0.0314159266825831 6.82814250349681e-11 5.60520071311295e-11 7.77296450578586e-11 5.27494539382323e-11 8.46042350696708e-11
28800 4.5 0.0314159307816862 6.75226620178592e-11 7.01534454178327e-11 7.08365272232967e-11 6.00674641897975e-11 8.00261457473998e-11
30400 4.75 0.0314159266610005 5.84712564180673e-11 6.00821136209036e-11 8.85303532526982e-11 6.29420756332991e-11 7.22252682269538e-11
32000 5 0.0314159305401515 6.04607268740617e-11 6.70169253741126e-11 1.02493711090985e-10 7.31435216898147e-11 9.61932433034198e-11
