# Scalar ASCII output created by CarpetIOScalar
# created on compute by jmiller on Jan 29 2016 at 14:49:08-0500
# parameter filename: "/xfs1/jmiller/simulations/trunc_rho_bssn_dg4_shifted_gauge_wave_1plulog_rho_64/output-0000/shifted_gauge_wave_1_plus_log.par"
# Build ID: build-dgfe2-compute-jmiller-2015.12.16-04.26.30-10022
# Simulation ID: run-shifted_gauge_wave_1_plus_log-compute-jmiller-2016.01.29-19.49.04-25947
# Run ID: run-shifted_gauge_wave_1_plus_log-compute-jmiller-2016.01.29-19.49.04-25947
#
# ADMBASE::gxx (admbase-metric)
# 1:iteration 2:time 3:data
# data columns: 3:gxx 4:gxy 5:gxz 6:gyy 7:gyz 8:gzz
0 0 1.01 0 0 1 0 1
3200 0.25 1.01811469603081 2.29491684242855e-13 2.434874284369e-13 1.00000000000031 1.86901461755011e-13 1.00000000000028
6400 0.5 1.01956892543612 4.44258980989965e-13 4.11035898268788e-13 1.00000000000044 4.1442066481354e-13 1.00000000000053
9600 0.75 1.03055523501663 7.44253622431777e-13 6.33906056911909e-13 1.00000000000064 5.12494664286207e-13 1.00000000000068
12800 1 1.02340644812416 9.20048783420315e-13 9.76050415035165e-13 1.00000000000075 6.53349722888454e-13 1.0000000000007
16000 1.25 1.03309518383702 1.0519213523346e-12 1.03787773355559e-12 1.00000000000121 6.5544429861505e-13 1.00000000000125
19200 1.5 1.02138728139035 1.22485665254753e-12 1.05820074635764e-12 1.00000000000113 1.02610360574293e-12 1.00000000000106
22400 1.75 1.01949768606037 1.29000489881899e-12 1.69670841572059e-12 1.00000000000152 1.1180038239205e-12 1.00000000000113
25600 2 1.01288733305087 1.82165437307581e-12 1.71147817000576e-12 1.0000000000013 1.20164326780314e-12 1.00000000000147
28800 2.25 1.00314536870919 1.92203887889637e-12 1.66498049686164e-12 1.0000000000013 1.4120265825563e-12 1.00000000000148
32000 2.5 1.00459145202401 1.99419869046432e-12 1.88762992782182e-12 1.00000000000138 1.44521097372809e-12 1.00000000000158
35200 2.75 1.0086644403861 2.15797008037541e-12 2.15086130345831e-12 1.00000000000195 1.40489741303692e-12 1.00000000000126
38400 3 1.01556988753938 2.17162911213423e-12 2.37055462748229e-12 1.00000000000132 1.80886663148942e-12 1.0000000000016
41600 3.25 1.01947488668581 2.68187766701641e-12 2.28999121936001e-12 1.00000000000151 2.05687293228878e-12 1.0000000000018
44800 3.5 1.01538738054023 2.93244845106838e-12 2.98605860065304e-12 1.00000000000161 1.72382346791749e-12 1.00000000000175
48000 3.75 1.02078964136402 2.77487536317672e-12 2.81745109845292e-12 1.00000000000172 2.32227053441335e-12 1.00000000000207
51200 4 1.01566423078651 3.36113297789742e-12 3.05202183113029e-12 1.00000000000252 2.1858760552013e-12 1.00000000000169
