# Scalar ASCII output created by CarpetIOScalar
# created on compute by jmiller on Jan 29 2016 at 14:49:08-0500
# parameter filename: "/xfs1/jmiller/simulations/trunc_rho_bssn_dg4_shifted_gauge_wave_1plulog_rho_64/output-0000/shifted_gauge_wave_1_plus_log.par"
# Build ID: build-dgfe2-compute-jmiller-2015.12.16-04.26.30-10022
# Simulation ID: run-shifted_gauge_wave_1_plus_log-compute-jmiller-2016.01.29-19.49.04-25947
# Run ID: run-shifted_gauge_wave_1_plus_log-compute-jmiller-2016.01.29-19.49.04-25947
#
# ADMBASE::gxx (admbase-metric)
# 1:iteration 2:time 3:data
# data columns: 3:gxx 4:gxy 5:gxz 6:gyy 7:gyz 8:gzz
0 0 1.00002499968753 0 0 1 0 1
3200 0.25 1.0001139244792 1.10784797923985e-14 1.21255246248066e-14 1 1.01108648822725e-14 1
6400 0.5 1.00013624802187 2.13102140842837e-14 2.34615803221526e-14 1.00000000000001 1.82839930287566e-14 1.00000000000001
9600 0.75 1.00032969809707 3.15553379844504e-14 3.34516597913329e-14 1.00000000000001 2.55082373955862e-14 1.00000000000001
12800 1 1.00019125169389 4.0225467886311e-14 4.53196888404004e-14 1.00000000000001 3.08781381484958e-14 1.00000000000001
16000 1.25 1.00038882952073 5.1727099244069e-14 5.76569421739241e-14 1.00000000000001 3.77866431923575e-14 1.00000000000001
19200 1.5 1.00015454977717 6.69678079589029e-14 6.64794302335998e-14 1.00000000000001 4.84868983671893e-14 1.00000000000001
22400 1.75 1.00012519748568 7.23695298032272e-14 7.66256897487936e-14 1.00000000000001 5.71725140778598e-14 1.00000000000001
25600 2 1.00005206822778 8.00800539115689e-14 8.34317842478433e-14 1.00000000000001 6.52999059104691e-14 1.00000000000001
28800 2.25 0.999996357425492 8.53412392189072e-14 8.9902399148597e-14 1.00000000000001 6.2236968586269e-14 1.00000000000001
32000 2.5 0.999995151957916 1.0104766084428e-13 9.68984918744833e-14 1.00000000000001 6.98718194637495e-14 1.00000000000001
35200 2.75 1.00001855615367 9.93217302255774e-14 9.82480628541134e-14 1.00000000000001 6.99111410248875e-14 1.00000000000001
38400 3 1.00008392579725 1.1301538342291e-13 1.10477992574688e-13 1.00000000000001 7.96882444149037e-14 1.00000000000001
41600 3.25 1.00013031027714 1.1775292904328e-13 1.19930924834473e-13 1.00000000000001 8.08520838423084e-14 1.00000000000001
44800 3.5 1.00007601970881 1.43004761459406e-13 1.28168202248202e-13 1.00000000000001 7.80812070713445e-14 1.00000000000001
48000 3.75 1.00015014325044 1.42572372161327e-13 1.33433388370058e-13 1.00000000000001 9.85805025683267e-14 1.00000000000001
51200 4 1.00007961460288 1.80993560417688e-13 1.52220116037735e-13 1.00000000000001 1.00764267082558e-13 1.00000000000001
