# 1D ASCII output created by CarpetIOASCII
# created on compute by jmiller on Jan 29 2016 at 14:49:08-0500
# parameter filename: "/xfs1/jmiller/simulations/trunc_rho_bssn_dg4_shifted_gauge_wave_1plulog_rho_64/output-0000/shifted_gauge_wave_1_plus_log.par"
# Build ID: build-dgfe2-compute-jmiller-2015.12.16-04.26.30-10022
# Simulation ID: run-shifted_gauge_wave_1_plus_log-compute-jmiller-2016.01.29-19.49.04-25947
# Run ID: run-shifted_gauge_wave_1_plus_log-compute-jmiller-2016.01.29-19.49.04-25947
#
# GRID::COORDINATES y (grid-coordinates)
#
# iteration 0   time 0
# time level 0
# refinement level 0   multigrid level 0   map 0   component 0
# column format: 1:it	2:tl	3:rl 4:c 5:ml	6:ix 7:iy 8:iz	9:time	10:x 11:y 12:z	13:data
# data columns: 13:x 14:y 15:z 16:r
0	0	0 0 0	321 0 3	0	0.00078125000000000004 -0.0046875000000000016 0	1.1102230246251565e-16 -0.00390625 8.6736173798840355e-19 0.00390625
0	0	0 0 0	321 1 3	0	0.00078125000000000004 -0.003125000000000001 0	1.1102230246251565e-16 -0.00390625 8.6736173798840355e-19 0.00390625
0	0	0 0 0	321 2 3	0	0.00078125000000000004 -0.0015625000000000005 0	1.1102230246251565e-16 -0.0025572409012030359 8.6736173798840355e-19 0.0025572409012030359
0	0	0 0 0	321 3 3	0	0.00078125000000000004 0 0	1.1102230246251565e-16 8.6736173798840355e-19 8.6736173798840355e-19 1.1102907851931116e-16
0	0	0 0 0	321 4 3	0	0.00078125000000000004 0.0015625000000000005 0	1.1102230246251565e-16 0.0025572409012030372 8.6736173798840355e-19 0.0025572409012030372
0	0	0 0 0	321 5 3	0	0.00078125000000000004 0.003125000000000001 0	1.1102230246251565e-16 0.0039062500000000009 8.6736173798840355e-19 0.0039062500000000009
0	0	0 0 0	321 6 3	0	0.00078125000000000004 0.0046875000000000016 0	1.1102230246251565e-16 0.0039062500000000009 8.6736173798840355e-19 0.0039062500000000009

# iteration 0   time 0
# time level 0
# refinement level 0   multigrid level 0   map 0   component 1
# column format: 1:it	2:tl	3:rl 4:c 5:ml	6:ix 7:iy 8:iz	9:time	10:x 11:y 12:z	13:data
# data columns: 13:x 14:y 15:z 16:r
0	0	0 1 0	321 0 3	0	0.00078125000000000026 -0.0046875000000000016 0	1.1102230246251565e-16 -0.00390625 8.6736173798840355e-19 0.00390625
0	0	0 1 0	321 1 3	0	0.00078125000000000026 -0.003125000000000001 0	1.1102230246251565e-16 -0.00390625 8.6736173798840355e-19 0.00390625
0	0	0 1 0	321 2 3	0	0.00078125000000000026 -0.0015625000000000005 0	1.1102230246251565e-16 -0.0025572409012030359 8.6736173798840355e-19 0.0025572409012030359
0	0	0 1 0	321 3 3	0	0.00078125000000000026 0 0	1.1102230246251565e-16 8.6736173798840355e-19 8.6736173798840355e-19 1.1102907851931116e-16
0	0	0 1 0	321 4 3	0	0.00078125000000000026 0.0015625000000000005 0	1.1102230246251565e-16 0.0025572409012030372 8.6736173798840355e-19 0.0025572409012030372
0	0	0 1 0	321 5 3	0	0.00078125000000000026 0.003125000000000001 0	1.1102230246251565e-16 0.0039062500000000009 8.6736173798840355e-19 0.0039062500000000009
0	0	0 1 0	321 6 3	0	0.00078125000000000026 0.0046875000000000016 0	1.1102230246251565e-16 0.0039062500000000009 8.6736173798840355e-19 0.0039062500000000009


# iteration 3200   time 0.25000000000000006
# time level 0
# refinement level 0   multigrid level 0   map 0   component 0
# column format: 1:it	2:tl	3:rl 4:c 5:ml	6:ix 7:iy 8:iz	9:time	10:x 11:y 12:z	13:data
# data columns: 13:x 14:y 15:z 16:r
3200	0	0 0 0	321 0 3	0.25000000000000006	0.00078125000000000004 -0.0046875000000000016 0	1.1102230246251565e-16 -0.00390625 8.6736173798840355e-19 0.00390625
3200	0	0 0 0	321 1 3	0.25000000000000006	0.00078125000000000004 -0.003125000000000001 0	1.1102230246251565e-16 -0.00390625 8.6736173798840355e-19 0.00390625
3200	0	0 0 0	321 2 3	0.25000000000000006	0.00078125000000000004 -0.0015625000000000005 0	1.1102230246251565e-16 -0.0025572409012030359 8.6736173798840355e-19 0.0025572409012030359
3200	0	0 0 0	321 3 3	0.25000000000000006	0.00078125000000000004 0 0	1.1102230246251565e-16 8.6736173798840355e-19 8.6736173798840355e-19 1.1102907851931116e-16
3200	0	0 0 0	321 4 3	0.25000000000000006	0.00078125000000000004 0.0015625000000000005 0	1.1102230246251565e-16 0.0025572409012030372 8.6736173798840355e-19 0.0025572409012030372
3200	0	0 0 0	321 5 3	0.25000000000000006	0.00078125000000000004 0.003125000000000001 0	1.1102230246251565e-16 0.0039062500000000009 8.6736173798840355e-19 0.0039062500000000009
3200	0	0 0 0	321 6 3	0.25000000000000006	0.00078125000000000004 0.0046875000000000016 0	1.1102230246251565e-16 0.0039062500000000009 8.6736173798840355e-19 0.0039062500000000009

# iteration 3200   time 0.25000000000000006
# time level 0
# refinement level 0   multigrid level 0   map 0   component 1
# column format: 1:it	2:tl	3:rl 4:c 5:ml	6:ix 7:iy 8:iz	9:time	10:x 11:y 12:z	13:data
# data columns: 13:x 14:y 15:z 16:r
3200	0	0 1 0	321 0 3	0.25000000000000006	0.00078125000000000026 -0.0046875000000000016 0	1.1102230246251565e-16 -0.00390625 8.6736173798840355e-19 0.00390625
3200	0	0 1 0	321 1 3	0.25000000000000006	0.00078125000000000026 -0.003125000000000001 0	1.1102230246251565e-16 -0.00390625 8.6736173798840355e-19 0.00390625
3200	0	0 1 0	321 2 3	0.25000000000000006	0.00078125000000000026 -0.0015625000000000005 0	1.1102230246251565e-16 -0.0025572409012030359 8.6736173798840355e-19 0.0025572409012030359
3200	0	0 1 0	321 3 3	0.25000000000000006	0.00078125000000000026 0 0	1.1102230246251565e-16 8.6736173798840355e-19 8.6736173798840355e-19 1.1102907851931116e-16
3200	0	0 1 0	321 4 3	0.25000000000000006	0.00078125000000000026 0.0015625000000000005 0	1.1102230246251565e-16 0.0025572409012030372 8.6736173798840355e-19 0.0025572409012030372
3200	0	0 1 0	321 5 3	0.25000000000000006	0.00078125000000000026 0.003125000000000001 0	1.1102230246251565e-16 0.0039062500000000009 8.6736173798840355e-19 0.0039062500000000009
3200	0	0 1 0	321 6 3	0.25000000000000006	0.00078125000000000026 0.0046875000000000016 0	1.1102230246251565e-16 0.0039062500000000009 8.6736173798840355e-19 0.0039062500000000009


# iteration 6400   time 0.50000000000000011
# time level 0
# refinement level 0   multigrid level 0   map 0   component 0
# column format: 1:it	2:tl	3:rl 4:c 5:ml	6:ix 7:iy 8:iz	9:time	10:x 11:y 12:z	13:data
# data columns: 13:x 14:y 15:z 16:r
6400	0	0 0 0	321 0 3	0.50000000000000011	0.00078125000000000004 -0.0046875000000000016 0	1.1102230246251565e-16 -0.00390625 8.6736173798840355e-19 0.00390625
6400	0	0 0 0	321 1 3	0.50000000000000011	0.00078125000000000004 -0.003125000000000001 0	1.1102230246251565e-16 -0.00390625 8.6736173798840355e-19 0.00390625
6400	0	0 0 0	321 2 3	0.50000000000000011	0.00078125000000000004 -0.0015625000000000005 0	1.1102230246251565e-16 -0.0025572409012030359 8.6736173798840355e-19 0.0025572409012030359
6400	0	0 0 0	321 3 3	0.50000000000000011	0.00078125000000000004 0 0	1.1102230246251565e-16 8.6736173798840355e-19 8.6736173798840355e-19 1.1102907851931116e-16
6400	0	0 0 0	321 4 3	0.50000000000000011	0.00078125000000000004 0.0015625000000000005 0	1.1102230246251565e-16 0.0025572409012030372 8.6736173798840355e-19 0.0025572409012030372
6400	0	0 0 0	321 5 3	0.50000000000000011	0.00078125000000000004 0.003125000000000001 0	1.1102230246251565e-16 0.0039062500000000009 8.6736173798840355e-19 0.0039062500000000009
6400	0	0 0 0	321 6 3	0.50000000000000011	0.00078125000000000004 0.0046875000000000016 0	1.1102230246251565e-16 0.0039062500000000009 8.6736173798840355e-19 0.0039062500000000009

# iteration 6400   time 0.50000000000000011
# time level 0
# refinement level 0   multigrid level 0   map 0   component 1
# column format: 1:it	2:tl	3:rl 4:c 5:ml	6:ix 7:iy 8:iz	9:time	10:x 11:y 12:z	13:data
# data columns: 13:x 14:y 15:z 16:r
6400	0	0 1 0	321 0 3	0.50000000000000011	0.00078125000000000026 -0.0046875000000000016 0	1.1102230246251565e-16 -0.00390625 8.6736173798840355e-19 0.00390625
6400	0	0 1 0	321 1 3	0.50000000000000011	0.00078125000000000026 -0.003125000000000001 0	1.1102230246251565e-16 -0.00390625 8.6736173798840355e-19 0.00390625
6400	0	0 1 0	321 2 3	0.50000000000000011	0.00078125000000000026 -0.0015625000000000005 0	1.1102230246251565e-16 -0.0025572409012030359 8.6736173798840355e-19 0.0025572409012030359
6400	0	0 1 0	321 3 3	0.50000000000000011	0.00078125000000000026 0 0	1.1102230246251565e-16 8.6736173798840355e-19 8.6736173798840355e-19 1.1102907851931116e-16
6400	0	0 1 0	321 4 3	0.50000000000000011	0.00078125000000000026 0.0015625000000000005 0	1.1102230246251565e-16 0.0025572409012030372 8.6736173798840355e-19 0.0025572409012030372
6400	0	0 1 0	321 5 3	0.50000000000000011	0.00078125000000000026 0.003125000000000001 0	1.1102230246251565e-16 0.0039062500000000009 8.6736173798840355e-19 0.0039062500000000009
6400	0	0 1 0	321 6 3	0.50000000000000011	0.00078125000000000026 0.0046875000000000016 0	1.1102230246251565e-16 0.0039062500000000009 8.6736173798840355e-19 0.0039062500000000009


# iteration 9600   time 0.75000000000000011
# time level 0
# refinement level 0   multigrid level 0   map 0   component 0
# column format: 1:it	2:tl	3:rl 4:c 5:ml	6:ix 7:iy 8:iz	9:time	10:x 11:y 12:z	13:data
# data columns: 13:x 14:y 15:z 16:r
9600	0	0 0 0	321 0 3	0.75000000000000011	0.00078125000000000004 -0.0046875000000000016 0	1.1102230246251565e-16 -0.00390625 8.6736173798840355e-19 0.00390625
9600	0	0 0 0	321 1 3	0.75000000000000011	0.00078125000000000004 -0.003125000000000001 0	1.1102230246251565e-16 -0.00390625 8.6736173798840355e-19 0.00390625
9600	0	0 0 0	321 2 3	0.75000000000000011	0.00078125000000000004 -0.0015625000000000005 0	1.1102230246251565e-16 -0.0025572409012030359 8.6736173798840355e-19 0.0025572409012030359
9600	0	0 0 0	321 3 3	0.75000000000000011	0.00078125000000000004 0 0	1.1102230246251565e-16 8.6736173798840355e-19 8.6736173798840355e-19 1.1102907851931116e-16
9600	0	0 0 0	321 4 3	0.75000000000000011	0.00078125000000000004 0.0015625000000000005 0	1.1102230246251565e-16 0.0025572409012030372 8.6736173798840355e-19 0.0025572409012030372
9600	0	0 0 0	321 5 3	0.75000000000000011	0.00078125000000000004 0.003125000000000001 0	1.1102230246251565e-16 0.0039062500000000009 8.6736173798840355e-19 0.0039062500000000009
9600	0	0 0 0	321 6 3	0.75000000000000011	0.00078125000000000004 0.0046875000000000016 0	1.1102230246251565e-16 0.0039062500000000009 8.6736173798840355e-19 0.0039062500000000009

# iteration 9600   time 0.75000000000000011
# time level 0
# refinement level 0   multigrid level 0   map 0   component 1
# column format: 1:it	2:tl	3:rl 4:c 5:ml	6:ix 7:iy 8:iz	9:time	10:x 11:y 12:z	13:data
# data columns: 13:x 14:y 15:z 16:r
9600	0	0 1 0	321 0 3	0.75000000000000011	0.00078125000000000026 -0.0046875000000000016 0	1.1102230246251565e-16 -0.00390625 8.6736173798840355e-19 0.00390625
9600	0	0 1 0	321 1 3	0.75000000000000011	0.00078125000000000026 -0.003125000000000001 0	1.1102230246251565e-16 -0.00390625 8.6736173798840355e-19 0.00390625
9600	0	0 1 0	321 2 3	0.75000000000000011	0.00078125000000000026 -0.0015625000000000005 0	1.1102230246251565e-16 -0.0025572409012030359 8.6736173798840355e-19 0.0025572409012030359
9600	0	0 1 0	321 3 3	0.75000000000000011	0.00078125000000000026 0 0	1.1102230246251565e-16 8.6736173798840355e-19 8.6736173798840355e-19 1.1102907851931116e-16
9600	0	0 1 0	321 4 3	0.75000000000000011	0.00078125000000000026 0.0015625000000000005 0	1.1102230246251565e-16 0.0025572409012030372 8.6736173798840355e-19 0.0025572409012030372
9600	0	0 1 0	321 5 3	0.75000000000000011	0.00078125000000000026 0.003125000000000001 0	1.1102230246251565e-16 0.0039062500000000009 8.6736173798840355e-19 0.0039062500000000009
9600	0	0 1 0	321 6 3	0.75000000000000011	0.00078125000000000026 0.0046875000000000016 0	1.1102230246251565e-16 0.0039062500000000009 8.6736173798840355e-19 0.0039062500000000009


# iteration 12800   time 1.0000000000000002
# time level 0
# refinement level 0   multigrid level 0   map 0   component 0
# column format: 1:it	2:tl	3:rl 4:c 5:ml	6:ix 7:iy 8:iz	9:time	10:x 11:y 12:z	13:data
# data columns: 13:x 14:y 15:z 16:r
12800	0	0 0 0	321 0 3	1.0000000000000002	0.00078125000000000004 -0.0046875000000000016 0	1.1102230246251565e-16 -0.00390625 8.6736173798840355e-19 0.00390625
12800	0	0 0 0	321 1 3	1.0000000000000002	0.00078125000000000004 -0.003125000000000001 0	1.1102230246251565e-16 -0.00390625 8.6736173798840355e-19 0.00390625
12800	0	0 0 0	321 2 3	1.0000000000000002	0.00078125000000000004 -0.0015625000000000005 0	1.1102230246251565e-16 -0.0025572409012030359 8.6736173798840355e-19 0.0025572409012030359
12800	0	0 0 0	321 3 3	1.0000000000000002	0.00078125000000000004 0 0	1.1102230246251565e-16 8.6736173798840355e-19 8.6736173798840355e-19 1.1102907851931116e-16
12800	0	0 0 0	321 4 3	1.0000000000000002	0.00078125000000000004 0.0015625000000000005 0	1.1102230246251565e-16 0.0025572409012030372 8.6736173798840355e-19 0.0025572409012030372
12800	0	0 0 0	321 5 3	1.0000000000000002	0.00078125000000000004 0.003125000000000001 0	1.1102230246251565e-16 0.0039062500000000009 8.6736173798840355e-19 0.0039062500000000009
12800	0	0 0 0	321 6 3	1.0000000000000002	0.00078125000000000004 0.0046875000000000016 0	1.1102230246251565e-16 0.0039062500000000009 8.6736173798840355e-19 0.0039062500000000009

# iteration 12800   time 1.0000000000000002
# time level 0
# refinement level 0   multigrid level 0   map 0   component 1
# column format: 1:it	2:tl	3:rl 4:c 5:ml	6:ix 7:iy 8:iz	9:time	10:x 11:y 12:z	13:data
# data columns: 13:x 14:y 15:z 16:r
12800	0	0 1 0	321 0 3	1.0000000000000002	0.00078125000000000026 -0.0046875000000000016 0	1.1102230246251565e-16 -0.00390625 8.6736173798840355e-19 0.00390625
12800	0	0 1 0	321 1 3	1.0000000000000002	0.00078125000000000026 -0.003125000000000001 0	1.1102230246251565e-16 -0.00390625 8.6736173798840355e-19 0.00390625
12800	0	0 1 0	321 2 3	1.0000000000000002	0.00078125000000000026 -0.0015625000000000005 0	1.1102230246251565e-16 -0.0025572409012030359 8.6736173798840355e-19 0.0025572409012030359
12800	0	0 1 0	321 3 3	1.0000000000000002	0.00078125000000000026 0 0	1.1102230246251565e-16 8.6736173798840355e-19 8.6736173798840355e-19 1.1102907851931116e-16
12800	0	0 1 0	321 4 3	1.0000000000000002	0.00078125000000000026 0.0015625000000000005 0	1.1102230246251565e-16 0.0025572409012030372 8.6736173798840355e-19 0.0025572409012030372
12800	0	0 1 0	321 5 3	1.0000000000000002	0.00078125000000000026 0.003125000000000001 0	1.1102230246251565e-16 0.0039062500000000009 8.6736173798840355e-19 0.0039062500000000009
12800	0	0 1 0	321 6 3	1.0000000000000002	0.00078125000000000026 0.0046875000000000016 0	1.1102230246251565e-16 0.0039062500000000009 8.6736173798840355e-19 0.0039062500000000009


# iteration 16000   time 1.2500000000000002
# time level 0
# refinement level 0   multigrid level 0   map 0   component 0
# column format: 1:it	2:tl	3:rl 4:c 5:ml	6:ix 7:iy 8:iz	9:time	10:x 11:y 12:z	13:data
# data columns: 13:x 14:y 15:z 16:r
16000	0	0 0 0	321 0 3	1.2500000000000002	0.00078125000000000004 -0.0046875000000000016 0	1.1102230246251565e-16 -0.00390625 8.6736173798840355e-19 0.00390625
16000	0	0 0 0	321 1 3	1.2500000000000002	0.00078125000000000004 -0.003125000000000001 0	1.1102230246251565e-16 -0.00390625 8.6736173798840355e-19 0.00390625
16000	0	0 0 0	321 2 3	1.2500000000000002	0.00078125000000000004 -0.0015625000000000005 0	1.1102230246251565e-16 -0.0025572409012030359 8.6736173798840355e-19 0.0025572409012030359
16000	0	0 0 0	321 3 3	1.2500000000000002	0.00078125000000000004 0 0	1.1102230246251565e-16 8.6736173798840355e-19 8.6736173798840355e-19 1.1102907851931116e-16
16000	0	0 0 0	321 4 3	1.2500000000000002	0.00078125000000000004 0.0015625000000000005 0	1.1102230246251565e-16 0.0025572409012030372 8.6736173798840355e-19 0.0025572409012030372
16000	0	0 0 0	321 5 3	1.2500000000000002	0.00078125000000000004 0.003125000000000001 0	1.1102230246251565e-16 0.0039062500000000009 8.6736173798840355e-19 0.0039062500000000009
16000	0	0 0 0	321 6 3	1.2500000000000002	0.00078125000000000004 0.0046875000000000016 0	1.1102230246251565e-16 0.0039062500000000009 8.6736173798840355e-19 0.0039062500000000009

# iteration 16000   time 1.2500000000000002
# time level 0
# refinement level 0   multigrid level 0   map 0   component 1
# column format: 1:it	2:tl	3:rl 4:c 5:ml	6:ix 7:iy 8:iz	9:time	10:x 11:y 12:z	13:data
# data columns: 13:x 14:y 15:z 16:r
16000	0	0 1 0	321 0 3	1.2500000000000002	0.00078125000000000026 -0.0046875000000000016 0	1.1102230246251565e-16 -0.00390625 8.6736173798840355e-19 0.00390625
16000	0	0 1 0	321 1 3	1.2500000000000002	0.00078125000000000026 -0.003125000000000001 0	1.1102230246251565e-16 -0.00390625 8.6736173798840355e-19 0.00390625
16000	0	0 1 0	321 2 3	1.2500000000000002	0.00078125000000000026 -0.0015625000000000005 0	1.1102230246251565e-16 -0.0025572409012030359 8.6736173798840355e-19 0.0025572409012030359
16000	0	0 1 0	321 3 3	1.2500000000000002	0.00078125000000000026 0 0	1.1102230246251565e-16 8.6736173798840355e-19 8.6736173798840355e-19 1.1102907851931116e-16
16000	0	0 1 0	321 4 3	1.2500000000000002	0.00078125000000000026 0.0015625000000000005 0	1.1102230246251565e-16 0.0025572409012030372 8.6736173798840355e-19 0.0025572409012030372
16000	0	0 1 0	321 5 3	1.2500000000000002	0.00078125000000000026 0.003125000000000001 0	1.1102230246251565e-16 0.0039062500000000009 8.6736173798840355e-19 0.0039062500000000009
16000	0	0 1 0	321 6 3	1.2500000000000002	0.00078125000000000026 0.0046875000000000016 0	1.1102230246251565e-16 0.0039062500000000009 8.6736173798840355e-19 0.0039062500000000009


# iteration 19200   time 1.5000000000000002
# time level 0
# refinement level 0   multigrid level 0   map 0   component 0
# column format: 1:it	2:tl	3:rl 4:c 5:ml	6:ix 7:iy 8:iz	9:time	10:x 11:y 12:z	13:data
# data columns: 13:x 14:y 15:z 16:r
19200	0	0 0 0	321 0 3	1.5000000000000002	0.00078125000000000004 -0.0046875000000000016 0	1.1102230246251565e-16 -0.00390625 8.6736173798840355e-19 0.00390625
19200	0	0 0 0	321 1 3	1.5000000000000002	0.00078125000000000004 -0.003125000000000001 0	1.1102230246251565e-16 -0.00390625 8.6736173798840355e-19 0.00390625
19200	0	0 0 0	321 2 3	1.5000000000000002	0.00078125000000000004 -0.0015625000000000005 0	1.1102230246251565e-16 -0.0025572409012030359 8.6736173798840355e-19 0.0025572409012030359
19200	0	0 0 0	321 3 3	1.5000000000000002	0.00078125000000000004 0 0	1.1102230246251565e-16 8.6736173798840355e-19 8.6736173798840355e-19 1.1102907851931116e-16
19200	0	0 0 0	321 4 3	1.5000000000000002	0.00078125000000000004 0.0015625000000000005 0	1.1102230246251565e-16 0.0025572409012030372 8.6736173798840355e-19 0.0025572409012030372
19200	0	0 0 0	321 5 3	1.5000000000000002	0.00078125000000000004 0.003125000000000001 0	1.1102230246251565e-16 0.0039062500000000009 8.6736173798840355e-19 0.0039062500000000009
19200	0	0 0 0	321 6 3	1.5000000000000002	0.00078125000000000004 0.0046875000000000016 0	1.1102230246251565e-16 0.0039062500000000009 8.6736173798840355e-19 0.0039062500000000009

# iteration 19200   time 1.5000000000000002
# time level 0
# refinement level 0   multigrid level 0   map 0   component 1
# column format: 1:it	2:tl	3:rl 4:c 5:ml	6:ix 7:iy 8:iz	9:time	10:x 11:y 12:z	13:data
# data columns: 13:x 14:y 15:z 16:r
19200	0	0 1 0	321 0 3	1.5000000000000002	0.00078125000000000026 -0.0046875000000000016 0	1.1102230246251565e-16 -0.00390625 8.6736173798840355e-19 0.00390625
19200	0	0 1 0	321 1 3	1.5000000000000002	0.00078125000000000026 -0.003125000000000001 0	1.1102230246251565e-16 -0.00390625 8.6736173798840355e-19 0.00390625
19200	0	0 1 0	321 2 3	1.5000000000000002	0.00078125000000000026 -0.0015625000000000005 0	1.1102230246251565e-16 -0.0025572409012030359 8.6736173798840355e-19 0.0025572409012030359
19200	0	0 1 0	321 3 3	1.5000000000000002	0.00078125000000000026 0 0	1.1102230246251565e-16 8.6736173798840355e-19 8.6736173798840355e-19 1.1102907851931116e-16
19200	0	0 1 0	321 4 3	1.5000000000000002	0.00078125000000000026 0.0015625000000000005 0	1.1102230246251565e-16 0.0025572409012030372 8.6736173798840355e-19 0.0025572409012030372
19200	0	0 1 0	321 5 3	1.5000000000000002	0.00078125000000000026 0.003125000000000001 0	1.1102230246251565e-16 0.0039062500000000009 8.6736173798840355e-19 0.0039062500000000009
19200	0	0 1 0	321 6 3	1.5000000000000002	0.00078125000000000026 0.0046875000000000016 0	1.1102230246251565e-16 0.0039062500000000009 8.6736173798840355e-19 0.0039062500000000009


# iteration 22400   time 1.7500000000000004
# time level 0
# refinement level 0   multigrid level 0   map 0   component 0
# column format: 1:it	2:tl	3:rl 4:c 5:ml	6:ix 7:iy 8:iz	9:time	10:x 11:y 12:z	13:data
# data columns: 13:x 14:y 15:z 16:r
22400	0	0 0 0	321 0 3	1.7500000000000004	0.00078125000000000004 -0.0046875000000000016 0	1.1102230246251565e-16 -0.00390625 8.6736173798840355e-19 0.00390625
22400	0	0 0 0	321 1 3	1.7500000000000004	0.00078125000000000004 -0.003125000000000001 0	1.1102230246251565e-16 -0.00390625 8.6736173798840355e-19 0.00390625
22400	0	0 0 0	321 2 3	1.7500000000000004	0.00078125000000000004 -0.0015625000000000005 0	1.1102230246251565e-16 -0.0025572409012030359 8.6736173798840355e-19 0.0025572409012030359
22400	0	0 0 0	321 3 3	1.7500000000000004	0.00078125000000000004 0 0	1.1102230246251565e-16 8.6736173798840355e-19 8.6736173798840355e-19 1.1102907851931116e-16
22400	0	0 0 0	321 4 3	1.7500000000000004	0.00078125000000000004 0.0015625000000000005 0	1.1102230246251565e-16 0.0025572409012030372 8.6736173798840355e-19 0.0025572409012030372
22400	0	0 0 0	321 5 3	1.7500000000000004	0.00078125000000000004 0.003125000000000001 0	1.1102230246251565e-16 0.0039062500000000009 8.6736173798840355e-19 0.0039062500000000009
22400	0	0 0 0	321 6 3	1.7500000000000004	0.00078125000000000004 0.0046875000000000016 0	1.1102230246251565e-16 0.0039062500000000009 8.6736173798840355e-19 0.0039062500000000009

# iteration 22400   time 1.7500000000000004
# time level 0
# refinement level 0   multigrid level 0   map 0   component 1
# column format: 1:it	2:tl	3:rl 4:c 5:ml	6:ix 7:iy 8:iz	9:time	10:x 11:y 12:z	13:data
# data columns: 13:x 14:y 15:z 16:r
22400	0	0 1 0	321 0 3	1.7500000000000004	0.00078125000000000026 -0.0046875000000000016 0	1.1102230246251565e-16 -0.00390625 8.6736173798840355e-19 0.00390625
22400	0	0 1 0	321 1 3	1.7500000000000004	0.00078125000000000026 -0.003125000000000001 0	1.1102230246251565e-16 -0.00390625 8.6736173798840355e-19 0.00390625
22400	0	0 1 0	321 2 3	1.7500000000000004	0.00078125000000000026 -0.0015625000000000005 0	1.1102230246251565e-16 -0.0025572409012030359 8.6736173798840355e-19 0.0025572409012030359
22400	0	0 1 0	321 3 3	1.7500000000000004	0.00078125000000000026 0 0	1.1102230246251565e-16 8.6736173798840355e-19 8.6736173798840355e-19 1.1102907851931116e-16
22400	0	0 1 0	321 4 3	1.7500000000000004	0.00078125000000000026 0.0015625000000000005 0	1.1102230246251565e-16 0.0025572409012030372 8.6736173798840355e-19 0.0025572409012030372
22400	0	0 1 0	321 5 3	1.7500000000000004	0.00078125000000000026 0.003125000000000001 0	1.1102230246251565e-16 0.0039062500000000009 8.6736173798840355e-19 0.0039062500000000009
22400	0	0 1 0	321 6 3	1.7500000000000004	0.00078125000000000026 0.0046875000000000016 0	1.1102230246251565e-16 0.0039062500000000009 8.6736173798840355e-19 0.0039062500000000009


# iteration 25600   time 2.0000000000000004
# time level 0
# refinement level 0   multigrid level 0   map 0   component 0
# column format: 1:it	2:tl	3:rl 4:c 5:ml	6:ix 7:iy 8:iz	9:time	10:x 11:y 12:z	13:data
# data columns: 13:x 14:y 15:z 16:r
25600	0	0 0 0	321 0 3	2.0000000000000004	0.00078125000000000004 -0.0046875000000000016 0	1.1102230246251565e-16 -0.00390625 8.6736173798840355e-19 0.00390625
25600	0	0 0 0	321 1 3	2.0000000000000004	0.00078125000000000004 -0.003125000000000001 0	1.1102230246251565e-16 -0.00390625 8.6736173798840355e-19 0.00390625
25600	0	0 0 0	321 2 3	2.0000000000000004	0.00078125000000000004 -0.0015625000000000005 0	1.1102230246251565e-16 -0.0025572409012030359 8.6736173798840355e-19 0.0025572409012030359
25600	0	0 0 0	321 3 3	2.0000000000000004	0.00078125000000000004 0 0	1.1102230246251565e-16 8.6736173798840355e-19 8.6736173798840355e-19 1.1102907851931116e-16
25600	0	0 0 0	321 4 3	2.0000000000000004	0.00078125000000000004 0.0015625000000000005 0	1.1102230246251565e-16 0.0025572409012030372 8.6736173798840355e-19 0.0025572409012030372
25600	0	0 0 0	321 5 3	2.0000000000000004	0.00078125000000000004 0.003125000000000001 0	1.1102230246251565e-16 0.0039062500000000009 8.6736173798840355e-19 0.0039062500000000009
25600	0	0 0 0	321 6 3	2.0000000000000004	0.00078125000000000004 0.0046875000000000016 0	1.1102230246251565e-16 0.0039062500000000009 8.6736173798840355e-19 0.0039062500000000009

# iteration 25600   time 2.0000000000000004
# time level 0
# refinement level 0   multigrid level 0   map 0   component 1
# column format: 1:it	2:tl	3:rl 4:c 5:ml	6:ix 7:iy 8:iz	9:time	10:x 11:y 12:z	13:data
# data columns: 13:x 14:y 15:z 16:r
25600	0	0 1 0	321 0 3	2.0000000000000004	0.00078125000000000026 -0.0046875000000000016 0	1.1102230246251565e-16 -0.00390625 8.6736173798840355e-19 0.00390625
25600	0	0 1 0	321 1 3	2.0000000000000004	0.00078125000000000026 -0.003125000000000001 0	1.1102230246251565e-16 -0.00390625 8.6736173798840355e-19 0.00390625
25600	0	0 1 0	321 2 3	2.0000000000000004	0.00078125000000000026 -0.0015625000000000005 0	1.1102230246251565e-16 -0.0025572409012030359 8.6736173798840355e-19 0.0025572409012030359
25600	0	0 1 0	321 3 3	2.0000000000000004	0.00078125000000000026 0 0	1.1102230246251565e-16 8.6736173798840355e-19 8.6736173798840355e-19 1.1102907851931116e-16
25600	0	0 1 0	321 4 3	2.0000000000000004	0.00078125000000000026 0.0015625000000000005 0	1.1102230246251565e-16 0.0025572409012030372 8.6736173798840355e-19 0.0025572409012030372
25600	0	0 1 0	321 5 3	2.0000000000000004	0.00078125000000000026 0.003125000000000001 0	1.1102230246251565e-16 0.0039062500000000009 8.6736173798840355e-19 0.0039062500000000009
25600	0	0 1 0	321 6 3	2.0000000000000004	0.00078125000000000026 0.0046875000000000016 0	1.1102230246251565e-16 0.0039062500000000009 8.6736173798840355e-19 0.0039062500000000009


# iteration 28800   time 2.2500000000000004
# time level 0
# refinement level 0   multigrid level 0   map 0   component 0
# column format: 1:it	2:tl	3:rl 4:c 5:ml	6:ix 7:iy 8:iz	9:time	10:x 11:y 12:z	13:data
# data columns: 13:x 14:y 15:z 16:r
28800	0	0 0 0	321 0 3	2.2500000000000004	0.00078125000000000004 -0.0046875000000000016 0	1.1102230246251565e-16 -0.00390625 8.6736173798840355e-19 0.00390625
28800	0	0 0 0	321 1 3	2.2500000000000004	0.00078125000000000004 -0.003125000000000001 0	1.1102230246251565e-16 -0.00390625 8.6736173798840355e-19 0.00390625
28800	0	0 0 0	321 2 3	2.2500000000000004	0.00078125000000000004 -0.0015625000000000005 0	1.1102230246251565e-16 -0.0025572409012030359 8.6736173798840355e-19 0.0025572409012030359
28800	0	0 0 0	321 3 3	2.2500000000000004	0.00078125000000000004 0 0	1.1102230246251565e-16 8.6736173798840355e-19 8.6736173798840355e-19 1.1102907851931116e-16
28800	0	0 0 0	321 4 3	2.2500000000000004	0.00078125000000000004 0.0015625000000000005 0	1.1102230246251565e-16 0.0025572409012030372 8.6736173798840355e-19 0.0025572409012030372
28800	0	0 0 0	321 5 3	2.2500000000000004	0.00078125000000000004 0.003125000000000001 0	1.1102230246251565e-16 0.0039062500000000009 8.6736173798840355e-19 0.0039062500000000009
28800	0	0 0 0	321 6 3	2.2500000000000004	0.00078125000000000004 0.0046875000000000016 0	1.1102230246251565e-16 0.0039062500000000009 8.6736173798840355e-19 0.0039062500000000009

# iteration 28800   time 2.2500000000000004
# time level 0
# refinement level 0   multigrid level 0   map 0   component 1
# column format: 1:it	2:tl	3:rl 4:c 5:ml	6:ix 7:iy 8:iz	9:time	10:x 11:y 12:z	13:data
# data columns: 13:x 14:y 15:z 16:r
28800	0	0 1 0	321 0 3	2.2500000000000004	0.00078125000000000026 -0.0046875000000000016 0	1.1102230246251565e-16 -0.00390625 8.6736173798840355e-19 0.00390625
28800	0	0 1 0	321 1 3	2.2500000000000004	0.00078125000000000026 -0.003125000000000001 0	1.1102230246251565e-16 -0.00390625 8.6736173798840355e-19 0.00390625
28800	0	0 1 0	321 2 3	2.2500000000000004	0.00078125000000000026 -0.0015625000000000005 0	1.1102230246251565e-16 -0.0025572409012030359 8.6736173798840355e-19 0.0025572409012030359
28800	0	0 1 0	321 3 3	2.2500000000000004	0.00078125000000000026 0 0	1.1102230246251565e-16 8.6736173798840355e-19 8.6736173798840355e-19 1.1102907851931116e-16
28800	0	0 1 0	321 4 3	2.2500000000000004	0.00078125000000000026 0.0015625000000000005 0	1.1102230246251565e-16 0.0025572409012030372 8.6736173798840355e-19 0.0025572409012030372
28800	0	0 1 0	321 5 3	2.2500000000000004	0.00078125000000000026 0.003125000000000001 0	1.1102230246251565e-16 0.0039062500000000009 8.6736173798840355e-19 0.0039062500000000009
28800	0	0 1 0	321 6 3	2.2500000000000004	0.00078125000000000026 0.0046875000000000016 0	1.1102230246251565e-16 0.0039062500000000009 8.6736173798840355e-19 0.0039062500000000009


# iteration 32000   time 2.5000000000000004
# time level 0
# refinement level 0   multigrid level 0   map 0   component 0
# column format: 1:it	2:tl	3:rl 4:c 5:ml	6:ix 7:iy 8:iz	9:time	10:x 11:y 12:z	13:data
# data columns: 13:x 14:y 15:z 16:r
32000	0	0 0 0	321 0 3	2.5000000000000004	0.00078125000000000004 -0.0046875000000000016 0	1.1102230246251565e-16 -0.00390625 8.6736173798840355e-19 0.00390625
32000	0	0 0 0	321 1 3	2.5000000000000004	0.00078125000000000004 -0.003125000000000001 0	1.1102230246251565e-16 -0.00390625 8.6736173798840355e-19 0.00390625
32000	0	0 0 0	321 2 3	2.5000000000000004	0.00078125000000000004 -0.0015625000000000005 0	1.1102230246251565e-16 -0.0025572409012030359 8.6736173798840355e-19 0.0025572409012030359
32000	0	0 0 0	321 3 3	2.5000000000000004	0.00078125000000000004 0 0	1.1102230246251565e-16 8.6736173798840355e-19 8.6736173798840355e-19 1.1102907851931116e-16
32000	0	0 0 0	321 4 3	2.5000000000000004	0.00078125000000000004 0.0015625000000000005 0	1.1102230246251565e-16 0.0025572409012030372 8.6736173798840355e-19 0.0025572409012030372
32000	0	0 0 0	321 5 3	2.5000000000000004	0.00078125000000000004 0.003125000000000001 0	1.1102230246251565e-16 0.0039062500000000009 8.6736173798840355e-19 0.0039062500000000009
32000	0	0 0 0	321 6 3	2.5000000000000004	0.00078125000000000004 0.0046875000000000016 0	1.1102230246251565e-16 0.0039062500000000009 8.6736173798840355e-19 0.0039062500000000009

# iteration 32000   time 2.5000000000000004
# time level 0
# refinement level 0   multigrid level 0   map 0   component 1
# column format: 1:it	2:tl	3:rl 4:c 5:ml	6:ix 7:iy 8:iz	9:time	10:x 11:y 12:z	13:data
# data columns: 13:x 14:y 15:z 16:r
32000	0	0 1 0	321 0 3	2.5000000000000004	0.00078125000000000026 -0.0046875000000000016 0	1.1102230246251565e-16 -0.00390625 8.6736173798840355e-19 0.00390625
32000	0	0 1 0	321 1 3	2.5000000000000004	0.00078125000000000026 -0.003125000000000001 0	1.1102230246251565e-16 -0.00390625 8.6736173798840355e-19 0.00390625
32000	0	0 1 0	321 2 3	2.5000000000000004	0.00078125000000000026 -0.0015625000000000005 0	1.1102230246251565e-16 -0.0025572409012030359 8.6736173798840355e-19 0.0025572409012030359
32000	0	0 1 0	321 3 3	2.5000000000000004	0.00078125000000000026 0 0	1.1102230246251565e-16 8.6736173798840355e-19 8.6736173798840355e-19 1.1102907851931116e-16
32000	0	0 1 0	321 4 3	2.5000000000000004	0.00078125000000000026 0.0015625000000000005 0	1.1102230246251565e-16 0.0025572409012030372 8.6736173798840355e-19 0.0025572409012030372
32000	0	0 1 0	321 5 3	2.5000000000000004	0.00078125000000000026 0.003125000000000001 0	1.1102230246251565e-16 0.0039062500000000009 8.6736173798840355e-19 0.0039062500000000009
32000	0	0 1 0	321 6 3	2.5000000000000004	0.00078125000000000026 0.0046875000000000016 0	1.1102230246251565e-16 0.0039062500000000009 8.6736173798840355e-19 0.0039062500000000009


# iteration 35200   time 2.7500000000000004
# time level 0
# refinement level 0   multigrid level 0   map 0   component 0
# column format: 1:it	2:tl	3:rl 4:c 5:ml	6:ix 7:iy 8:iz	9:time	10:x 11:y 12:z	13:data
# data columns: 13:x 14:y 15:z 16:r
35200	0	0 0 0	321 0 3	2.7500000000000004	0.00078125000000000004 -0.0046875000000000016 0	1.1102230246251565e-16 -0.00390625 8.6736173798840355e-19 0.00390625
35200	0	0 0 0	321 1 3	2.7500000000000004	0.00078125000000000004 -0.003125000000000001 0	1.1102230246251565e-16 -0.00390625 8.6736173798840355e-19 0.00390625
35200	0	0 0 0	321 2 3	2.7500000000000004	0.00078125000000000004 -0.0015625000000000005 0	1.1102230246251565e-16 -0.0025572409012030359 8.6736173798840355e-19 0.0025572409012030359
35200	0	0 0 0	321 3 3	2.7500000000000004	0.00078125000000000004 0 0	1.1102230246251565e-16 8.6736173798840355e-19 8.6736173798840355e-19 1.1102907851931116e-16
35200	0	0 0 0	321 4 3	2.7500000000000004	0.00078125000000000004 0.0015625000000000005 0	1.1102230246251565e-16 0.0025572409012030372 8.6736173798840355e-19 0.0025572409012030372
35200	0	0 0 0	321 5 3	2.7500000000000004	0.00078125000000000004 0.003125000000000001 0	1.1102230246251565e-16 0.0039062500000000009 8.6736173798840355e-19 0.0039062500000000009
35200	0	0 0 0	321 6 3	2.7500000000000004	0.00078125000000000004 0.0046875000000000016 0	1.1102230246251565e-16 0.0039062500000000009 8.6736173798840355e-19 0.0039062500000000009

# iteration 35200   time 2.7500000000000004
# time level 0
# refinement level 0   multigrid level 0   map 0   component 1
# column format: 1:it	2:tl	3:rl 4:c 5:ml	6:ix 7:iy 8:iz	9:time	10:x 11:y 12:z	13:data
# data columns: 13:x 14:y 15:z 16:r
35200	0	0 1 0	321 0 3	2.7500000000000004	0.00078125000000000026 -0.0046875000000000016 0	1.1102230246251565e-16 -0.00390625 8.6736173798840355e-19 0.00390625
35200	0	0 1 0	321 1 3	2.7500000000000004	0.00078125000000000026 -0.003125000000000001 0	1.1102230246251565e-16 -0.00390625 8.6736173798840355e-19 0.00390625
35200	0	0 1 0	321 2 3	2.7500000000000004	0.00078125000000000026 -0.0015625000000000005 0	1.1102230246251565e-16 -0.0025572409012030359 8.6736173798840355e-19 0.0025572409012030359
35200	0	0 1 0	321 3 3	2.7500000000000004	0.00078125000000000026 0 0	1.1102230246251565e-16 8.6736173798840355e-19 8.6736173798840355e-19 1.1102907851931116e-16
35200	0	0 1 0	321 4 3	2.7500000000000004	0.00078125000000000026 0.0015625000000000005 0	1.1102230246251565e-16 0.0025572409012030372 8.6736173798840355e-19 0.0025572409012030372
35200	0	0 1 0	321 5 3	2.7500000000000004	0.00078125000000000026 0.003125000000000001 0	1.1102230246251565e-16 0.0039062500000000009 8.6736173798840355e-19 0.0039062500000000009
35200	0	0 1 0	321 6 3	2.7500000000000004	0.00078125000000000026 0.0046875000000000016 0	1.1102230246251565e-16 0.0039062500000000009 8.6736173798840355e-19 0.0039062500000000009


# iteration 38400   time 3.0000000000000004
# time level 0
# refinement level 0   multigrid level 0   map 0   component 0
# column format: 1:it	2:tl	3:rl 4:c 5:ml	6:ix 7:iy 8:iz	9:time	10:x 11:y 12:z	13:data
# data columns: 13:x 14:y 15:z 16:r
38400	0	0 0 0	321 0 3	3.0000000000000004	0.00078125000000000004 -0.0046875000000000016 0	1.1102230246251565e-16 -0.00390625 8.6736173798840355e-19 0.00390625
38400	0	0 0 0	321 1 3	3.0000000000000004	0.00078125000000000004 -0.003125000000000001 0	1.1102230246251565e-16 -0.00390625 8.6736173798840355e-19 0.00390625
38400	0	0 0 0	321 2 3	3.0000000000000004	0.00078125000000000004 -0.0015625000000000005 0	1.1102230246251565e-16 -0.0025572409012030359 8.6736173798840355e-19 0.0025572409012030359
38400	0	0 0 0	321 3 3	3.0000000000000004	0.00078125000000000004 0 0	1.1102230246251565e-16 8.6736173798840355e-19 8.6736173798840355e-19 1.1102907851931116e-16
38400	0	0 0 0	321 4 3	3.0000000000000004	0.00078125000000000004 0.0015625000000000005 0	1.1102230246251565e-16 0.0025572409012030372 8.6736173798840355e-19 0.0025572409012030372
38400	0	0 0 0	321 5 3	3.0000000000000004	0.00078125000000000004 0.003125000000000001 0	1.1102230246251565e-16 0.0039062500000000009 8.6736173798840355e-19 0.0039062500000000009
38400	0	0 0 0	321 6 3	3.0000000000000004	0.00078125000000000004 0.0046875000000000016 0	1.1102230246251565e-16 0.0039062500000000009 8.6736173798840355e-19 0.0039062500000000009

# iteration 38400   time 3.0000000000000004
# time level 0
# refinement level 0   multigrid level 0   map 0   component 1
# column format: 1:it	2:tl	3:rl 4:c 5:ml	6:ix 7:iy 8:iz	9:time	10:x 11:y 12:z	13:data
# data columns: 13:x 14:y 15:z 16:r
38400	0	0 1 0	321 0 3	3.0000000000000004	0.00078125000000000026 -0.0046875000000000016 0	1.1102230246251565e-16 -0.00390625 8.6736173798840355e-19 0.00390625
38400	0	0 1 0	321 1 3	3.0000000000000004	0.00078125000000000026 -0.003125000000000001 0	1.1102230246251565e-16 -0.00390625 8.6736173798840355e-19 0.00390625
38400	0	0 1 0	321 2 3	3.0000000000000004	0.00078125000000000026 -0.0015625000000000005 0	1.1102230246251565e-16 -0.0025572409012030359 8.6736173798840355e-19 0.0025572409012030359
38400	0	0 1 0	321 3 3	3.0000000000000004	0.00078125000000000026 0 0	1.1102230246251565e-16 8.6736173798840355e-19 8.6736173798840355e-19 1.1102907851931116e-16
38400	0	0 1 0	321 4 3	3.0000000000000004	0.00078125000000000026 0.0015625000000000005 0	1.1102230246251565e-16 0.0025572409012030372 8.6736173798840355e-19 0.0025572409012030372
38400	0	0 1 0	321 5 3	3.0000000000000004	0.00078125000000000026 0.003125000000000001 0	1.1102230246251565e-16 0.0039062500000000009 8.6736173798840355e-19 0.0039062500000000009
38400	0	0 1 0	321 6 3	3.0000000000000004	0.00078125000000000026 0.0046875000000000016 0	1.1102230246251565e-16 0.0039062500000000009 8.6736173798840355e-19 0.0039062500000000009


# iteration 41600   time 3.2500000000000004
# time level 0
# refinement level 0   multigrid level 0   map 0   component 0
# column format: 1:it	2:tl	3:rl 4:c 5:ml	6:ix 7:iy 8:iz	9:time	10:x 11:y 12:z	13:data
# data columns: 13:x 14:y 15:z 16:r
41600	0	0 0 0	321 0 3	3.2500000000000004	0.00078125000000000004 -0.0046875000000000016 0	1.1102230246251565e-16 -0.00390625 8.6736173798840355e-19 0.00390625
41600	0	0 0 0	321 1 3	3.2500000000000004	0.00078125000000000004 -0.003125000000000001 0	1.1102230246251565e-16 -0.00390625 8.6736173798840355e-19 0.00390625
41600	0	0 0 0	321 2 3	3.2500000000000004	0.00078125000000000004 -0.0015625000000000005 0	1.1102230246251565e-16 -0.0025572409012030359 8.6736173798840355e-19 0.0025572409012030359
41600	0	0 0 0	321 3 3	3.2500000000000004	0.00078125000000000004 0 0	1.1102230246251565e-16 8.6736173798840355e-19 8.6736173798840355e-19 1.1102907851931116e-16
41600	0	0 0 0	321 4 3	3.2500000000000004	0.00078125000000000004 0.0015625000000000005 0	1.1102230246251565e-16 0.0025572409012030372 8.6736173798840355e-19 0.0025572409012030372
41600	0	0 0 0	321 5 3	3.2500000000000004	0.00078125000000000004 0.003125000000000001 0	1.1102230246251565e-16 0.0039062500000000009 8.6736173798840355e-19 0.0039062500000000009
41600	0	0 0 0	321 6 3	3.2500000000000004	0.00078125000000000004 0.0046875000000000016 0	1.1102230246251565e-16 0.0039062500000000009 8.6736173798840355e-19 0.0039062500000000009

# iteration 41600   time 3.2500000000000004
# time level 0
# refinement level 0   multigrid level 0   map 0   component 1
# column format: 1:it	2:tl	3:rl 4:c 5:ml	6:ix 7:iy 8:iz	9:time	10:x 11:y 12:z	13:data
# data columns: 13:x 14:y 15:z 16:r
41600	0	0 1 0	321 0 3	3.2500000000000004	0.00078125000000000026 -0.0046875000000000016 0	1.1102230246251565e-16 -0.00390625 8.6736173798840355e-19 0.00390625
41600	0	0 1 0	321 1 3	3.2500000000000004	0.00078125000000000026 -0.003125000000000001 0	1.1102230246251565e-16 -0.00390625 8.6736173798840355e-19 0.00390625
41600	0	0 1 0	321 2 3	3.2500000000000004	0.00078125000000000026 -0.0015625000000000005 0	1.1102230246251565e-16 -0.0025572409012030359 8.6736173798840355e-19 0.0025572409012030359
41600	0	0 1 0	321 3 3	3.2500000000000004	0.00078125000000000026 0 0	1.1102230246251565e-16 8.6736173798840355e-19 8.6736173798840355e-19 1.1102907851931116e-16
41600	0	0 1 0	321 4 3	3.2500000000000004	0.00078125000000000026 0.0015625000000000005 0	1.1102230246251565e-16 0.0025572409012030372 8.6736173798840355e-19 0.0025572409012030372
41600	0	0 1 0	321 5 3	3.2500000000000004	0.00078125000000000026 0.003125000000000001 0	1.1102230246251565e-16 0.0039062500000000009 8.6736173798840355e-19 0.0039062500000000009
41600	0	0 1 0	321 6 3	3.2500000000000004	0.00078125000000000026 0.0046875000000000016 0	1.1102230246251565e-16 0.0039062500000000009 8.6736173798840355e-19 0.0039062500000000009


# iteration 44800   time 3.5000000000000009
# time level 0
# refinement level 0   multigrid level 0   map 0   component 0
# column format: 1:it	2:tl	3:rl 4:c 5:ml	6:ix 7:iy 8:iz	9:time	10:x 11:y 12:z	13:data
# data columns: 13:x 14:y 15:z 16:r
44800	0	0 0 0	321 0 3	3.5000000000000009	0.00078125000000000004 -0.0046875000000000016 0	1.1102230246251565e-16 -0.00390625 8.6736173798840355e-19 0.00390625
44800	0	0 0 0	321 1 3	3.5000000000000009	0.00078125000000000004 -0.003125000000000001 0	1.1102230246251565e-16 -0.00390625 8.6736173798840355e-19 0.00390625
44800	0	0 0 0	321 2 3	3.5000000000000009	0.00078125000000000004 -0.0015625000000000005 0	1.1102230246251565e-16 -0.0025572409012030359 8.6736173798840355e-19 0.0025572409012030359
44800	0	0 0 0	321 3 3	3.5000000000000009	0.00078125000000000004 0 0	1.1102230246251565e-16 8.6736173798840355e-19 8.6736173798840355e-19 1.1102907851931116e-16
44800	0	0 0 0	321 4 3	3.5000000000000009	0.00078125000000000004 0.0015625000000000005 0	1.1102230246251565e-16 0.0025572409012030372 8.6736173798840355e-19 0.0025572409012030372
44800	0	0 0 0	321 5 3	3.5000000000000009	0.00078125000000000004 0.003125000000000001 0	1.1102230246251565e-16 0.0039062500000000009 8.6736173798840355e-19 0.0039062500000000009
44800	0	0 0 0	321 6 3	3.5000000000000009	0.00078125000000000004 0.0046875000000000016 0	1.1102230246251565e-16 0.0039062500000000009 8.6736173798840355e-19 0.0039062500000000009

# iteration 44800   time 3.5000000000000009
# time level 0
# refinement level 0   multigrid level 0   map 0   component 1
# column format: 1:it	2:tl	3:rl 4:c 5:ml	6:ix 7:iy 8:iz	9:time	10:x 11:y 12:z	13:data
# data columns: 13:x 14:y 15:z 16:r
44800	0	0 1 0	321 0 3	3.5000000000000009	0.00078125000000000026 -0.0046875000000000016 0	1.1102230246251565e-16 -0.00390625 8.6736173798840355e-19 0.00390625
44800	0	0 1 0	321 1 3	3.5000000000000009	0.00078125000000000026 -0.003125000000000001 0	1.1102230246251565e-16 -0.00390625 8.6736173798840355e-19 0.00390625
44800	0	0 1 0	321 2 3	3.5000000000000009	0.00078125000000000026 -0.0015625000000000005 0	1.1102230246251565e-16 -0.0025572409012030359 8.6736173798840355e-19 0.0025572409012030359
44800	0	0 1 0	321 3 3	3.5000000000000009	0.00078125000000000026 0 0	1.1102230246251565e-16 8.6736173798840355e-19 8.6736173798840355e-19 1.1102907851931116e-16
44800	0	0 1 0	321 4 3	3.5000000000000009	0.00078125000000000026 0.0015625000000000005 0	1.1102230246251565e-16 0.0025572409012030372 8.6736173798840355e-19 0.0025572409012030372
44800	0	0 1 0	321 5 3	3.5000000000000009	0.00078125000000000026 0.003125000000000001 0	1.1102230246251565e-16 0.0039062500000000009 8.6736173798840355e-19 0.0039062500000000009
44800	0	0 1 0	321 6 3	3.5000000000000009	0.00078125000000000026 0.0046875000000000016 0	1.1102230246251565e-16 0.0039062500000000009 8.6736173798840355e-19 0.0039062500000000009


# iteration 48000   time 3.7500000000000009
# time level 0
# refinement level 0   multigrid level 0   map 0   component 0
# column format: 1:it	2:tl	3:rl 4:c 5:ml	6:ix 7:iy 8:iz	9:time	10:x 11:y 12:z	13:data
# data columns: 13:x 14:y 15:z 16:r
48000	0	0 0 0	321 0 3	3.7500000000000009	0.00078125000000000004 -0.0046875000000000016 0	1.1102230246251565e-16 -0.00390625 8.6736173798840355e-19 0.00390625
48000	0	0 0 0	321 1 3	3.7500000000000009	0.00078125000000000004 -0.003125000000000001 0	1.1102230246251565e-16 -0.00390625 8.6736173798840355e-19 0.00390625
48000	0	0 0 0	321 2 3	3.7500000000000009	0.00078125000000000004 -0.0015625000000000005 0	1.1102230246251565e-16 -0.0025572409012030359 8.6736173798840355e-19 0.0025572409012030359
48000	0	0 0 0	321 3 3	3.7500000000000009	0.00078125000000000004 0 0	1.1102230246251565e-16 8.6736173798840355e-19 8.6736173798840355e-19 1.1102907851931116e-16
48000	0	0 0 0	321 4 3	3.7500000000000009	0.00078125000000000004 0.0015625000000000005 0	1.1102230246251565e-16 0.0025572409012030372 8.6736173798840355e-19 0.0025572409012030372
48000	0	0 0 0	321 5 3	3.7500000000000009	0.00078125000000000004 0.003125000000000001 0	1.1102230246251565e-16 0.0039062500000000009 8.6736173798840355e-19 0.0039062500000000009
48000	0	0 0 0	321 6 3	3.7500000000000009	0.00078125000000000004 0.0046875000000000016 0	1.1102230246251565e-16 0.0039062500000000009 8.6736173798840355e-19 0.0039062500000000009

# iteration 48000   time 3.7500000000000009
# time level 0
# refinement level 0   multigrid level 0   map 0   component 1
# column format: 1:it	2:tl	3:rl 4:c 5:ml	6:ix 7:iy 8:iz	9:time	10:x 11:y 12:z	13:data
# data columns: 13:x 14:y 15:z 16:r
48000	0	0 1 0	321 0 3	3.7500000000000009	0.00078125000000000026 -0.0046875000000000016 0	1.1102230246251565e-16 -0.00390625 8.6736173798840355e-19 0.00390625
48000	0	0 1 0	321 1 3	3.7500000000000009	0.00078125000000000026 -0.003125000000000001 0	1.1102230246251565e-16 -0.00390625 8.6736173798840355e-19 0.00390625
48000	0	0 1 0	321 2 3	3.7500000000000009	0.00078125000000000026 -0.0015625000000000005 0	1.1102230246251565e-16 -0.0025572409012030359 8.6736173798840355e-19 0.0025572409012030359
48000	0	0 1 0	321 3 3	3.7500000000000009	0.00078125000000000026 0 0	1.1102230246251565e-16 8.6736173798840355e-19 8.6736173798840355e-19 1.1102907851931116e-16
48000	0	0 1 0	321 4 3	3.7500000000000009	0.00078125000000000026 0.0015625000000000005 0	1.1102230246251565e-16 0.0025572409012030372 8.6736173798840355e-19 0.0025572409012030372
48000	0	0 1 0	321 5 3	3.7500000000000009	0.00078125000000000026 0.003125000000000001 0	1.1102230246251565e-16 0.0039062500000000009 8.6736173798840355e-19 0.0039062500000000009
48000	0	0 1 0	321 6 3	3.7500000000000009	0.00078125000000000026 0.0046875000000000016 0	1.1102230246251565e-16 0.0039062500000000009 8.6736173798840355e-19 0.0039062500000000009


# iteration 51200   time 4.0000000000000009
# time level 0
# refinement level 0   multigrid level 0   map 0   component 0
# column format: 1:it	2:tl	3:rl 4:c 5:ml	6:ix 7:iy 8:iz	9:time	10:x 11:y 12:z	13:data
# data columns: 13:x 14:y 15:z 16:r
51200	0	0 0 0	321 0 3	4.0000000000000009	0.00078125000000000004 -0.0046875000000000016 0	1.1102230246251565e-16 -0.00390625 8.6736173798840355e-19 0.00390625
51200	0	0 0 0	321 1 3	4.0000000000000009	0.00078125000000000004 -0.003125000000000001 0	1.1102230246251565e-16 -0.00390625 8.6736173798840355e-19 0.00390625
51200	0	0 0 0	321 2 3	4.0000000000000009	0.00078125000000000004 -0.0015625000000000005 0	1.1102230246251565e-16 -0.0025572409012030359 8.6736173798840355e-19 0.0025572409012030359
51200	0	0 0 0	321 3 3	4.0000000000000009	0.00078125000000000004 0 0	1.1102230246251565e-16 8.6736173798840355e-19 8.6736173798840355e-19 1.1102907851931116e-16
51200	0	0 0 0	321 4 3	4.0000000000000009	0.00078125000000000004 0.0015625000000000005 0	1.1102230246251565e-16 0.0025572409012030372 8.6736173798840355e-19 0.0025572409012030372
51200	0	0 0 0	321 5 3	4.0000000000000009	0.00078125000000000004 0.003125000000000001 0	1.1102230246251565e-16 0.0039062500000000009 8.6736173798840355e-19 0.0039062500000000009
51200	0	0 0 0	321 6 3	4.0000000000000009	0.00078125000000000004 0.0046875000000000016 0	1.1102230246251565e-16 0.0039062500000000009 8.6736173798840355e-19 0.0039062500000000009

# iteration 51200   time 4.0000000000000009
# time level 0
# refinement level 0   multigrid level 0   map 0   component 1
# column format: 1:it	2:tl	3:rl 4:c 5:ml	6:ix 7:iy 8:iz	9:time	10:x 11:y 12:z	13:data
# data columns: 13:x 14:y 15:z 16:r
51200	0	0 1 0	321 0 3	4.0000000000000009	0.00078125000000000026 -0.0046875000000000016 0	1.1102230246251565e-16 -0.00390625 8.6736173798840355e-19 0.00390625
51200	0	0 1 0	321 1 3	4.0000000000000009	0.00078125000000000026 -0.003125000000000001 0	1.1102230246251565e-16 -0.00390625 8.6736173798840355e-19 0.00390625
51200	0	0 1 0	321 2 3	4.0000000000000009	0.00078125000000000026 -0.0015625000000000005 0	1.1102230246251565e-16 -0.0025572409012030359 8.6736173798840355e-19 0.0025572409012030359
51200	0	0 1 0	321 3 3	4.0000000000000009	0.00078125000000000026 0 0	1.1102230246251565e-16 8.6736173798840355e-19 8.6736173798840355e-19 1.1102907851931116e-16
51200	0	0 1 0	321 4 3	4.0000000000000009	0.00078125000000000026 0.0015625000000000005 0	1.1102230246251565e-16 0.0025572409012030372 8.6736173798840355e-19 0.0025572409012030372
51200	0	0 1 0	321 5 3	4.0000000000000009	0.00078125000000000026 0.003125000000000001 0	1.1102230246251565e-16 0.0039062500000000009 8.6736173798840355e-19 0.0039062500000000009
51200	0	0 1 0	321 6 3	4.0000000000000009	0.00078125000000000026 0.0046875000000000016 0	1.1102230246251565e-16 0.0039062500000000009 8.6736173798840355e-19 0.0039062500000000009


