# Scalar ASCII output created by CarpetIOScalar
# created on oort1 by jmiller on Nov 11 2015 at 16:42:57-0500
# parameter filename: "/home/jmiller/simulations/wavetoy_so_dg4_sinex_rho_32/output-0000/wavetoy_so_dg4_sinex.par"
# Build ID: build-dgfe2-oort1-jmiller-2015.11.07-16.10.24-25556
# Simulation ID: run-wavetoy_so_dg4_sinex-oort1-jmiller-2015.11.11-21.42.50-3969
# Run ID: run-wavetoy_so_dg4_sinex-oort1-jmiller-2015.11.11-21.42.50-3969
#
# ML_WAVETOY_DG4::rho (ml_wavetoy_dg4-wt_rho)
# 1:iteration 2:time 3:data
# data columns: 3:rho
0 0 4.4428829381583821
32 0.050000000000000003 4.4428829381556989
64 0.10000000000000001 4.4428829381141055
96 0.15000000000000002 4.4428829379491779
128 0.20000000000000001 4.4428829375676759
160 0.25 4.4428829369184486
192 0.30000000000000004 4.4428829360312472
224 0.35000000000000003 4.4428829350267174
256 0.40000000000000002 4.4428829340916911
288 0.45000000000000001 4.4428829334270743
320 0.5 4.4428829331864215
352 0.55000000000000004 4.4428829334270912
384 0.60000000000000009 4.4428829340917124
416 0.65000000000000002 4.4428829350267369
448 0.70000000000000007 4.4428829360312436
480 0.75 4.442882936918422
512 0.80000000000000004 4.4428829375676244
544 0.85000000000000009 4.4428829379491237
576 0.90000000000000002 4.4428829381140593
608 0.95000000000000007 4.442882938155682
640 1 4.4428829381583981
