# Scalar ASCII output created by CarpetIOScalar
# created on oort1 by jmiller on Nov 11 2015 at 16:42:57-0500
# parameter filename: "/home/jmiller/simulations/wavetoy_so_dg4_sinex_rho_32/output-0000/wavetoy_so_dg4_sinex.par"
# Build ID: build-dgfe2-oort1-jmiller-2015.11.07-16.10.24-25556
# Simulation ID: run-wavetoy_so_dg4_sinex-oort1-jmiller-2015.11.11-21.42.50-3969
# Run ID: run-wavetoy_so_dg4_sinex-oort1-jmiller-2015.11.11-21.42.50-3969
#
# ML_WAVETOY_DG4::energy (ml_wavetoy_dg4-wt_energy)
# 1:iteration 2:time 3:data
# data columns: 3:energy
0 0 24.175494745798272
32 0.050000000000000003 24.175494745799146
64 0.10000000000000001 24.175494745849765
96 0.15000000000000002 24.175494746397074
128 0.20000000000000001 24.175494748690692
160 0.25 24.175494754919768
192 0.30000000000000004 24.175494767437034
224 0.35000000000000003 24.175494786484542
256 0.40000000000000002 24.175494809915769
288 0.45000000000000001 24.175494831239973
320 0.5 24.175494842650981
352 0.55000000000000004 24.175494839875864
384 0.60000000000000009 24.175494822036207
416 0.65000000000000002 24.175494801795224
448 0.70000000000000007 24.175494793276528
480 0.75 24.175494817649017
512 0.80000000000000004 24.175494882926216
544 0.85000000000000009 24.175494988596778
576 0.90000000000000002 24.175495110265686
608 0.95000000000000007 24.175495218054447
640 1 24.175495277156461
