# Scalar ASCII output created by CarpetIOScalar
# created on oort1 by jmiller on Nov 11 2015 at 12:42:34-0500
# parameter filename: "/home/jmiller/simulations/wavetoy_so_dg4_sinex_rho_16/output-0001/wavetoy_so_dg4_sinex.par"
# Build ID: build-dgfe2-oort1-jmiller-2015.11.07-16.10.24-25556
# Simulation ID: run-wavetoy_so_dg4_sinex-oort1-jmiller-2015.11.11-17.41.52-7989
# Run ID: run-wavetoy_so_dg4_sinex-oort1-jmiller-2015.11.11-17.41.52-7989
#
# ML_WAVETOY_DG4::urhs (ml_wavetoy_dg4-wt_urhs)
# 1:iteration 2:time 3:data
# data columns: 3:urhs
0 0 4.4428829381583625
16 0.050000000000000003 4.4428829381418575
32 0.10000000000000001 4.4428829356251409
48 0.15000000000000002 4.4428829257811682
64 0.20000000000000001 4.4428829025479493
80 0.25 4.4428828629872577
96 0.30000000000000004 4.4428828087646348
112 0.35000000000000003 4.4428827472951768
128 0.40000000000000002 4.4428826901015608
144 0.45000000000000001 4.4428826493443925
160 0.5 4.4428826346746666
176 0.55000000000000004 4.4428826493405484
192 0.60000000000000009 4.4428826901086307
208 0.65000000000000002 4.4428827472867436
224 0.70000000000000007 4.4428828087756482
240 0.75 4.4428828629755506
256 0.80000000000000004 4.4428829025608909
272 0.85000000000000009 4.4428829257711948
288 0.90000000000000002 4.442882935633869
304 0.95000000000000007 4.4428829381364441
320 1 4.4428829381629535
