# Scalar ASCII output created by CarpetIOScalar
# created on oort1 by jmiller on Nov 11 2015 at 12:42:34-0500
# parameter filename: "/home/jmiller/simulations/wavetoy_so_dg4_sinex_rho_16/output-0001/wavetoy_so_dg4_sinex.par"
# Build ID: build-dgfe2-oort1-jmiller-2015.11.07-16.10.24-25556
# Simulation ID: run-wavetoy_so_dg4_sinex-oort1-jmiller-2015.11.11-17.41.52-7989
# Run ID: run-wavetoy_so_dg4_sinex-oort1-jmiller-2015.11.11-17.41.52-7989
#
# ML_WAVETOY_DG4::rhorhs (ml_wavetoy_dg4-wt_rhorhs)
# 1:iteration 2:time 3:data
# data columns: 3:rhorhs
0 0 27.915457496228338
16 0.050000000000000003 27.915456775823234
32 0.10000000000000001 27.915457270983371
48 0.15000000000000002 27.91545661960275
64 0.20000000000000001 27.915456845767146
80 0.25 27.915456638952175
96 0.30000000000000004 27.915456647388432
112 0.35000000000000003 27.915456997995413
128 0.40000000000000002 27.91545674590947
144 0.45000000000000001 27.915457398974777
160 0.5 27.915456829885695
176 0.55000000000000004 27.915457423692576
192 0.60000000000000009 27.915456698632468
208 0.65000000000000002 27.915457063504217
224 0.70000000000000007 27.915456569361048
240 0.75 27.915456722372809
256 0.80000000000000004 27.915456764202791
272 0.85000000000000009 27.915456691905661
288 0.90000000000000002 27.91545721416658
304 0.95000000000000007 27.915456812085417
320 1 27.915457483521539
