# Scalar ASCII output created by CarpetIOScalar
# created on oort1 by jmiller on Nov 11 2015 at 12:42:34-0500
# parameter filename: "/home/jmiller/simulations/wavetoy_so_dg4_sinex_rho_16/output-0001/wavetoy_so_dg4_sinex.par"
# Build ID: build-dgfe2-oort1-jmiller-2015.11.07-16.10.24-25556
# Simulation ID: run-wavetoy_so_dg4_sinex-oort1-jmiller-2015.11.11-17.41.52-7989
# Run ID: run-wavetoy_so_dg4_sinex-oort1-jmiller-2015.11.11-17.41.52-7989
#
# ML_WAVETOY_DG4::u (ml_wavetoy_dg4-wt_u)
# 1:iteration 2:time 3:data
# data columns: 3:u
0 0 0.7071067811865468
16 0.050000000000000003 0.70710678118896952
32 0.10000000000000001 0.70710678129741988
48 0.15000000000000002 0.70710678170127428
64 0.20000000000000001 0.7071067823943743
80 0.25 0.70710678286848316
96 0.30000000000000004 0.70710678196109689
112 0.35000000000000003 0.70710677798457167
128 0.40000000000000002 0.70710676915915993
144 0.45000000000000001 0.70710675424576075
160 0.5 0.70710673317793371
176 0.55000000000000004 0.70710670746386228
192 0.60000000000000009 0.70710668018679701
208 0.65000000000000002 0.70710665555491814
224 0.70000000000000007 0.70710663809436236
240 0.75 0.70710663169552512
256 0.80000000000000004 0.70710663877308955
272 0.85000000000000009 0.7071066597621567
288 0.90000000000000002 0.7071066930608062
304 0.95000000000000007 0.70710673538835123
320 1 0.7071067824131031
