# Scalar ASCII output created by CarpetIOScalar
# created on nid27428 by miller1 on Feb 25 2016 at 13:17:26-0600
# parameter filename: "/scratch/sciteam/miller1/simulations/trunc_rho_bssn_dg8_gauge_wave_3D_rho_3/output-0000/gauge_wave.par"
# Build ID: build-dgfe2-h2ologin1.ncsa.illinois.edu-miller1-2016.02.08-01.00.23-31758
# Simulation ID: run-gauge_wave-nid27428-miller1-2016.02.25-19.17.18-22305
# Run ID: run-gauge_wave-nid27428-miller1-2016.02.25-19.17.18-22305
#
# ADMBASE::betax (admbase-shift)
# 1:iteration 2:time 3:data
# data columns: 3:betax 4:betay 5:betaz
0 0 0 0 0
510 0.250000000000056 0 0 0
1020 0.500000000000111 0 0 0
1530 0.750000000000167 0 0 0
2040 1.00000000000022 0 0 0
2550 1.25000000000028 0 0 0
3060 1.50000000000033 0 0 0
3570 1.75000000000039 0 0 0
4080 2.00000000000044 0 0 0
4590 2.2500000000005 0 0 0
5100 2.50000000000056 0 0 0
5610 2.75000000000061 0 0 0
6120 3.00000000000067 0 0 0
6630 3.25000000000072 0 0 0
7140 3.50000000000078 0 0 0
7650 3.75000000000083 0 0 0
8160 4.00000000000089 0 0 0
8670 4.25000000000095 0 0 0
9180 4.500000000001 0 0 0
9690 4.75000000000106 0 0 0
10200 5.00000000000111 0 0 0
