# Scalar ASCII output created by CarpetIOScalar
# created on nid27428 by miller1 on Feb 25 2016 at 13:17:26-0600
# parameter filename: "/scratch/sciteam/miller1/simulations/trunc_rho_bssn_dg8_gauge_wave_3D_rho_3/output-0000/gauge_wave.par"
# Build ID: build-dgfe2-h2ologin1.ncsa.illinois.edu-miller1-2016.02.08-01.00.23-31758
# Simulation ID: run-gauge_wave-nid27428-miller1-2016.02.25-19.17.18-22305
# Run ID: run-gauge_wave-nid27428-miller1-2016.02.25-19.17.18-22305
#
# ADMBASE::gxx (admbase-metric)
# 1:iteration 2:time 3:data
# data columns: 3:gxx 4:gxy 5:gxz 6:gyy 7:gyz 8:gzz
0 0 1.00333333333329 0.0033333333333348 0.00333333333331204 1.00333333333338 0.00333333333335295 1.00333333333333
510 0.250000000000056 1.00333332478409 0.00333332476548101 0.00333332476549224 1.00333332478396 0.00333332478017904 1.00333332478398
1020 0.500000000000111 1.00333318035133 0.00333318035154028 0.00333318035147163 1.00333318035149 0.00333318035113472 1.00333318035135
1530 0.750000000000167 1.00333327276697 0.00333327275566629 0.00333327275563075 1.00333327276707 0.0033332727653128 1.00333327276697
2040 1.00000000000022 1.0033333322175 0.00333333222191659 0.00333333222190444 1.00333333221755 0.00333333221777769 1.00333333221745
2550 1.25000000000028 1.00333326397251 0.00333326394918381 0.00333326394916661 1.0033332639726 0.00333326397001494 1.00333326397252
3060 1.50000000000033 1.00333307951209 0.00333307951190098 0.00333307951189821 1.00333307951218 0.00333307950998463 1.00333307951209
3570 1.75000000000039 1.0033333329288 0.00333333293373741 0.00333333293368227 1.00333333292889 0.0033333329291901 1.00333333292882
4080 2.00000000000044 1.00333330605474 0.0033333060548766 0.00333330605490871 1.00333330605471 0.00333330605475877 1.00333330605469
4590 2.2500000000005 1.00333326692201 0.00333326691812669 0.00333326691805595 1.00333326692217 0.00333326691820227 1.00333326692202
5100 2.50000000000056 1.00333333182084 0.00333333181000577 0.00333333180999619 1.00333333182087 0.00333333181767281 1.00333333182081
5610 2.75000000000061 1.00333276246985 0.00333276247061017 0.00333276247058834 1.00333276246983 0.00333276247021116 1.00333276246983
6120 3.00000000000067 1.00333333320294 0.00333333320682705 0.00333333320680552 1.00333333320322 0.00333333320308239 1.00333333320292
6630 3.25000000000072 1.00333332369228 0.00333332367166992 0.00333332367170188 1.00333332369227 0.00333332368922029 1.00333332369224
7140 3.50000000000078 1.00333329624462 0.00333329625019577 0.00333329625016014 1.00333329624472 0.00333329624484028 1.00333329624461
7650 3.75000000000083 1.00333333107779 0.00333333107713142 0.00333333107716379 1.00333333107783 0.00333333107738931 1.0033333310778
8160 4.00000000000089 1.00333321475861 0.00333321477052932 0.00333321477050633 1.00333321475878 0.00333321476008769 1.00333321475867
8670 4.25000000000095 1.00333326995989 0.0033332699390776 0.00333326993905235 1.00333326995998 0.00333326995493175 1.0033332699599
9180 4.500000000001 1.00333331744533 0.00333331746471117 0.00333331746467193 1.00333331744562 0.00333331744750108 1.00333331744552
9690 4.75000000000106 1.00333333313139 0.00333333313661125 0.00333333313662182 1.00333333313165 0.00333333313197906 1.00333333313148
10200 5.00000000000111 1.00333320108186 0.00333320108150047 0.00333320108153548 1.00333320108186 0.00333320108156912 1.00333320108181
